\relax 
\newacro{cbatterie}[\AC@hyperlink{cbatterie}{$C_{BATTERIE}$}]{Kapazit\IeC {\"a}t der Batterie}
\newacro{czelle}[\AC@hyperlink{czelle}{$C_{ZELEL}$}]{Kapazit\IeC {\"a}t der Zelle}
\newacro{izelle}[\AC@hyperlink{izelle}{$I_{ZELLE}$}]{Zellenstrom}
\newacro{nzellenparallel}[\AC@hyperlink{nzellenparallel}{$n_{ZELLEN_{PARALLEL}}$}]{Anzahl an Zellen parallel verschaltet}
\newacro{nzellenrheihe}[\AC@hyperlink{nzellenrheihe}{$n_{ZELLEN_{RHEIHE}}$}]{Anzahl an Zellen in Reihe verschaltet}
\newacro{pbalansing}[\AC@hyperlink{pbalansing}{$P_{BALANCING}$}]{Balancing-Leistung}
\newacro{pwmdelay}[\AC@hyperlink{pwmdelay}{$PWM_{DELAY}$}]{Verz\IeC {\"o}gerung des PWM-Signals}
\newacro{rballancing}[\AC@hyperlink{rballancing}{$R_{BALANCING}$}]{Balancing Widerstand}
\newacro{rzelle}[\AC@hyperlink{rzelle}{$R_{ZELLE}$}]{Innenwiderstand der Zelle}
\newacro{uzelle}[\AC@hyperlink{uzelle}{$U_{ZELLE}$}]{Zellenspannung}
\newacro{uzelleleerlauf}[\AC@hyperlink{uzelleleerlauf}{$U_{ZELLE_{LEERLAUF}}$}]{Leerlaufspannung der Zelle}
\@setckpt{Struktur/formel}{
\setcounter{page}{10}
\setcounter{equation}{0}
\setcounter{enumi}{0}
\setcounter{enumii}{0}
\setcounter{enumiii}{0}
\setcounter{enumiv}{0}
\setcounter{footnote}{0}
\setcounter{mpfootnote}{0}
\setcounter{part}{0}
\setcounter{chapter}{0}
\setcounter{section}{0}
\setcounter{subsection}{0}
\setcounter{subsubsection}{0}
\setcounter{paragraph}{0}
\setcounter{subparagraph}{0}
\setcounter{figure}{0}
\setcounter{table}{0}
\setcounter{lstnumber}{1}
\setcounter{parentequation}{0}
\setcounter{su@anzahl}{0}
\setcounter{LT@tables}{0}
\setcounter{LT@chunks}{0}
\setcounter{caption@flags}{0}
\setcounter{ContinuedFloat}{0}
\setcounter{lstlisting}{0}
}
