\relax 
\newacro{adc}[\AC@hyperlink{adc}{ADC}]{Analog Digital Wandler}
\newacro{api}[\AC@hyperlink{api}{API}]{Application Programming Interface}
\newacro{bcu}[\AC@hyperlink{bcu}{BCU}]{Battery Controller Unit}
\newacro{bms}[\AC@hyperlink{bms}{BMS}]{Battery Management System}
\newacro{cad}[\AC@hyperlink{cad}{CAD}]{Computer-aided Design}
\newacro{can}[\AC@hyperlink{can}{CANbus}]{Controller Area Network}
\newacro{cccv}[\AC@hyperlink{cccv}{CCCV}]{Constant Current/ Constant Voltage}
\newacro{cmd}[\AC@hyperlink{cmd}{CMD}]{Command}
\newacro{co2}[\AC@hyperlink{co2}{CO2}]{Kohlenstoffdioxid}
\newacro{crc}[\AC@hyperlink{crc}{CRC}]{Cyclic Redundanz Check}
\newacro{dc}[\AC@hyperlink{dc}{DC}]{Direct Current}
\newacro{dma}[\AC@hyperlink{dma}{DMA}]{Direct Memory Access}
\newacro{emv}[\AC@hyperlink{emv}{EMV}]{Elektromagnetische Vertr\IeC {\"a}glichkeit}
\newacro{gpio}[\AC@hyperlink{gpio}{GPIO}]{General Purpose Input/ Output}
\newacro{i2c}[\AC@hyperlink{i2c}{I$^2$C}]{Inter-Integrated Circuit}
\newacro{ic}[\AC@hyperlink{ic}{IC}]{Integrated Circuit}
\newacro{io}[\AC@hyperlink{io}{I/O}]{Input/Output}
\newacro{isospi}[\AC@hyperlink{isospi}{isoSPI}]{Isolated SPI}
\newacro{lt}[\AC@hyperlink{lt}{LT}]{Linear Technologie}
\newacro{lfp}[\AC@hyperlink{lfp}{LiFePO\textsubscript  {4}}]{Lithium-Eisenphosphat}
\newacro{lsb}[\AC@hyperlink{lsb}{LSB}]{Least Significant Bit}
\newacro{mcu}[\AC@hyperlink{mcu}{MCU}]{Microcontroller Unit}
\newacro{msb}[\AC@hyperlink{msb}{MSB}]{Most Significant Bit}
\newacro{mux}[\AC@hyperlink{mux}{MUX}]{Multiplexer}
\newacro{ntc}[\AC@hyperlink{ntc}{NTC}]{Negative Temperaturecoefficient Thermistor}
\newacro{op}[\AC@hyperlink{op}{OP}]{Operationsverst\"{a}rker}
\newacro{pcb}[\AC@hyperlink{pcb}{PCB}]{Printed circuit board}
\newacro{pec}[\AC@hyperlink{pec}{PEC}]{Packet Error Code}
\newacro{ptc}[\AC@hyperlink{ptc}{PTC}]{Positive Temperature Coefficient Thermistor}
\newacro{pcu}[\AC@hyperlink{pcu}{PCU}]{Pack Controller Unit}
\newacro{pwm}[\AC@hyperlink{pwm}{PWM}]{Pulse Wide Modulation}
\newacro{rpi}[\AC@hyperlink{rpi}{RPI}]{Raspberry PI}
\newacro{rtc}[\AC@hyperlink{rtc}{RTC}]{Real Time Clock}
\newacro{rw}[\AC@hyperlink{rw}{RW}]{Read / Write}
\newacro{si}[\AC@hyperlink{si}{SI}]{Signal Interface}
\newacro{smd}[\AC@hyperlink{smd}{SMD}]{Surface-mounted device}
\newacro{soc}[\AC@hyperlink{soc}{SOC}]{State of Charge}
\newacro{soh}[\AC@hyperlink{soh}{SOH}]{State of Health}
\newacro{spi}[\AC@hyperlink{spi}{SPI}]{Serial Peripheral Interface}
\newacro{uart}[\AC@hyperlink{uart}{UART}]{Universal Asynchronous Receiver Transmitter}
\newacro{uc}[\AC@hyperlink{uc}{$\mu $C}]{Mikrocontroller}
\newacro{vde}[\AC@hyperlink{vde}{VDE}]{Verband der Elektrotechnik, Elektronik und Informationstechnik}
\newacro{wr}[\AC@hyperlink{wr}{WR}]{Wechselrichter}
\@setckpt{Struktur/Nomenklatur}{
\setcounter{page}{7}
\setcounter{equation}{0}
\setcounter{enumi}{0}
\setcounter{enumii}{0}
\setcounter{enumiii}{0}
\setcounter{enumiv}{0}
\setcounter{footnote}{0}
\setcounter{mpfootnote}{0}
\setcounter{part}{0}
\setcounter{chapter}{0}
\setcounter{section}{0}
\setcounter{subsection}{0}
\setcounter{subsubsection}{0}
\setcounter{paragraph}{0}
\setcounter{subparagraph}{0}
\setcounter{figure}{0}
\setcounter{table}{0}
\setcounter{lstnumber}{1}
\setcounter{parentequation}{0}
\setcounter{su@anzahl}{0}
\setcounter{LT@tables}{0}
\setcounter{LT@chunks}{0}
\setcounter{caption@flags}{0}
\setcounter{ContinuedFloat}{0}
\setcounter{lstlisting}{0}
}
