\relax 
\@writefile{lot}{\contentsline {table}{\numberline {5.2}{\ignorespaces Wahrheitstabelle zu CD74HC4067\relax }}{33}}
\newlabel{Wahrheitstabelle zu CD74HC4067}{{5.2}{33}}
\@setckpt{Struktur/Tabeles_CD74HC4067}{
\setcounter{page}{34}
\setcounter{equation}{0}
\setcounter{enumi}{6}
\setcounter{enumii}{0}
\setcounter{enumiii}{0}
\setcounter{enumiv}{0}
\setcounter{footnote}{0}
\setcounter{mpfootnote}{0}
\setcounter{part}{0}
\setcounter{chapter}{5}
\setcounter{section}{9}
\setcounter{subsection}{0}
\setcounter{subsubsection}{0}
\setcounter{paragraph}{0}
\setcounter{subparagraph}{0}
\setcounter{figure}{8}
\setcounter{table}{2}
\setcounter{caption@flags}{2}
\setcounter{ContinuedFloat}{0}
}
