\relax 
\citation{Weicker2013}
\@writefile{toc}{\contentsline {chapter}{\numberline {2}Einleitung}{12}\protected@file@percent }
\@writefile{lof}{\addvspace {10\p@ }}
\@writefile{lot}{\addvspace {10\p@ }}
\acronymused{lfp}
\acronymused{lfp}
\acronymused{bms}
\acronymused{bms}
\acronymused{bms}
\acronymused{lfp}
\acronymused{lfp}
\@writefile{toc}{\contentsline {section}{\numberline {2.1}\acl {lfp} Eigenschaften}{12}\protected@file@percent }
\newlabel{lipo_anforderungen}{{2.1}{12}}
\citation{PeterKurzweil2018}
\acronymused{lfp}
\acronymused{lfp}
\acronymused{bms}
\acronymused{lfp}
\citation{Symposium2015}
\newlabel{eq. innenwiderstand von die Zelle}{{2.1}{14}}
\AC@undonewlabel{acro:soc}
\newlabel{acro:soc}{{2.1}{14}}
\acronymused{soc}
\AC@undonewlabel{acro:soh}
\newlabel{acro:soh}{{2.1}{14}}
\acronymused{soh}
\@writefile{toc}{\contentsline {section}{\numberline {2.2}Aufgaben und Zielen dieser Arbeit}{14}\protected@file@percent }
\acronymused{pcu}
\acronymused{bcu}
\acronymused{pcu}
\@setckpt{Chapter/Einleitung}{
\setcounter{page}{16}
\setcounter{equation}{1}
\setcounter{enumi}{9}
\setcounter{enumii}{0}
\setcounter{enumiii}{0}
\setcounter{enumiv}{0}
\setcounter{footnote}{0}
\setcounter{mpfootnote}{0}
\setcounter{part}{0}
\setcounter{chapter}{2}
\setcounter{section}{2}
\setcounter{subsection}{0}
\setcounter{subsubsection}{0}
\setcounter{paragraph}{0}
\setcounter{subparagraph}{0}
\setcounter{figure}{0}
\setcounter{table}{0}
}
