\relax 
\citation{2013RheinerKorthauer}
\citation{Weicker2013}
\@writefile{toc}{\contentsline {chapter}{\numberline {1}Einleitung}{12}}
\@writefile{lof}{\addvspace {10\p@ }}
\@writefile{lot}{\addvspace {10\p@ }}
\@writefile{toc}{\contentsline {section}{\numberline {1.1}Marktentwicklung}{12}}
\citation{PeterKurzweil2018}
\citation{2013RheinerKorthauer}
\citation{PeterKurzweil2018}
\acronymused{bms}
\acronymused{bms}
\acronymused{bms}
\acronymused{lfp}
\acronymused{lfp}
\@writefile{toc}{\contentsline {section}{\numberline {1.2}\acl {lfp} Eigenschaften}{13}}
\newlabel{lipo_anforderungen}{{1.2}{13}}
\acronymused{lfp}
\acronymused{lfp}
\citation{2013RheinerKorthauer}
\citation{2013RheinerKorthauer}
\citation{2013RheinerKorthauer}
\newlabel{eq. innenwiderstand von die Zelle}{{1.1}{14}}
\@writefile{toc}{\contentsline {section}{\numberline {1.3}Aufgaben und Ziele dieser Arbeit}{15}}
\acronymused{pcu}
\acronymused{bcu}
\acronymused{pcu}
\@setckpt{Chapter/Einleitung_corr}{
\setcounter{page}{16}
\setcounter{equation}{1}
\setcounter{enumi}{9}
\setcounter{enumii}{0}
\setcounter{enumiii}{0}
\setcounter{enumiv}{0}
\setcounter{footnote}{0}
\setcounter{mpfootnote}{0}
\setcounter{part}{0}
\setcounter{chapter}{1}
\setcounter{section}{3}
\setcounter{subsection}{0}
\setcounter{subsubsection}{0}
\setcounter{paragraph}{0}
\setcounter{subparagraph}{0}
\setcounter{figure}{0}
\setcounter{table}{0}
\setcounter{lstnumber}{1}
\setcounter{parentequation}{0}
\setcounter{su@anzahl}{0}
\setcounter{LT@tables}{0}
\setcounter{LT@chunks}{0}
\setcounter{caption@flags}{0}
\setcounter{ContinuedFloat}{0}
\setcounter{lstlisting}{0}
}
