\relax 
\citation{ltc6811}
\citation{ltc6811}
\citation{ltc6811}
\citation{ltc6811}
\citation{ltc6811}
\citation{ltc6811}
\citation{ltc6811}
\citation{ltc6811}
\@writefile{toc}{\contentsline {chapter}{\numberline {5}Funktionsbeschreibung}{51}}
\@writefile{lof}{\addvspace {10\p@ }}
\@writefile{lot}{\addvspace {10\p@ }}
\acronymused{bms}
\@writefile{toc}{\contentsline {section}{\numberline {5.1}Spannungsmessung}{51}}
\acronymused{lfp}
\acronymused{adc}
\acronymused{adc}
\@writefile{lof}{\contentsline {figure}{\numberline {5.1}{\ignorespaces ADC Spannungsmessaufbau im LTC6811. Entnommen aus \cite  [S. 17]{ltc6811}\relax }}{52}}
\newlabel{ADCConwention}{{5.1}{52}}
\@writefile{lof}{\contentsline {figure}{\numberline {5.2}{\ignorespaces Zeitverteilung bei der Messung aller 12 Zellen; Entnommen aus \cite  [S. 24 Figure 3]{ltc6811}\relax }}{52}}
\newlabel{Measurement_von_ADC}{{5.2}{52}}
\acronymused{adc}
\acronymused{adc}
\acronymused{lt}
\acronymused{ic}
\acronymused{adc}
\acronymused{bcu}
\acronymused{bcu}
\@writefile{lof}{\contentsline {figure}{\numberline {5.3}{\ignorespaces Optimale Verschaltung von 8 Zellen mit LTC6811\relax }}{53}}
\newlabel{Acht_Zellen_Verschaltung}{{5.3}{53}}
\@writefile{lof}{\contentsline {figure}{\numberline {5.4}{\ignorespaces Leerlaufspannungsmessung von 8 Zellen im Batteriepack mithilfe der \ac {pcu}\relax }}{53}}
\acronymused{pcu}
\newlabel{Abb: Spannungsmessung}{{5.4}{53}}
\citation{isa_ivt-s}
\citation{isa_ivt-s}
\citation{isa_ivt-s}
\@writefile{toc}{\contentsline {section}{\numberline {5.2}Strommessung}{54}}
\newlabel{sec. Strommessung}{{5.2}{54}}
\acronymused{bms}
\acronymused{bcu}
\acronymused{bcu}
\acronymused{wr}
\acronymused{bms}
\acronymused{wr}
\acronymused{adc}
\acronymused{can}
\acronymused{bcu}
\@writefile{lof}{\contentsline {figure}{\numberline {5.5}{\ignorespaces Verschaltung der Strom- und Spannungsmessung der Isabellenh\IeC {\"u}tte IVT-S. Entnommen aus \cite  [S. 10]{isa_ivt-s}\relax }}{54}}
\newlabel{abb. isabellen_hutte}{{5.5}{54}}
\citation{ltc6811}
\@writefile{toc}{\contentsline {section}{\numberline {5.3}Temperaturmessung}{55}}
\acronymused{ntc}
\acronymused{ptc}
\acronymused{mux}
\acronymused{gpio}
\acronymused{mux}
\acronymused{i2c}
\acronymused{ic}
\acronymused{i2c}
\acronymused{spi}
\acronymused{mux}
\acronymused{adc}
\acronymused{pcu}
\acronymused{ntc}
\acronymused{i2c}
\acronymused{pcu}
\acronymused{bcu}
\acronymused{ntc}
\acronymused{i2c}
\acronymused{ntc}
\acronymused{mux}
\acronymused{mux}
\acronymused{i2c}
\acronymused{ntc}
\acronymused{ntc}
\acronymused{i2c}
\@writefile{lof}{\contentsline {figure}{\numberline {5.6}{\ignorespaces Temperaturmessung mit 7 \ac {ntc} Sensoren in Verbindung mit dem LTC6811 w\IeC {\"a}hrend Balancing einer Zelle und aller Zellen (Die dargestellte Werte sind auf die Umgebungstemperatur bezogen)\relax }}{56}}
\acronymused{ntc}
\newlabel{abb: Temperaturmessung_ntc}{{5.6}{56}}
\@writefile{lof}{\contentsline {figure}{\numberline {5.7}{\ignorespaces Verteilung von 7 \ac {ntc} Sensoren in der Batterie um \ac {pcu}\relax }}{56}}
\acronymused{ntc}
\acronymused{pcu}
\newlabel{abb: Sensorverteilung}{{5.7}{56}}
\acronymused{i2c}
\citation{Weicker2013}
\citation{ltc6811}
\@writefile{toc}{\contentsline {section}{\numberline {5.4}Balancing}{57}}
\acronymused{soc}
\@writefile{lof}{\contentsline {figure}{\numberline {5.8}{\ignorespaces Vergleich unterschiedlicher Widerstandsauslastungen in Prozent\relax }}{57}}
\newlabel{abb: auslastungsvergleich}{{5.8}{57}}
\@writefile{lof}{\contentsline {figure}{\numberline {5.9}{\ignorespaces Aufbau von einen Balancing Widerstandsarray mit der W\IeC {\"a}rmeleistung von 8W\relax }}{58}}
\newlabel{abb: Res_Array}{{5.9}{58}}
\@writefile{lof}{\contentsline {figure}{\numberline {5.10}{\ignorespaces Balancing Schaltung f\IeC {\"u}r die Zelle 1 (Balancing anderer Zellen ist identisch)\relax }}{58}}
\newlabel{Balancing_Verschaltung}{{5.10}{58}}
\@writefile{lof}{\contentsline {figure}{\numberline {5.11}{\ignorespaces Ladevorgang und Balancing in einem Batteriepack mit 10A, 5A und nach Balancingbeginn mit 1A\relax }}{59}}
\newlabel{Ladavorgang_mit_balancing}{{5.11}{59}}
\@writefile{toc}{\contentsline {subsection}{\numberline {5.4.1}Balancing Feedback}{59}}
\acronymused{gpio}
\acronymused{bcu}
\AC@undonewlabel{acro:op}
\newlabel{acro:op}{{5.4.1}{59}}
\acronymused{op}
\acronymused{gpio}
\acronymused{i2c}
\acronymused{i2c}
\acronymused{io}
\acronymused{mux}
\acronymused{i2c}
\acronymused{bcu}
\acronymused{i2c}
\acronymused{i2c}
\citation{Weicker2013}
\acronymused{gpio}
\@writefile{lof}{\contentsline {figure}{\numberline {5.12}{\ignorespaces Balancing Feedback Schaltung auf \ac {mux} Basis\relax }}{60}}
\acronymused{mux}
\newlabel{Balancing_Feedback}{{5.12}{60}}
\acronymused{gpio}
\acronymused{bcu}
\@writefile{toc}{\contentsline {subsection}{\numberline {5.4.2}Temperatur Management}{60}}
\AC@undonewlabel{acro:pwm}
\newlabel{acro:pwm}{{5.4.2}{60}}
\acronymused{pwm}
\acronymused{pwm}
\acronymused{soc}
\newlabel{PWM_Waemeleistung}{{5.1}{60}}
\citation{ltc6811}
\newlabel{PWM_Anpassung}{{5.2}{61}}
\acronymused{pcu}
\@writefile{toc}{\contentsline {section}{\numberline {5.5}Sicherheitssystem}{62}}
\acronymused{bcu}
\acronymused{mcu}
\acronymused{mcu}
\acronymused{bcu}
\acronymused{can}
\acronymused{uart}
\@writefile{toc}{\contentsline {subsection}{\numberline {5.5.1}Aufbau und Implementierung des Sicherheitssystems}{62}}
\acronymused{mcu}
\acronymused{mcu}
\acronymused{mcu}
\acronymused{bcu}
\acronymused{wr}
\AC@undonewlabel{acro:uart}
\newlabel{acro:uart}{{8}{62}}
\acronymused{uart}
\citation{radlock}
\@writefile{lof}{\contentsline {figure}{\numberline {5.13}{\ignorespaces Sicherheitstestaufbau mit isolierten Stellen\relax }}{63}}
\newlabel{abb: Schematik_vereinfacht}{{5.13}{63}}
\AC@undonewlabel{acro:pcb}
\newlabel{acro:pcb}{{5.5.1}{63}}
\acronymused{pcb}
\acronymused{mcu}
\acronymused{mcu}
\@writefile{lof}{\contentsline {figure}{\numberline {5.14}{\ignorespaces Relais mit einer mechanischer Feedback in der Form einer Schalter welcher in der Relaisgeh\IeC {\"a}use integriert wurde. Bei der Relais schalten, wird der Schalter mechanisch angetrieben.\relax }}{64}}
\newlabel{abb: relais feedback}{{5.14}{64}}
\acronymused{pcb}
\acronymused{mcu}
\acronymused{can}
\@writefile{lof}{\contentsline {figure}{\numberline {5.15}{\ignorespaces Sicherheitstestaufbau f\IeC {\"u}r den Peripherie-Test\relax }}{65}}
\newlabel{abb. sec_platte}{{5.15}{65}}
\@writefile{lof}{\contentsline {figure}{\numberline {5.16}{\ignorespaces Entwickelte Sicherheitssystem-\ac {pcb}\relax }}{65}}
\acronymused{pcb}
\newlabel{abb: Sicherheitssystem foto}{{5.16}{65}}
\@setckpt{Chapter/funktionsbeschreibung}{
\setcounter{page}{66}
\setcounter{equation}{2}
\setcounter{enumi}{8}
\setcounter{enumii}{0}
\setcounter{enumiii}{0}
\setcounter{enumiv}{0}
\setcounter{footnote}{0}
\setcounter{mpfootnote}{0}
\setcounter{part}{0}
\setcounter{chapter}{5}
\setcounter{section}{5}
\setcounter{subsection}{1}
\setcounter{subsubsection}{0}
\setcounter{paragraph}{0}
\setcounter{subparagraph}{0}
\setcounter{figure}{16}
\setcounter{table}{0}
\setcounter{lstnumber}{10}
\setcounter{parentequation}{0}
\setcounter{su@anzahl}{0}
\setcounter{LT@tables}{0}
\setcounter{LT@chunks}{0}
\setcounter{caption@flags}{0}
\setcounter{ContinuedFloat}{0}
\setcounter{lstlisting}{0}
}
