\relax 
\@writefile{toc}{\contentsline {chapter}{\numberline {4}Implementierung}{38}}
\@writefile{lof}{\addvspace {10\p@ }}
\@writefile{lot}{\addvspace {10\p@ }}
\newlabel{Kap: Implementierung}{{4}{38}}
\acronymused{bms}
\acronymused{vde}
\acronymused{bms}
\acronymused{bms}
\acronymused{vde}
\acronymused{bms}
\@writefile{lof}{\contentsline {figure}{\numberline {4.1}{\ignorespaces Anschluss von mehreren verteilten \ac {bms} an ein Master\relax }}{39}}
\acronymused{bms}
\newlabel{abb: dis_semi_dis}{{4.1}{39}}
\acronymused{bms}
\acronymused{bcu}
\acronymused{bms}
\@writefile{toc}{\contentsline {section}{\numberline {4.1}\acl {bms} Entwicklung}{39}}
\acronymused{bms}
\acronymused{pcu}
\acronymused{bcu}
\acronymused{bms}
\acronymused{bms}
\acronymused{pcu}
\acronymused{bcu}
\acronymused{pcu}
\acronymused{pcu}
\acronymused{pcu}
\acronymused{pcu}
\acronymused{bcu}
\acronymused{bcu}
\citation{Weicker2013}
\@writefile{lof}{\contentsline {figure}{\numberline {4.2}{\ignorespaces \ac {pcu}, \ac {bcu} und Sicherheitssystem im gesamten \ac {bms}\relax }}{40}}
\acronymused{pcu}
\acronymused{bcu}
\acronymused{bms}
\newlabel{GessamtStrukturAufbau}{{4.2}{40}}
\acronymused{pcu}
\acronymused{bcu}
\acronymused{pcu}
\acronymused{wr}
\acronymused{bms}
\acronymused{bms}
\acronymused{lfp}
\acronymused{pcu}
\@writefile{lof}{\contentsline {figure}{\numberline {4.3}{\ignorespaces Batterie mit dem integriertem \acf {pcu}\relax }}{41}}
\acronymused{pcu}
\newlabel{abb: batterie front}{{4.3}{41}}
\acronymused{lfp}
\newlabel{gl: batterie kap}{{4.1}{41}}
\newlabel{gl: batterie sp}{{4.2}{41}}
\@writefile{toc}{\contentsline {section}{\numberline {4.2}Zielhardware und eingesetzte Werkzeuge}{41}}
\newlabel{kap: zielhardware}{{4.2}{41}}
\acronymused{bms}
\acronymused{pcu}
\acronymused{bcu}
\acronymused{bcu}
\acronymused{mcu}
\acronymused{mcu}
\acronymused{mcu}
\acronymused{soc}
\acronymused{soh}
\acronymused{bcu}
\acronymused{pcu}
\AC@undonewlabel{acro:ic}
\newlabel{acro:ic}{{4.2}{41}}
\acronymused{ic}
\@writefile{lof}{\contentsline {figure}{\numberline {4.4}{\ignorespaces Topologie des BMS Aufbaus\relax }}{42}}
\newlabel{abb. batteriepack_open}{{4.4}{42}}
\acronymused{bcu}
\acronymused{pcu}
\acronymused{bcu}
\acronymused{bcu}
\acronymused{mcu}
\acronymused{bcu}
\@writefile{toc}{\contentsline {subsection}{\numberline {4.2.1}\acf {bcu}}{42}}
\newlabel{Kap: ST_bcu}{{4.2.1}{42}}
\acronymused{bcu}
\AC@undonewlabel{acro:rpi}
\newlabel{acro:rpi}{{4.2.1}{42}}
\acronymused{rpi}
\acronymused{rpi}
\acronymused{spi}
\acronymused{isospi}
\acronymused{can}
\acronymused{i2c}
\AC@undonewlabel{acro:rtc}
\newlabel{acro:rtc}{{4.2.1}{42}}
\acronymused{rtc}
\AC@undonewlabel{acro:gpio}
\newlabel{acro:gpio}{{4.2.1}{42}}
\acronymused{gpio}
\acronymused{can}
\acronymused{pcu}
\citation{DeviceTrees2018}
\citation{spican2018}
\acronymused{rpi}
\acronymused{rpi}
\acronymused{rtc}
\AC@undonewlabel{acro:i2c}
\newlabel{acro:i2c}{{4.2.1}{43}}
\acronymused{i2c}
\acronymused{rpi}
\acronymused{rtc}
\acronymused{rpi}
\acronymused{rpi}
\AC@undonewlabel{acro:spi}
\newlabel{acro:spi}{{4.2.1}{43}}
\acronymused{spi}
\acronymused{rpi}
\acronymused{rpi}
\acronymused{rpi}
\acronymused{spi}
\acronymused{can}
\acronymused{rpi}
\acronymused{pcu}
\acronymused{spi}
\acronymused{spi}
\acronymused{can}
\acronymused{can}
\acronymused{spi}
\acronymused{spi}
\acronymused{rpi}
\acronymused{rpi}
\acronymused{rpi}
\acronymused{spi}
\acronymused{rpi}
\@writefile{lof}{\contentsline {figure}{\numberline {4.5}{\ignorespaces Adapterdarstellung: (a) \ac {spi} auf \ac {can}, (b): \ac {spi} auf \ac {isospi}, Vorderseite und (c) R\IeC {\"u}ckseite\relax }}{44}}
\acronymused{spi}
\acronymused{can}
\acronymused{spi}
\acronymused{isospi}
\newlabel{abb: CANbusAdapter}{{4.5}{44}}
\citation{Andrea2010}
\citation{ltc6811}
\citation{ltc6811}
\citation{ltc6811}
\citation{ltc6811}
\acronymused{pcu}
\@writefile{toc}{\contentsline {subsection}{\numberline {4.2.2}\acf {pcu}}{45}}
\acronymused{pcu}
\acronymused{ic}
\acronymused{pcu}
\acronymused{ic}
\AC@undonewlabel{acro:io}
\newlabel{acro:io}{{4.2.2}{45}}
\acronymused{io}
\AC@undonewlabel{acro:adc}
\newlabel{acro:adc}{{4.2.2}{45}}
\acronymused{adc}
\AC@undonewlabel{acro:mux}
\newlabel{acro:mux}{{4.2.2}{45}}
\acronymused{mux}
\@writefile{lof}{\contentsline {figure}{\numberline {4.6}{\ignorespaces Schematischer Darstellung von LTC6811. Entnehmen aus der Datenblatt von LTC6811 siehe \cite  [S. 1]{ltc6811}\relax }}{45}}
\newlabel{abb: Typikalltc6811}{{4.6}{45}}
\acronymused{ic}
\acronymused{ic}
\acronymused{lfp}
\acronymused{ic}
\acronymused{bcu}
\acronymused{i2c}
\acronymused{spi}
\acronymused{bcu}
\acronymused{i2c}
\acronymused{spi}
\AC@undonewlabel{acro:ntc}
\newlabel{acro:ntc}{{4.2.2}{45}}
\acronymused{ntc}
\AC@undonewlabel{acro:ptc}
\newlabel{acro:ptc}{{4.2.2}{45}}
\acronymused{ptc}
\acronymused{bcu}
\acronymused{mux}
\acronymused{gpio}
\acronymused{bcu}
\acronymused{mux}
\acronymused{mux}
\acronymused{pcu}
\@writefile{lof}{\contentsline {figure}{\numberline {4.7}{\ignorespaces \ac {pcu}-Darstellung mit den wichtigsten Komponenten\relax }}{46}}
\acronymused{pcu}
\newlabel{abb: pcu}{{4.7}{46}}
\@writefile{toc}{\contentsline {subsection}{\numberline {4.2.3}Sicherheitssystem}{46}}
\acronymused{mcu}
\acronymused{mcu}
\acronymused{gpio}
\acronymused{mcu}
\acronymused{can}
\acronymused{bcu}
\acronymused{mcu}
\acronymused{mcu}
\acronymused{mcu}
\acronymused{bcu}
\acronymused{mcu}
\acronymused{mcu}
\@writefile{lof}{\contentsline {figure}{\numberline {4.8}{\ignorespaces Darstellung des Sicherheitssystems: Leiterplatte mit den wichtigsten Komponenten\relax }}{47}}
\newlabel{abb. sicherheitsboard}{{4.8}{47}}
\acronymused{bms}
\@writefile{toc}{\contentsline {section}{\numberline {4.3}Kommunikation zwischen \ac {bms}-Komponenten}{47}}
\acronymused{bms}
\acronymused{bms}
\acronymused{bms}
\acronymused{pcu}
\acronymused{bcu}
\citation{Weicker2013}
\citation{isospi_Abbildung_3}
\citation{isospi_Abbildung_3}
\citation{ltc6811}
\citation{Weicker2013}
\acronymused{bms}
\acronymused{isospi}
\acronymused{can}
\acronymused{isospi}
\@writefile{toc}{\contentsline {subsection}{\numberline {4.3.1}\ac {isospi} Kommunikationsschnittstelle}{48}}
\acronymused{isospi}
\acronymused{isospi}
\acronymused{isospi}
\acronymused{pcu}
\@writefile{lof}{\contentsline {figure}{\numberline {4.9}{\ignorespaces \ac {isospi} Kommunikation zwischen LTC6811 (\acs {pcu}) und \acs {bcu} \IeC {\"u}ber LTC6820 (\acs {spi} auf \acs {isospi} Adapter). Die Anschl\IeC {\"u}sse IPA, IMA sind die \ac {isospi}-Eing\IeC {\"a}nge, IPB und IMB sind die \ac {isospi}-Ausg\IeC {\"a}nge. Eigene Darstellung in Anlehnung an \cite  [Abbildung: 3]{isospi_Abbildung_3}\relax }}{48}}
\acronymused{isospi}
\acronymused{pcu}
\acronymused{bcu}
\acronymused{spi}
\acronymused{isospi}
\acronymused{isospi}
\acronymused{isospi}
\newlabel{isoSpi_LTC6811}{{4.9}{48}}
\acronymused{pcu}
\acronymused{bcu}
\acronymused{pcu}
\acronymused{pcu}
\acronymused{bcu}
\acronymused{bcu}
\acronymused{pcu}
\acronymused{bcu}
\acronymused{can}
\@writefile{toc}{\contentsline {subsection}{\numberline {4.3.2}\ac {can} Kommunikationsschnittstelle}{49}}
\acronymused{bcu}
\acronymused{can}
\acronymused{can}
\acronymused{can}
\acronymused{bcu}
\acronymused{can}
\acronymused{bcu}
\acronymused{can}
\acronymused{mcu}
\acronymused{can}
\acronymused{can}
\acronymused{can}
\@writefile{lof}{\contentsline {figure}{\numberline {4.10}{\ignorespaces CANbus-Kommunikationslinie mit \ac {bcu}, Sicherheitssystem, Strommesseinheit\relax }}{49}}
\acronymused{bcu}
\newlabel{abb. Canbus_line}{{4.10}{49}}
\acronymused{bcu}
\acronymused{pcu}
\@writefile{toc}{\contentsline {subsection}{\numberline {4.3.3}Daten\IeC {\"u}bertragung zwischen \ac {bcu} und \ac {pcu}}{49}}
\acronymused{bcu}
\acronymused{rpi}
\acronymused{pcu}
\acronymused{spi}
\acronymused{rpi}
\acronymused{spi}
\acronymused{isospi}
\acronymused{pcu}
\acronymused{spi}
\acronymused{isospi}
\AC@undonewlabel{acro:lt}
\newlabel{acro:lt}{{4.3.3}{49}}
\acronymused{lt}
\acronymused{ic}
\acronymused{bcu}
\AC@undonewlabel{acro:cmd}
\newlabel{acro:cmd}{{4.3.3}{49}}
\acronymused{cmd}
\AC@undonewlabel{acro:pec}
\newlabel{acro:pec}{{4.3.3}{49}}
\acronymused{pec}
\acronymused{pcu}
\acronymused{spi}
\acronymused{pcu}
\acronymused{spi}
\citation{ltc6811}
\acronymused{pec}
\acronymused{pec}
\AC@undonewlabel{acro:crc}
\newlabel{acro:crc}{{4.3.3}{50}}
\acronymused{crc}
\acronymused{adc}
\acronymused{adc}
\acronymused{pcu}
\acronymused{pcu}
\acronymused{adc}
\acronymused{pcu}
\acronymused{adc}
\acronymused{adc}
\acronymused{ic}
\acronymused{pcu}
\@writefile{lot}{\contentsline {table}{\numberline {4.1}{\ignorespaces Broadcast Schreibbefehl. Nach diesem Muster wurden die Daten auf die \ac {pcu} \IeC {\"u}bertragen und als Antwort von der \ac {pcu} erhalten\relax }}{50}}
\acronymused{pcu}
\acronymused{pcu}
\newlabel{Datenpaket}{{4.1}{50}}
\@setckpt{Chapter/Implementierung}{
\setcounter{page}{51}
\setcounter{equation}{2}
\setcounter{enumi}{4}
\setcounter{enumii}{0}
\setcounter{enumiii}{0}
\setcounter{enumiv}{0}
\setcounter{footnote}{0}
\setcounter{mpfootnote}{0}
\setcounter{part}{0}
\setcounter{chapter}{4}
\setcounter{section}{3}
\setcounter{subsection}{3}
\setcounter{subsubsection}{0}
\setcounter{paragraph}{0}
\setcounter{subparagraph}{0}
\setcounter{figure}{10}
\setcounter{table}{1}
\setcounter{lstnumber}{10}
\setcounter{parentequation}{0}
\setcounter{su@anzahl}{0}
\setcounter{LT@tables}{0}
\setcounter{LT@chunks}{0}
\setcounter{caption@flags}{2}
\setcounter{ContinuedFloat}{0}
\setcounter{lstlisting}{0}
}
