\relax 
\@writefile{toc}{\contentsline {chapter}{\numberline {3}Stand der Technik}{32}}
\@writefile{lof}{\addvspace {10\p@ }}
\@writefile{lot}{\addvspace {10\p@ }}
\newlabel{Kap: Stand der Technik}{{3}{32}}
\acronymused{bms}
\acronymused{bms}
\acronymused{bms}
\acronymused{bms}
\@writefile{toc}{\contentsline {section}{\numberline {3.1}Zentrales \acs {bms}}{33}}
\newlabel{sec: Centralized_bms}{{3.1}{33}}
\acronymused{bms}
\acronymused{bms}
\acronymused{bms}
\acronymused{bms}
\acronymused{bms}
\@writefile{lof}{\contentsline {figure}{\numberline {3.1}{\ignorespaces Topologie des Zentrales \acs {bms}\relax }}{33}}
\acronymused{bms}
\newlabel{abb: bms_centralized}{{3.1}{33}}
\acronymused{bms}
\@writefile{toc}{\contentsline {section}{\numberline {3.2}Modulares \acs {bms}}{34}}
\newlabel{Modular_bms}{{3.2}{34}}
\acronymused{bms}
\acronymused{bms}
\acronymused{bms}
\@writefile{lof}{\contentsline {figure}{\numberline {3.2}{\ignorespaces Topologie des modularen BMS\relax }}{34}}
\newlabel{abb: bms_modular}{{3.2}{34}}
\citation{Weicker2013}
\@writefile{toc}{\contentsline {section}{\numberline {3.3}Master - Slave oder Semi-Distributed}{35}}
\@writefile{lof}{\contentsline {figure}{\numberline {3.3}{\ignorespaces Topologie des Master - Slave BMS\relax }}{35}}
\newlabel{abb: bms_master_slave}{{3.3}{35}}
\acronymused{bms}
\acronymused{bms}
\@writefile{toc}{\contentsline {section}{\numberline {3.4}Verteiltes \acs {bms} oder Distributed \acs {bms}}{36}}
\newlabel{kap: verteiltes_bms}{{3.4}{36}}
\acronymused{bms}
\acronymused{bcu}
\acronymused{pcu}
\acronymused{pcu}
\acronymused{bcu}
\acronymused{bcu}
\acronymused{bms}
\acronymused{pcu}
\acronymused{bcu}
\acronymused{pcu}
\@writefile{lof}{\contentsline {figure}{\numberline {3.4}{\ignorespaces Topologie des verteilten \acs {bms}\relax }}{36}}
\acronymused{bms}
\newlabel{abb: bms_distributed}{{3.4}{36}}
\acronymused{pcu}
\citation{Andrea2010}
\citation{Weicker2013}
\citation{Weicker2013}
\acronymused{bms}
\@writefile{toc}{\contentsline {section}{\numberline {3.5}Vergleich von aktueller \acf {bms} Konzepte}{37}}
\acronymused{bms}
\@writefile{lot}{\contentsline {table}{\numberline {3.1}{\ignorespaces Vergleich von \ac {bms} Topologie\relax }}{37}}
\acronymused{bms}
\acronymused{emv}
\acronymused{bms}
\acronymused{bms}
\acronymused{bms}
\acronymused{bms}
\newlabel{Vergleich von bms Topologie}{{3.1}{37}}
\acronymused{bms}
\@writefile{toc}{\contentsline {section}{\numberline {3.6}Kommunikation f\IeC {\"u}r die \acf {bms} Komponente}{37}}
\acronymused{mcu}
\acronymused{can}
\acronymused{isospi}
\acronymused{spi}
\acronymused{i2c}
\acronymused{emv}
\@setckpt{Chapter/Stand_der_Technik}{
\setcounter{page}{38}
\setcounter{equation}{0}
\setcounter{enumi}{2}
\setcounter{enumii}{0}
\setcounter{enumiii}{0}
\setcounter{enumiv}{0}
\setcounter{footnote}{0}
\setcounter{mpfootnote}{0}
\setcounter{part}{0}
\setcounter{chapter}{3}
\setcounter{section}{6}
\setcounter{subsection}{0}
\setcounter{subsubsection}{0}
\setcounter{paragraph}{0}
\setcounter{subparagraph}{0}
\setcounter{figure}{4}
\setcounter{table}{1}
\setcounter{lstnumber}{1}
\setcounter{parentequation}{0}
\setcounter{su@anzahl}{0}
\setcounter{LT@tables}{0}
\setcounter{LT@chunks}{0}
\setcounter{caption@flags}{2}
\setcounter{ContinuedFloat}{0}
\setcounter{lstlisting}{0}
}
