\relax 
\citation{DIN}
\citation{Andrea2010}
\citation{Andrea2010}
\citation{2013RheinerKorthauer}
\@writefile{toc}{\contentsline {chapter}{\numberline {2}Theoretische Grundlagen}{16}}
\@writefile{lof}{\addvspace {10\p@ }}
\@writefile{lot}{\addvspace {10\p@ }}
\acronymused{bms}
\@writefile{toc}{\contentsline {section}{\numberline {2.1}\acf {bms} Grundidee}{16}}
\newlabel{Kap: bms_grund_idee}{{2.1}{16}}
\acronymused{bms}
\AC@undonewlabel{acro:vde}
\newlabel{acro:vde}{{2.1}{16}}
\acronymused{vde}
\acronymused{bms}
\acronymused{vde}
\acronymused{vde}
\acronymused{bms}
\acronymused{cccv}
\@writefile{toc}{\contentsline {subsection}{\numberline {2.1.1}\acf {cccv}}{17}}
\newlabel{kap: cccv}{{2.1.1}{17}}
\acronymused{cccv}
\acronymused{cccv}
\@writefile{lof}{\contentsline {figure}{\numberline {2.1}{\ignorespaces W\IeC {\"a}hrend des Ladevorganges: CC-Modus bis zum Erreichen des Ladeschlussspannung, ab dann CV-Modus mit abnehmendem Ladestrom\relax }}{17}}
\providecommand*\caption@xref[2]{\@setref\relax\@undefined{#1}}
\newlabel{img:cccv}{{2.1}{17}}
\acronymused{cccv}
\acronymused{bms}
\acronymused{cccv}
\acronymused{bms}
\acronymused{bms}
\citation{Andrea2010}
\@writefile{toc}{\contentsline {subsection}{\numberline {2.1.2}Regler}{18}}
\@writefile{lof}{\contentsline {figure}{\numberline {2.2}{\ignorespaces (a) Regler \IeC {\"u}ber die Zelle, (b) Eine System Blockdiagramm mit der Regler\relax }}{18}}
\newlabel{abb: Regler}{{2.2}{18}}
\acronymused{bms}
\citation{Andrea2010}
\citation{Andrea2010}
\@writefile{toc}{\contentsline {subsection}{\numberline {2.1.3}Messsystem}{19}}
\newlabel{kap: messsystem}{{2.1.3}{19}}
\AC@undonewlabel{acro:soc}
\newlabel{acro:soc}{{2.1.3}{19}}
\acronymused{soc}
\AC@undonewlabel{acro:soh}
\newlabel{acro:soh}{{2.1.3}{19}}
\acronymused{soh}
\@writefile{lof}{\contentsline {figure}{\numberline {2.3}{\ignorespaces Die Skizze zeigt das Verh\IeC {\"a}ltnis des Messsystems zur Batterie, dem Ladeger\IeC {\"a}t und der Last. Entnommen aus \cite  [Abb.: 2.4]{Andrea2010}\relax }}{19}}
\newlabel{abb: TH_Messustem}{{2.3}{19}}
\citation{Andrea2010}
\citation{Andrea2010}
\citation{Andrea2010}
\citation{Andrea2010}
\@writefile{toc}{\contentsline {subsection}{\numberline {2.1.4}Monitor}{20}}
\newlabel{kap. monitor}{{2.1.4}{20}}
\acronymused{wr}
\acronymused{wr}
\AC@undonewlabel{acro:wr}
\newlabel{acro:wr}{{2.1.4}{20}}
\acronymused{wr}
\@writefile{lof}{\contentsline {figure}{\numberline {2.4}{\ignorespaces Die dargestellte Aufbau Zeigt die Verh\IeC {\"a}ltnis von Monitor zu Batterie, Lade und Last. Entnommen aus \cite  [Abb.: 2.5]{Andrea2010}\relax }}{20}}
\newlabel{abb: Th_Monitor}{{2.4}{20}}
\acronymused{vde}
\acronymused{vde}
\acronymused{bms}
\acronymused{soc}
\acronymused{bms}
\acronymused{wr}
\citation{Andrea2010}
\citation{Andrea2010}
\@writefile{toc}{\contentsline {subsection}{\numberline {2.1.5}Balancer}{21}}
\newlabel{kap: balancer}{{2.1.5}{21}}
\acronymused{lfp}
\acronymused{wr}
\@writefile{lof}{\contentsline {figure}{\numberline {2.5}{\ignorespaces Die Skizze zeigt die Beziehung zwischen der Balancereinheit und dem Batteriesystem. Entnommen aus \cite  [Abb.: 2.6]{Andrea2010}\relax }}{21}}
\newlabel{abb: Th_Balancer}{{2.5}{21}}
\acronymused{bms}
\acronymused{wr}
\citation{Andrea2010}
\citation{Andrea2010}
\@writefile{toc}{\contentsline {subsection}{\numberline {2.1.6}Protektor}{22}}
\newlabel{kap: protektor}{{2.1.6}{22}}
\acronymused{wr}
\acronymused{wr}
\acronymused{vde}
\acronymused{bms}
\@writefile{lof}{\contentsline {figure}{\numberline {2.6}{\ignorespaces Die Skizze zeigt das Verh\IeC {\"a}ltnis des Protektor zum gesamten Batteriesystem. Entnommen aus \cite  [Abb.: 2.7]{Andrea2010}\relax }}{22}}
\newlabel{abb: Th_Protektor}{{2.6}{22}}
\@writefile{toc}{\contentsline {subsection}{\numberline {2.1.7}Funktionalit\IeC {\"a}tsvergleich}{22}}
\newlabel{Kap: Funktionsvergleich}{{2.1.7}{22}}
\acronymused{vde}
\acronymused{bms}
\acronymused{bms}
\acronymused{bms}
\@writefile{toc}{\contentsline {section}{\numberline {2.2}Technologie}{22}}
\acronymused{bms}
\citation{Andrea2010}
\citation{Andrea2010}
\acronymused{bms}
\acronymused{bms}
\@writefile{toc}{\contentsline {subsection}{\numberline {2.2.1}Analog \acl {bms}}{23}}
\acronymused{bms}
\acronymused{bms}
\acronymused{bms}
\acronymused{bms}
\acronymused{bms}
\@writefile{toc}{\contentsline {subsection}{\numberline {2.2.2}Digital \acl {bms}}{23}}
\acronymused{bms}
\acronymused{soc}
\acronymused{soh}
\acronymused{bms}
\acronymused{bms}
\acronymused{soc}
\acronymused{soh}
\acronymused{bms}
\acronymused{bms}
\citation{Andrea2010}
\citation{Andrea2010}
\citation{Weicker2013}
\citation{Andrea2010}
\@writefile{toc}{\contentsline {section}{\numberline {2.3}Balancing}{24}}
\newlabel{kap. Balancing_Th}{{2.3}{24}}
\acronymused{soc}
\@writefile{lof}{\contentsline {figure}{\numberline {2.7}{\ignorespaces Balancing Prozess: (a) nicht ausbalancierte Batterie (b) Top ausbalancierte Batterie. Entnommen aus \cite  [Abb. 3.11]{Andrea2010} \relax }}{24}}
\newlabel{abb:Balancing-Prozess}{{2.7}{24}}
\citation{Weicker2013}
\citation{Weicker2013}
\citation{Weicker2013}
\citation{Weicker2013}
\@writefile{toc}{\contentsline {subsection}{\numberline {2.3.1}Aktives Balancing}{25}}
\newlabel{kap: aktiver balancing}{{2.3.1}{25}}
\@writefile{toc}{\contentsline {subsubsection}{Ladungspumpe}{25}}
\newlabel{kap: ladungspumpe}{{2.3.1}{25}}
\@writefile{lof}{\contentsline {figure}{\numberline {2.8}{\ignorespaces Schematische Verschaltung der Ladungspumpe. Entnommen aus \cite  [Abb. 14.2]{Weicker2013} \relax }}{25}}
\newlabel{abb:Ladungspumpe}{{2.8}{25}}
\citation{Weicker2013}
\citation{Weicker2013}
\@writefile{toc}{\contentsline {subsubsection}{Ladungs\IeC {\"u}bertragung mittels Induktivit\IeC {\"a}t}{26}}
\@writefile{lof}{\contentsline {figure}{\numberline {2.9}{\ignorespaces (a) Lade\IeC {\"u}bertragungsschaltung unidirektional. (b) Lade\IeC {\"u}bertragungsschaltung bidirektional. Entnommen aus \cite  [Abb. 14.3 und 14.4]{Weicker2013}\relax }}{26}}
\newlabel{abb:Ladungspumpe_ind}{{2.9}{26}}
\citation{Weicker2013}
\citation{Weicker2013}
\citation{Weicker2013}
\citation{Andrea2010}
\citation{Andrea2010}
\citation{Andrea2010}
\citation{Andrea2010}
\citation{Weicker2013}
\@writefile{toc}{\contentsline {subsubsection}{Ladungs\IeC {\"u}bertragung mittels Transformator}{27}}
\acronymused{soc}
\acronymused{soc}
\citation{Weicker2013}
\citation{Weicker2013}
\citation{Weicker2013}
\citation{Weicker2013}
\citation{Andrea2010}
\@writefile{lof}{\contentsline {figure}{\numberline {2.10}{\ignorespaces (a) Bidirektionale Lade\IeC {\"u}bertagungssystem mit Transformator, welcher die Energie\IeC {\"u}bertragung zwischen Zelle und Batterie realisiert. (b) Entladung der Batterie mit unterschiedlichen Str\IeC {\"o}men durch aktives Balancing \cite  [Kap. 3.2.4]{Andrea2010}\relax }}{28}}
\newlabel{abb:Aktiverbalancing}{{2.10}{28}}
\@writefile{toc}{\contentsline {subsection}{\numberline {2.3.2}Passives Balancing}{28}}
\newlabel{kap: Passiver Balancing}{{2.3.2}{28}}
\AC@undonewlabel{acro:smd}
\newlabel{acro:smd}{{2.3.2}{28}}
\acronymused{smd}
\citation{Andrea2010}
\@writefile{lof}{\contentsline {figure}{\numberline {2.11}{\ignorespaces Typische passive Balancing Schaltung. Entnommen aus \cite  [Abb. 14,6]{Weicker2013}\relax }}{29}}
\newlabel{abb:Passiverbalancing}{{2.11}{29}}
\@writefile{toc}{\contentsline {subsection}{\numberline {2.3.3}Balancing Zusammenfassung}{29}}
\acronymused{bms}
\acronymused{soc}
\citation{Andrea2010}
\citation{Andrea2010}
\citation{Weicker2013}
\citation{Weicker2013}
\@writefile{toc}{\contentsline {subsubsection}{Top Balancing}{30}}
\newlabel{kap: top balancing}{{2.3.3}{30}}
\@writefile{toc}{\contentsline {subsubsection}{Bottom Balancing}{30}}
\@writefile{toc}{\contentsline {subsubsection}{Continuous Balancing}{30}}
\acronymused{soc}
\@writefile{toc}{\contentsline {section}{\numberline {2.4}Schutz}{30}}
\acronymused{bms}
\acronymused{vde}
\acronymused{wr}
\acronymused{wr}
\acronymused{bms}
\@writefile{lof}{\contentsline {figure}{\numberline {2.12}{\ignorespaces Soft Start oder Precharge Schaltung, die gef\IeC {\"a}hrliche Str\IeC {\"o}me bei der Batterieverbindung mit einer kapazitiven Last verhindert. Angelehnt an \cite  [Abb. 7.2]{Weicker2013}\relax }}{31}}
\newlabel{abb:Softstart}{{2.12}{31}}
\acronymused{bms}
\acronymused{bms}
\@setckpt{Chapter/Theoretische_Grundlagen}{
\setcounter{page}{32}
\setcounter{equation}{0}
\setcounter{enumi}{2}
\setcounter{enumii}{0}
\setcounter{enumiii}{0}
\setcounter{enumiv}{0}
\setcounter{footnote}{0}
\setcounter{mpfootnote}{0}
\setcounter{part}{0}
\setcounter{chapter}{2}
\setcounter{section}{4}
\setcounter{subsection}{0}
\setcounter{subsubsection}{0}
\setcounter{paragraph}{0}
\setcounter{subparagraph}{0}
\setcounter{figure}{12}
\setcounter{table}{0}
\setcounter{lstnumber}{1}
\setcounter{parentequation}{0}
\setcounter{su@anzahl}{0}
\setcounter{LT@tables}{0}
\setcounter{LT@chunks}{0}
\setcounter{caption@flags}{0}
\setcounter{ContinuedFloat}{0}
\setcounter{lstlisting}{0}
}
