\relax 
\@writefile{toc}{\contentsline {chapter}{\numberline {1}Zusammenfassung}{10}\protected@file@percent }
\@writefile{lof}{\addvspace {10\p@ }}
\@writefile{lot}{\addvspace {10\p@ }}
\acronymused{bms}
\AC@undonewlabel{acro:lfp}
\newlabel{acro:lfp}{{1}{10}}
\acronymused{lfp}
\acronymused{bms}
\acronymused{wr}
\acronymused{wr}
\acronymused{lt}
\acronymused{ic}
\AC@undonewlabel{acro:mcu}
\newlabel{acro:mcu}{{1}{10}}
\acronymused{mcu}
\acronymused{pcu}
\acronymused{bcu}
\AC@undonewlabel{acro:wr}
\newlabel{acro:wr}{{1}{10}}
\acronymused{wr}
\acronymused{bms}
\acronymused{pcu}
\@setckpt{Chapter/Zusammenfassung}{
\setcounter{page}{12}
\setcounter{equation}{0}
\setcounter{enumi}{0}
\setcounter{enumii}{0}
\setcounter{enumiii}{0}
\setcounter{enumiv}{0}
\setcounter{footnote}{0}
\setcounter{mpfootnote}{0}
\setcounter{part}{0}
\setcounter{chapter}{1}
\setcounter{section}{0}
\setcounter{subsection}{0}
\setcounter{subsubsection}{0}
\setcounter{paragraph}{0}
\setcounter{subparagraph}{0}
\setcounter{figure}{0}
\setcounter{table}{0}
}
