\relax 
\@writefile{toc}{\contentsline {chapter}{Zusammenfassung}{10}}
\acronymused{bms}
\AC@undonewlabel{acro:lfp}
\newlabel{acro:lfp}{{}{10}}
\acronymused{lfp}
\acronymused{bms}
\AC@undonewlabel{acro:dc}
\newlabel{acro:dc}{{}{10}}
\acronymused{dc}
\acronymused{wr}
\acronymused{wr}
\acronymused{lt}
\acronymused{ic}
\AC@undonewlabel{acro:mcu}
\newlabel{acro:mcu}{{}{10}}
\acronymused{mcu}
\acronymused{pcu}
\acronymused{bcu}
\acronymused{wr}
\acronymused{bms}
\acronymused{pcu}
\@setckpt{Chapter/Zusammenfassung_corr}{
\setcounter{page}{12}
\setcounter{equation}{0}
\setcounter{enumi}{0}
\setcounter{enumii}{0}
\setcounter{enumiii}{0}
\setcounter{enumiv}{0}
\setcounter{footnote}{0}
\setcounter{mpfootnote}{0}
\setcounter{part}{0}
\setcounter{chapter}{0}
\setcounter{section}{0}
\setcounter{subsection}{0}
\setcounter{subsubsection}{0}
\setcounter{paragraph}{0}
\setcounter{subparagraph}{0}
\setcounter{figure}{0}
\setcounter{table}{0}
\setcounter{lstnumber}{1}
\setcounter{parentequation}{0}
\setcounter{su@anzahl}{0}
\setcounter{LT@tables}{0}
\setcounter{LT@chunks}{0}
\setcounter{caption@flags}{0}
\setcounter{ContinuedFloat}{0}
\setcounter{lstlisting}{0}
}
