%!PS-Adobe-3.0 EPSF-3.0
%%Creator: cairo 1.14.8 (http://cairographics.org)
%%CreationDate: Fri Feb 22 08:48:36 2019
%%Pages: 1
%%DocumentData: Clean7Bit
%%LanguageLevel: 2
%%BoundingBox: 0 0 384 384
%%EndComments
%%BeginProlog
save
50 dict begin
/q { gsave } bind def
/Q { grestore } bind def
/cm { 6 array astore concat } bind def
/w { setlinewidth } bind def
/J { setlinecap } bind def
/j { setlinejoin } bind def
/M { setmiterlimit } bind def
/d { setdash } bind def
/m { moveto } bind def
/l { lineto } bind def
/c { curveto } bind def
/h { closepath } bind def
/re { exch dup neg 3 1 roll 5 3 roll moveto 0 rlineto
      0 exch rlineto 0 rlineto closepath } bind def
/S { stroke } bind def
/f { fill } bind def
/f* { eofill } bind def
/n { newpath } bind def
/W { clip } bind def
/W* { eoclip } bind def
/BT { } bind def
/ET { } bind def
/pdfmark where { pop globaldict /?pdfmark /exec load put }
    { globaldict begin /?pdfmark /pop load def /pdfmark
    /cleartomark load def end } ifelse
/BDC { mark 3 1 roll /BDC pdfmark } bind def
/EMC { mark /EMC pdfmark } bind def
/cairo_store_point { /cairo_point_y exch def /cairo_point_x exch def } def
/Tj { show currentpoint cairo_store_point } bind def
/TJ {
  {
    dup
    type /stringtype eq
    { show } { -0.001 mul 0 cairo_font_matrix dtransform rmoveto } ifelse
  } forall
  currentpoint cairo_store_point
} bind def
/cairo_selectfont { cairo_font_matrix aload pop pop pop 0 0 6 array astore
    cairo_font exch selectfont cairo_point_x cairo_point_y moveto } bind def
/Tf { pop /cairo_font exch def /cairo_font_matrix where
      { pop cairo_selectfont } if } bind def
/Td { matrix translate cairo_font_matrix matrix concatmatrix dup
      /cairo_font_matrix exch def dup 4 get exch 5 get cairo_store_point
      /cairo_font where { pop cairo_selectfont } if } bind def
/Tm { 2 copy 8 2 roll 6 array astore /cairo_font_matrix exch def
      cairo_store_point /cairo_font where { pop cairo_selectfont } if } bind def
/g { setgray } bind def
/rg { setrgbcolor } bind def
/d1 { setcachedevice } bind def
%%EndProlog
%%BeginSetup
%%EndSetup
%%Page: 1 1
%%BeginPageSetup
%%PageBoundingBox: 0 0 384 384
%%EndPageSetup
q 0 0 384 384 rectclip q
0.992157 0.74902 0 rg
384 192 m 384 85.961 298.039 0 192 0 c 85.961 0 0 85.961 0 192 c 0 298.039
 85.961 384 192 384 c 298.039 384 384 298.039 384 192 c h
384 192 m f
1 0.568627 0 rg
260.215 304.547 m 195.516 239.848 l 242.961 192.402 l 158.09 107.531 l 
99.684 165.938 l 79.852 146.102 l 138.258 87.695 l 116.289 65.727 l 181.742
 0.273 l 185.141 0.094 188.559 0 192 0 c 294.371 0 378.023 80.121 383.684
 181.078 c h
260.215 304.547 m f
0.611765 0.866667 0.0196078 rg
256.32 136.547 m 191.773 136.863 l 126.75 137.18 l 112.828 160.277 102.703
 191.129 105.234 217.707 c 111.246 287.473 l 123.43 313.262 152.855 328.5
 191.773 328.5 c 230.691 328.5 260.117 313.262 272.297 287.473 c 278.309
 217.707 l 280.84 191.285 270.398 159.488 256.32 136.547 c h
256.32 136.547 m f
0.4 0.733333 0 rg
256.32 136.547 m 191.773 136.863 l 191.773 328.5 l 230.691 328.5 260.117
 313.262 272.297 287.473 c 278.309 217.707 l 280.84 191.285 270.398 159.488
 256.32 136.547 c h
256.32 136.547 m f
0.878431 0.956863 1 rg
175.953 248.871 m 175.953 227.027 158.246 209.32 136.402 209.32 c 114.559
 209.32 96.852 227.027 96.852 248.871 c 96.852 270.715 114.559 288.422 136.402
 288.422 c 158.246 288.422 175.953 270.715 175.953 248.871 c h
175.953 248.871 m f
0.733333 0.862745 1 rg
286.695 248.871 m 286.695 227.027 268.988 209.32 247.145 209.32 c 225.301
 209.32 207.594 227.027 207.594 248.871 c 207.594 270.715 225.301 288.422
 247.145 288.422 c 268.988 288.422 286.695 270.715 286.695 248.871 c h
286.695 248.871 m f
0.341176 0.372549 0.392157 rg
139.652 155.742 m 106.129 130.391 l 134.75 92.531 l 158.918 110.801 l h
139.652 155.742 m f
0.196078 0.223529 0.247059 rg
243.93 154.883 m 224.223 110.289 l 247.73 92.523 l 276.336 130.398 l h
243.93 154.883 m f
0 g
244.641 114.691 m 254.18 127.305 l f
0.733333 0.862745 1 rg
158.773 282.43 m 169.957 271.242 l 114.031 215.316 l 102.848 226.504 l 
h
158.773 282.43 m f
0.603922 0.729412 0.858824 rg
269.512 282.43 m 280.699 271.246 l 224.773 215.32 l 213.586 226.504 l h
269.512 282.43 m f
0.341176 0.372549 0.392157 rg
136.402 201.41 m 110.23 201.41 88.941 222.699 88.941 248.871 c 88.941 275.043
 110.23 296.332 136.402 296.332 c 162.574 296.332 183.863 275.043 183.863
 248.871 c 183.863 222.699 162.574 201.41 136.402 201.41 c h
136.402 280.512 m 118.953 280.512 104.762 266.32 104.762 248.871 c 104.762
 231.422 118.953 217.23 136.402 217.23 c 153.852 217.23 168.043 231.422 
168.043 248.871 c 168.043 266.32 153.852 280.512 136.402 280.512 c h
136.402 280.512 m f
0.196078 0.223529 0.247059 rg
247.145 201.41 m 220.973 201.41 199.684 222.699 199.684 248.871 c 199.684
 275.043 220.973 296.332 247.145 296.332 c 273.316 296.332 294.605 275.043
 294.605 248.871 c 294.605 222.699 273.316 201.41 247.145 201.41 c h
247.145 280.512 m 229.695 280.512 215.504 266.32 215.504 248.871 c 215.504
 231.422 229.695 217.23 247.145 217.23 c 264.594 217.23 278.785 231.422 
278.785 248.871 c 278.785 266.32 264.594 280.512 247.145 280.512 c h
247.145 280.512 m f
0.733333 0.862745 1 rg
239.234 146.039 m 239.234 119.777 218.035 98.578 191.773 98.578 c 165.512
 98.578 144.312 119.777 144.312 146.039 c 144.312 172.301 165.512 193.5 
191.773 193.5 c 218.035 193.5 239.234 172.301 239.234 146.039 c h
239.234 146.039 m f
0.341176 0.372549 0.392157 rg
191.773 201.41 m 161.238 201.41 136.402 176.574 136.402 146.039 c 136.402
 115.508 161.238 90.668 191.773 90.668 c 222.305 90.668 247.145 115.508 
247.145 146.039 c 247.145 176.574 222.305 201.41 191.773 201.41 c h
152.223 146.039 m 152.223 165.184 165.828 181.16 183.863 184.801 c 183.863
 168.348 l 174.688 165.023 168.043 156.324 168.043 146.039 c 168.043 144.617
 168.199 143.191 168.516 141.77 c 154.438 133.699 l 153.172 137.496 152.223
 141.609 152.223 146.039 c h
191.773 106.488 m 180.066 106.488 169.625 111.707 162.348 119.934 c 176.43
 128.004 l 180.539 124.523 185.918 122.309 191.773 122.309 c 197.625 122.309
 203.004 124.523 207.117 128.004 c 221.199 119.934 l 213.922 111.711 203.48
 106.488 191.773 106.488 c h
229.109 133.699 m 215.027 141.77 l 215.344 143.191 215.504 144.617 215.504
 146.039 c 215.504 156.32 208.859 165.023 199.684 168.348 c 199.684 184.797
 l 217.719 181.16 231.324 165.18 231.324 146.039 c 231.324 141.609 230.375
 137.496 229.109 133.699 c h
229.109 133.699 m f
0.603922 0.729412 0.858824 rg
239.234 146.039 m 239.234 119.777 218.035 98.578 191.773 98.578 c 191.773
 193.5 l 218.035 193.5 239.234 172.301 239.234 146.039 c h
239.234 146.039 m f
0.196078 0.223529 0.247059 rg
191.773 201.41 m 191.773 122.309 l 197.625 122.309 203.004 124.523 207.117
 128.004 c 221.199 119.934 l 213.922 111.707 203.48 106.488 191.773 106.488
 c 191.773 90.668 l 222.305 90.668 247.145 115.504 247.145 146.039 c 247.145
 176.57 222.305 201.41 191.773 201.41 c h
229.109 133.699 m 215.027 141.77 l 215.344 143.191 215.504 144.617 215.504
 146.039 c 215.504 156.32 208.859 165.023 199.684 168.348 c 199.684 184.797
 l 217.719 181.16 231.324 165.18 231.324 146.039 c 231.324 141.609 230.375
 137.496 229.109 133.699 c h
229.109 133.699 m f
0.486275 0.513726 0.533333 rg
114.277 67.938 m 76.117 118.418 l 68.215 128.859 70.254 143.723 80.746 
151.648 c 99.664 165.965 l 166.445 77.625 l 147.512 63.309 l 137.043 55.391
 122.191 57.465 114.277 67.938 c h
114.277 67.938 m f
0.341176 0.372549 0.392157 rg
234.953 63.285 m 216.027 77.598 l 282.801 165.93 l 301.727 151.625 l 312.195
 143.711 314.266 128.855 306.352 118.383 c 268.191 67.91 l 260.328 57.5 
245.406 55.383 234.953 63.285 c h
234.953 63.285 m f
Q Q
showpage
%%Trailer
end restore
%%EOF
