%!PS-Adobe-3.0 EPSF-3.0
%%Creator: cairo 1.14.8 (http://cairographics.org)
%%CreationDate: Fri Feb 22 08:48:36 2019
%%Pages: 1
%%DocumentData: Clean7Bit
%%LanguageLevel: 2
%%BoundingBox: 0 0 384 384
%%EndComments
%%BeginProlog
save
50 dict begin
/q { gsave } bind def
/Q { grestore } bind def
/cm { 6 array astore concat } bind def
/w { setlinewidth } bind def
/J { setlinecap } bind def
/j { setlinejoin } bind def
/M { setmiterlimit } bind def
/d { setdash } bind def
/m { moveto } bind def
/l { lineto } bind def
/c { curveto } bind def
/h { closepath } bind def
/re { exch dup neg 3 1 roll 5 3 roll moveto 0 rlineto
      0 exch rlineto 0 rlineto closepath } bind def
/S { stroke } bind def
/f { fill } bind def
/f* { eofill } bind def
/n { newpath } bind def
/W { clip } bind def
/W* { eoclip } bind def
/BT { } bind def
/ET { } bind def
/pdfmark where { pop globaldict /?pdfmark /exec load put }
    { globaldict begin /?pdfmark /pop load def /pdfmark
    /cleartomark load def end } ifelse
/BDC { mark 3 1 roll /BDC pdfmark } bind def
/EMC { mark /EMC pdfmark } bind def
/cairo_store_point { /cairo_point_y exch def /cairo_point_x exch def } def
/Tj { show currentpoint cairo_store_point } bind def
/TJ {
  {
    dup
    type /stringtype eq
    { show } { -0.001 mul 0 cairo_font_matrix dtransform rmoveto } ifelse
  } forall
  currentpoint cairo_store_point
} bind def
/cairo_selectfont { cairo_font_matrix aload pop pop pop 0 0 6 array astore
    cairo_font exch selectfont cairo_point_x cairo_point_y moveto } bind def
/Tf { pop /cairo_font exch def /cairo_font_matrix where
      { pop cairo_selectfont } if } bind def
/Td { matrix translate cairo_font_matrix matrix concatmatrix dup
      /cairo_font_matrix exch def dup 4 get exch 5 get cairo_store_point
      /cairo_font where { pop cairo_selectfont } if } bind def
/Tm { 2 copy 8 2 roll 6 array astore /cairo_font_matrix exch def
      cairo_store_point /cairo_font where { pop cairo_selectfont } if } bind def
/g { setgray } bind def
/rg { setrgbcolor } bind def
/d1 { setcachedevice } bind def
%%EndProlog
%%BeginSetup
%%EndSetup
%%Page: 1 1
%%BeginPageSetup
%%PageBoundingBox: 0 0 384 384
%%EndPageSetup
q 0 0 384 384 rectclip q
0.341176 0.372549 0.392157 rg
384 192 m 384 85.961 298.039 0 192 0 c 85.961 0 0 85.961 0 192 c 0 298.039
 85.961 384 192 384 c 298.039 384 384 298.039 384 192 c h
384 192 m f
0.196078 0.223529 0.247059 rg
383.246 208.961 m 287.965 304.238 l 189 285.562 l 155.09 319.488 l 117.703
 282.102 l 96.02 67.504 l 161.023 2.5 l 171.109 0.863 181.453 0 192 0 c 
298.039 0 384 85.961 384 192 c 384 197.715 383.734 203.371 383.246 208.961
 c h
383.246 208.961 m f
0.992157 0.74902 0 rg
135.777 274.711 m 155.086 289.477 l 155.086 319.5 l 96.023 319.5 l 96.023
 289.477 l 113.062 274.711 l h
135.777 274.711 m f
0.941176 0.219608 0 rg
96.023 289.477 m 96.023 226.492 l 109.18 218.234 l 155.086 256.484 l 155.086
 289.477 l h
96.023 289.477 m f
1 0.392157 0.101961 rg
189.344 304.242 m 96.023 226.43 l 96.023 67.5 l 287.977 67.5 l 287.977 
304.242 l h
251.062 223.031 m 149.477 223.031 l 192 258.469 l 202.629 267.328 l 251.062
 267.328 l h
251.062 223.031 m f
0.941176 0.219608 0 rg
287.977 304.242 m 287.977 67.5 l 192 67.5 l 192 223.031 l 251.062 223.031
 l 251.062 267.328 l 202.629 267.328 l 192 258.469 l 192 304.242 l h
287.977 304.242 m f
0.196078 0.223529 0.247059 rg
213.164 156.094 m 214.656 151.902 214.875 148.102 213.703 143.711 c 212.172
 138 208.504 133.219 203.383 130.262 c 201.121 128.957 198.711 128.254 196.277
 127.809 c 211.754 101 l 218.148 104.691 l 234.047 113.875 243.555 131.02
 243.59 149.426 c 243.605 156.094 l h
213.164 156.094 m f
0.341176 0.372549 0.392157 rg
224.484 190.547 m 208.98 163.379 l 206.027 166.922 202.484 169.727 198.055
 170.91 c 195.988 171.5 194.066 171.648 192 171.648 c 188.309 171.648 184.469
 170.613 181.223 168.695 c 179.008 167.367 177.234 165.594 175.609 163.676
 c 160.105 190.547 l 166.457 194.238 l 174.281 198.816 183.289 201.18 192
 201.18 c 201.008 201.18 210.012 198.816 218.137 194.238 c h
224.484 190.547 m f
173.125 138.359 m 169.922 143.922 169.172 149.02 171.719 156.094 c 140.848
 156.094 l 140.824 143.5 140.488 135.844 147.551 123.602 c 154.641 111.336
 162.027 107.254 172.871 101.02 c 188.344 127.816 l 182.18 128.953 176.504
 132.527 173.125 138.359 c h
173.125 138.359 m f
198.645 153.191 m 197.316 155.551 194.805 156.883 192.297 156.883 c 192.148
 156.883 192.148 156.883 192 156.883 c 190.969 156.883 189.641 156.586 188.605
 155.848 c 185.062 153.781 183.879 149.203 185.945 145.809 c 187.129 143.594
 189.492 142.266 192 142.117 c 193.328 141.969 194.656 142.266 195.988 143.004
 c 199.531 145.07 200.711 149.648 198.645 153.191 c h
198.645 153.191 m f
0.196078 0.223529 0.247059 rg
195.988 143 m 194.656 142.266 193.328 141.969 192 142.117 c 192 156.883
 l 192.148 156.883 192.148 156.883 192.297 156.883 c 194.805 156.883 197.316
 155.555 198.645 153.191 c 200.711 149.648 199.531 145.07 195.988 143 c 
h
195.988 143 m f
198.055 170.91 m 195.988 171.5 194.066 171.648 192 171.648 c 192 201.18
 l 201.008 201.18 210.012 198.816 218.137 194.238 c 224.484 190.547 l 208.98
 163.379 l 206.027 166.922 202.484 169.727 198.055 170.91 c h
198.055 170.91 m f
Q Q
showpage
%%Trailer
end restore
%%EOF
