%!PS-Adobe-3.0 EPSF-3.0
%%Creator: cairo 1.14.8 (http://cairographics.org)
%%CreationDate: Fri Feb 22 08:48:36 2019
%%Pages: 1
%%DocumentData: Clean7Bit
%%LanguageLevel: 2
%%BoundingBox: 0 0 384 384
%%EndComments
%%BeginProlog
save
50 dict begin
/q { gsave } bind def
/Q { grestore } bind def
/cm { 6 array astore concat } bind def
/w { setlinewidth } bind def
/J { setlinecap } bind def
/j { setlinejoin } bind def
/M { setmiterlimit } bind def
/d { setdash } bind def
/m { moveto } bind def
/l { lineto } bind def
/c { curveto } bind def
/h { closepath } bind def
/re { exch dup neg 3 1 roll 5 3 roll moveto 0 rlineto
      0 exch rlineto 0 rlineto closepath } bind def
/S { stroke } bind def
/f { fill } bind def
/f* { eofill } bind def
/n { newpath } bind def
/W { clip } bind def
/W* { eoclip } bind def
/BT { } bind def
/ET { } bind def
/pdfmark where { pop globaldict /?pdfmark /exec load put }
    { globaldict begin /?pdfmark /pop load def /pdfmark
    /cleartomark load def end } ifelse
/BDC { mark 3 1 roll /BDC pdfmark } bind def
/EMC { mark /EMC pdfmark } bind def
/cairo_store_point { /cairo_point_y exch def /cairo_point_x exch def } def
/Tj { show currentpoint cairo_store_point } bind def
/TJ {
  {
    dup
    type /stringtype eq
    { show } { -0.001 mul 0 cairo_font_matrix dtransform rmoveto } ifelse
  } forall
  currentpoint cairo_store_point
} bind def
/cairo_selectfont { cairo_font_matrix aload pop pop pop 0 0 6 array astore
    cairo_font exch selectfont cairo_point_x cairo_point_y moveto } bind def
/Tf { pop /cairo_font exch def /cairo_font_matrix where
      { pop cairo_selectfont } if } bind def
/Td { matrix translate cairo_font_matrix matrix concatmatrix dup
      /cairo_font_matrix exch def dup 4 get exch 5 get cairo_store_point
      /cairo_font where { pop cairo_selectfont } if } bind def
/Tm { 2 copy 8 2 roll 6 array astore /cairo_font_matrix exch def
      cairo_store_point /cairo_font where { pop cairo_selectfont } if } bind def
/g { setgray } bind def
/rg { setrgbcolor } bind def
/d1 { setcachedevice } bind def
%%EndProlog
%%BeginSetup
%%EndSetup
%%Page: 1 1
%%BeginPageSetup
%%PageBoundingBox: 0 0 384 384
%%EndPageSetup
q 0 0 384 384 rectclip q
0.992157 0.74902 0 rg
384 192 m 384 85.961 298.039 0 192 0 c 85.961 0 0 85.961 0 192 c 0 298.039
 85.961 384 192 384 c 298.039 384 384 298.039 384 192 c h
384 192 m f
1 0.568627 0 rg
292.375 292.496 m 255.93 328.941 l 229.68 302.691 l 266.078 266.293 l 76.211
 76.426 l 147.426 5.215 l 161.73 1.812 176.652 0 192 0 c 298.039 0 384 85.961
 384 192 c 384 202.262 383.184 212.336 381.637 222.16 c 301.84 301.957 l
 h
292.375 292.496 m f
0.341176 0.372549 0.392157 rg
213.246 288.121 m 225.395 251.672 l 271.742 288.469 l 255.941 328.973 l
 h
213.246 288.121 m f
0.196078 0.223529 0.247059 rg
288.316 271.895 m 251.52 225.547 l 287.969 213.398 l 328.906 256.008 l 
h
288.316 271.895 m f
0.341176 0.372549 0.392157 rg
262.57 250.641 m 253.816 222.035 l 263.852 169.301 l 221.473 166.848 l 
196.172 196.414 l 173.863 222.57 l 169.059 264.094 l 221.793 254.059 l 251.363
 251.605 l h
262.57 250.641 m f
0.196078 0.223529 0.247059 rg
262.57 250.641 m 253.816 222.035 l 263.852 169.301 l 221.473 166.848 l 
196.172 196.414 l 251.363 251.605 l h
262.57 250.641 m f
0.764706 0.917647 0.129412 rg
169.059 264.094 m 263.852 169.301 l 221.473 114.539 l 218.484 110.91 215.281
 107.281 211.973 103.973 c 194.465 86.465 171.941 75.473 147.391 72.055 
c 112.379 85.934 l 94.871 103.438 l 72.027 147.633 l 75.977 176.773 90.816
 203.141 114.406 221.609 c h
169.059 264.094 m f
0.611765 0.866667 0.0196078 rg
99.035 99.273 m 216.457 216.699 l 263.852 169.301 l 221.473 114.539 l 218.484
 110.91 215.281 107.281 211.973 103.973 c 194.465 86.469 171.941 75.473 
147.391 72.055 c 112.379 85.934 l h
99.035 99.273 m f
0.341176 0.372549 0.392157 rg
152.016 179.461 m 158.672 181.242 165.391 179.766 170.668 176.137 c 178.84
 206.656 l 166.43 209.988 158.188 212.363 144.203 208.621 c 129.828 204.766
 124.199 198.633 115.195 189.594 c 137.664 167.125 l 140.984 174.16 145.734
 177.781 152.016 179.461 c h
152.016 179.461 m f
0.196078 0.223529 0.247059 rg
176.453 170.379 m 177.883 168.309 179.062 166.02 179.75 163.453 c 181.918
 155.352 179.391 147.082 173.855 141.547 c 172.066 139.754 169.867 138.398
 167.512 137.277 c 189.91 114.879 l 195.246 120.238 l 208.539 133.582 213.777
 153.133 208.918 171.262 c 206.965 178.551 l h
176.453 170.379 m f
0.341176 0.372549 0.392157 rg
159.773 135.461 m 151.555 104.613 l 144.188 106.641 l 134.898 109.098 126.68
 113.898 120.277 120.52 c 113.977 126.816 109.066 134.93 106.934 143.898
 c 104.902 151.262 l 135.434 159.375 l 135.328 156.918 135.328 154.359 135.969
 151.793 c 136.926 148.059 138.957 144.535 141.625 141.867 c 143.121 140.371
 144.719 138.984 146.535 138.023 c 150.594 135.676 155.184 135.141 159.773
 135.461 c h
159.773 135.461 m f
155.93 164.926 m 151.875 163.855 149.523 159.59 150.488 155.637 c 150.805
 154.465 151.445 153.398 152.301 152.543 c 154.117 150.516 156.996 149.555
 159.879 150.301 c 163.828 151.262 166.18 155.531 165.109 159.59 c 164.789
 160.977 163.938 162.258 162.977 163.219 c 161.16 164.82 158.492 165.566
 155.93 164.926 c h
155.93 164.926 m f
0.196078 0.223529 0.247059 rg
146.535 138.027 m 150.594 135.676 155.184 135.141 159.773 135.461 c 151.555
 104.613 l 144.188 106.641 l 134.902 109.098 126.684 113.898 120.277 120.52
 c 141.625 141.867 l 143.121 140.375 144.723 138.984 146.535 138.027 c h
146.535 138.027 m f
152.301 152.543 m 162.977 163.219 l 163.938 162.258 164.789 160.977 165.109
 159.586 c 166.18 155.531 163.828 151.262 159.879 150.301 c 156.996 149.555
 154.117 150.516 152.301 152.543 c h
152.301 152.543 m f
0.611765 0.866667 0.0196078 rg
221.793 254.059 m 253.816 222.035 l 317.867 286.082 l 285.84 318.105 l 
h
221.793 254.059 m f
0.4 0.733333 0 rg
253.816 222.031 m 237.805 238.043 l 301.855 302.094 l 317.867 286.082 l
 h
253.816 222.031 m f
0.341176 0.372549 0.392157 rg
76.191 76.434 m 132.871 70.133 121.238 71.094 147.711 71.949 c 71.922 147.738
 l 71.066 122.762 70 133.008 76.191 76.434 c h
76.191 76.434 m f
0.196078 0.223529 0.247059 rg
76.191 76.434 m 109.707 109.949 l 147.711 71.949 l 121.238 71.094 132.871
 70.133 76.191 76.434 c h
76.191 76.434 m f
Q Q
showpage
%%Trailer
end restore
%%EOF
