%!PS-Adobe-3.0 EPSF-3.0
%%Creator: cairo 1.14.8 (http://cairographics.org)
%%CreationDate: Fri Feb 22 08:48:36 2019
%%Pages: 1
%%DocumentData: Clean7Bit
%%LanguageLevel: 2
%%BoundingBox: 0 0 384 384
%%EndComments
%%BeginProlog
save
50 dict begin
/q { gsave } bind def
/Q { grestore } bind def
/cm { 6 array astore concat } bind def
/w { setlinewidth } bind def
/J { setlinecap } bind def
/j { setlinejoin } bind def
/M { setmiterlimit } bind def
/d { setdash } bind def
/m { moveto } bind def
/l { lineto } bind def
/c { curveto } bind def
/h { closepath } bind def
/re { exch dup neg 3 1 roll 5 3 roll moveto 0 rlineto
      0 exch rlineto 0 rlineto closepath } bind def
/S { stroke } bind def
/f { fill } bind def
/f* { eofill } bind def
/n { newpath } bind def
/W { clip } bind def
/W* { eoclip } bind def
/BT { } bind def
/ET { } bind def
/pdfmark where { pop globaldict /?pdfmark /exec load put }
    { globaldict begin /?pdfmark /pop load def /pdfmark
    /cleartomark load def end } ifelse
/BDC { mark 3 1 roll /BDC pdfmark } bind def
/EMC { mark /EMC pdfmark } bind def
/cairo_store_point { /cairo_point_y exch def /cairo_point_x exch def } def
/Tj { show currentpoint cairo_store_point } bind def
/TJ {
  {
    dup
    type /stringtype eq
    { show } { -0.001 mul 0 cairo_font_matrix dtransform rmoveto } ifelse
  } forall
  currentpoint cairo_store_point
} bind def
/cairo_selectfont { cairo_font_matrix aload pop pop pop 0 0 6 array astore
    cairo_font exch selectfont cairo_point_x cairo_point_y moveto } bind def
/Tf { pop /cairo_font exch def /cairo_font_matrix where
      { pop cairo_selectfont } if } bind def
/Td { matrix translate cairo_font_matrix matrix concatmatrix dup
      /cairo_font_matrix exch def dup 4 get exch 5 get cairo_store_point
      /cairo_font where { pop cairo_selectfont } if } bind def
/Tm { 2 copy 8 2 roll 6 array astore /cairo_font_matrix exch def
      cairo_store_point /cairo_font where { pop cairo_selectfont } if } bind def
/g { setgray } bind def
/rg { setrgbcolor } bind def
/d1 { setcachedevice } bind def
%%EndProlog
%%BeginSetup
%%EndSetup
%%Page: 1 1
%%BeginPageSetup
%%PageBoundingBox: 0 0 384 384
%%EndPageSetup
q 0 0 384 384 rectclip q
0.776471 0.443137 0.352941 rg
384 192 m 384 85.961 298.039 0 192 0 c 85.961 0 0 85.961 0 192 c 0 298.039
 85.961 384 192 384 c 298.039 384 384 298.039 384 192 c h
384 192 m f
0.6 0.313726 0.239216 rg
384 192 m 384 202.918 383.074 213.617 381.324 224.039 c 302.832 302.527
 l 238.125 294.75 l 196.125 270.375 l 114.434 307.375 l 75.855 286.125 l
 113.602 198.414 l 85.875 137.625 l 82.102 81.797 l 161.473 2.426 l 171.414
 0.836 181.609 0 192 0 c 298.039 0 384 85.961 384 192 c h
384 192 m f
1 0.568627 0 rg
112.473 187.891 m 100.605 203.73 91.148 219.234 84.344 233.969 c 69.922
 265.223 69.262 289.719 82.5 302.953 c 102.348 322.824 146.48 311.27 197.699
 272.867 c 189.191 261.516 l 146.773 293.309 106.137 306.488 92.531 292.922
 c 84.066 284.453 85.816 264.633 97.23 239.914 c 103.613 226.09 112.566 
211.445 123.836 196.402 c h
112.473 187.891 m f
1 0.392157 0.101961 rg
189.211 111.406 m 197.68 122.797 l 240.285 91.137 279.605 78.559 293.242
 92.211 c 301.691 100.656 299.965 120.406 288.629 145.035 c 282.348 158.668
 273.574 173.09 262.551 187.91 c 273.93 196.379 l 285.551 180.773 294.828
 165.5 301.516 150.969 c 315.863 119.812 316.484 95.383 303.277 82.176 c
 277.168 56.062 220.215 88.371 189.211 111.406 c h
189.211 111.406 m f
0.611765 0.866667 0.0196078 rg
269.66 182.285 m 258.449 190.988 l 292.879 235.305 307.508 277.828 293.242
 292.09 c 284.859 300.461 266.164 299.031 241.902 288.145 c 226.371 281.18
 209.172 270.516 192.152 257.293 c 183.445 268.508 l 201.34 282.406 219.551
 293.676 236.094 301.09 c 266.473 314.723 290.328 315.074 303.277 302.125
 c 323.609 281.789 310.414 234.75 269.66 182.285 c h
269.66 182.285 m f
0.764706 0.917647 0.129412 rg
82.5 81.336 m 61.973 101.863 75.508 149.34 116.988 202.289 c 128.16 193.547
 l 93.09 148.77 78.105 105.797 92.535 91.371 c 100.629 83.277 118.605 84.391
 141.797 94.398 c 158.23 101.488 176.523 112.766 194.707 127.004 c 203.453
 115.832 l 184.328 100.852 164.953 88.938 147.426 81.371 c 126.883 72.504
 98.395 65.461 82.5 81.336 c h
82.5 81.336 m f
0.341176 0.372549 0.392157 rg
92.68 213.289 m 80.941 213.289 71.391 222.836 71.391 234.578 c 71.391 246.316
 80.941 255.867 92.68 255.867 c 104.418 255.867 113.969 246.316 113.969 
234.578 c 113.969 222.84 104.418 213.289 92.68 213.289 c h
92.68 213.289 m f
0.196078 0.223529 0.247059 rg
234.602 270.059 m 222.863 270.059 213.312 279.609 213.312 291.348 c 213.312
 303.086 222.863 312.637 234.602 312.637 c 246.344 312.637 255.891 303.086
 255.891 291.348 c 255.891 279.609 246.344 270.059 234.602 270.059 c h
234.602 270.059 m f
291.371 128.133 m 279.633 128.133 270.086 137.684 270.086 149.422 c 270.086
 161.164 279.633 170.711 291.371 170.711 c 303.113 170.711 312.66 161.164
 312.66 149.422 c 312.66 137.684 303.113 128.133 291.371 128.133 c h
291.371 128.133 m f
0.341176 0.372549 0.392157 rg
149.449 71.363 m 137.711 71.363 128.16 80.914 128.16 92.652 c 128.16 104.391
 137.711 113.941 149.449 113.941 c 161.188 113.941 170.738 104.395 170.738
 92.652 c 170.738 80.914 161.188 71.363 149.449 71.363 c h
149.449 71.363 m f
247.52 247.777 m 232.191 262.961 212.32 270.625 192.309 270.625 c 192.027
 270.625 l 172.109 270.555 152.215 263.031 137.102 247.777 c 106.586 217.402
 106.586 167.871 137.102 137.359 c 152.215 122.246 172.109 114.582 192.027
 114.512 c 192.309 114.512 l 212.32 114.512 232.191 122.172 247.52 137.359
 c 277.891 167.875 277.891 217.402 247.52 247.777 c h
247.52 247.777 m f
0.196078 0.223529 0.247059 rg
247.52 137.359 m 232.191 122.172 212.32 114.512 192.309 114.512 c 192.027
 114.512 l 192.027 270.625 l 192.309 270.625 l 212.32 270.625 232.191 262.961
 247.52 247.777 c 277.891 217.402 277.891 167.875 247.52 137.359 c h
247.52 137.359 m f
1 0.854902 0.176471 rg
237.441 147.438 m 225.379 135.371 209.34 128.703 192.309 128.703 c 192.027
 128.703 l 174.961 128.777 159.035 135.438 147.18 147.438 c 122.199 172.273
 122.199 212.863 147.18 237.699 c 159.035 249.695 174.961 256.359 192.027
 256.434 c 192.309 256.434 l 209.34 256.434 225.379 249.762 237.441 237.699
 c 262.277 212.863 262.277 172.273 237.441 147.438 c h
237.441 147.438 m f
0.992157 0.74902 0 rg
237.441 147.438 m 225.379 135.371 209.34 128.703 192.309 128.703 c 192.027
 128.703 l 192.027 256.434 l 192.309 256.434 l 209.34 256.434 225.379 249.762
 237.441 237.699 c 262.277 212.863 262.277 172.273 237.441 147.438 c h
237.441 147.438 m f
0.196078 0.223529 0.247059 rg
212.371 198.625 m 213.801 194.594 214.012 190.941 212.883 186.719 c 211.414
 181.23 207.887 176.637 202.969 173.797 c 200.793 172.543 198.477 171.863
 196.137 171.438 c 211.016 145.668 l 217.16 149.215 l 232.441 158.043 241.578
 174.523 241.613 192.215 c 241.625 198.621 l 212.371 198.621 l h
212.371 198.625 m f
0.341176 0.372549 0.392157 rg
223.25 231.738 m 208.348 205.625 l 205.508 209.031 202.102 211.727 197.844
 212.863 c 195.859 213.43 194.016 213.574 192.027 213.574 c 188.477 213.574
 184.789 212.578 181.664 210.734 c 179.535 209.457 177.832 207.754 176.273
 205.91 c 161.371 231.738 l 167.473 235.285 l 174.996 239.688 183.652 241.957
 192.027 241.957 c 200.684 241.957 209.34 239.688 217.148 235.285 c h
223.25 231.738 m f
173.883 181.578 m 170.805 186.922 170.086 191.824 172.531 198.625 c 142.859
 198.625 l 142.836 186.52 142.516 179.156 149.305 167.391 c 156.117 155.602
 163.215 151.676 173.641 145.688 c 188.512 171.445 l 182.586 172.535 177.129
 175.969 173.883 181.578 c h
173.883 181.578 m f
198.414 195.832 m 197.133 198.102 194.723 199.379 192.309 199.379 c 192.168
 199.379 192.168 199.379 192.027 199.379 c 191.031 199.379 189.754 199.098
 188.762 198.387 c 185.355 196.398 184.219 192 186.207 188.734 c 187.34 
186.605 189.613 185.332 192.027 185.188 c 193.305 185.047 194.578 185.328
 195.859 186.039 c 199.266 188.027 200.398 192.426 198.414 195.832 c h
198.414 195.832 m f
0.196078 0.223529 0.247059 rg
195.859 186.039 m 194.578 185.332 193.305 185.047 192.027 185.188 c 192.027
 199.379 l 192.168 199.379 192.168 199.379 192.309 199.379 c 194.723 199.379
 197.133 198.102 198.414 195.832 c 200.398 192.426 199.266 188.027 195.859
 186.039 c h
195.859 186.039 m f
197.844 212.863 m 195.859 213.43 194.016 213.574 192.027 213.574 c 192.027
 241.957 l 200.684 241.957 209.34 239.688 217.148 235.285 c 223.25 231.738
 l 208.348 205.625 l 205.508 209.031 202.102 211.727 197.844 212.863 c h
197.844 212.863 m f
Q Q
showpage
%%Trailer
end restore
%%EOF
