%!PS-Adobe-3.0 EPSF-3.0
%%Creator: cairo 1.14.8 (http://cairographics.org)
%%CreationDate: Fri Feb 22 08:48:36 2019
%%Pages: 1
%%DocumentData: Clean7Bit
%%LanguageLevel: 2
%%BoundingBox: 0 0 384 384
%%EndComments
%%BeginProlog
save
50 dict begin
/q { gsave } bind def
/Q { grestore } bind def
/cm { 6 array astore concat } bind def
/w { setlinewidth } bind def
/J { setlinecap } bind def
/j { setlinejoin } bind def
/M { setmiterlimit } bind def
/d { setdash } bind def
/m { moveto } bind def
/l { lineto } bind def
/c { curveto } bind def
/h { closepath } bind def
/re { exch dup neg 3 1 roll 5 3 roll moveto 0 rlineto
      0 exch rlineto 0 rlineto closepath } bind def
/S { stroke } bind def
/f { fill } bind def
/f* { eofill } bind def
/n { newpath } bind def
/W { clip } bind def
/W* { eoclip } bind def
/BT { } bind def
/ET { } bind def
/pdfmark where { pop globaldict /?pdfmark /exec load put }
    { globaldict begin /?pdfmark /pop load def /pdfmark
    /cleartomark load def end } ifelse
/BDC { mark 3 1 roll /BDC pdfmark } bind def
/EMC { mark /EMC pdfmark } bind def
/cairo_store_point { /cairo_point_y exch def /cairo_point_x exch def } def
/Tj { show currentpoint cairo_store_point } bind def
/TJ {
  {
    dup
    type /stringtype eq
    { show } { -0.001 mul 0 cairo_font_matrix dtransform rmoveto } ifelse
  } forall
  currentpoint cairo_store_point
} bind def
/cairo_selectfont { cairo_font_matrix aload pop pop pop 0 0 6 array astore
    cairo_font exch selectfont cairo_point_x cairo_point_y moveto } bind def
/Tf { pop /cairo_font exch def /cairo_font_matrix where
      { pop cairo_selectfont } if } bind def
/Td { matrix translate cairo_font_matrix matrix concatmatrix dup
      /cairo_font_matrix exch def dup 4 get exch 5 get cairo_store_point
      /cairo_font where { pop cairo_selectfont } if } bind def
/Tm { 2 copy 8 2 roll 6 array astore /cairo_font_matrix exch def
      cairo_store_point /cairo_font where { pop cairo_selectfont } if } bind def
/g { setgray } bind def
/rg { setrgbcolor } bind def
/d1 { setcachedevice } bind def
%%EndProlog
%%BeginSetup
%%EndSetup
%%Page: 1 1
%%BeginPageSetup
%%PageBoundingBox: 0 0 384 384
%%EndPageSetup
q 0 0 384 384 rectclip q
0.341176 0.372549 0.392157 rg
384 192 m 384 85.961 298.039 0 192 0 c 85.961 0 0 85.961 0 192 c 0 298.039
 85.961 384 192 384 c 298.039 384 384 298.039 384 192 c h
384 192 m f
0.196078 0.223529 0.247059 rg
292.633 264.953 m 246.902 219.223 l 169.652 296.473 l 93.395 220.215 l 
131.113 182.496 l 117.176 168.559 l 149.012 136.723 l 118.816 106.527 l 
99.816 125.527 l 85.652 111.363 l 104.652 92.363 l 94.832 91.543 l 82.707
 94.668 l 71.035 82.996 l 149.25 4.785 l 162.996 1.656 177.305 0 192 0 c
 292.102 0 374.297 76.609 383.188 174.395 c h
292.633 264.953 m f
1 0.568627 0 rg
224.613 132.062 m 192 117.883 l 159.387 132.062 l 163.641 147.941 164.773
 165.148 163.074 181.598 c 154.848 186.844 l 160.945 195.492 l 158.109 209.387
 l 183.918 211.941 l 183.637 212.082 l 192 211.516 l 225.891 209.391 l 223.055
 195.492 l 232.414 188.117 l 220.926 181.598 l 219.227 165.148 220.359 147.945
 224.613 132.062 c h
224.613 132.062 m f
1 0.392157 0.101961 rg
224.613 132.062 m 192 117.883 l 192 211.516 l 225.891 209.391 l 223.055
 195.492 l 232.414 188.117 l 220.926 181.598 l 219.227 165.148 220.359 147.945
 224.613 132.062 c h
224.613 132.062 m f
0.992157 0.74902 0 rg
279.914 272.203 m 277.789 276.457 275.094 280.43 271.691 283.691 c 264.602
 290.781 255.102 294.609 245.457 295.461 c 233.688 313.469 213.555 325 192
 325 c 170.445 325 150.312 313.469 138.543 295.457 c 128.898 294.609 119.398
 290.781 112.309 283.688 c 107.062 278.441 103.234 271.922 101.25 264.832
 c 91.75 260.008 85.652 250.367 85.652 239.449 c 85.652 223.852 98.414 211.09
 114.012 211.09 c 118.41 211.09 122.805 212.082 126.633 214.066 c 134.289
 211.09 142.797 210.238 150.879 211.941 c 162.367 202.156 176.828 196.91
 192 196.91 c 207.176 196.91 221.637 202.156 233.125 211.941 c 243.898 209.812
 255.242 211.797 264.316 217.613 c 267.012 216.762 269.848 216.477 272.684
 216.477 c 288.281 216.477 301.043 229.098 301.043 244.836 c 301.043 257.883
 292.25 268.941 279.914 272.203 c h
279.914 272.203 m f
1 0.568627 0 rg
301.043 244.836 m 301.043 229.098 288.281 216.477 272.684 216.477 c 269.848
 216.477 267.008 216.762 264.316 217.613 c 255.242 211.797 243.898 209.812
 233.121 211.941 c 221.637 202.156 207.172 196.91 192 196.91 c 192 325 l
 213.555 325 233.688 313.469 245.457 295.457 c 255.098 294.609 264.598 290.781
 271.688 283.688 c 275.09 280.43 277.785 276.457 279.914 272.203 c 292.25
 268.941 301.043 257.883 301.043 244.836 c h
301.043 244.836 m f
1 0.392157 0.101961 rg
184.91 182.73 14.18 -43.012 re f
0.941176 0.219608 0 rg
192 182.73 7.09 -43.012 re f
0.992157 0.74902 0 rg
284.168 139.719 14.18 -14.18 re f
1 0.854902 0.176471 rg
85.652 125.539 14.18 -14.18 re f
0.992157 0.74902 0 rg
284.168 92.219 m 284.168 90.09 l 99.832 90.09 l 99.832 92.219 l 99.832 
110.227 114.152 124.828 132.02 125.539 c 136.984 134.188 146.34 139.719 
156.551 139.719 c 163.215 139.719 169.312 137.309 174.273 133.195 c 179.098
 137.164 185.195 139.719 192 139.719 c 198.805 139.719 204.902 137.164 209.727
 133.195 c 214.688 137.309 220.785 139.719 227.449 139.719 c 237.66 139.719
 247.02 134.188 251.98 125.539 c 269.848 124.828 284.168 110.227 284.168
 92.219 c h
284.168 92.219 m f
1 0.568627 0 rg
284.168 92.219 m 284.168 90.09 l 192 90.09 l 192 139.719 l 198.805 139.719
 204.902 137.168 209.727 133.195 c 214.688 137.309 220.785 139.719 227.449
 139.719 c 237.66 139.719 247.02 134.188 251.98 125.539 c 269.848 124.828
 284.168 110.227 284.168 92.219 c h
284.168 92.219 m f
1 0.854902 0.176471 rg
71 97.18 242 -14.18 re f
0.992157 0.74902 0 rg
192 97.18 121 -14.18 re f
269.988 175.641 m 269.988 162.594 243.613 157.492 220.645 155.648 c 208.875
 154.512 198.098 154.371 192 154.371 c 185.902 154.371 175.125 154.512 163.355
 155.648 c 140.387 157.492 114.012 162.594 114.012 175.641 c 114.012 179.609
 114.012 191.238 160.945 195.492 c 161.371 193.648 l 162.223 189.535 162.789
 185.566 163.215 181.453 c 146.484 180.035 136.699 177.484 131.738 175.641
 c 137.41 173.656 148.328 171.102 163.926 169.828 c 172.008 168.977 181.367
 168.551 192 168.551 c 202.637 168.551 211.996 168.977 220.078 169.828 c
 235.676 171.102 246.594 173.656 252.266 175.641 c 247.305 177.484 237.52
 180.035 220.789 181.453 c 221.211 185.566 221.777 189.535 222.629 193.648
 c 223.055 195.492 l 269.988 191.238 269.988 179.613 269.988 175.641 c h
269.988 175.641 m f
1 0.568627 0 rg
269.988 175.641 m 269.988 162.594 243.613 157.492 220.645 155.648 c 208.875
 154.512 198.098 154.371 192 154.371 c 192 168.551 l 202.637 168.551 211.992
 168.977 220.074 169.828 c 235.676 171.102 246.59 173.656 252.266 175.641
 c 247.301 177.484 237.516 180.035 220.785 181.453 c 221.211 185.566 221.777
 189.535 222.629 193.648 c 223.055 195.492 l 269.988 191.238 269.988 179.613
 269.988 175.641 c h
269.988 175.641 m f
Q Q
showpage
%%Trailer
end restore
%%EOF
