%!PS-Adobe-3.0 EPSF-3.0
%%Creator: cairo 1.14.8 (http://cairographics.org)
%%CreationDate: Fri Feb 22 08:48:36 2019
%%Pages: 1
%%DocumentData: Clean7Bit
%%LanguageLevel: 2
%%BoundingBox: 0 0 384 384
%%EndComments
%%BeginProlog
save
50 dict begin
/q { gsave } bind def
/Q { grestore } bind def
/cm { 6 array astore concat } bind def
/w { setlinewidth } bind def
/J { setlinecap } bind def
/j { setlinejoin } bind def
/M { setmiterlimit } bind def
/d { setdash } bind def
/m { moveto } bind def
/l { lineto } bind def
/c { curveto } bind def
/h { closepath } bind def
/re { exch dup neg 3 1 roll 5 3 roll moveto 0 rlineto
      0 exch rlineto 0 rlineto closepath } bind def
/S { stroke } bind def
/f { fill } bind def
/f* { eofill } bind def
/n { newpath } bind def
/W { clip } bind def
/W* { eoclip } bind def
/BT { } bind def
/ET { } bind def
/pdfmark where { pop globaldict /?pdfmark /exec load put }
    { globaldict begin /?pdfmark /pop load def /pdfmark
    /cleartomark load def end } ifelse
/BDC { mark 3 1 roll /BDC pdfmark } bind def
/EMC { mark /EMC pdfmark } bind def
/cairo_store_point { /cairo_point_y exch def /cairo_point_x exch def } def
/Tj { show currentpoint cairo_store_point } bind def
/TJ {
  {
    dup
    type /stringtype eq
    { show } { -0.001 mul 0 cairo_font_matrix dtransform rmoveto } ifelse
  } forall
  currentpoint cairo_store_point
} bind def
/cairo_selectfont { cairo_font_matrix aload pop pop pop 0 0 6 array astore
    cairo_font exch selectfont cairo_point_x cairo_point_y moveto } bind def
/Tf { pop /cairo_font exch def /cairo_font_matrix where
      { pop cairo_selectfont } if } bind def
/Td { matrix translate cairo_font_matrix matrix concatmatrix dup
      /cairo_font_matrix exch def dup 4 get exch 5 get cairo_store_point
      /cairo_font where { pop cairo_selectfont } if } bind def
/Tm { 2 copy 8 2 roll 6 array astore /cairo_font_matrix exch def
      cairo_store_point /cairo_font where { pop cairo_selectfont } if } bind def
/g { setgray } bind def
/rg { setrgbcolor } bind def
/d1 { setcachedevice } bind def
%%EndProlog
%%BeginSetup
%%EndSetup
%%Page: 1 1
%%BeginPageSetup
%%PageBoundingBox: 0 0 384 384
%%EndPageSetup
q 0 0 384 384 rectclip q
1 0.392157 0.101961 rg
384 192 m 384 85.961 298.039 0 192 0 c 85.961 0 0 85.961 0 192 c 0 298.039
 85.961 384 192 384 c 298.039 384 384 298.039 384 192 c h
384 192 m f
0.941176 0.219608 0 rg
320.328 210.91 m 192.711 83.289 l 197.75 78.25 l 166.75 47.254 l 212.871
 1.133 l 295.594 10.078 362.551 71.555 379.715 151.527 c h
320.328 210.91 m f
0.878431 0.956863 1 rg
217.637 108.203 m 217.637 47.25 l 166.75 47.25 l 166.75 108.371 l 192.195
 108.203 l h
217.637 108.203 m f
0.733333 0.862745 1 rg
192.195 108.203 25.441 -60.953 re f
0.341176 0.372549 0.392157 rg
192.195 336.75 m 63.277 208.961 l 192.195 79.195 l 322.297 208.961 l h
192.195 336.75 m f
0.196078 0.223529 0.247059 rg
322.301 208.961 m 192.195 79.199 l 192.195 336.75 l h
322.301 208.961 m f
1 0.854902 0.176471 rg
298.211 208.961 m 192.195 103.285 l 87.195 208.961 l 192.195 312.832 l 
h
298.211 208.961 m f
0.992157 0.74902 0 rg
298.211 208.961 m 192.195 103.285 l 192.195 312.832 l h
298.211 208.961 m f
0.196078 0.223529 0.247059 rg
216.512 216.879 m 218.223 212.062 218.473 207.695 217.125 202.652 c 215.371
 196.094 211.152 190.602 205.273 187.203 c 202.676 185.707 199.906 184.895
 197.105 184.387 c 214.891 153.586 l 222.234 157.824 l 240.5 168.379 251.418
 188.074 251.461 209.219 c 251.477 216.879 l h
216.512 216.879 m f
0.341176 0.372549 0.392157 rg
229.512 256.457 m 211.703 225.246 l 208.309 229.32 204.238 232.543 199.148
 233.898 c 196.773 234.578 194.57 234.746 192.195 234.746 c 187.953 234.746
 183.543 233.559 179.812 231.355 c 177.266 229.828 175.23 227.793 173.367
 225.586 c 155.555 256.457 l 162.848 260.699 l 171.836 265.957 182.184 268.672
 192.195 268.672 c 202.539 268.672 212.887 265.957 222.219 260.699 c h
229.512 256.457 m f
170.508 196.508 m 166.828 202.895 165.969 208.754 168.895 216.879 c 133.43
 216.879 l 133.402 202.414 133.02 193.613 141.133 179.551 c 149.277 165.461
 157.758 160.77 170.219 153.609 c 187.992 184.398 l 180.91 185.699 174.391
 189.805 170.508 196.508 c h
170.508 196.508 m f
199.828 213.543 m 198.301 216.258 195.418 217.785 192.535 217.785 c 192.363
 217.785 192.363 217.785 192.195 217.785 c 191.008 217.785 189.48 217.445
 188.293 216.598 c 184.223 214.223 182.863 208.961 185.238 205.062 c 186.594
 202.516 189.309 200.992 192.191 200.82 c 193.719 200.652 195.246 200.992
 196.773 201.84 c 200.844 204.215 202.203 209.473 199.828 213.543 c h
199.828 213.543 m f
0.196078 0.223529 0.247059 rg
196.773 201.84 m 195.246 200.992 193.723 200.652 192.195 200.82 c 192.195
 217.785 l 192.363 217.785 192.363 217.785 192.535 217.785 c 195.418 217.785
 198.301 216.258 199.828 213.543 c 202.203 209.473 200.844 204.215 196.773
 201.84 c h
196.773 201.84 m f
199.148 233.898 m 196.773 234.578 194.57 234.746 192.195 234.746 c 192.195
 268.672 l 202.543 268.672 212.887 265.957 222.219 260.699 c 229.512 256.457
 l 211.703 225.246 l 208.309 229.32 204.238 232.543 199.148 233.898 c h
199.148 233.898 m f
Q Q
showpage
%%Trailer
end restore
%%EOF
