%!PS-Adobe-3.0 EPSF-3.0
%%Creator: cairo 1.14.8 (http://cairographics.org)
%%CreationDate: Fri Feb 22 08:48:37 2019
%%Pages: 1
%%DocumentData: Clean7Bit
%%LanguageLevel: 2
%%BoundingBox: 0 0 384 384
%%EndComments
%%BeginProlog
save
50 dict begin
/q { gsave } bind def
/Q { grestore } bind def
/cm { 6 array astore concat } bind def
/w { setlinewidth } bind def
/J { setlinecap } bind def
/j { setlinejoin } bind def
/M { setmiterlimit } bind def
/d { setdash } bind def
/m { moveto } bind def
/l { lineto } bind def
/c { curveto } bind def
/h { closepath } bind def
/re { exch dup neg 3 1 roll 5 3 roll moveto 0 rlineto
      0 exch rlineto 0 rlineto closepath } bind def
/S { stroke } bind def
/f { fill } bind def
/f* { eofill } bind def
/n { newpath } bind def
/W { clip } bind def
/W* { eoclip } bind def
/BT { } bind def
/ET { } bind def
/pdfmark where { pop globaldict /?pdfmark /exec load put }
    { globaldict begin /?pdfmark /pop load def /pdfmark
    /cleartomark load def end } ifelse
/BDC { mark 3 1 roll /BDC pdfmark } bind def
/EMC { mark /EMC pdfmark } bind def
/cairo_store_point { /cairo_point_y exch def /cairo_point_x exch def } def
/Tj { show currentpoint cairo_store_point } bind def
/TJ {
  {
    dup
    type /stringtype eq
    { show } { -0.001 mul 0 cairo_font_matrix dtransform rmoveto } ifelse
  } forall
  currentpoint cairo_store_point
} bind def
/cairo_selectfont { cairo_font_matrix aload pop pop pop 0 0 6 array astore
    cairo_font exch selectfont cairo_point_x cairo_point_y moveto } bind def
/Tf { pop /cairo_font exch def /cairo_font_matrix where
      { pop cairo_selectfont } if } bind def
/Td { matrix translate cairo_font_matrix matrix concatmatrix dup
      /cairo_font_matrix exch def dup 4 get exch 5 get cairo_store_point
      /cairo_font where { pop cairo_selectfont } if } bind def
/Tm { 2 copy 8 2 roll 6 array astore /cairo_font_matrix exch def
      cairo_store_point /cairo_font where { pop cairo_selectfont } if } bind def
/g { setgray } bind def
/rg { setrgbcolor } bind def
/d1 { setcachedevice } bind def
%%EndProlog
%%BeginSetup
%%EndSetup
%%Page: 1 1
%%BeginPageSetup
%%PageBoundingBox: 0 0 384 384
%%EndPageSetup
q 0 0 384 384 rectclip q
0.341176 0.372549 0.392157 rg
384 192 m 384 85.961 298.039 0 192 0 c 85.961 0 0 85.961 0 192 c 0 298.039
 85.961 384 192 384 c 298.039 384 384 298.039 384 192 c h
384 192 m f
0.196078 0.223529 0.247059 rg
198.172 0.109 m 298.988 3.293 380.188 84.195 383.855 184.891 c 286.199 
282.543 l 203.5 316 l 122.5 296 l 78 241 l 69.5 178.5 l 100.969 97.312 l
 h
198.172 0.109 m f
0.878431 0.956863 1 rg
284.18 99.328 m 258.746 73.898 225.301 60.742 192.008 60.59 c 158.406 60.438
 124.652 73.59 98.914 99.328 c 56.773 141.469 48.348 207.465 78.723 258.699
 c 91.977 250.84 l 65.305 205.77 72.648 147.328 109.855 110.27 c 132.516
 87.461 162.262 75.848 192.008 76.004 c 221.293 76.156 250.73 87.766 273.234
 110.27 c 319.629 156.664 319.629 227.258 273.234 273.648 c 251.195 295.844
 221.754 307.918 192.008 308.07 c 171.664 308.227 151.164 302.316 132.668
 291.375 c 124.809 304.629 l 145.77 317.113 168.891 323.641 192.008 323.484
 c 225.762 323.332 259.055 309.715 284.18 284.594 c 336.582 232.188 336.582
 151.734 284.18 99.328 c h
284.18 99.328 m f
1 0.568627 0 rg
192.008 261.32 m 153.785 261.32 122.648 230.184 122.648 191.961 c 122.648
 153.738 153.785 122.602 192.008 122.602 c 230.23 122.602 261.367 153.738
 261.367 191.961 c 261.367 230.184 230.234 261.32 192.008 261.32 c h
192.008 261.32 m f
0.733333 0.862745 1 rg
284.18 99.328 m 258.746 73.898 225.301 60.742 192.008 60.59 c 192.008 76.004
 l 221.293 76.156 250.73 87.77 273.234 110.273 c 319.629 156.664 319.629
 227.258 273.234 273.648 c 251.195 295.844 221.754 307.918 192.008 308.074
 c 192.008 323.484 l 225.762 323.332 259.055 309.719 284.18 284.594 c 336.582
 232.188 336.582 151.734 284.18 99.328 c h
284.18 99.328 m f
1 0.392157 0.101961 rg
261.367 191.961 m 261.367 153.734 230.234 122.602 192.008 122.602 c 192.008
 261.32 l 230.234 261.32 261.367 230.184 261.367 191.961 c h
261.367 191.961 m f
0.611765 0.866667 0.0196078 rg
77.102 251.898 m 62.043 266.941 62.043 291.34 77.102 306.383 c 91.645 320.938
 117.035 320.938 131.59 306.383 c 146.68 291.293 146.629 266.918 131.59 
251.898 c 116.547 236.836 92.148 236.836 77.102 251.898 c h
77.102 251.898 m f
0.341176 0.372549 0.392157 rg
88.227 287.574 30.828 -15.414 re f
230.539 199.668 m 230.539 184.355 l 199.715 184.355 l 199.715 153.426 l
 184.301 153.426 l 184.301 184.355 l 153.477 184.355 l 153.477 199.668 l
 184.301 199.668 l 184.301 230.492 l 199.715 230.492 l 199.715 199.668 l
 h
230.539 199.668 m f
0.196078 0.223529 0.247059 rg
199.715 153.426 m 192.008 153.426 l 192.008 230.492 l 199.715 230.492 l
 199.715 199.668 l 230.539 199.668 l 230.539 184.355 l 199.715 184.355 l
 h
199.715 153.426 m f
Q Q
showpage
%%Trailer
end restore
%%EOF
