%!PS-Adobe-3.0 EPSF-3.0
%%Creator: cairo 1.14.8 (http://cairographics.org)
%%CreationDate: Fri Feb 22 08:48:37 2019
%%Pages: 1
%%DocumentData: Clean7Bit
%%LanguageLevel: 2
%%BoundingBox: 0 0 384 384
%%EndComments
%%BeginProlog
save
50 dict begin
/q { gsave } bind def
/Q { grestore } bind def
/cm { 6 array astore concat } bind def
/w { setlinewidth } bind def
/J { setlinecap } bind def
/j { setlinejoin } bind def
/M { setmiterlimit } bind def
/d { setdash } bind def
/m { moveto } bind def
/l { lineto } bind def
/c { curveto } bind def
/h { closepath } bind def
/re { exch dup neg 3 1 roll 5 3 roll moveto 0 rlineto
      0 exch rlineto 0 rlineto closepath } bind def
/S { stroke } bind def
/f { fill } bind def
/f* { eofill } bind def
/n { newpath } bind def
/W { clip } bind def
/W* { eoclip } bind def
/BT { } bind def
/ET { } bind def
/pdfmark where { pop globaldict /?pdfmark /exec load put }
    { globaldict begin /?pdfmark /pop load def /pdfmark
    /cleartomark load def end } ifelse
/BDC { mark 3 1 roll /BDC pdfmark } bind def
/EMC { mark /EMC pdfmark } bind def
/cairo_store_point { /cairo_point_y exch def /cairo_point_x exch def } def
/Tj { show currentpoint cairo_store_point } bind def
/TJ {
  {
    dup
    type /stringtype eq
    { show } { -0.001 mul 0 cairo_font_matrix dtransform rmoveto } ifelse
  } forall
  currentpoint cairo_store_point
} bind def
/cairo_selectfont { cairo_font_matrix aload pop pop pop 0 0 6 array astore
    cairo_font exch selectfont cairo_point_x cairo_point_y moveto } bind def
/Tf { pop /cairo_font exch def /cairo_font_matrix where
      { pop cairo_selectfont } if } bind def
/Td { matrix translate cairo_font_matrix matrix concatmatrix dup
      /cairo_font_matrix exch def dup 4 get exch 5 get cairo_store_point
      /cairo_font where { pop cairo_selectfont } if } bind def
/Tm { 2 copy 8 2 roll 6 array astore /cairo_font_matrix exch def
      cairo_store_point /cairo_font where { pop cairo_selectfont } if } bind def
/g { setgray } bind def
/rg { setrgbcolor } bind def
/d1 { setcachedevice } bind def
%%EndProlog
%%BeginSetup
%%EndSetup
%%Page: 1 1
%%BeginPageSetup
%%PageBoundingBox: 0 0 384 384
%%EndPageSetup
q 0 0 384 384 rectclip q
0.611765 0.866667 0.0196078 rg
384 192 m 384 85.961 298.039 0 192 0 c 85.961 0 0 85.961 0 192 c 0 298.039
 85.961 384 192 384 c 298.039 384 384 298.039 384 192 c h
384 192 m f
0.4 0.733333 0 rg
383.945 196.402 m 274.273 306.07 l 261.555 293.352 l 231.711 323.195 l 
218.961 310.445 l 189.258 340.148 l 173.18 324.07 l 180 273 l 146.68 306.258
 l 128.336 287.914 l 137.5 190.25 l 98.258 229.055 l 79.914 210.711 l 164.062
 126.562 l 125.23 87.727 l 150.734 62.223 l 142.262 53.75 l 195.957 0.051
 l 300.168 2.16 384 87.285 384 192 c 384 193.473 383.977 194.938 383.945
 196.402 c h
383.945 196.402 m f
1 0.392157 0.101961 rg
142.219 104.719 118.953 -50.98 re f
0.941176 0.219608 0 rg
201.695 104.719 59.477 -50.98 re f
1 0.392157 0.101961 rg
193.199 331.016 m 193.199 337.984 187.418 343.762 180.453 343.762 c 173.484
 343.762 167.707 337.984 167.707 331.016 c 167.707 206.68 l 193.199 206.68
 l h
193.199 331.016 m f
0.941176 0.219608 0 rg
235.68 314.023 m 235.68 320.992 229.902 326.766 222.938 326.766 c 215.969
 326.766 210.191 320.988 210.191 314.023 c 210.191 206.68 l 235.684 206.68
 l 235.684 314.023 l h
235.68 314.023 m f
278.164 198.184 m 278.164 297.027 l 278.164 303.996 272.387 309.773 265.422
 309.773 c 258.453 309.773 252.676 303.996 252.676 297.027 c 252.676 213.246
 l h
278.164 198.184 m f
1 0.392157 0.101961 rg
150.715 218.895 m 150.715 297.027 l 150.715 303.996 144.938 309.773 137.969
 309.773 c 131.004 309.773 125.223 303.996 125.223 297.027 c 125.223 198.184
 l 149.918 218.895 l h
150.715 218.895 m f
1 0.568627 0 rg
278.164 198.184 m 278.164 87.727 l 244.52 87.727 l 201.695 132.078 l 198.465
 135.477 l 159.551 87.727 l 125.227 87.727 l 125.227 137.348 l 72.715 206.852
 l 67.105 214.328 68.637 225.031 76.113 230.641 c 83.59 236.25 94.297 234.719
 99.906 227.242 c 125.223 193.766 l 125.223 198.184 l 125.223 221.633 144.258
 240.668 167.707 240.668 c 235.684 240.668 l 259.133 240.668 278.164 221.633
 278.164 198.184 c h
278.164 198.184 m f
1 0.392157 0.101961 rg
278.164 198.184 m 278.164 87.727 l 244.52 87.727 l 201.695 132.078 l 201.695
 240.668 l 235.684 240.668 l 259.133 240.668 278.164 221.633 278.164 198.184
 c h
278.164 198.184 m f
244.52 147.203 m 244.52 87.727 l 159.551 87.727 l 159.551 147.203 l 159.551
 170.484 178.414 189.516 201.695 189.688 c 201.863 189.688 201.863 189.688
 202.035 189.688 c 225.484 189.688 244.52 170.652 244.52 147.203 c h
244.52 147.203 m f
0.941176 0.219608 0 rg
244.52 147.203 m 244.52 87.727 l 201.695 87.727 l 201.695 189.688 l 201.863
 189.688 201.863 189.688 202.035 189.688 c 225.484 189.688 244.52 170.652
 244.52 147.203 c h
244.52 147.203 m f
Q Q
showpage
%%Trailer
end restore
%%EOF
