%!PS-Adobe-3.0 EPSF-3.0
%%Creator: cairo 1.14.8 (http://cairographics.org)
%%CreationDate: Fri Feb 22 08:48:37 2019
%%Pages: 1
%%DocumentData: Clean7Bit
%%LanguageLevel: 2
%%BoundingBox: 0 0 384 384
%%EndComments
%%BeginProlog
save
50 dict begin
/q { gsave } bind def
/Q { grestore } bind def
/cm { 6 array astore concat } bind def
/w { setlinewidth } bind def
/J { setlinecap } bind def
/j { setlinejoin } bind def
/M { setmiterlimit } bind def
/d { setdash } bind def
/m { moveto } bind def
/l { lineto } bind def
/c { curveto } bind def
/h { closepath } bind def
/re { exch dup neg 3 1 roll 5 3 roll moveto 0 rlineto
      0 exch rlineto 0 rlineto closepath } bind def
/S { stroke } bind def
/f { fill } bind def
/f* { eofill } bind def
/n { newpath } bind def
/W { clip } bind def
/W* { eoclip } bind def
/BT { } bind def
/ET { } bind def
/pdfmark where { pop globaldict /?pdfmark /exec load put }
    { globaldict begin /?pdfmark /pop load def /pdfmark
    /cleartomark load def end } ifelse
/BDC { mark 3 1 roll /BDC pdfmark } bind def
/EMC { mark /EMC pdfmark } bind def
/cairo_store_point { /cairo_point_y exch def /cairo_point_x exch def } def
/Tj { show currentpoint cairo_store_point } bind def
/TJ {
  {
    dup
    type /stringtype eq
    { show } { -0.001 mul 0 cairo_font_matrix dtransform rmoveto } ifelse
  } forall
  currentpoint cairo_store_point
} bind def
/cairo_selectfont { cairo_font_matrix aload pop pop pop 0 0 6 array astore
    cairo_font exch selectfont cairo_point_x cairo_point_y moveto } bind def
/Tf { pop /cairo_font exch def /cairo_font_matrix where
      { pop cairo_selectfont } if } bind def
/Td { matrix translate cairo_font_matrix matrix concatmatrix dup
      /cairo_font_matrix exch def dup 4 get exch 5 get cairo_store_point
      /cairo_font where { pop cairo_selectfont } if } bind def
/Tm { 2 copy 8 2 roll 6 array astore /cairo_font_matrix exch def
      cairo_store_point /cairo_font where { pop cairo_selectfont } if } bind def
/g { setgray } bind def
/rg { setrgbcolor } bind def
/d1 { setcachedevice } bind def
%%EndProlog
%%BeginSetup
%%EndSetup
%%Page: 1 1
%%BeginPageSetup
%%PageBoundingBox: 0 0 384 384
%%EndPageSetup
q 0 0 384 384 rectclip q
0.776471 0.443137 0.352941 rg
384 192 m 384 85.961 298.039 0 192 0 c 85.961 0 0 85.961 0 192 c 0 298.039
 85.961 384 192 384 c 298.039 384 384 298.039 384 192 c h
384 192 m f
0.6 0.313726 0.239216 rg
384 192 m 384 202.027 383.227 211.875 381.746 221.488 c 281.652 321.582
 l 247 311 l 248.5 289.25 l 241.992 273.117 l 219.941 295.168 l 206.523 
281.754 l 228.578 259.699 l 156.551 187.672 l 93.141 251.082 l 79.727 237.664
 l 106.977 210.418 l 50.414 153.852 l 86.574 117.695 l 61.254 92.375 l 148.73
 4.898 l 162.637 1.695 177.121 0 192 0 c 298.039 0 384 85.961 384 192 c 
h
384 192 m f
0.196078 0.223529 0.247059 rg
255.223 259.902 m 237.586 259.902 l 237.586 321.625 l 281.672 321.625 l
 281.672 303.992 l 255.223 303.992 l h
255.223 259.902 m f
202.316 295.172 17.637 -35.27 re f
0.341176 0.372549 0.392157 rg
93.141 251.086 m 61.238 251.086 l 61.238 190.641 l 114.375 208.629 l h
93.141 251.086 m f
0.196078 0.223529 0.247059 rg
61.238 152.82 m 61.238 92.375 l 93.141 92.375 l 114.375 134.832 l h
61.238 152.82 m f
0.341176 0.372549 0.392157 rg
269.488 268.723 m 188.008 268.723 l 167.941 227.863 l 183.77 220.098 l 
273.785 220.691 l 289.562 228.578 l h
269.488 268.723 m f
0.992157 0.74902 0 rg
308.125 215.289 m 308.125 129.23 l 290.492 111.066 l 286.613 110.363 282.555
 110.008 278.676 110.008 c 191.031 110.008 l 168.285 110.008 145.887 114.242
 124.375 122.352 c 60.535 147.043 l 50.484 150.922 43.02 160.797 43.02 171.73
 c 43.02 182.664 50.484 192.539 60.535 196.418 c 124.375 221.105 l 145.887
 229.219 168.285 233.449 191.031 233.449 c 281.676 233.449 l 284.672 233.449
 287.672 233.273 290.492 232.746 c h
308.125 215.289 m f
1 0.568627 0 rg
308.125 171.73 m 308.125 129.23 l 290.492 111.066 l 286.613 110.363 282.555
 110.008 278.676 110.008 c 191.031 110.008 l 168.285 110.008 145.887 114.242
 124.375 122.352 c 60.535 147.043 l 50.484 150.922 43.02 160.797 43.02 171.73
 c h
308.125 171.73 m f
0.878431 0.956863 1 rg
290.492 232.746 m 290.492 111.066 l 296.312 112.301 303.012 114.066 308.125
 117.062 c 328.758 127.117 342.75 146.336 343.984 168.379 c 343.984 171.73
 l 343.809 204.355 318.883 229.043 290.492 232.746 c h
290.492 232.746 m f
0.733333 0.862745 1 rg
343.984 171.73 m 343.984 168.379 l 342.75 146.336 328.758 127.113 308.125
 117.062 c 303.012 114.066 296.312 112.301 290.492 111.066 c 290.492 171.73
 l h
343.984 171.73 m f
0.341176 0.372549 0.392157 rg
175.867 198.184 m 161.227 198.184 149.414 186.367 149.414 171.73 c 149.414
 157.094 161.227 145.277 175.867 145.277 c 190.504 145.277 202.316 157.094
 202.316 171.73 c 202.316 186.367 190.504 198.184 175.867 198.184 c h
175.867 198.184 m f
246.402 198.184 m 231.766 198.184 219.953 186.367 219.953 171.73 c 219.953
 157.094 231.766 145.277 246.402 145.277 c 261.043 145.277 272.855 157.094
 272.855 171.73 c 272.855 186.367 261.043 198.184 246.402 198.184 c h
246.402 198.184 m f
0.196078 0.223529 0.247059 rg
149.414 171.73 m 202.316 171.73 l 202.316 157.094 190.504 145.277 175.863
 145.277 c 161.227 145.277 149.414 157.094 149.414 171.73 c h
149.414 171.73 m f
272.855 171.73 m 272.855 157.094 261.043 145.277 246.402 145.277 c 231.766
 145.277 219.953 157.094 219.953 171.73 c h
272.855 171.73 m f
0.878431 0.956863 1 rg
184.684 171.73 m 184.684 166.793 180.805 162.914 175.863 162.914 c 170.926
 162.914 167.047 166.793 167.047 171.73 c 167.047 176.668 170.926 180.547
 175.863 180.547 c 180.805 180.547 184.684 176.668 184.684 171.73 c h
184.684 171.73 m f
255.223 171.73 m 255.223 166.793 251.344 162.914 246.402 162.914 c 241.465
 162.914 237.586 166.793 237.586 171.73 c 237.586 176.668 241.465 180.547
 246.402 180.547 c 251.344 180.547 255.223 176.668 255.223 171.73 c h
255.223 171.73 m f
0.733333 0.862745 1 rg
167.047 171.73 m 184.684 171.73 l 184.684 166.793 180.805 162.914 175.863
 162.914 c 170.926 162.914 167.047 166.793 167.047 171.73 c h
167.047 171.73 m f
237.586 171.73 m 255.223 171.73 l 255.223 166.793 251.344 162.914 246.402
 162.914 c 241.465 162.914 237.586 166.793 237.586 171.73 c h
237.586 171.73 m f
Q Q
showpage
%%Trailer
end restore
%%EOF
