%!PS-Adobe-3.0 EPSF-3.0
%%Creator: cairo 1.14.8 (http://cairographics.org)
%%CreationDate: Fri Feb 22 08:48:37 2019
%%Pages: 1
%%DocumentData: Clean7Bit
%%LanguageLevel: 2
%%BoundingBox: 0 0 384 384
%%EndComments
%%BeginProlog
save
50 dict begin
/q { gsave } bind def
/Q { grestore } bind def
/cm { 6 array astore concat } bind def
/w { setlinewidth } bind def
/J { setlinecap } bind def
/j { setlinejoin } bind def
/M { setmiterlimit } bind def
/d { setdash } bind def
/m { moveto } bind def
/l { lineto } bind def
/c { curveto } bind def
/h { closepath } bind def
/re { exch dup neg 3 1 roll 5 3 roll moveto 0 rlineto
      0 exch rlineto 0 rlineto closepath } bind def
/S { stroke } bind def
/f { fill } bind def
/f* { eofill } bind def
/n { newpath } bind def
/W { clip } bind def
/W* { eoclip } bind def
/BT { } bind def
/ET { } bind def
/pdfmark where { pop globaldict /?pdfmark /exec load put }
    { globaldict begin /?pdfmark /pop load def /pdfmark
    /cleartomark load def end } ifelse
/BDC { mark 3 1 roll /BDC pdfmark } bind def
/EMC { mark /EMC pdfmark } bind def
/cairo_store_point { /cairo_point_y exch def /cairo_point_x exch def } def
/Tj { show currentpoint cairo_store_point } bind def
/TJ {
  {
    dup
    type /stringtype eq
    { show } { -0.001 mul 0 cairo_font_matrix dtransform rmoveto } ifelse
  } forall
  currentpoint cairo_store_point
} bind def
/cairo_selectfont { cairo_font_matrix aload pop pop pop 0 0 6 array astore
    cairo_font exch selectfont cairo_point_x cairo_point_y moveto } bind def
/Tf { pop /cairo_font exch def /cairo_font_matrix where
      { pop cairo_selectfont } if } bind def
/Td { matrix translate cairo_font_matrix matrix concatmatrix dup
      /cairo_font_matrix exch def dup 4 get exch 5 get cairo_store_point
      /cairo_font where { pop cairo_selectfont } if } bind def
/Tm { 2 copy 8 2 roll 6 array astore /cairo_font_matrix exch def
      cairo_store_point /cairo_font where { pop cairo_selectfont } if } bind def
/g { setgray } bind def
/rg { setrgbcolor } bind def
/d1 { setcachedevice } bind def
%%EndProlog
%%BeginSetup
%%EndSetup
%%Page: 1 1
%%BeginPageSetup
%%PageBoundingBox: 0 0 384 384
%%EndPageSetup
q 0 0 384 384 rectclip q
0.611765 0.866667 0.0196078 rg
384 192 m 384 85.961 298.039 0 192 0 c 85.961 0 0 85.961 0 192 c 0 298.039
 85.961 384 192 384 c 298.039 384 384 298.039 384 192 c h
384 192 m f
0.4 0.733333 0 rg
255.031 300.562 m 233.277 278.809 l 184.266 327.816 l 125.473 269.023 l
 93.375 189.75 l 67.426 125.48 l 83.738 109.168 l 80.801 106.227 l 186.965
 0.066 l 188.637 0.023 190.316 0 192 0 c 291.48 0 373.285 75.656 383.027
 172.57 c h
255.031 300.562 m f
0.992157 0.74902 0 rg
233.633 244.078 m 222.066 252.715 208.184 257.648 193.688 257.957 c 191.992
 257.957 l 161.453 257.957 134.152 237.445 125.363 208.141 c 123.512 201.816
 122.586 195.188 122.586 188.555 c 122.586 156.629 144.332 128.867 175.332
 121.156 c 180.887 119.77 186.438 119.152 191.992 119.152 c 207.566 119.152
 222.684 124.395 235.02 134.113 c 270.957 162.488 269.875 216.777 233.633
 244.078 c h
233.633 244.078 m f
0.341176 0.372549 0.392157 rg
316.555 125.473 m 335.371 179.918 314.141 220.941 276.199 237.137 c 281.137
 277.852 256.613 316.871 199.703 327.824 c 199.703 303.918 l 221.602 296.207
 230.547 282.324 230.547 265.668 c 230.547 244.387 213.273 227.109 191.992
 227.109 c 170.707 227.109 153.434 244.383 153.434 265.668 c 153.434 282.172
 162.223 296.051 184.277 303.918 c 184.277 327.824 l 126.75 316.719 102.844
 277.082 107.781 237.137 c 70.457 221.25 48.301 180.688 67.426 125.473 c
 88.09 137.504 l 83.926 160.176 91.176 174.98 105.828 183.309 c 124.18 193.953
 147.883 187.629 158.523 169.273 c 169.164 150.766 162.84 127.172 144.488
 116.527 c 129.988 108.199 113.641 108.973 95.906 124.238 c 75.238 112.211
 l 113.18 68.41 159.449 66.867 191.992 91.234 c 206.18 80.594 222.527 75.656
 239.031 75.656 c 270.957 75.656 290.852 91.543 308.742 112.211 c 287.922
 124.086 l 270.34 109.125 253.992 108.199 239.492 116.527 c 221.141 127.168
 214.816 150.766 225.457 169.121 c 230.547 178.066 238.875 184.543 248.746
 187.164 c 258.773 189.785 269.207 188.398 278.152 183.309 c 292.652 174.828
 300.055 160.176 295.734 137.504 c h
191.992 165.422 m 179.188 165.422 168.855 175.754 168.855 188.555 c 168.855
 201.355 179.188 211.688 191.992 211.688 c 204.793 211.688 215.125 201.355
 215.125 188.555 c 215.125 175.754 204.793 165.422 191.992 165.422 c h
191.992 165.422 m f
1 0.568627 0 rg
235.02 134.109 m 222.684 124.395 207.566 119.152 191.992 119.152 c 191.992
 257.957 l 193.688 257.957 l 208.184 257.648 222.066 252.715 233.633 244.078
 c 269.875 216.777 270.957 162.488 235.02 134.109 c h
235.02 134.109 m f
0.196078 0.223529 0.247059 rg
295.734 137.504 m 300.055 160.176 292.652 174.828 278.152 183.309 c 269.207
 188.398 258.773 189.789 248.746 187.168 c 238.875 184.543 230.547 178.066
 225.457 169.121 c 214.816 150.77 221.141 127.172 239.492 116.527 c 253.992
 108.199 270.34 109.125 287.922 124.086 c 308.742 112.211 l 290.852 91.543
 270.957 75.66 239.031 75.66 c 222.527 75.66 206.18 80.594 191.992 91.238
 c 191.992 165.422 l 204.793 165.422 215.125 175.754 215.125 188.555 c 215.125
 201.355 204.793 211.688 191.992 211.688 c 191.992 227.113 l 213.273 227.113
 230.547 244.387 230.547 265.668 c 230.547 282.324 221.602 296.207 199.703
 303.918 c 199.703 327.824 l 256.613 316.871 281.137 277.852 276.199 237.137
 c 314.141 220.941 335.371 179.918 316.555 125.473 c h
295.734 137.504 m f
Q Q
showpage
%%Trailer
end restore
%%EOF
