%!PS-Adobe-3.0 EPSF-3.0
%%Creator: cairo 1.14.8 (http://cairographics.org)
%%CreationDate: Fri Feb 22 08:48:37 2019
%%Pages: 1
%%DocumentData: Clean7Bit
%%LanguageLevel: 2
%%BoundingBox: 0 0 384 384
%%EndComments
%%BeginProlog
save
50 dict begin
/q { gsave } bind def
/Q { grestore } bind def
/cm { 6 array astore concat } bind def
/w { setlinewidth } bind def
/J { setlinecap } bind def
/j { setlinejoin } bind def
/M { setmiterlimit } bind def
/d { setdash } bind def
/m { moveto } bind def
/l { lineto } bind def
/c { curveto } bind def
/h { closepath } bind def
/re { exch dup neg 3 1 roll 5 3 roll moveto 0 rlineto
      0 exch rlineto 0 rlineto closepath } bind def
/S { stroke } bind def
/f { fill } bind def
/f* { eofill } bind def
/n { newpath } bind def
/W { clip } bind def
/W* { eoclip } bind def
/BT { } bind def
/ET { } bind def
/pdfmark where { pop globaldict /?pdfmark /exec load put }
    { globaldict begin /?pdfmark /pop load def /pdfmark
    /cleartomark load def end } ifelse
/BDC { mark 3 1 roll /BDC pdfmark } bind def
/EMC { mark /EMC pdfmark } bind def
/cairo_store_point { /cairo_point_y exch def /cairo_point_x exch def } def
/Tj { show currentpoint cairo_store_point } bind def
/TJ {
  {
    dup
    type /stringtype eq
    { show } { -0.001 mul 0 cairo_font_matrix dtransform rmoveto } ifelse
  } forall
  currentpoint cairo_store_point
} bind def
/cairo_selectfont { cairo_font_matrix aload pop pop pop 0 0 6 array astore
    cairo_font exch selectfont cairo_point_x cairo_point_y moveto } bind def
/Tf { pop /cairo_font exch def /cairo_font_matrix where
      { pop cairo_selectfont } if } bind def
/Td { matrix translate cairo_font_matrix matrix concatmatrix dup
      /cairo_font_matrix exch def dup 4 get exch 5 get cairo_store_point
      /cairo_font where { pop cairo_selectfont } if } bind def
/Tm { 2 copy 8 2 roll 6 array astore /cairo_font_matrix exch def
      cairo_store_point /cairo_font where { pop cairo_selectfont } if } bind def
/g { setgray } bind def
/rg { setrgbcolor } bind def
/d1 { setcachedevice } bind def
%%EndProlog
%%BeginSetup
%%EndSetup
%%Page: 1 1
%%BeginPageSetup
%%PageBoundingBox: 0 0 384 384
%%EndPageSetup
q 0 0 384 384 rectclip q
0.611765 0.866667 0.0196078 rg
384 192 m 384 85.961 298.039 0 192 0 c 85.961 0 0 85.961 0 192 c 0 298.039
 85.961 384 192 384 c 298.039 384 384 298.039 384 192 c h
384 192 m f
0.4 0.733333 0 rg
159.562 159.441 m 116.125 202.879 l 73 159.754 l 98.117 134.633 l 79.25
 115.77 l 97.797 97.223 l 78.156 77.578 l 151.426 4.309 l 164.504 1.496 
178.078 0 192 0 c 298.039 0 384 85.961 384 192 c 384 210.59 381.348 228.559
 376.418 245.559 c 311.051 310.93 l h
159.562 159.441 m f
1 0.568627 0 rg
82.805 72.844 m 72.938 82.711 l 102.535 112.309 l 112.398 102.441 l h
82.805 72.844 m f
82.805 112.211 m 72.938 122.074 l 92.668 141.812 l 102.531 131.945 l h
82.805 112.211 m f
1 0.392157 0.101961 rg
132.043 102.152 m 141.91 92.285 l 122.18 72.559 l 112.312 82.422 l h
132.043 102.152 m f
0.341176 0.372549 0.392157 rg
178.484 267.172 m 151.773 240.469 l 176.441 215.805 l 220.832 267.172 l
 h
178.484 267.172 m f
0.196078 0.223529 0.247059 rg
215.902 176.34 m 240.57 151.676 l 267.277 178.383 l 267.277 220.738 l h
215.902 176.34 m f
159.801 130.113 m 151.711 102.289 l 160.375 72.848 l 207.348 119.172 l 
207.348 178.391 l h
159.801 130.113 m f
0.341176 0.372549 0.392157 rg
116.574 152.961 m 161.637 207.258 l 119.289 207.258 l 72.938 159.762 l 
102.512 151.656 l h
116.574 152.961 m f
0.878431 0.956863 1 rg
240.816 269.93 m 254.727 256.02 l 255.121 255.031 l 270.219 220.797 l 151.727
 102.309 l 131.996 122.039 l 133.18 133.09 l 133.18 133.285 l 122.129 131.906
 l 102.398 151.637 l 220.887 269.93 l h
240.816 269.93 m f
0.733333 0.862745 1 rg
259.266 290.945 m 275.051 274.961 l 286.695 263.32 l 289.852 240.43 l 270.117
 220.699 l 220.887 269.93 l 240.52 289.762 l h
259.266 290.945 m f
1 0.392157 0.101961 rg
112.406 102.445 m 82.809 72.848 l 77.875 77.781 l 107.473 107.379 l h
112.406 102.445 m f
0.733333 0.862745 1 rg
133.18 133.09 m 255.121 255.031 l 270.219 220.797 l 151.727 102.309 l 131.996
 122.039 l h
133.18 133.09 m f
0.603922 0.729412 0.858824 rg
275.051 274.961 m 286.695 263.32 l 289.852 240.43 l 270.117 220.699 l 245.453
 245.363 l h
275.051 274.961 m f
1 0.392157 0.101961 rg
311.062 310.973 m 289.852 240.43 l 240.52 289.762 l h
311.062 310.973 m f
0.941176 0.219608 0 rg
311.062 310.973 m 289.852 240.43 l 265.188 265.098 l h
311.062 310.973 m f
0.341176 0.372549 0.392157 rg
131.996 122.035 m 122.129 131.902 l 161.691 171.465 l 171.559 161.598 l
 h
131.996 122.035 m f
220.789 210.832 m 210.922 220.695 l 230.656 240.426 l 240.52 230.562 l 
h
220.789 210.832 m f
0.196078 0.223529 0.247059 rg
171.559 161.602 m 131.996 122.039 l 127.066 126.973 l 166.625 166.535 l
 h
171.559 161.602 m f
240.523 230.566 m 220.789 210.832 l 215.859 215.766 l 235.59 235.496 l 
h
240.523 230.566 m f
Q Q
showpage
%%Trailer
end restore
%%EOF
