%!PS-Adobe-3.0 EPSF-3.0
%%Creator: cairo 1.14.8 (http://cairographics.org)
%%CreationDate: Fri Feb 22 08:48:37 2019
%%Pages: 1
%%DocumentData: Clean7Bit
%%LanguageLevel: 2
%%BoundingBox: 0 0 384 384
%%EndComments
%%BeginProlog
save
50 dict begin
/q { gsave } bind def
/Q { grestore } bind def
/cm { 6 array astore concat } bind def
/w { setlinewidth } bind def
/J { setlinecap } bind def
/j { setlinejoin } bind def
/M { setmiterlimit } bind def
/d { setdash } bind def
/m { moveto } bind def
/l { lineto } bind def
/c { curveto } bind def
/h { closepath } bind def
/re { exch dup neg 3 1 roll 5 3 roll moveto 0 rlineto
      0 exch rlineto 0 rlineto closepath } bind def
/S { stroke } bind def
/f { fill } bind def
/f* { eofill } bind def
/n { newpath } bind def
/W { clip } bind def
/W* { eoclip } bind def
/BT { } bind def
/ET { } bind def
/pdfmark where { pop globaldict /?pdfmark /exec load put }
    { globaldict begin /?pdfmark /pop load def /pdfmark
    /cleartomark load def end } ifelse
/BDC { mark 3 1 roll /BDC pdfmark } bind def
/EMC { mark /EMC pdfmark } bind def
/cairo_store_point { /cairo_point_y exch def /cairo_point_x exch def } def
/Tj { show currentpoint cairo_store_point } bind def
/TJ {
  {
    dup
    type /stringtype eq
    { show } { -0.001 mul 0 cairo_font_matrix dtransform rmoveto } ifelse
  } forall
  currentpoint cairo_store_point
} bind def
/cairo_selectfont { cairo_font_matrix aload pop pop pop 0 0 6 array astore
    cairo_font exch selectfont cairo_point_x cairo_point_y moveto } bind def
/Tf { pop /cairo_font exch def /cairo_font_matrix where
      { pop cairo_selectfont } if } bind def
/Td { matrix translate cairo_font_matrix matrix concatmatrix dup
      /cairo_font_matrix exch def dup 4 get exch 5 get cairo_store_point
      /cairo_font where { pop cairo_selectfont } if } bind def
/Tm { 2 copy 8 2 roll 6 array astore /cairo_font_matrix exch def
      cairo_store_point /cairo_font where { pop cairo_selectfont } if } bind def
/g { setgray } bind def
/rg { setrgbcolor } bind def
/d1 { setcachedevice } bind def
%%EndProlog
%%BeginSetup
%%EndSetup
%%Page: 1 1
%%BeginPageSetup
%%PageBoundingBox: 0 0 384 384
%%EndPageSetup
q 0 0 384 384 rectclip q
0.341176 0.372549 0.392157 rg
384 192 m 384 85.961 298.039 0 192 0 c 85.961 0 0 85.961 0 192 c 0 298.039
 85.961 384 192 384 c 298.039 384 384 298.039 384 192 c h
384 192 m f
0.196078 0.223529 0.247059 rg
383.828 199.832 m 258.855 324.801 l 139.387 324.238 l 125.172 310.023 l
 184.625 250.57 l 182.387 248.332 l 197.242 233.473 l 65.172 101.398 l 164.621
 1.953 l 173.562 0.676 182.703 0 192 0 c 298.039 0 384 85.961 384 192 c 
384 194.625 383.934 197.234 383.828 199.832 c h
383.828 199.832 m f
1 0.392157 0.101961 rg
184.566 317.402 14.867 -29.727 re f
169.703 295.109 44.594 -45.086 re f
152.664 322.66 m 182.391 292.934 l 171.883 282.426 l 142.156 312.152 l 
h
152.664 322.66 m f
0.941176 0.219608 0 rg
231.336 322.66 m 241.844 312.152 l 212.117 282.426 l 201.609 292.934 l 
h
231.336 322.66 m f
192 295.109 22.297 -45.086 re f
192 317.402 7.434 -29.727 re f
0.878431 0.956863 1 rg
298.027 163.961 m 273.75 101.387 l 223.957 71.164 l 160.043 71.164 l 110.25
 101.387 l 87.953 169.164 l 110.25 205.434 l 154.84 235.16 l 187.691 248.836
 l 192 247.348 l 229.16 235.16 l 273.75 205.434 l h
298.027 163.961 m f
0.733333 0.862745 1 rg
298.027 163.961 m 273.75 101.387 l 223.957 71.164 l 192 71.164 l 192 247.348
 l 229.16 235.16 l 273.75 205.434 l h
298.027 163.961 m f
154.84 264.887 74.32 -29.727 re f
65.164 205.434 45.086 -104.047 re f
0.603922 0.729412 0.858824 rg
273.75 205.434 45.086 -104.047 re f
0.196078 0.223529 0.247059 rg
213.309 160.344 m 214.809 156.125 215.027 152.297 213.848 147.879 c 212.309
 142.133 208.613 137.32 203.461 134.344 c 201.184 133.031 198.758 132.32
 196.305 131.875 c 211.887 104.883 l 218.324 108.602 l 234.328 117.848 243.895
 135.105 243.93 153.633 c 243.945 160.344 l h
213.309 160.344 m f
0.341176 0.372549 0.392157 rg
224.699 195.027 m 209.094 167.68 l 206.121 171.246 202.555 174.07 198.094
 175.258 c 196.012 175.852 194.082 176 192 176 c 188.285 176 184.418 174.961
 181.148 173.027 c 178.922 171.691 177.137 169.906 175.5 167.977 c 159.895
 195.027 l 166.285 198.742 l 174.164 203.352 183.23 205.73 192 205.73 c 
201.066 205.73 210.133 203.352 218.309 198.742 c h
224.699 195.027 m f
173 142.492 m 169.773 148.094 169.023 153.227 171.586 160.344 c 140.508
 160.344 l 140.484 147.668 140.148 139.961 147.258 127.637 c 154.395 115.289
 161.824 111.18 172.746 104.906 c 188.316 131.883 l 182.113 133.023 176.398
 136.621 173 142.492 c h
173 142.492 m f
198.688 157.422 m 197.352 159.801 194.824 161.141 192.297 161.141 c 192.148
 161.141 192.148 161.141 192 161.141 c 190.961 161.141 189.621 160.84 188.582
 160.098 c 185.016 158.016 183.824 153.41 185.906 149.992 c 187.094 147.762
 189.473 146.426 192 146.277 c 193.336 146.129 194.676 146.426 196.012 147.168
 c 199.582 149.246 200.77 153.855 198.688 157.422 c h
198.688 157.422 m f
0.196078 0.223529 0.247059 rg
196.012 147.168 m 194.676 146.422 193.34 146.125 192 146.273 c 192 161.137
 l 192.148 161.137 192.148 161.137 192.297 161.137 c 194.824 161.137 197.352
 159.801 198.688 157.422 c 200.77 153.855 199.582 149.246 196.012 147.168
 c h
196.012 147.168 m f
198.094 175.258 m 196.012 175.852 194.082 176.004 192 176.004 c 192 205.73
 l 201.066 205.73 210.133 203.352 218.309 198.742 c 224.699 195.027 l 209.094
 167.68 l 206.121 171.246 202.555 174.07 198.094 175.258 c h
198.094 175.258 m f
0.603922 0.729412 0.858824 rg
192 264.887 37.16 -29.727 re f
1 0.568627 0 rg
125.113 324.836 133.773 -14.863 re f
1 0.392157 0.101961 rg
192 324.836 66.887 -14.863 re f
Q Q
showpage
%%Trailer
end restore
%%EOF
