%!PS-Adobe-3.0 EPSF-3.0
%%Creator: cairo 1.14.8 (http://cairographics.org)
%%CreationDate: Fri Feb 22 08:48:37 2019
%%Pages: 1
%%DocumentData: Clean7Bit
%%LanguageLevel: 2
%%BoundingBox: 0 0 384 384
%%EndComments
%%BeginProlog
save
50 dict begin
/q { gsave } bind def
/Q { grestore } bind def
/cm { 6 array astore concat } bind def
/w { setlinewidth } bind def
/J { setlinecap } bind def
/j { setlinejoin } bind def
/M { setmiterlimit } bind def
/d { setdash } bind def
/m { moveto } bind def
/l { lineto } bind def
/c { curveto } bind def
/h { closepath } bind def
/re { exch dup neg 3 1 roll 5 3 roll moveto 0 rlineto
      0 exch rlineto 0 rlineto closepath } bind def
/S { stroke } bind def
/f { fill } bind def
/f* { eofill } bind def
/n { newpath } bind def
/W { clip } bind def
/W* { eoclip } bind def
/BT { } bind def
/ET { } bind def
/pdfmark where { pop globaldict /?pdfmark /exec load put }
    { globaldict begin /?pdfmark /pop load def /pdfmark
    /cleartomark load def end } ifelse
/BDC { mark 3 1 roll /BDC pdfmark } bind def
/EMC { mark /EMC pdfmark } bind def
/cairo_store_point { /cairo_point_y exch def /cairo_point_x exch def } def
/Tj { show currentpoint cairo_store_point } bind def
/TJ {
  {
    dup
    type /stringtype eq
    { show } { -0.001 mul 0 cairo_font_matrix dtransform rmoveto } ifelse
  } forall
  currentpoint cairo_store_point
} bind def
/cairo_selectfont { cairo_font_matrix aload pop pop pop 0 0 6 array astore
    cairo_font exch selectfont cairo_point_x cairo_point_y moveto } bind def
/Tf { pop /cairo_font exch def /cairo_font_matrix where
      { pop cairo_selectfont } if } bind def
/Td { matrix translate cairo_font_matrix matrix concatmatrix dup
      /cairo_font_matrix exch def dup 4 get exch 5 get cairo_store_point
      /cairo_font where { pop cairo_selectfont } if } bind def
/Tm { 2 copy 8 2 roll 6 array astore /cairo_font_matrix exch def
      cairo_store_point /cairo_font where { pop cairo_selectfont } if } bind def
/g { setgray } bind def
/rg { setrgbcolor } bind def
/d1 { setcachedevice } bind def
%%EndProlog
%%BeginSetup
%%EndSetup
%%Page: 1 1
%%BeginPageSetup
%%PageBoundingBox: 0 0 384 384
%%EndPageSetup
q 0 0 384 384 rectclip q
0.611765 0.866667 0.0196078 rg
384 192 m 384 85.961 298.039 0 192 0 c 85.961 0 0 85.961 0 192 c 0 298.039
 85.961 384 192 384 c 298.039 384 384 298.039 384 192 c h
384 192 m f
0.4 0.733333 0 rg
315.781 251.215 m 228.273 338.723 l 191.152 301.602 l 241.723 251.031 l
 82.535 91.84 l 173.484 0.891 l 179.578 0.309 185.754 0 192 0 c 298.039 
0 384 85.961 384 192 c 384 194.059 383.957 196.109 383.891 198.152 c 323.305
 258.738 l h
315.781 251.215 m f
1 0.568627 0 rg
306.242 192.574 m 301.508 198.418 298.98 201.734 298.82 206.316 c 298.664
 219.582 310.352 239.797 314.93 246.43 c 323.301 258.75 l 308.453 258.75
 l 282.871 258.75 271.184 254.801 263.129 249.117 c 247.02 279.438 226.172
 287.02 213.223 291.598 c 210.223 292.703 205.957 294.285 205.484 294.602
 c 205.484 295.23 205.801 298.129 209.273 304.445 c 228.227 338.77 l 207.695
 331.188 l 203.43 329.609 199.168 327.711 195.059 325.66 c 194.953 325.605
 194.848 325.559 194.746 325.508 c 162.363 309.84 137.051 281.227 122.887
 248.168 c 114.672 254.328 103.301 258.75 76.297 258.75 c 61.293 259.277
 l 69.82 246.43 l 74.242 239.797 85.93 219.582 85.77 206.316 c 85.77 201.734
 83.242 198.418 78.348 192.574 c 70.766 183.574 60.5 171.625 60.5 145.566
 c 60.5 131.195 64.609 116.613 72.348 104.449 c 86.246 82.34 110.25 69.23
 136.309 69.23 c 248.281 69.23 l 290.133 69.23 324.246 103.188 324.246 145.039
 c 324.246 171.098 313.824 183.574 306.242 192.574 c h
306.242 192.574 m f
1 0.392157 0.101961 rg
324.246 145.039 m 324.246 103.188 290.133 69.23 248.281 69.23 c 194.742
 69.23 l 194.742 325.508 l 194.848 325.559 194.953 325.605 195.059 325.66
 c 199.164 327.715 203.43 329.609 207.695 331.188 c 228.227 338.77 l 209.273
 304.445 l 205.797 298.129 205.484 295.23 205.484 294.602 c 205.957 294.285
 210.219 292.707 213.223 291.602 c 226.172 287.02 247.02 279.441 263.129
 249.117 c 271.184 254.801 282.871 258.75 308.453 258.75 c 323.301 258.75
 l 314.93 246.43 l 310.348 239.797 298.664 219.582 298.82 206.316 c 298.977
 201.738 301.504 198.422 306.242 192.578 c 313.824 183.574 324.246 171.098
 324.246 145.039 c h
324.246 145.039 m f
0.341176 0.372549 0.392157 rg
256.496 218.16 m 239.438 235.059 217.328 243.59 195.059 243.59 c 194.746
 243.59 l 172.582 243.512 150.445 235.141 133.625 218.16 c 99.668 184.363
 99.668 129.246 133.625 95.289 c 150.445 78.473 172.582 69.941 194.746 69.863
 c 195.059 69.863 l 217.328 69.863 239.438 78.391 256.496 95.289 c 290.293
 129.246 290.293 184.363 256.496 218.16 c h
256.496 218.16 m f
0.196078 0.223529 0.247059 rg
256.496 95.289 m 239.438 78.391 217.328 69.863 195.059 69.863 c 194.746
 69.863 l 194.746 243.59 l 195.059 243.59 l 217.328 243.59 239.438 235.059
 256.496 218.16 c 290.293 184.363 290.293 129.246 256.496 95.289 c h
256.496 95.289 m f
1 0.854902 0.176471 rg
245.281 106.504 m 231.859 93.078 214.012 85.656 195.059 85.656 c 194.746
 85.656 l 175.754 85.742 158.031 93.152 144.836 106.504 c 117.043 134.141
 117.043 179.309 144.836 206.949 c 158.031 220.301 175.754 227.711 194.746
 227.797 c 195.059 227.797 l 214.012 227.797 231.859 220.371 245.281 206.949
 c 272.918 179.309 272.918 134.141 245.281 106.504 c h
245.281 106.504 m f
0.992157 0.74902 0 rg
245.281 106.504 m 231.859 93.078 214.012 85.656 195.059 85.656 c 194.746
 85.656 l 194.746 227.797 l 195.059 227.797 l 214.012 227.797 231.859 220.371
 245.281 206.949 c 272.918 179.309 272.918 134.141 245.281 106.504 c h
245.281 106.504 m f
0.196078 0.223529 0.247059 rg
217.383 163.465 m 218.977 158.98 219.211 154.914 217.957 150.219 c 216.32
 144.109 212.395 138.996 206.918 135.836 c 204.5 134.441 201.922 133.684
 199.316 133.211 c 215.871 104.535 l 222.711 108.484 l 239.715 118.309 249.883
 136.645 249.922 156.332 c 249.938 163.465 l h
217.383 163.465 m f
0.341176 0.372549 0.392157 rg
229.488 200.316 m 212.906 171.254 l 209.746 175.047 205.957 178.047 201.219
 179.312 c 199.008 179.941 196.953 180.102 194.742 180.102 c 190.797 180.102
 186.688 178.996 183.215 176.941 c 180.844 175.52 178.949 173.625 177.215
 171.57 c 160.629 200.316 l 167.422 204.262 l 175.793 209.16 185.426 211.688
 194.742 211.688 c 204.379 211.688 214.012 209.16 222.699 204.262 c h
229.488 200.316 m f
174.555 144.496 m 171.129 150.445 170.328 155.898 173.051 163.465 c 140.031
 163.465 l 140.008 149.996 139.648 141.805 147.203 128.711 c 154.785 115.59
 162.684 111.223 174.285 104.559 c 190.832 133.223 l 184.238 134.434 178.168
 138.258 174.555 144.496 c h
174.555 144.496 m f
201.852 160.359 m 200.43 162.887 197.746 164.305 195.059 164.305 c 194.902
 164.305 194.902 164.305 194.742 164.305 c 193.637 164.305 192.215 163.988
 191.109 163.199 c 187.32 160.988 186.059 156.094 188.27 152.461 c 189.531
 150.094 192.059 148.672 194.742 148.512 c 196.164 148.355 197.586 148.672
 199.008 149.461 c 202.797 151.672 204.062 156.57 201.852 160.359 c h
201.852 160.359 m f
0.196078 0.223529 0.247059 rg
199.008 149.461 m 197.586 148.672 196.168 148.355 194.746 148.516 c 194.746
 164.309 l 194.902 164.309 194.902 164.309 195.062 164.309 c 197.746 164.309
 200.43 162.887 201.852 160.359 c 204.062 156.57 202.797 151.672 199.008
 149.461 c h
199.008 149.461 m f
201.219 179.312 m 199.008 179.941 196.957 180.102 194.746 180.102 c 194.746
 211.688 l 204.379 211.688 214.012 209.16 222.699 204.262 c 229.488 200.316
 l 212.906 171.258 l 209.746 175.047 205.957 178.047 201.219 179.312 c h
201.219 179.312 m f
Q Q
showpage
%%Trailer
end restore
%%EOF
