%!PS-Adobe-3.0 EPSF-3.0
%%Creator: cairo 1.14.8 (http://cairographics.org)
%%CreationDate: Fri Feb 22 08:48:37 2019
%%Pages: 1
%%DocumentData: Clean7Bit
%%LanguageLevel: 2
%%BoundingBox: 0 0 384 384
%%EndComments
%%BeginProlog
save
50 dict begin
/q { gsave } bind def
/Q { grestore } bind def
/cm { 6 array astore concat } bind def
/w { setlinewidth } bind def
/J { setlinecap } bind def
/j { setlinejoin } bind def
/M { setmiterlimit } bind def
/d { setdash } bind def
/m { moveto } bind def
/l { lineto } bind def
/c { curveto } bind def
/h { closepath } bind def
/re { exch dup neg 3 1 roll 5 3 roll moveto 0 rlineto
      0 exch rlineto 0 rlineto closepath } bind def
/S { stroke } bind def
/f { fill } bind def
/f* { eofill } bind def
/n { newpath } bind def
/W { clip } bind def
/W* { eoclip } bind def
/BT { } bind def
/ET { } bind def
/pdfmark where { pop globaldict /?pdfmark /exec load put }
    { globaldict begin /?pdfmark /pop load def /pdfmark
    /cleartomark load def end } ifelse
/BDC { mark 3 1 roll /BDC pdfmark } bind def
/EMC { mark /EMC pdfmark } bind def
/cairo_store_point { /cairo_point_y exch def /cairo_point_x exch def } def
/Tj { show currentpoint cairo_store_point } bind def
/TJ {
  {
    dup
    type /stringtype eq
    { show } { -0.001 mul 0 cairo_font_matrix dtransform rmoveto } ifelse
  } forall
  currentpoint cairo_store_point
} bind def
/cairo_selectfont { cairo_font_matrix aload pop pop pop 0 0 6 array astore
    cairo_font exch selectfont cairo_point_x cairo_point_y moveto } bind def
/Tf { pop /cairo_font exch def /cairo_font_matrix where
      { pop cairo_selectfont } if } bind def
/Td { matrix translate cairo_font_matrix matrix concatmatrix dup
      /cairo_font_matrix exch def dup 4 get exch 5 get cairo_store_point
      /cairo_font where { pop cairo_selectfont } if } bind def
/Tm { 2 copy 8 2 roll 6 array astore /cairo_font_matrix exch def
      cairo_store_point /cairo_font where { pop cairo_selectfont } if } bind def
/g { setgray } bind def
/rg { setrgbcolor } bind def
/d1 { setcachedevice } bind def
%%EndProlog
%%BeginSetup
%%EndSetup
%%Page: 1 1
%%BeginPageSetup
%%PageBoundingBox: 0 0 384 384
%%EndPageSetup
q 0 0 384 384 rectclip q
0.776471 0.443137 0.352941 rg
384 192 m 384 85.961 298.039 0 192 0 c 85.961 0 0 85.961 0 192 c 0 298.039
 85.961 384 192 384 c 298.039 384 384 298.039 384 192 c h
384 192 m f
0.6 0.313726 0.239216 rg
382.156 218.598 m 290.258 310.5 l 176.227 196.469 l 131.133 241.562 l 93.746
 204.176 l 168.598 129.324 l 108.859 69.586 l 177.93 0.516 l 182.574 0.18
 187.266 0 192 0 c 298.039 0 384 85.961 384 192 c 384 201.027 383.363 209.902
 382.156 218.598 c h
382.156 218.598 m f
0.878431 0.956863 1 rg
275.145 210.777 m 275.145 69.582 l 270.457 67.77 l 245.062 57.641 218.605
 52.5 192 52.5 c 165.395 52.5 138.938 57.641 113.543 67.77 c 108.855 69.582
 l 108.855 210.777 l h
275.145 210.777 m f
0.733333 0.862745 1 rg
275.145 210.777 m 275.145 69.582 l 270.457 67.77 l 245.062 57.641 218.605
 52.5 192 52.5 c 192 210.777 l h
275.145 210.777 m f
1 0.568627 0 rg
93.738 310.5 196.523 -106.324 re f
1 0.392157 0.101961 rg
192 310.5 98.262 -106.324 re f
0.341176 0.372549 0.392157 rg
123.973 279.762 105.82 -45.352 re f
0.196078 0.223529 0.247059 rg
244.91 279.762 15.117 -15.117 re f
244.91 249.527 15.117 -15.117 re f
213.668 143.203 m 215.195 138.91 215.418 135.02 214.219 130.523 c 212.652
 124.676 208.895 119.785 203.656 116.758 c 201.34 115.422 198.871 114.699
 196.379 114.246 c 212.227 86.797 l 218.773 90.574 l 235.047 99.98 244.781
 117.531 244.816 136.375 c 244.832 143.203 l h
213.668 143.203 m f
0.341176 0.372549 0.392157 rg
225.258 178.477 m 209.387 150.66 l 206.363 154.289 202.734 157.16 198.195
 158.371 c 196.082 158.977 194.117 159.129 192 159.129 c 188.219 159.129
 184.289 158.07 180.965 156.102 c 178.695 154.742 176.883 152.93 175.219
 150.965 c 159.348 178.477 l 165.848 182.258 l 173.859 186.941 183.078 189.363
 192 189.363 c 201.219 189.363 210.441 186.941 218.758 182.258 c h
225.258 178.477 m f
172.676 125.047 m 169.398 130.742 168.629 135.961 171.238 143.203 c 139.633
 143.203 l 139.605 130.309 139.266 122.469 146.492 109.938 c 153.754 97.379
 161.312 93.199 172.418 86.816 c 188.258 114.254 l 181.945 115.414 176.133
 119.074 172.676 125.047 c h
172.676 125.047 m f
198.805 140.23 m 197.441 142.648 194.871 144.008 192.305 144.008 c 192.152
 144.008 192.152 144.008 192 144.008 c 190.941 144.008 189.582 143.707 188.523
 142.953 c 184.895 140.836 183.684 136.148 185.801 132.672 c 187.012 130.402
 189.43 129.043 192 128.895 c 193.359 128.742 194.723 129.043 196.082 129.801
 c 199.711 131.914 200.918 136.602 198.805 140.23 c h
198.805 140.23 m f
0.196078 0.223529 0.247059 rg
196.082 129.801 m 194.723 129.043 193.359 128.742 192 128.895 c 192 144.008
 l 192.152 144.008 192.152 144.008 192.305 144.008 c 194.871 144.008 197.441
 142.648 198.805 140.23 c 200.918 136.602 199.711 131.914 196.082 129.801
 c h
196.082 129.801 m f
198.199 158.371 m 196.082 158.977 194.117 159.129 192 159.129 c 192 189.363
 l 201.223 189.363 210.441 186.941 218.758 182.258 c 225.258 178.477 l 209.387
 150.664 l 206.363 154.289 202.734 157.16 198.199 158.371 c h
198.199 158.371 m f
192 279.762 37.793 -45.352 re f
Q Q
showpage
%%Trailer
end restore
%%EOF
