%!PS-Adobe-3.0 EPSF-3.0
%%Creator: cairo 1.14.8 (http://cairographics.org)
%%CreationDate: Fri Feb 22 08:48:37 2019
%%Pages: 1
%%DocumentData: Clean7Bit
%%LanguageLevel: 2
%%BoundingBox: 0 0 384 384
%%EndComments
%%BeginProlog
save
50 dict begin
/q { gsave } bind def
/Q { grestore } bind def
/cm { 6 array astore concat } bind def
/w { setlinewidth } bind def
/J { setlinecap } bind def
/j { setlinejoin } bind def
/M { setmiterlimit } bind def
/d { setdash } bind def
/m { moveto } bind def
/l { lineto } bind def
/c { curveto } bind def
/h { closepath } bind def
/re { exch dup neg 3 1 roll 5 3 roll moveto 0 rlineto
      0 exch rlineto 0 rlineto closepath } bind def
/S { stroke } bind def
/f { fill } bind def
/f* { eofill } bind def
/n { newpath } bind def
/W { clip } bind def
/W* { eoclip } bind def
/BT { } bind def
/ET { } bind def
/pdfmark where { pop globaldict /?pdfmark /exec load put }
    { globaldict begin /?pdfmark /pop load def /pdfmark
    /cleartomark load def end } ifelse
/BDC { mark 3 1 roll /BDC pdfmark } bind def
/EMC { mark /EMC pdfmark } bind def
/cairo_store_point { /cairo_point_y exch def /cairo_point_x exch def } def
/Tj { show currentpoint cairo_store_point } bind def
/TJ {
  {
    dup
    type /stringtype eq
    { show } { -0.001 mul 0 cairo_font_matrix dtransform rmoveto } ifelse
  } forall
  currentpoint cairo_store_point
} bind def
/cairo_selectfont { cairo_font_matrix aload pop pop pop 0 0 6 array astore
    cairo_font exch selectfont cairo_point_x cairo_point_y moveto } bind def
/Tf { pop /cairo_font exch def /cairo_font_matrix where
      { pop cairo_selectfont } if } bind def
/Td { matrix translate cairo_font_matrix matrix concatmatrix dup
      /cairo_font_matrix exch def dup 4 get exch 5 get cairo_store_point
      /cairo_font where { pop cairo_selectfont } if } bind def
/Tm { 2 copy 8 2 roll 6 array astore /cairo_font_matrix exch def
      cairo_store_point /cairo_font where { pop cairo_selectfont } if } bind def
/g { setgray } bind def
/rg { setrgbcolor } bind def
/d1 { setcachedevice } bind def
%%EndProlog
%%BeginSetup
%%EndSetup
%%Page: 1 1
%%BeginPageSetup
%%PageBoundingBox: 0 0 384 384
%%EndPageSetup
q 0 0 384 384 rectclip q
0.341176 0.372549 0.392157 rg
384 192 m 384 85.961 298.039 0 192 0 c 85.961 0 0 85.961 0 192 c 0 298.039
 85.961 384 192 384 c 298.039 384 384 298.039 384 192 c h
384 192 m f
0.196078 0.223529 0.247059 rg
384 192 m 384 199.344 383.574 206.59 382.77 213.723 c 285.969 310.523 l
 163.75 185.75 l 81.941 198.559 l 59.598 176.215 l 231.695 4.117 l 318.684
 22.406 384 99.57 384 192 c h
384 192 m f
0.992157 0.74902 0 rg
91.262 199.602 30.918 -15.203 re f
205.422 218.875 m 194.672 229.625 l 232.148 267.609 l 242.898 256.863 l
 h
205.422 218.875 m f
1 0.568627 0 rg
232.148 116.391 m 194.672 154.375 l 205.422 165.125 l 242.898 127.137 l
 h
232.148 116.391 m f
0.992157 0.74902 0 rg
213.41 199.602 38.52 -15.203 re f
1 0.568627 0 rg
91.262 192 30.918 -7.602 re f
213.41 192 38.52 -7.602 re f
1 0.854902 0.176471 rg
167.797 245.219 m 138.449 245.219 114.578 221.348 114.578 192 c 114.578
 162.652 138.449 138.781 167.797 138.781 c 197.141 138.781 221.012 162.652
 221.012 192 c 221.012 221.348 197.141 245.219 167.797 245.219 c h
167.797 245.219 m f
259.023 245.727 m 238.066 245.727 221.012 262.777 221.012 283.738 c 221.012
 304.695 238.066 321.75 259.023 321.75 c 279.984 321.75 297.039 304.695 
297.039 283.738 c 297.039 262.777 279.984 245.727 259.023 245.727 c h
259.023 245.727 m f
0.992157 0.74902 0 rg
251.422 291.34 15.207 -15.203 re f
259.023 62.25 m 238.066 62.25 221.012 79.305 221.012 100.262 c 221.012 
121.223 238.066 138.277 259.023 138.277 c 279.984 138.277 297.039 121.223
 297.039 100.262 c 297.039 79.305 279.984 62.25 259.023 62.25 c h
259.023 62.25 m f
1 0.568627 0 rg
251.422 107.863 15.207 -15.203 re f
0.776471 0.443137 0.352941 rg
267.137 214.809 15.203 -15.207 re f
160.191 214.809 15.207 -15.207 re f
144.988 199.602 15.203 -15.203 re f
175.398 199.602 15.203 -15.203 re f
297.547 199.602 15.203 -15.203 re f
0.6 0.313726 0.239216 rg
267.137 184.398 15.203 -15.207 re f
1 0.854902 0.176471 rg
76.059 214.809 m 63.438 214.809 53.25 204.621 53.25 192 c 53.25 179.379
 63.438 169.191 76.059 169.191 c 88.68 169.191 98.863 179.379 98.863 192
 c 98.863 204.621 88.68 214.809 76.059 214.809 c h
76.059 214.809 m f
0.992157 0.74902 0 rg
53.25 192 m 98.863 192 l 98.863 179.379 88.68 169.191 76.059 169.191 c 
63.438 169.191 53.25 179.379 53.25 192 c h
53.25 192 m f
114.578 192 m 221.012 192 l 221.012 162.652 197.141 138.781 167.797 138.781
 c 138.449 138.781 114.578 162.652 114.578 192 c h
114.578 192 m f
0.6 0.313726 0.239216 rg
297.547 192 15.203 -7.602 re f
144.988 192 15.203 -7.602 re f
175.398 192 15.203 -7.602 re f
160.191 184.398 15.207 -15.207 re f
Q Q
showpage
%%Trailer
end restore
%%EOF
