%!PS-Adobe-3.0 EPSF-3.0
%%Creator: cairo 1.14.8 (http://cairographics.org)
%%CreationDate: Fri Feb 22 08:48:37 2019
%%Pages: 1
%%DocumentData: Clean7Bit
%%LanguageLevel: 2
%%BoundingBox: 0 0 384 384
%%EndComments
%%BeginProlog
save
50 dict begin
/q { gsave } bind def
/Q { grestore } bind def
/cm { 6 array astore concat } bind def
/w { setlinewidth } bind def
/J { setlinecap } bind def
/j { setlinejoin } bind def
/M { setmiterlimit } bind def
/d { setdash } bind def
/m { moveto } bind def
/l { lineto } bind def
/c { curveto } bind def
/h { closepath } bind def
/re { exch dup neg 3 1 roll 5 3 roll moveto 0 rlineto
      0 exch rlineto 0 rlineto closepath } bind def
/S { stroke } bind def
/f { fill } bind def
/f* { eofill } bind def
/n { newpath } bind def
/W { clip } bind def
/W* { eoclip } bind def
/BT { } bind def
/ET { } bind def
/pdfmark where { pop globaldict /?pdfmark /exec load put }
    { globaldict begin /?pdfmark /pop load def /pdfmark
    /cleartomark load def end } ifelse
/BDC { mark 3 1 roll /BDC pdfmark } bind def
/EMC { mark /EMC pdfmark } bind def
/cairo_store_point { /cairo_point_y exch def /cairo_point_x exch def } def
/Tj { show currentpoint cairo_store_point } bind def
/TJ {
  {
    dup
    type /stringtype eq
    { show } { -0.001 mul 0 cairo_font_matrix dtransform rmoveto } ifelse
  } forall
  currentpoint cairo_store_point
} bind def
/cairo_selectfont { cairo_font_matrix aload pop pop pop 0 0 6 array astore
    cairo_font exch selectfont cairo_point_x cairo_point_y moveto } bind def
/Tf { pop /cairo_font exch def /cairo_font_matrix where
      { pop cairo_selectfont } if } bind def
/Td { matrix translate cairo_font_matrix matrix concatmatrix dup
      /cairo_font_matrix exch def dup 4 get exch 5 get cairo_store_point
      /cairo_font where { pop cairo_selectfont } if } bind def
/Tm { 2 copy 8 2 roll 6 array astore /cairo_font_matrix exch def
      cairo_store_point /cairo_font where { pop cairo_selectfont } if } bind def
/g { setgray } bind def
/rg { setrgbcolor } bind def
/d1 { setcachedevice } bind def
%%EndProlog
%%BeginSetup
%%EndSetup
%%Page: 1 1
%%BeginPageSetup
%%PageBoundingBox: 0 0 384 384
%%EndPageSetup
q 0 0 384 384 rectclip q
0.776471 0.443137 0.352941 rg
384 192 m 384 85.961 298.039 0 192 0 c 85.961 0 0 85.961 0 192 c 0 298.039
 85.961 384 192 384 c 298.039 384 384 298.039 384 192 c h
384 192 m f
0.6 0.313726 0.239216 rg
265.25 284.75 m 227.328 322.723 l 180.25 327 l 124.5 280.75 l 67 260.75
 l 79 189.5 l 72.184 110.207 l 182.141 0.25 l 185.406 0.082 188.691 0 192
 0 c 298.039 0 384 85.961 384 192 c 384 195.281 383.914 198.543 383.754 
201.785 c 311.922 273.617 l h
265.25 284.75 m f
0.341176 0.372549 0.392157 rg
192 234.875 m 168.293 234.875 149.051 215.633 149.051 191.926 c 149.051
 168.215 168.293 148.977 192 148.977 c 215.707 148.977 234.949 168.215 234.949
 191.926 c 234.949 215.633 215.707 234.875 192 234.875 c h
192 234.875 m f
0.611765 0.866667 0.0196078 rg
192 338.527 m 148.707 338.527 114.691 273.871 114.691 191.926 c 114.691
 109.977 148.707 45.324 192 45.324 c 235.293 45.324 269.309 109.977 269.309
 191.926 c 269.309 273.871 235.293 338.527 192 338.527 c h
192 62.504 m 159.359 62.504 131.871 122.004 131.871 191.926 c 131.871 261.848
 159.359 321.348 192 321.348 c 224.641 321.348 252.129 261.848 252.129 191.926
 c 252.129 122.004 224.641 62.504 192 62.504 c h
192 62.504 m f
0.196078 0.223529 0.247059 rg
192 148.977 m 192 234.875 l 215.707 234.875 234.949 215.633 234.949 191.926
 c 234.949 168.215 215.707 148.977 192 148.977 c h
192 148.977 m f
0.4 0.733333 0 rg
269.309 191.926 m 269.309 109.977 235.293 45.324 192 45.324 c 192 62.504
 l 224.641 62.504 252.129 122 252.129 191.922 c 252.129 261.844 224.641 
321.348 192 321.348 c 192 338.527 l 235.293 338.527 269.309 273.871 269.309
 191.926 c h
269.309 191.926 m f
1 0.568627 0 rg
318.441 264.938 m 307.621 283.836 283.742 293.113 251.27 291.227 c 232.715
 290.023 212.445 285.211 192 277.309 c 179.113 272.5 166.059 266.316 153.344
 258.926 c 82.391 217.867 43.91 156.535 65.559 118.91 c 75.52 101.73 96.137
 92.453 124.312 92.453 c 127.059 92.453 129.809 92.453 132.73 92.625 c 151.285
 93.828 171.555 98.637 192 106.543 c 204.887 111.352 217.941 117.535 230.656
 124.922 c 301.609 165.984 340.09 227.316 318.441 264.938 c h
222.066 139.871 m 212.102 134.199 201.965 129.047 192 125.094 c 171.043
 116.16 150.426 111.008 131.699 109.805 c 106.445 108.258 87.719 114.785
 80.332 127.5 c 77.754 131.965 76.551 137.121 76.551 142.617 c 76.551 172.168
 111.082 214.602 161.934 243.98 c 171.898 249.648 182.035 254.805 192 258.754
 c 212.957 267.688 233.574 272.84 252.301 274.043 c 254.879 274.215 257.109
 274.215 259.516 274.215 c 280.992 274.215 296.969 267.859 303.668 256.348
 c 319.816 228.176 282.539 174.746 222.066 139.871 c h
222.066 139.871 m f
1 0.392157 0.101961 rg
230.656 124.922 m 217.941 117.535 204.887 111.352 192 106.543 c 192 125.094
 l 201.965 129.047 212.102 134.199 222.066 139.871 c 282.539 174.746 319.816
 228.176 303.668 256.348 c 296.969 267.859 280.992 274.219 259.516 274.219
 c 257.109 274.219 254.879 274.219 252.301 274.047 c 233.574 272.844 212.957
 267.688 192 258.754 c 192 277.309 l 212.445 285.211 232.715 290.023 251.27
 291.227 c 283.742 293.113 307.621 283.836 318.445 264.938 c 340.09 227.316
 301.609 165.984 230.656 124.922 c h
230.656 124.922 m f
1 0.854902 0.176471 rg
230.656 258.926 m 217.941 266.312 204.887 272.5 192 277.309 c 171.555 285.211
 151.285 290.023 132.73 291.223 c 100.258 293.113 76.379 283.836 65.555 
264.938 c 43.91 227.316 82.391 165.984 153.344 124.922 c 166.059 117.535
 179.113 111.352 192 106.543 c 212.445 98.637 232.715 93.828 251.27 92.625
 c 254.191 92.453 256.941 92.453 259.688 92.453 c 287.863 92.453 308.48 
101.73 318.445 118.91 c 340.09 156.535 301.609 217.867 230.656 258.926 c
 h
303.668 127.5 m 296.281 114.785 277.383 108.43 252.301 109.805 c 233.574
 111.008 212.957 116.16 192 125.094 c 182.035 129.047 171.898 134.199 161.934
 139.871 c 101.461 174.746 64.184 228.176 80.332 256.348 c 87.031 267.859
 103.008 274.219 124.484 274.219 c 126.891 274.219 129.121 274.219 131.699
 274.047 c 150.426 272.844 171.043 267.688 192 258.754 c 201.965 254.805
 212.102 249.648 222.066 243.98 c 282.539 209.105 319.816 155.676 303.668
 127.5 c h
303.668 127.5 m f
0.992157 0.74902 0 rg
318.441 118.91 m 308.48 101.73 287.863 92.453 259.688 92.453 c 256.941 
92.453 254.191 92.453 251.27 92.625 c 232.715 93.828 212.445 98.637 192 
106.543 c 192 125.094 l 212.957 116.164 233.574 111.008 252.301 109.805 
c 277.383 108.43 296.281 114.785 303.668 127.5 c 319.816 155.676 282.535
 209.105 222.062 243.98 c 212.098 249.648 201.965 254.805 192 258.754 c 
192 277.309 l 204.883 272.5 217.941 266.312 230.652 258.926 c 301.609 217.867
 340.09 156.535 318.441 118.91 c h
318.441 118.91 m f
Q Q
showpage
%%Trailer
end restore
%%EOF
