%!PS-Adobe-3.0 EPSF-3.0
%%Creator: cairo 1.14.8 (http://cairographics.org)
%%CreationDate: Fri Feb 22 08:48:37 2019
%%Pages: 1
%%DocumentData: Clean7Bit
%%LanguageLevel: 2
%%BoundingBox: 0 0 384 384
%%EndComments
%%BeginProlog
save
50 dict begin
/q { gsave } bind def
/Q { grestore } bind def
/cm { 6 array astore concat } bind def
/w { setlinewidth } bind def
/J { setlinecap } bind def
/j { setlinejoin } bind def
/M { setmiterlimit } bind def
/d { setdash } bind def
/m { moveto } bind def
/l { lineto } bind def
/c { curveto } bind def
/h { closepath } bind def
/re { exch dup neg 3 1 roll 5 3 roll moveto 0 rlineto
      0 exch rlineto 0 rlineto closepath } bind def
/S { stroke } bind def
/f { fill } bind def
/f* { eofill } bind def
/n { newpath } bind def
/W { clip } bind def
/W* { eoclip } bind def
/BT { } bind def
/ET { } bind def
/pdfmark where { pop globaldict /?pdfmark /exec load put }
    { globaldict begin /?pdfmark /pop load def /pdfmark
    /cleartomark load def end } ifelse
/BDC { mark 3 1 roll /BDC pdfmark } bind def
/EMC { mark /EMC pdfmark } bind def
/cairo_store_point { /cairo_point_y exch def /cairo_point_x exch def } def
/Tj { show currentpoint cairo_store_point } bind def
/TJ {
  {
    dup
    type /stringtype eq
    { show } { -0.001 mul 0 cairo_font_matrix dtransform rmoveto } ifelse
  } forall
  currentpoint cairo_store_point
} bind def
/cairo_selectfont { cairo_font_matrix aload pop pop pop 0 0 6 array astore
    cairo_font exch selectfont cairo_point_x cairo_point_y moveto } bind def
/Tf { pop /cairo_font exch def /cairo_font_matrix where
      { pop cairo_selectfont } if } bind def
/Td { matrix translate cairo_font_matrix matrix concatmatrix dup
      /cairo_font_matrix exch def dup 4 get exch 5 get cairo_store_point
      /cairo_font where { pop cairo_selectfont } if } bind def
/Tm { 2 copy 8 2 roll 6 array astore /cairo_font_matrix exch def
      cairo_store_point /cairo_font where { pop cairo_selectfont } if } bind def
/g { setgray } bind def
/rg { setrgbcolor } bind def
/d1 { setcachedevice } bind def
%%EndProlog
%%BeginSetup
%%EndSetup
%%Page: 1 1
%%BeginPageSetup
%%PageBoundingBox: 0 0 384 384
%%EndPageSetup
q 0 0 384 384 rectclip q
0.992157 0.74902 0 rg
384 192 m 384 85.961 298.039 0 192 0 c 85.961 0 0 85.961 0 192 c 0 298.039
 85.961 384 192 384 c 298.039 384 384 298.039 384 192 c h
384 192 m f
1 0.568627 0 rg
384 192 m 384 207.207 382.223 221.996 378.883 236.184 c 307.566 307.496
 l 76.445 76.375 l 147.672 5.152 l 161.902 1.789 176.742 0 192 0 c 298.039
 0 384 85.961 384 192 c h
384 192 m f
0.341176 0.372549 0.392157 rg
76.426 307.5 231.148 -231.152 re f
0.196078 0.223529 0.247059 rg
192 307.5 115.574 -231.152 re f
0.764706 0.917647 0.129412 rg
89.969 293.957 204.062 -204.062 re f
0.611765 0.866667 0.0196078 rg
192 293.957 102.031 -204.062 re f
0.341176 0.372549 0.392157 rg
185.227 266.418 m 185.227 178.379 l 185.227 167.141 176.152 158.066 164.914
 158.066 c 153.672 158.066 144.598 167.141 144.598 178.379 c 144.598 266.418
 l 103.965 266.418 l 103.965 178.379 l 103.965 144.793 131.324 117.434 164.914
 117.434 c 174.664 117.434 183.875 119.734 192 123.797 c 212.043 133.82 
225.859 154.543 225.859 178.379 c 225.859 266.418 l h
185.227 266.418 m f
0.196078 0.223529 0.247059 rg
239.402 144.52 41.086 -13.543 re f
239.402 171.609 41.086 -13.547 re f
225.859 266.418 m 225.859 178.379 l 225.859 154.543 212.047 133.82 192 
123.797 c 192 266.418 l h
225.859 266.418 m f
Q Q
showpage
%%Trailer
end restore
%%EOF
