%!PS-Adobe-3.0 EPSF-3.0
%%Creator: cairo 1.14.8 (http://cairographics.org)
%%CreationDate: Fri Feb 22 08:48:37 2019
%%Pages: 1
%%DocumentData: Clean7Bit
%%LanguageLevel: 2
%%BoundingBox: 0 0 384 384
%%EndComments
%%BeginProlog
save
50 dict begin
/q { gsave } bind def
/Q { grestore } bind def
/cm { 6 array astore concat } bind def
/w { setlinewidth } bind def
/J { setlinecap } bind def
/j { setlinejoin } bind def
/M { setmiterlimit } bind def
/d { setdash } bind def
/m { moveto } bind def
/l { lineto } bind def
/c { curveto } bind def
/h { closepath } bind def
/re { exch dup neg 3 1 roll 5 3 roll moveto 0 rlineto
      0 exch rlineto 0 rlineto closepath } bind def
/S { stroke } bind def
/f { fill } bind def
/f* { eofill } bind def
/n { newpath } bind def
/W { clip } bind def
/W* { eoclip } bind def
/BT { } bind def
/ET { } bind def
/pdfmark where { pop globaldict /?pdfmark /exec load put }
    { globaldict begin /?pdfmark /pop load def /pdfmark
    /cleartomark load def end } ifelse
/BDC { mark 3 1 roll /BDC pdfmark } bind def
/EMC { mark /EMC pdfmark } bind def
/cairo_store_point { /cairo_point_y exch def /cairo_point_x exch def } def
/Tj { show currentpoint cairo_store_point } bind def
/TJ {
  {
    dup
    type /stringtype eq
    { show } { -0.001 mul 0 cairo_font_matrix dtransform rmoveto } ifelse
  } forall
  currentpoint cairo_store_point
} bind def
/cairo_selectfont { cairo_font_matrix aload pop pop pop 0 0 6 array astore
    cairo_font exch selectfont cairo_point_x cairo_point_y moveto } bind def
/Tf { pop /cairo_font exch def /cairo_font_matrix where
      { pop cairo_selectfont } if } bind def
/Td { matrix translate cairo_font_matrix matrix concatmatrix dup
      /cairo_font_matrix exch def dup 4 get exch 5 get cairo_store_point
      /cairo_font where { pop cairo_selectfont } if } bind def
/Tm { 2 copy 8 2 roll 6 array astore /cairo_font_matrix exch def
      cairo_store_point /cairo_font where { pop cairo_selectfont } if } bind def
/g { setgray } bind def
/rg { setrgbcolor } bind def
/d1 { setcachedevice } bind def
%%EndProlog
%%BeginSetup
%%EndSetup
%%Page: 1 1
%%BeginPageSetup
%%PageBoundingBox: 0 0 384 384
%%EndPageSetup
q 0 0 384 384 rectclip q
1 0.392157 0.101961 rg
384 192 m 384 85.961 298.039 0 192 0 c 85.961 0 0 85.961 0 192 c 0 298.039
 85.961 384 192 384 c 298.039 384 384 298.039 384 192 c h
384 192 m f
0.941176 0.219608 0 rg
251.375 242.832 m 234.43 259.777 l 66.426 91.773 l 154.535 3.664 l 166.652
 1.266 179.18 0 192 0 c 298.039 0 384 85.961 384 192 c 384 208.242 381.977
 224.008 378.18 239.07 c 312.895 304.352 l h
251.375 242.832 m f
0.341176 0.372549 0.392157 rg
71.09 304.352 241.82 -192.602 re f
1 0.854902 0.176471 rg
87.141 288.301 209.719 -168.527 re f
0.196078 0.223529 0.247059 rg
192 304.352 120.91 -192.602 re f
0.992157 0.74902 0 rg
192 288.301 104.859 -168.527 re f
1 0.392157 0.101961 rg
135.824 159.898 112.352 -48.148 re f
0.196078 0.223529 0.247059 rg
215.008 224.359 m 216.629 219.801 216.863 214.875 215.59 210.102 c 213.93
 203.898 209.938 198.699 204.375 195.488 c 201.918 194.07 199.297 193.301
 196.648 192.82 c 213.473 163.68 l 220.426 167.691 l 237.703 177.676 248.465
 196.312 248.504 216.32 c 248.52 224.359 l h
215.008 224.359 m f
0.341176 0.372549 0.392157 rg
227.309 261.016 m 210.457 231.484 l 207.246 235.336 203.395 238.387 198.578
 239.668 c 196.332 240.312 194.246 240.473 192 240.473 c 187.988 240.473
 183.816 239.348 180.285 237.262 c 177.875 235.816 175.949 233.891 174.184
 231.805 c 157.332 261.016 l 164.234 265.027 l 172.738 270.004 182.531 272.574
 192 272.574 c 201.789 272.574 211.582 270.004 220.41 265.027 c h
227.309 261.016 m f
171.484 204.289 m 168 210.332 167.188 216.672 169.957 224.359 c 136.184
 224.359 l 136.156 210.672 136.008 201.551 143.684 188.246 c 151.391 174.914
 159.418 170.477 171.207 163.699 c 188.023 192.832 l 181.324 194.062 175.152
 197.949 171.484 204.289 c h
171.484 204.289 m f
199.223 220.41 m 197.777 222.977 195.051 224.422 192.32 224.422 c 192.16
 224.422 192.16 224.422 192 224.422 c 190.875 224.422 189.434 224.102 188.309
 223.297 c 184.457 221.051 183.172 216.074 185.418 212.383 c 186.703 209.977
 189.273 208.531 192 208.371 c 193.445 208.211 194.887 208.531 196.332 209.336
 c 200.184 211.582 201.469 216.559 199.223 220.41 c h
199.223 220.41 m f
0.196078 0.223529 0.247059 rg
196.332 209.336 m 194.887 208.531 193.445 208.211 192 208.371 c 192 224.422
 l 192.16 224.422 192.16 224.422 192.32 224.422 c 195.051 224.422 197.777
 222.977 199.223 220.41 c 201.469 216.559 200.184 211.582 196.332 209.336
 c h
196.332 209.336 m f
198.578 239.668 m 196.332 240.312 194.246 240.473 192 240.473 c 192 272.57
 l 201.789 272.57 211.582 270.004 220.41 265.027 c 227.312 261.016 l 210.457
 231.484 l 207.246 235.336 203.395 238.383 198.578 239.668 c h
198.578 239.668 m f
0.941176 0.219608 0 rg
192 159.898 56.176 -48.148 re f
0.733333 0.862745 1 rg
55.039 127.801 m 55.039 119.773 l 55.039 97.625 73.016 79.648 95.164 79.648
 c 288.836 79.648 l 310.984 79.648 328.961 97.625 328.961 119.773 c 328.961
 127.801 l h
55.039 127.801 m f
0.603922 0.729412 0.858824 rg
328.961 127.801 m 328.961 119.773 l 328.961 97.625 310.984 79.648 288.836
 79.648 c 192 79.648 l 192 127.801 l h
328.961 127.801 m f
Q Q
showpage
%%Trailer
end restore
%%EOF
