%!PS-Adobe-3.0 EPSF-3.0
%%Creator: cairo 1.14.8 (http://cairographics.org)
%%CreationDate: Fri Feb 22 08:48:37 2019
%%Pages: 1
%%DocumentData: Clean7Bit
%%LanguageLevel: 2
%%BoundingBox: 0 0 384 384
%%EndComments
%%BeginProlog
save
50 dict begin
/q { gsave } bind def
/Q { grestore } bind def
/cm { 6 array astore concat } bind def
/w { setlinewidth } bind def
/J { setlinecap } bind def
/j { setlinejoin } bind def
/M { setmiterlimit } bind def
/d { setdash } bind def
/m { moveto } bind def
/l { lineto } bind def
/c { curveto } bind def
/h { closepath } bind def
/re { exch dup neg 3 1 roll 5 3 roll moveto 0 rlineto
      0 exch rlineto 0 rlineto closepath } bind def
/S { stroke } bind def
/f { fill } bind def
/f* { eofill } bind def
/n { newpath } bind def
/W { clip } bind def
/W* { eoclip } bind def
/BT { } bind def
/ET { } bind def
/pdfmark where { pop globaldict /?pdfmark /exec load put }
    { globaldict begin /?pdfmark /pop load def /pdfmark
    /cleartomark load def end } ifelse
/BDC { mark 3 1 roll /BDC pdfmark } bind def
/EMC { mark /EMC pdfmark } bind def
/cairo_store_point { /cairo_point_y exch def /cairo_point_x exch def } def
/Tj { show currentpoint cairo_store_point } bind def
/TJ {
  {
    dup
    type /stringtype eq
    { show } { -0.001 mul 0 cairo_font_matrix dtransform rmoveto } ifelse
  } forall
  currentpoint cairo_store_point
} bind def
/cairo_selectfont { cairo_font_matrix aload pop pop pop 0 0 6 array astore
    cairo_font exch selectfont cairo_point_x cairo_point_y moveto } bind def
/Tf { pop /cairo_font exch def /cairo_font_matrix where
      { pop cairo_selectfont } if } bind def
/Td { matrix translate cairo_font_matrix matrix concatmatrix dup
      /cairo_font_matrix exch def dup 4 get exch 5 get cairo_store_point
      /cairo_font where { pop cairo_selectfont } if } bind def
/Tm { 2 copy 8 2 roll 6 array astore /cairo_font_matrix exch def
      cairo_store_point /cairo_font where { pop cairo_selectfont } if } bind def
/g { setgray } bind def
/rg { setrgbcolor } bind def
/d1 { setcachedevice } bind def
%%EndProlog
%%BeginSetup
%%EndSetup
%%Page: 1 1
%%BeginPageSetup
%%PageBoundingBox: 0 0 384 384
%%EndPageSetup
q 0 0 384 384 rectclip q
0.992157 0.74902 0 rg
384 192 m 384 85.961 298.039 0 192 0 c 85.961 0 0 85.961 0 192 c 0 298.039
 85.961 384 192 384 c 298.039 384 384 298.039 384 192 c h
384 192 m f
1 0.568627 0 rg
381.777 221.305 m 298.609 304.473 l 210.188 218.062 l 159.227 241.41 l 
148.539 230.723 l 186.699 192.562 l 147.656 218.246 l 136.969 207.559 l 
169.336 175.195 l 162.727 168.586 l 136.086 195.227 l 125.398 184.539 l 
152.039 157.898 l 143.32 149.18 l 122.449 170.051 l 113.797 161.395 l 134.664
 140.527 l 118.758 124.617 l 104.391 138.984 l 76.336 110.93 l 187.203 0.062
 l 188.797 0.023 190.398 0 192 0 c 298.039 0 384 85.961 384 192 c 384 201.965
 383.242 211.75 381.777 221.305 c h
381.777 221.305 m f
0.878431 0.956863 1 rg
299.328 299.188 m 298.613 304.477 l 293.18 305.191 l 279.602 307.191 231.004
 310.91 174.398 276.891 c 166.539 272.172 l 211.418 227.434 l 209.418 225.434
 l 152.961 244.301 l 148.527 230.723 l 198.125 214.141 l 189.266 205.277
 l 141.383 221.145 l 136.949 207.566 l 177.973 193.984 l 168.969 184.98 
l 129.945 198.129 l 125.371 184.551 l 157.676 173.688 l 148.812 164.824 
l 118.367 174.977 l 113.793 161.395 l 137.52 153.535 l 127.516 143.527 l
 56.523 143.527 l 70.914 118.371 l 74.914 110.367 82.348 104.793 91.355 
103.363 c 93.211 103.078 95.07 102.934 97.07 103.078 c 97.215 103.078 l 
97.07 101.074 97.215 99.215 97.5 97.215 c 98.93 88.355 104.363 80.922 112.508
 76.777 c 137.477 62.512 l 137.477 133.523 l 147.672 143.387 l 155.535 119.801
 l 169.113 124.23 l 158.965 154.676 l 167.824 163.68 l 178.547 131.234 l
 192.125 135.809 l 179.121 174.973 l 187.98 183.836 l 201.703 142.812 l 
215.281 147.387 l 199.418 195.129 l 208.277 204.133 l 224.859 154.391 l 
238.438 158.965 l 219.57 215.426 l 221.43 217.285 l 266.312 172.547 l 271.027
 180.406 l 304.902 236.867 301.184 285.609 299.328 299.188 c h
299.328 299.188 m f
0.733333 0.862745 1 rg
271.023 180.406 m 266.309 172.547 l 221.426 217.285 l 219.566 215.426 l
 238.434 158.969 l 224.855 154.395 l 208.273 204.133 l 199.414 195.129 l
 215.277 147.387 l 201.699 142.812 l 187.977 183.836 l 179.117 174.977 l
 192.121 135.812 l 178.543 131.238 l 167.82 163.684 l 158.961 154.676 l 
169.109 124.23 l 155.531 119.801 l 147.668 143.387 l 137.473 133.523 l 137.473
 62.512 l 112.504 76.777 l 104.359 80.922 98.926 88.355 97.496 97.219 c 
97.211 99.219 97.066 101.074 97.211 103.078 c 298.609 304.477 l 299.324 
299.188 l 301.184 285.609 304.902 236.867 271.023 180.406 c h
271.023 180.406 m f
0.341176 0.372549 0.392157 rg
271.406 264.055 m 271.406 250.238 l 259.02 250.238 l 259.02 238.324 l 245.203
 238.324 l 245.324 251.191 l 232.336 251.191 l 232.336 264.055 l 245.203
 264.055 l 245.203 277.395 l 258.441 277.395 l 258.453 264.055 l 258.191
 264.055 l h
271.406 264.055 m f
0.196078 0.223529 0.247059 rg
271.406 264.055 m 271.406 250.238 l 259.02 250.238 l 259.02 238.324 l 245.203
 238.324 l 245.324 251.191 l 258.191 264.055 l h
271.406 264.055 m f
Q Q
showpage
%%Trailer
end restore
%%EOF
