%!PS-Adobe-3.0 EPSF-3.0
%%Creator: cairo 1.14.8 (http://cairographics.org)
%%CreationDate: Fri Feb 22 08:48:37 2019
%%Pages: 1
%%DocumentData: Clean7Bit
%%LanguageLevel: 2
%%BoundingBox: 0 0 384 384
%%EndComments
%%BeginProlog
save
50 dict begin
/q { gsave } bind def
/Q { grestore } bind def
/cm { 6 array astore concat } bind def
/w { setlinewidth } bind def
/J { setlinecap } bind def
/j { setlinejoin } bind def
/M { setmiterlimit } bind def
/d { setdash } bind def
/m { moveto } bind def
/l { lineto } bind def
/c { curveto } bind def
/h { closepath } bind def
/re { exch dup neg 3 1 roll 5 3 roll moveto 0 rlineto
      0 exch rlineto 0 rlineto closepath } bind def
/S { stroke } bind def
/f { fill } bind def
/f* { eofill } bind def
/n { newpath } bind def
/W { clip } bind def
/W* { eoclip } bind def
/BT { } bind def
/ET { } bind def
/pdfmark where { pop globaldict /?pdfmark /exec load put }
    { globaldict begin /?pdfmark /pop load def /pdfmark
    /cleartomark load def end } ifelse
/BDC { mark 3 1 roll /BDC pdfmark } bind def
/EMC { mark /EMC pdfmark } bind def
/cairo_store_point { /cairo_point_y exch def /cairo_point_x exch def } def
/Tj { show currentpoint cairo_store_point } bind def
/TJ {
  {
    dup
    type /stringtype eq
    { show } { -0.001 mul 0 cairo_font_matrix dtransform rmoveto } ifelse
  } forall
  currentpoint cairo_store_point
} bind def
/cairo_selectfont { cairo_font_matrix aload pop pop pop 0 0 6 array astore
    cairo_font exch selectfont cairo_point_x cairo_point_y moveto } bind def
/Tf { pop /cairo_font exch def /cairo_font_matrix where
      { pop cairo_selectfont } if } bind def
/Td { matrix translate cairo_font_matrix matrix concatmatrix dup
      /cairo_font_matrix exch def dup 4 get exch 5 get cairo_store_point
      /cairo_font where { pop cairo_selectfont } if } bind def
/Tm { 2 copy 8 2 roll 6 array astore /cairo_font_matrix exch def
      cairo_store_point /cairo_font where { pop cairo_selectfont } if } bind def
/g { setgray } bind def
/rg { setrgbcolor } bind def
/d1 { setcachedevice } bind def
%%EndProlog
%%BeginSetup
%%EndSetup
%%Page: 1 1
%%BeginPageSetup
%%PageBoundingBox: 0 0 384 384
%%EndPageSetup
q 0 0 384 384 rectclip q
0.776471 0.443137 0.352941 rg
384 192 m 384 85.961 298.039 0 192 0 c 85.961 0 0 85.961 0 192 c 0 298.039
 85.961 384 192 384 c 298.039 384 384 298.039 384 192 c h
384 192 m f
0.6 0.313726 0.239216 rg
382.863 171.109 m 297.496 256.48 l 274.508 233.488 l 223.297 284.695 l 
118.32 179.723 l 141.047 156.996 l 72.555 88.504 l 158.07 2.988 l 169.082
 1.023 180.422 0 192 0 c 290.98 0 372.453 74.898 382.863 171.109 c h
382.863 171.109 m f
1 0.568627 0 rg
297.465 256.5 m 297.465 217.301 l 262.469 220.66 l 255.465 221.359 l 255.465
 256.5 l h
297.465 256.5 m f
0.603922 0.729412 0.858824 rg
311.465 207.5 m 311.465 88.5 l 283.469 88.5 l 262.469 110.48 l 260.367 
112.719 l 241.469 88.5 l 226.535 88.5 l 212.535 95.223 l 212.535 222.48 
l 217.574 224.02 l 227.234 226.961 241.328 228.5 255.469 228.5 c 256.449
 228.5 258.969 228.5 262.469 228.359 c 277.867 227.66 311.465 224.16 311.465
 207.5 c h
311.465 207.5 m f
0.196078 0.223529 0.247059 rg
241.469 200.5 42 -42 re f
0.992157 0.74902 0 rg
255.465 186.5 14 -14 re f
0.196078 0.223529 0.247059 rg
283.469 144.5 m 283.469 88.5 l 269.465 88.5 l 262.469 95.5 l 255.465 88.5
 l 241.469 88.5 l 241.469 144.5 l h
283.469 144.5 m f
0.878431 0.956863 1 rg
226.531 277.5 m 226.531 256.5 l 220.375 249.781 l 220.375 102.5 l 212.535
 88.5 l 128.535 88.5 l 114.535 109.5 l 114.535 158.5 l 81.914 158.5 l 72.535
 172.5 l 72.535 277.5 l 72.535 296.961 131.473 298.5 149.535 298.5 c 167.594
 298.5 226.531 296.961 226.531 277.5 c h
226.531 277.5 m f
0.733333 0.862745 1 rg
226.531 277.5 m 226.531 256.5 l 220.375 249.781 l 220.375 102.5 l 212.535
 88.5 l 149.535 88.5 l 149.535 298.5 l 167.594 298.5 226.531 296.961 226.531
 277.5 c h
226.531 277.5 m f
0.196078 0.223529 0.247059 rg
177.535 130.5 42 -14 re f
177.535 158.5 42 -14 re f
177.535 186.5 42 -14 re f
177.535 214.5 42 -14 re f
177.535 242.5 42 -14 re f
0.341176 0.372549 0.392157 rg
72.535 172.5 56 -84 re f
0.603922 0.729412 0.858824 rg
100.531 200.5 14.004 -14 re f
100.531 228.5 14.004 -14 re f
0.341176 0.372549 0.392157 rg
170.535 256.5 14 -168 re f
212.535 256.5 14 -168 re f
1 0.854902 0.176471 rg
86.535 158.5 28 -70 re f
0.992157 0.74902 0 rg
255.465 130.5 14 -42 re f
Q Q
showpage
%%Trailer
end restore
%%EOF
