%!PS-Adobe-3.0 EPSF-3.0
%%Creator: cairo 1.14.8 (http://cairographics.org)
%%CreationDate: Fri Feb 22 08:48:37 2019
%%Pages: 1
%%DocumentData: Clean7Bit
%%LanguageLevel: 2
%%BoundingBox: 0 0 384 384
%%EndComments
%%BeginProlog
save
50 dict begin
/q { gsave } bind def
/Q { grestore } bind def
/cm { 6 array astore concat } bind def
/w { setlinewidth } bind def
/J { setlinecap } bind def
/j { setlinejoin } bind def
/M { setmiterlimit } bind def
/d { setdash } bind def
/m { moveto } bind def
/l { lineto } bind def
/c { curveto } bind def
/h { closepath } bind def
/re { exch dup neg 3 1 roll 5 3 roll moveto 0 rlineto
      0 exch rlineto 0 rlineto closepath } bind def
/S { stroke } bind def
/f { fill } bind def
/f* { eofill } bind def
/n { newpath } bind def
/W { clip } bind def
/W* { eoclip } bind def
/BT { } bind def
/ET { } bind def
/pdfmark where { pop globaldict /?pdfmark /exec load put }
    { globaldict begin /?pdfmark /pop load def /pdfmark
    /cleartomark load def end } ifelse
/BDC { mark 3 1 roll /BDC pdfmark } bind def
/EMC { mark /EMC pdfmark } bind def
/cairo_store_point { /cairo_point_y exch def /cairo_point_x exch def } def
/Tj { show currentpoint cairo_store_point } bind def
/TJ {
  {
    dup
    type /stringtype eq
    { show } { -0.001 mul 0 cairo_font_matrix dtransform rmoveto } ifelse
  } forall
  currentpoint cairo_store_point
} bind def
/cairo_selectfont { cairo_font_matrix aload pop pop pop 0 0 6 array astore
    cairo_font exch selectfont cairo_point_x cairo_point_y moveto } bind def
/Tf { pop /cairo_font exch def /cairo_font_matrix where
      { pop cairo_selectfont } if } bind def
/Td { matrix translate cairo_font_matrix matrix concatmatrix dup
      /cairo_font_matrix exch def dup 4 get exch 5 get cairo_store_point
      /cairo_font where { pop cairo_selectfont } if } bind def
/Tm { 2 copy 8 2 roll 6 array astore /cairo_font_matrix exch def
      cairo_store_point /cairo_font where { pop cairo_selectfont } if } bind def
/g { setgray } bind def
/rg { setrgbcolor } bind def
/d1 { setcachedevice } bind def
%%EndProlog
%%BeginSetup
%%EndSetup
%%Page: 1 1
%%BeginPageSetup
%%PageBoundingBox: 0 0 384 384
%%EndPageSetup
q 0 0 384 384 rectclip q
0.776471 0.443137 0.352941 rg
384 192 m 384 85.961 298.039 0 192 0 c 85.961 0 0 85.961 0 192 c 0 298.039
 85.961 384 192 384 c 298.039 384 384 298.039 384 192 c h
384 192 m f
0.6 0.313726 0.239216 rg
252.164 308.977 m 198.656 295.594 l 185.328 309 l 127.25 298.5 l 78.031
 81 l 155.559 3.469 l 167.359 1.203 179.539 0 192 0 c 293.219 0 376.141 
78.328 383.469 177.672 c h
252.164 308.977 m f
0.996078 0.823529 0.643137 rg
185.32 309 m 185.32 295.641 l 138.562 295.641 l 134.82 295.641 131.883 
292.703 131.883 288.961 c 131.883 275.602 l 118.523 275.602 l 118.523 288.961
 l 118.523 294.84 121.062 300.184 125.203 303.789 c 128.676 306.996 133.352
 309 138.562 309 c h
185.32 309 m f
1 0.741176 0.52549 rg
171.961 282.281 40.078 -13.359 re f
198.68 309 53.438 -13.359 re f
225.398 282.281 13.359 -13.359 re f
1 0.392157 0.101961 rg
147.781 255.562 m 134.02 242.203 l 110.375 242.203 l 102.625 255.562 l 
105.965 282.281 l 144.441 282.281 l h
147.781 255.562 m f
1 0.741176 0.52549 rg
185.32 309 m 185.32 295.641 l 138.562 295.641 l 134.82 295.641 131.883 
292.703 131.883 288.961 c 131.883 275.602 l 125.203 275.602 l 125.203 303.789
 l 128.676 306.996 133.352 309 138.562 309 c h
185.32 309 m f
0.941176 0.219608 0 rg
134.02 242.203 m 125.203 242.203 l 125.203 282.281 l 144.441 282.281 l 
147.781 255.562 l h
134.02 242.203 m f
0.341176 0.372549 0.392157 rg
147.781 255.562 m 102.625 255.562 l 98.352 221.766 95.145 195.402 90.871
 161.602 c 159.539 161.602 l 155.262 195.402 152.055 221.766 147.781 255.562
 c h
147.781 255.562 m f
0.196078 0.223529 0.247059 rg
147.781 255.562 m 152.055 221.766 155.262 195.402 159.535 161.602 c 125.203
 161.602 l 125.203 255.562 l h
147.781 255.562 m f
0.603922 0.729412 0.858824 rg
252.117 184.406 m 252.117 224.484 l 212.039 184.406 l 212.039 224.484 l
 160.559 173.004 l 170.004 163.559 l 278.836 168.281 l 292.195 168.281 l
 292.195 224.484 l h
252.117 184.406 m f
0.878431 0.956863 1 rg
306 174.961 m 306 81 l 151.922 81 l 127.742 102.285 l 125.203 100.414 l
 98.484 81 l 78 81 l 78 174.961 l h
306 174.961 m f
0.733333 0.862745 1 rg
306 174.961 m 306 81 l 151.922 81 l 127.742 102.285 l 125.203 100.414 l
 125.203 174.961 l h
306 174.961 m f
0.603922 0.729412 0.858824 rg
171.961 148.242 26.719 -13.359 re f
171.961 121.523 26.719 -13.359 re f
212.039 148.242 26.719 -13.359 re f
212.039 121.523 26.719 -13.359 re f
252.117 148.242 26.719 -13.359 re f
252.117 121.523 26.719 -13.359 re f
0.341176 0.372549 0.392157 rg
151.922 148.242 m 151.922 81 l 138.562 81 l 138.562 81 127.742 89.816 127.742
 91.02 c 127.742 91.285 126.672 90.887 125.203 89.953 c 120.793 87.277 111.844
 81 111.844 81 c 98.484 81 l 98.484 148.242 l h
151.922 148.242 m f
0.196078 0.223529 0.247059 rg
151.922 148.242 m 151.922 81 l 138.562 81 l 138.562 81 127.742 89.816 127.742
 91.02 c 127.742 91.285 126.672 90.887 125.203 89.953 c 125.203 148.242 
l h
151.922 148.242 m f
1 0.568627 0 rg
111.844 134.883 26.719 -53.883 re f
1 0.392157 0.101961 rg
125.203 134.883 13.359 -53.883 re f
Q Q
showpage
%%Trailer
end restore
%%EOF
