%!PS-Adobe-3.0 EPSF-3.0
%%Creator: cairo 1.14.8 (http://cairographics.org)
%%CreationDate: Fri Feb 22 08:48:37 2019
%%Pages: 1
%%DocumentData: Clean7Bit
%%LanguageLevel: 2
%%BoundingBox: 0 0 384 384
%%EndComments
%%BeginProlog
save
50 dict begin
/q { gsave } bind def
/Q { grestore } bind def
/cm { 6 array astore concat } bind def
/w { setlinewidth } bind def
/J { setlinecap } bind def
/j { setlinejoin } bind def
/M { setmiterlimit } bind def
/d { setdash } bind def
/m { moveto } bind def
/l { lineto } bind def
/c { curveto } bind def
/h { closepath } bind def
/re { exch dup neg 3 1 roll 5 3 roll moveto 0 rlineto
      0 exch rlineto 0 rlineto closepath } bind def
/S { stroke } bind def
/f { fill } bind def
/f* { eofill } bind def
/n { newpath } bind def
/W { clip } bind def
/W* { eoclip } bind def
/BT { } bind def
/ET { } bind def
/pdfmark where { pop globaldict /?pdfmark /exec load put }
    { globaldict begin /?pdfmark /pop load def /pdfmark
    /cleartomark load def end } ifelse
/BDC { mark 3 1 roll /BDC pdfmark } bind def
/EMC { mark /EMC pdfmark } bind def
/cairo_store_point { /cairo_point_y exch def /cairo_point_x exch def } def
/Tj { show currentpoint cairo_store_point } bind def
/TJ {
  {
    dup
    type /stringtype eq
    { show } { -0.001 mul 0 cairo_font_matrix dtransform rmoveto } ifelse
  } forall
  currentpoint cairo_store_point
} bind def
/cairo_selectfont { cairo_font_matrix aload pop pop pop 0 0 6 array astore
    cairo_font exch selectfont cairo_point_x cairo_point_y moveto } bind def
/Tf { pop /cairo_font exch def /cairo_font_matrix where
      { pop cairo_selectfont } if } bind def
/Td { matrix translate cairo_font_matrix matrix concatmatrix dup
      /cairo_font_matrix exch def dup 4 get exch 5 get cairo_store_point
      /cairo_font where { pop cairo_selectfont } if } bind def
/Tm { 2 copy 8 2 roll 6 array astore /cairo_font_matrix exch def
      cairo_store_point /cairo_font where { pop cairo_selectfont } if } bind def
/g { setgray } bind def
/rg { setrgbcolor } bind def
/d1 { setcachedevice } bind def
%%EndProlog
%%BeginSetup
%%EndSetup
%%Page: 1 1
%%BeginPageSetup
%%PageBoundingBox: 0 0 384 384
%%EndPageSetup
q 0 0 384 384 rectclip q
0.611765 0.866667 0.0196078 rg
384 192 m 384 85.961 298.039 0 192 0 c 85.961 0 0 85.961 0 192 c 0 298.039
 85.961 384 192 384 c 298.039 384 384 298.039 384 192 c h
384 192 m f
0.4 0.733333 0 rg
384 192 m 384 196.359 383.84 200.68 383.555 204.965 c 260.02 328.5 l 166.57
 235.047 l 106.355 295.262 l 93.742 282.645 l 108.871 267.512 l 93.754 252.391
 l 138.832 207.309 l 133.859 202.34 l 164.355 171.84 l 93.754 101.234 l 
109.145 85.844 l 93.785 70.484 l 161.918 2.352 l 171.719 0.809 181.766 0
 192 0 c 298.039 0 384 85.961 384 192 c h
384 192 m f
1 0.854902 0.176471 rg
108.855 290.203 166.289 -212.145 re f
0.992157 0.74902 0 rg
192 290.203 83.145 -212.145 re f
1 0.392157 0.101961 rg
199.559 328.5 60.469 -37.793 re f
0.341176 0.372549 0.392157 rg
93.738 116.355 196.523 -15.117 re f
93.738 267.527 196.523 -15.117 re f
93.738 297.762 196.523 -15.117 re f
0.196078 0.223529 0.247059 rg
213.668 191.438 m 215.195 187.145 215.418 183.254 214.219 178.758 c 212.652
 172.91 208.895 168.02 203.656 164.992 c 201.34 163.656 198.871 162.934 
196.379 162.48 c 212.227 135.031 l 218.773 138.809 l 235.047 148.215 244.781
 165.766 244.816 184.609 c 244.832 191.438 l h
213.668 191.438 m f
0.341176 0.372549 0.392157 rg
225.258 226.711 m 209.387 198.895 l 206.363 202.523 202.734 205.395 198.195
 206.605 c 196.082 207.211 194.117 207.363 192 207.363 c 188.219 207.363
 184.289 206.305 180.965 204.34 c 178.695 202.977 176.883 201.164 175.219
 199.199 c 159.348 226.711 l 165.848 230.492 l 173.859 235.176 183.078 237.598
 192 237.598 c 201.219 237.598 210.441 235.176 218.758 230.492 c h
225.258 226.711 m f
172.676 173.281 m 169.398 178.977 168.629 184.195 171.238 191.438 c 139.633
 191.438 l 139.605 178.547 139.266 170.703 146.492 158.172 c 153.754 145.613
 161.312 141.434 172.418 135.051 c 188.258 162.488 l 181.945 163.648 176.133
 167.309 172.676 173.281 c h
172.676 173.281 m f
198.805 188.465 m 197.441 190.883 194.871 192.242 192.305 192.242 c 192.152
 192.242 192.152 192.242 192 192.242 c 190.941 192.242 189.582 191.941 188.523
 191.184 c 184.895 189.07 183.684 184.383 185.801 180.906 c 187.012 178.637
 189.43 177.277 192 177.125 c 193.359 176.977 194.723 177.277 196.082 178.035
 c 199.711 180.152 200.918 184.836 198.805 188.465 c h
198.805 188.465 m f
0.196078 0.223529 0.247059 rg
196.082 178.035 m 194.723 177.277 193.359 176.977 192 177.125 c 192 192.242
 l 192.152 192.242 192.152 192.242 192.305 192.242 c 194.871 192.242 197.441
 190.883 198.805 188.465 c 200.918 184.836 199.711 180.152 196.082 178.035
 c h
196.082 178.035 m f
198.199 206.605 m 196.082 207.211 194.117 207.363 192 207.363 c 192 237.598
 l 201.223 237.598 210.441 235.176 218.758 230.492 c 225.258 226.711 l 209.387
 198.895 l 206.363 202.523 202.734 205.395 198.199 206.605 c h
198.199 206.605 m f
0.341176 0.372549 0.392157 rg
93.738 85.617 196.523 -15.117 re f
0.196078 0.223529 0.247059 rg
192 297.762 98.262 -15.117 re f
192 267.527 98.262 -15.117 re f
192 116.355 98.262 -15.117 re f
192 85.617 98.262 -15.117 re f
Q Q
showpage
%%Trailer
end restore
%%EOF
