%!PS-Adobe-3.0 EPSF-3.0
%%Creator: cairo 1.14.8 (http://cairographics.org)
%%CreationDate: Fri Feb 22 08:48:37 2019
%%Pages: 1
%%DocumentData: Clean7Bit
%%LanguageLevel: 2
%%BoundingBox: 0 0 384 384
%%EndComments
%%BeginProlog
save
50 dict begin
/q { gsave } bind def
/Q { grestore } bind def
/cm { 6 array astore concat } bind def
/w { setlinewidth } bind def
/J { setlinecap } bind def
/j { setlinejoin } bind def
/M { setmiterlimit } bind def
/d { setdash } bind def
/m { moveto } bind def
/l { lineto } bind def
/c { curveto } bind def
/h { closepath } bind def
/re { exch dup neg 3 1 roll 5 3 roll moveto 0 rlineto
      0 exch rlineto 0 rlineto closepath } bind def
/S { stroke } bind def
/f { fill } bind def
/f* { eofill } bind def
/n { newpath } bind def
/W { clip } bind def
/W* { eoclip } bind def
/BT { } bind def
/ET { } bind def
/pdfmark where { pop globaldict /?pdfmark /exec load put }
    { globaldict begin /?pdfmark /pop load def /pdfmark
    /cleartomark load def end } ifelse
/BDC { mark 3 1 roll /BDC pdfmark } bind def
/EMC { mark /EMC pdfmark } bind def
/cairo_store_point { /cairo_point_y exch def /cairo_point_x exch def } def
/Tj { show currentpoint cairo_store_point } bind def
/TJ {
  {
    dup
    type /stringtype eq
    { show } { -0.001 mul 0 cairo_font_matrix dtransform rmoveto } ifelse
  } forall
  currentpoint cairo_store_point
} bind def
/cairo_selectfont { cairo_font_matrix aload pop pop pop 0 0 6 array astore
    cairo_font exch selectfont cairo_point_x cairo_point_y moveto } bind def
/Tf { pop /cairo_font exch def /cairo_font_matrix where
      { pop cairo_selectfont } if } bind def
/Td { matrix translate cairo_font_matrix matrix concatmatrix dup
      /cairo_font_matrix exch def dup 4 get exch 5 get cairo_store_point
      /cairo_font where { pop cairo_selectfont } if } bind def
/Tm { 2 copy 8 2 roll 6 array astore /cairo_font_matrix exch def
      cairo_store_point /cairo_font where { pop cairo_selectfont } if } bind def
/g { setgray } bind def
/rg { setrgbcolor } bind def
/d1 { setcachedevice } bind def
%%EndProlog
%%BeginSetup
%%EndSetup
%%Page: 1 1
%%BeginPageSetup
%%PageBoundingBox: 0 0 384 384
%%EndPageSetup
q 0 0 384 384 rectclip q
1 0.392157 0.101961 rg
384 192 m 384 85.961 298.039 0 192 0 c 85.961 0 0 85.961 0 192 c 0 298.039
 85.961 384 192 384 c 298.039 384 384 298.039 384 192 c h
384 192 m f
0.941176 0.219608 0 rg
383.941 196.727 m 290.719 289.945 l 94.324 93.551 l 187.824 0.051 l 189.211
 0.023 190.602 0 192 0 c 298.039 0 384 85.961 384 192 c 384 193.582 383.977
 195.156 383.941 196.727 c h
383.941 196.727 m f
0.341176 0.372549 0.392157 rg
192.164 331.27 m 115.129 331.27 52.73 268.379 52.73 192.164 c 52.73 115.293
 115.621 52.73 191.836 52.73 c 192 52.73 192 52.73 192.164 52.73 c 268.871
 52.895 331.27 115.785 331.27 191.836 c 331.27 268.871 268.379 331.27 192.164
 331.27 c h
192.164 331.27 m f
0.196078 0.223529 0.247059 rg
331.27 191.836 m 331.27 115.785 268.871 52.895 192.164 52.73 c 192.164 
331.27 l 268.379 331.27 331.27 268.871 331.27 191.836 c h
331.27 191.836 m f
1 0.854902 0.176471 rg
314.949 191.836 m 314.949 124.27 259.242 69.215 192.164 69.051 c 192 69.051
 192 69.051 191.836 69.051 c 124.922 69.051 69.051 123.945 69.051 192.164
 c 69.051 259.895 124.758 314.785 192.164 314.949 c 192.328 314.949 l 259.078
 314.949 314.949 260.059 314.949 191.836 c h
314.949 191.836 m f
0.992157 0.74902 0 rg
314.949 191.836 m 314.949 124.27 259.242 69.215 192.164 69.051 c 192.164
 314.949 l 192.328 314.949 l 259.078 314.949 314.949 260.059 314.949 191.836
 c h
314.949 191.836 m f
0.341176 0.372549 0.392157 rg
151.164 184.383 m 86.527 184.383 l 86.52 191.633 l 86.504 210.184 90.984
 228.531 100.316 244.684 c 109.633 260.828 123.062 274.266 139.141 283.531
 c 146.203 287.605 l 178.867 231.039 l 169.145 225.434 162.746 222.242 156.867
 212.059 c 150.895 201.723 151.141 195.637 151.164 184.383 c h
151.164 184.383 m f
0.196078 0.223529 0.247059 rg
298.074 184.383 m 232.891 184.383 l 232.832 215.293 223.523 220.66 205.516
 231.055 c 238.156 287.598 l 245.223 283.516 l 277.914 264.645 298.031 229.438
 298.062 191.648 c h
298.074 184.383 m f
0.341176 0.372549 0.392157 rg
219.582 160.34 m 212.562 156.258 l 206.363 152.668 199.18 150.871 192.164
 150.871 c 184.98 150.871 177.965 152.668 171.762 156.258 c 164.746 160.34
 l 132.105 103.871 l 148.426 94.402 165.234 85.59 192.164 85.59 c 219.254
 85.59 235.902 94.402 252.223 103.871 c h
219.582 160.34 m f
204.402 212.891 m 200.648 215.176 196.406 216.156 192.164 216.156 c 183.84
 216.156 175.516 211.746 170.945 203.914 c 164.254 192.164 168.172 177.148
 179.922 170.457 c 183.84 168.172 188.082 167.195 192.164 167.195 c 200.648
 167.195 208.973 171.598 213.379 179.434 c 220.07 191.02 216.152 206.035
 204.402 212.891 c h
204.402 212.891 m f
183.84 265.441 16.32 -16.32 re f
132.48 148.195 m 124.32 162.324 l 138.457 170.484 l 146.617 156.355 l h
132.48 148.195 m f
0.196078 0.223529 0.247059 rg
251.582 148.195 m 237.445 156.355 l 245.605 170.484 l 259.746 162.324 l
 h
251.582 148.195 m f
192.164 265.441 7.996 -16.32 re f
192.164 167.195 m 192.164 216.156 l 196.406 216.156 200.652 215.176 204.402
 212.891 c 216.152 206.035 220.07 191.02 213.379 179.434 c 208.973 171.598
 200.652 167.195 192.164 167.195 c h
192.164 167.195 m f
252.223 103.871 m 235.902 94.402 219.254 85.59 192.164 85.59 c 192.164 
150.871 l 199.18 150.871 206.363 152.668 212.562 156.258 c 219.582 160.34
 l h
252.223 103.871 m f
Q Q
showpage
%%Trailer
end restore
%%EOF
