%!PS-Adobe-3.0 EPSF-3.0
%%Creator: cairo 1.14.8 (http://cairographics.org)
%%CreationDate: Fri Feb 22 08:48:37 2019
%%Pages: 1
%%DocumentData: Clean7Bit
%%LanguageLevel: 2
%%BoundingBox: 0 0 384 384
%%EndComments
%%BeginProlog
save
50 dict begin
/q { gsave } bind def
/Q { grestore } bind def
/cm { 6 array astore concat } bind def
/w { setlinewidth } bind def
/J { setlinecap } bind def
/j { setlinejoin } bind def
/M { setmiterlimit } bind def
/d { setdash } bind def
/m { moveto } bind def
/l { lineto } bind def
/c { curveto } bind def
/h { closepath } bind def
/re { exch dup neg 3 1 roll 5 3 roll moveto 0 rlineto
      0 exch rlineto 0 rlineto closepath } bind def
/S { stroke } bind def
/f { fill } bind def
/f* { eofill } bind def
/n { newpath } bind def
/W { clip } bind def
/W* { eoclip } bind def
/BT { } bind def
/ET { } bind def
/pdfmark where { pop globaldict /?pdfmark /exec load put }
    { globaldict begin /?pdfmark /pop load def /pdfmark
    /cleartomark load def end } ifelse
/BDC { mark 3 1 roll /BDC pdfmark } bind def
/EMC { mark /EMC pdfmark } bind def
/cairo_store_point { /cairo_point_y exch def /cairo_point_x exch def } def
/Tj { show currentpoint cairo_store_point } bind def
/TJ {
  {
    dup
    type /stringtype eq
    { show } { -0.001 mul 0 cairo_font_matrix dtransform rmoveto } ifelse
  } forall
  currentpoint cairo_store_point
} bind def
/cairo_selectfont { cairo_font_matrix aload pop pop pop 0 0 6 array astore
    cairo_font exch selectfont cairo_point_x cairo_point_y moveto } bind def
/Tf { pop /cairo_font exch def /cairo_font_matrix where
      { pop cairo_selectfont } if } bind def
/Td { matrix translate cairo_font_matrix matrix concatmatrix dup
      /cairo_font_matrix exch def dup 4 get exch 5 get cairo_store_point
      /cairo_font where { pop cairo_selectfont } if } bind def
/Tm { 2 copy 8 2 roll 6 array astore /cairo_font_matrix exch def
      cairo_store_point /cairo_font where { pop cairo_selectfont } if } bind def
/g { setgray } bind def
/rg { setrgbcolor } bind def
/d1 { setcachedevice } bind def
%%EndProlog
%%BeginSetup
%%EndSetup
%%Page: 1 1
%%BeginPageSetup
%%PageBoundingBox: 0 0 384 384
%%EndPageSetup
q 0 0 384 384 rectclip q
0.611765 0.866667 0.0196078 rg
384 192 m 384 85.961 298.039 0 192 0 c 85.961 0 0 85.961 0 192 c 0 298.039
 85.961 384 192 384 c 298.039 384 384 298.039 384 192 c h
384 192 m f
0.4 0.733333 0 rg
316.297 272.059 m 286.891 301.465 l 257.703 272.277 l 228.484 301.496 l
 184.68 257.691 l 140.875 301.496 l 113.25 273.871 l 113.016 274.102 l 67.41
 228.496 l 140.406 155.5 l 67.41 82.504 l 143.812 6.102 l 159.211 2.121 
175.359 0 192 0 c 298.039 0 384 85.961 384 192 c 384 196.48 383.832 200.922
 383.531 205.328 c 316.547 272.312 l h
316.297 272.059 m f
0.733333 0.862745 1 rg
97.102 301.5 43.797 -36.5 re f
0.603922 0.729412 0.858824 rg
243.102 301.5 43.797 -36.5 re f
0.733333 0.862745 1 rg
155.5 301.5 73 -36.5 re f
0.603922 0.729412 0.858824 rg
192 301.5 36.5 -36.5 re f
0.341176 0.372549 0.392157 rg
82.5 235.801 219 -116.801 re f
0.196078 0.223529 0.247059 rg
192 235.801 109.5 -116.801 re f
1 0.854902 0.176471 rg
67.414 126.301 249.172 -43.801 re f
67.414 272.301 249.172 -43.801 re f
0.878431 0.956863 1 rg
155.5 199.301 m 140.898 199.301 l 140.898 213.898 l 126.301 213.898 l 126.301
 199.301 l 111.699 199.301 l 111.699 184.699 l 126.301 184.699 l 126.301
 170.102 l 140.898 170.102 l 140.898 184.699 l 155.5 184.699 l h
155.5 199.301 m f
0.733333 0.862745 1 rg
228.5 199.301 43.801 -14.602 re f
1 0.854902 0.176471 rg
224.266 184.699 m 192 152.578 l 182.508 143.09 l 172.289 153.309 l 188.934
 170.102 l 159.734 170.102 l 192 202.219 l 201.492 211.711 l 211.711 201.492
 l 195.066 184.699 l h
224.266 184.699 m f
0.992157 0.74902 0 rg
224.266 184.699 m 192 152.578 l 192 202.219 l 201.492 211.711 l 211.711
 201.492 l 195.066 184.699 l h
224.266 184.699 m f
1 0.568627 0 rg
192 272.301 124.586 -43.801 re f
192 126.301 124.586 -43.801 re f
Q Q
showpage
%%Trailer
end restore
%%EOF
