%!PS-Adobe-3.0 EPSF-3.0
%%Creator: cairo 1.14.8 (http://cairographics.org)
%%CreationDate: Fri Feb 22 08:48:37 2019
%%Pages: 1
%%DocumentData: Clean7Bit
%%LanguageLevel: 2
%%BoundingBox: 0 0 384 384
%%EndComments
%%BeginProlog
save
50 dict begin
/q { gsave } bind def
/Q { grestore } bind def
/cm { 6 array astore concat } bind def
/w { setlinewidth } bind def
/J { setlinecap } bind def
/j { setlinejoin } bind def
/M { setmiterlimit } bind def
/d { setdash } bind def
/m { moveto } bind def
/l { lineto } bind def
/c { curveto } bind def
/h { closepath } bind def
/re { exch dup neg 3 1 roll 5 3 roll moveto 0 rlineto
      0 exch rlineto 0 rlineto closepath } bind def
/S { stroke } bind def
/f { fill } bind def
/f* { eofill } bind def
/n { newpath } bind def
/W { clip } bind def
/W* { eoclip } bind def
/BT { } bind def
/ET { } bind def
/pdfmark where { pop globaldict /?pdfmark /exec load put }
    { globaldict begin /?pdfmark /pop load def /pdfmark
    /cleartomark load def end } ifelse
/BDC { mark 3 1 roll /BDC pdfmark } bind def
/EMC { mark /EMC pdfmark } bind def
/cairo_store_point { /cairo_point_y exch def /cairo_point_x exch def } def
/Tj { show currentpoint cairo_store_point } bind def
/TJ {
  {
    dup
    type /stringtype eq
    { show } { -0.001 mul 0 cairo_font_matrix dtransform rmoveto } ifelse
  } forall
  currentpoint cairo_store_point
} bind def
/cairo_selectfont { cairo_font_matrix aload pop pop pop 0 0 6 array astore
    cairo_font exch selectfont cairo_point_x cairo_point_y moveto } bind def
/Tf { pop /cairo_font exch def /cairo_font_matrix where
      { pop cairo_selectfont } if } bind def
/Td { matrix translate cairo_font_matrix matrix concatmatrix dup
      /cairo_font_matrix exch def dup 4 get exch 5 get cairo_store_point
      /cairo_font where { pop cairo_selectfont } if } bind def
/Tm { 2 copy 8 2 roll 6 array astore /cairo_font_matrix exch def
      cairo_store_point /cairo_font where { pop cairo_selectfont } if } bind def
/g { setgray } bind def
/rg { setrgbcolor } bind def
/d1 { setcachedevice } bind def
%%EndProlog
%%BeginSetup
%%EndSetup
%%Page: 1 1
%%BeginPageSetup
%%PageBoundingBox: 0 0 384 384
%%EndPageSetup
q 0 0 384 384 rectclip q
0.992157 0.74902 0 rg
384 192 m 384 85.961 298.039 0 192 0 c 85.961 0 0 85.961 0 192 c 0 298.039
 85.961 384 192 384 c 298.039 384 384 298.039 384 192 c h
384 192 m f
1 0.568627 0 rg
383.941 187.285 m 244.047 327.18 l 221.738 304.871 l 214.301 312.309 l 
206.828 304.836 l 184.516 327.148 l 172.875 235.125 l 87 167.625 l 65.078
 88.195 l 148.266 5.008 l 162.316 1.734 176.953 0 192 0 c 296.465 0 381.438
 83.426 383.941 187.285 c h
383.941 187.285 m f
0.611765 0.866667 0.0196078 rg
311.504 222.562 m 311.504 177.441 l 288.691 177.441 l 288.691 125.375 l
 288.691 96.664 265.34 73.309 236.629 73.309 c 177.125 73.309 l 148.414 
73.309 125.059 96.664 125.059 125.375 c 125.059 177.441 l 109.688 177.441
 l 109.688 88.184 l 65.059 88.184 l 65.059 199.754 l 65.059 212.102 75.027
 222.562 87.371 222.562 c 125.059 222.562 l 125.059 244.879 l 125.059 246.516
 125.355 248.004 125.504 249.637 c 126.398 249.938 131.754 252.613 138.742
 256.332 c 140.977 253.207 143.355 251.422 147.82 251.273 c 151.242 251.273
 154.363 252.91 156.297 255.887 c 161.059 263.027 168.793 267.492 177.57
 267.191 c 186.051 267.191 193.934 262.879 198.547 255.738 c 200.48 253.059
 203.453 251.422 206.875 251.273 c 207.023 251.273 207.023 251.273 207.172
 251.273 c 211.039 250.828 213.867 252.91 215.801 255.887 c 220.562 263.027
 228.445 267.492 237.074 267.191 c 245.551 267.191 253.438 262.879 258.047
 255.738 c 259.832 253.059 262.957 251.422 266.379 251.273 c 272.18 251.273
 273.965 253.953 276.793 257.672 c 288.395 248.746 l 288.543 247.41 288.691
 246.219 288.691 244.879 c 288.691 222.566 l 311.504 222.566 l h
311.504 222.562 m f
0.4 0.733333 0 rg
311.504 222.562 m 311.504 177.441 l 288.691 177.441 l 288.691 125.375 l
 288.691 96.664 265.34 73.309 236.629 73.309 c 206.875 73.309 l 206.875 
251.273 l 207.023 251.273 207.023 251.273 207.172 251.273 c 211.039 250.828
 213.867 252.91 215.801 255.887 c 220.562 263.027 228.445 267.488 237.074
 267.191 c 245.551 267.191 253.438 262.879 258.047 255.738 c 259.832 253.059
 262.957 251.422 266.379 251.273 c 272.18 251.273 273.965 253.953 276.793
 257.672 c 288.395 248.746 l 288.543 247.406 288.691 246.215 288.691 244.879
 c 288.691 222.562 l h
311.504 222.562 m f
0.878431 0.956863 1 rg
288.246 251.57 m 284.973 277.457 262.809 296.941 236.629 296.941 c 177.125
 296.941 l 151.391 296.941 129.223 277.754 125.652 252.465 c 125.355 249.488
 l 131.008 241.457 137.406 236.398 147.672 236.398 c 147.82 236.398 147.82
 236.398 147.969 236.398 c 156.297 236.398 164.035 240.562 168.793 247.555
 c 170.727 250.531 173.852 252.316 177.422 252.316 c 177.57 252.316 l 180.992
 252.316 184.117 250.531 186.199 247.555 c 190.809 240.715 198.547 236.547
 206.875 236.398 c 207.027 236.398 207.027 236.398 207.176 236.398 c 207.324
 236.398 207.324 236.398 207.324 236.398 c 215.801 236.398 223.539 240.562
 228.297 247.555 c 230.23 250.531 233.355 252.316 236.926 252.316 c 237.074
 252.316 l 240.496 252.316 243.621 250.531 245.703 247.555 c 250.164 240.863
 257.75 236.695 266.082 236.398 c 276.496 236.102 282.742 241.012 288.543
 248.598 c h
288.246 251.57 m f
0.733333 0.862745 1 rg
288.543 248.598 m 282.742 241.008 276.496 236.102 266.082 236.398 c 257.75
 236.695 250.164 240.863 245.703 247.555 c 243.621 250.531 240.496 252.316
 237.074 252.316 c 236.926 252.316 l 233.355 252.316 230.23 250.531 228.297
 247.555 c 223.539 240.562 215.801 236.398 207.324 236.398 c 207.324 236.398
 207.324 236.398 207.176 236.398 c 207.023 236.398 207.023 236.398 206.875
 236.398 c 206.875 296.945 l 236.629 296.945 l 262.809 296.945 284.973 277.457
 288.246 251.574 c h
288.543 248.598 m f
199.438 312.316 14.875 -104.629 re f
169.688 327.191 14.875 -104.629 re f
0.603922 0.729412 0.858824 rg
229.191 327.191 14.875 -104.629 re f
0.733333 0.862745 1 rg
304.066 237.441 m 304.066 209.766 304.066 225.227 304.066 162.562 c 318.941
 162.562 l 318.941 225.559 318.941 213.172 318.941 237.441 c h
304.066 237.441 m f
0.764706 0.917647 0.129412 rg
154.809 192.316 14.879 -89.254 re f
184.562 192.316 14.875 -89.254 re f
0.611765 0.866667 0.0196078 rg
214.312 192.316 14.879 -89.254 re f
244.066 192.316 14.875 -89.254 re f
0.603922 0.729412 0.858824 rg
206.875 312.316 7.438 -104.629 re f
Q Q
showpage
%%Trailer
end restore
%%EOF
