%!PS-Adobe-3.0 EPSF-3.0
%%Creator: cairo 1.14.8 (http://cairographics.org)
%%CreationDate: Fri Feb 22 08:48:37 2019
%%Pages: 1
%%DocumentData: Clean7Bit
%%LanguageLevel: 2
%%BoundingBox: 0 0 384 384
%%EndComments
%%BeginProlog
save
50 dict begin
/q { gsave } bind def
/Q { grestore } bind def
/cm { 6 array astore concat } bind def
/w { setlinewidth } bind def
/J { setlinecap } bind def
/j { setlinejoin } bind def
/M { setmiterlimit } bind def
/d { setdash } bind def
/m { moveto } bind def
/l { lineto } bind def
/c { curveto } bind def
/h { closepath } bind def
/re { exch dup neg 3 1 roll 5 3 roll moveto 0 rlineto
      0 exch rlineto 0 rlineto closepath } bind def
/S { stroke } bind def
/f { fill } bind def
/f* { eofill } bind def
/n { newpath } bind def
/W { clip } bind def
/W* { eoclip } bind def
/BT { } bind def
/ET { } bind def
/pdfmark where { pop globaldict /?pdfmark /exec load put }
    { globaldict begin /?pdfmark /pop load def /pdfmark
    /cleartomark load def end } ifelse
/BDC { mark 3 1 roll /BDC pdfmark } bind def
/EMC { mark /EMC pdfmark } bind def
/cairo_store_point { /cairo_point_y exch def /cairo_point_x exch def } def
/Tj { show currentpoint cairo_store_point } bind def
/TJ {
  {
    dup
    type /stringtype eq
    { show } { -0.001 mul 0 cairo_font_matrix dtransform rmoveto } ifelse
  } forall
  currentpoint cairo_store_point
} bind def
/cairo_selectfont { cairo_font_matrix aload pop pop pop 0 0 6 array astore
    cairo_font exch selectfont cairo_point_x cairo_point_y moveto } bind def
/Tf { pop /cairo_font exch def /cairo_font_matrix where
      { pop cairo_selectfont } if } bind def
/Td { matrix translate cairo_font_matrix matrix concatmatrix dup
      /cairo_font_matrix exch def dup 4 get exch 5 get cairo_store_point
      /cairo_font where { pop cairo_selectfont } if } bind def
/Tm { 2 copy 8 2 roll 6 array astore /cairo_font_matrix exch def
      cairo_store_point /cairo_font where { pop cairo_selectfont } if } bind def
/g { setgray } bind def
/rg { setrgbcolor } bind def
/d1 { setcachedevice } bind def
%%EndProlog
%%BeginSetup
%%EndSetup
%%Page: 1 1
%%BeginPageSetup
%%PageBoundingBox: 0 0 384 384
%%EndPageSetup
q 0 0 384 384 rectclip q
0.611765 0.866667 0.0196078 rg
384 192 m 384 85.961 298.039 0 192 0 c 85.961 0 0 85.961 0 192 c 0 298.039
 85.961 384 192 384 c 298.039 384 384 298.039 384 192 c h
384 192 m f
0.4 0.733333 0 rg
301.566 272.406 m 279.477 294.5 l 250.418 265.441 l 212.738 303.121 l 190.902
 281.285 l 167.859 304.328 l 160.289 296.758 l 146.762 310.289 l 125.414
 288.945 l 126.094 288.266 l 125.391 287.562 l 161.285 251.668 l 159.516
 249.898 l 183.832 225.582 l 179.336 221.086 l 107.293 293.129 l 77.133 
262.969 l 149.176 190.926 l 71.227 112.977 l 184.027 0.176 l 186.672 0.07
 189.328 0 192 0 c 298.039 0 384 85.961 384 192 c 384 195.461 383.902 198.898
 383.723 202.316 c 307.602 278.438 l h
301.566 272.406 m f
1 0.568627 0 rg
241.234 274.645 m 228.496 281.016 l 233.008 290.047 241.199 296.719 250.965
 299.312 c 260.723 301.926 271.148 300.18 279.555 294.574 c 271.656 282.723
 l 266.652 286.07 260.438 287.105 254.621 285.547 c 248.805 284.004 243.93
 280.027 241.234 274.645 c h
241.234 274.645 m f
0.776471 0.443137 0.352941 rg
92.438 256.465 m 80.656 256.465 71.074 266.047 71.074 277.828 c 71.074 
289.609 80.656 299.191 92.438 299.191 c 104.219 299.191 113.805 289.609 
113.805 277.828 c 113.805 266.047 104.219 256.465 92.438 256.465 c h
92.438 256.465 m f
0.992157 0.74902 0 rg
171.969 273.879 m 160.543 291.016 l 157.527 295.543 152.684 298.449 147.273
 298.984 c 141.863 299.547 136.551 297.621 132.699 293.773 c 125.961 287.035
 l 115.891 297.105 l 122.629 303.844 l 129.508 310.73 138.973 314.199 148.68
 313.156 c 158.352 312.195 166.996 307.008 172.395 298.914 c 183.82 281.777
 l h
171.969 273.879 m f
1 0.568627 0 rg
200.004 309.504 m 212.746 303.133 l 198.504 274.648 l 185.762 281.02 l 
h
200.004 309.504 m f
0.776471 0.443137 0.352941 rg
212.363 284.949 m 143.43 284.949 l 133.742 227.41 l 180.602 195.27 l 192.137
 219.289 l 195.27 225.559 l 224.754 210.746 l h
212.363 284.949 m f
0.6 0.313726 0.239216 rg
252.098 213.734 m 218.941 213.734 l 209.07 218.68 l 200.391 270.707 l 240.699
 270.707 l h
252.098 213.734 m f
292.312 242.223 m 280.531 242.223 270.945 251.805 270.945 263.586 c 270.945
 275.367 280.531 284.949 292.312 284.949 c 304.094 284.949 313.676 275.367
 313.676 263.586 c 313.676 251.805 304.094 242.223 292.312 242.223 c h
292.312 242.223 m f
0.701961 0.372549 0.286275 rg
195.27 225.559 m 192.137 219.289 l 192.137 284.949 l 212.363 284.949 l 
224.754 210.746 l h
195.27 225.559 m f
0.341176 0.372549 0.392157 rg
283.719 152.684 m 253.953 227.977 l 222.332 227.977 l 192.137 243.074 l
 189.004 244.645 l 175.191 217.012 l 131.32 246.211 l 100.414 152.539 l 
73.211 125.336 l 78.48 120.637 l 299.719 120.637 l 310.828 126.047 l h
283.719 152.684 m f
0.196078 0.223529 0.247059 rg
310.828 126.047 m 299.719 120.637 l 192.137 120.637 l 192.137 243.074 l
 222.332 227.977 l 253.953 227.977 l 283.719 152.684 l h
310.828 126.047 m f
0.878431 0.956863 1 rg
99.559 98.844 56.973 -14.242 re f
170.773 84.602 42.727 -14.242 re f
0.733333 0.862745 1 rg
227.746 98.844 42.727 -14.242 re f
284.715 84.602 14.242 -14.242 re f
0.486275 0.513726 0.533333 rg
156.246 175.469 m 142.574 120.637 l 127.902 120.637 l 142.574 178.887 l
 h
156.246 175.469 m f
0.341176 0.372549 0.392157 rg
256.66 120.637 m 241.277 120.637 l 214.07 188.715 l 227.176 194.129 l h
256.66 120.637 m f
0.486275 0.513726 0.533333 rg
185.016 155.816 14.242 -35.18 re f
170.773 184.301 14.242 -14.242 re f
0.341176 0.372549 0.392157 rg
192.137 155.816 7.121 -35.18 re f
0.733333 0.862745 1 rg
192.137 84.602 21.367 -14.242 re f
0.878431 0.956863 1 rg
71.074 127.328 242.602 -14.242 re f
0.733333 0.862745 1 rg
192.137 127.328 121.539 -14.242 re f
Q Q
showpage
%%Trailer
end restore
%%EOF
