%!PS-Adobe-3.0 EPSF-3.0
%%Creator: cairo 1.14.8 (http://cairographics.org)
%%CreationDate: Fri Feb 22 08:48:37 2019
%%Pages: 1
%%DocumentData: Clean7Bit
%%LanguageLevel: 2
%%BoundingBox: 0 0 384 384
%%EndComments
%%BeginProlog
save
50 dict begin
/q { gsave } bind def
/Q { grestore } bind def
/cm { 6 array astore concat } bind def
/w { setlinewidth } bind def
/J { setlinecap } bind def
/j { setlinejoin } bind def
/M { setmiterlimit } bind def
/d { setdash } bind def
/m { moveto } bind def
/l { lineto } bind def
/c { curveto } bind def
/h { closepath } bind def
/re { exch dup neg 3 1 roll 5 3 roll moveto 0 rlineto
      0 exch rlineto 0 rlineto closepath } bind def
/S { stroke } bind def
/f { fill } bind def
/f* { eofill } bind def
/n { newpath } bind def
/W { clip } bind def
/W* { eoclip } bind def
/BT { } bind def
/ET { } bind def
/pdfmark where { pop globaldict /?pdfmark /exec load put }
    { globaldict begin /?pdfmark /pop load def /pdfmark
    /cleartomark load def end } ifelse
/BDC { mark 3 1 roll /BDC pdfmark } bind def
/EMC { mark /EMC pdfmark } bind def
/cairo_store_point { /cairo_point_y exch def /cairo_point_x exch def } def
/Tj { show currentpoint cairo_store_point } bind def
/TJ {
  {
    dup
    type /stringtype eq
    { show } { -0.001 mul 0 cairo_font_matrix dtransform rmoveto } ifelse
  } forall
  currentpoint cairo_store_point
} bind def
/cairo_selectfont { cairo_font_matrix aload pop pop pop 0 0 6 array astore
    cairo_font exch selectfont cairo_point_x cairo_point_y moveto } bind def
/Tf { pop /cairo_font exch def /cairo_font_matrix where
      { pop cairo_selectfont } if } bind def
/Td { matrix translate cairo_font_matrix matrix concatmatrix dup
      /cairo_font_matrix exch def dup 4 get exch 5 get cairo_store_point
      /cairo_font where { pop cairo_selectfont } if } bind def
/Tm { 2 copy 8 2 roll 6 array astore /cairo_font_matrix exch def
      cairo_store_point /cairo_font where { pop cairo_selectfont } if } bind def
/g { setgray } bind def
/rg { setrgbcolor } bind def
/d1 { setcachedevice } bind def
%%EndProlog
%%BeginSetup
%%EndSetup
%%Page: 1 1
%%BeginPageSetup
%%PageBoundingBox: 0 0 384 384
%%EndPageSetup
q 0 0 384 384 rectclip q
0.611765 0.866667 0.0196078 rg
384 192 m 384 85.961 298.039 0 192 0 c 85.961 0 0 85.961 0 192 c 0 298.039
 85.961 384 192 384 c 298.039 384 384 298.039 384 192 c h
384 192 m f
0.4 0.733333 0 rg
383.773 182.711 m 251.883 314.598 l 151.988 214.703 l 150.375 202.5 l 60.367
 75.086 l 122.461 12.988 l 144.023 4.605 167.473 0 192 0 c 254.582 0 310.164
 29.949 345.215 76.285 c 343.266 78.234 l 354.102 89.07 l 371.473 116.375
 382.137 148.359 383.773 182.711 c h
383.773 182.711 m f
0.341176 0.372549 0.392157 rg
252.461 314.094 m 235.832 330.57 214.305 338.922 192.598 339 c 192.289 
339 l 192.023 339 191.762 339 191.5 338.996 c 169.949 338.797 148.465 330.602
 132.113 314.094 c 98.855 280.992 98.855 227.008 132.113 193.75 c 133.699
 192.164 135.332 190.656 137.008 189.223 c 138.348 188.07 139.719 186.969
 141.117 185.922 c 149.824 179.355 159.535 174.676 169.66 171.895 c 176.797
 169.934 184.141 168.914 191.5 168.848 c 191.762 168.844 192.023 168.844
 192.289 168.844 c 192.598 168.844 l 194.973 168.855 197.348 168.961 199.711
 169.168 c 218.957 170.848 237.652 179.078 252.461 193.75 c 254.879 196.176
 257.117 198.715 259.18 201.344 c 260.121 202.547 261.023 203.766 261.891
 205.004 c 285.188 238.246 282.047 284.508 252.461 314.094 c h
252.461 314.094 m f
0.196078 0.223529 0.247059 rg
261.891 205.004 m 261.027 203.766 260.125 202.547 259.18 201.344 c 257.117
 198.715 254.879 196.176 252.461 193.75 c 237.652 179.078 218.957 170.848
 199.715 169.168 c 197.348 168.961 194.973 168.855 192.598 168.844 c 192.598
 339 l 214.305 338.922 235.832 330.57 252.461 314.094 c 282.047 284.508 
285.188 238.246 261.891 205.004 c h
261.891 205.004 m f
1 0.854902 0.176471 rg
241.477 204.73 m 228.402 191.656 211.047 184.395 192.598 184.312 c 192.289
 184.312 l 192.023 184.312 191.762 184.312 191.5 184.316 c 173.082 184.52
 155.91 191.77 143.098 204.73 c 115.871 231.801 115.871 276.043 143.098 
303.113 c 155.91 316.074 173.082 323.324 191.5 323.527 c 191.762 323.531
 192.023 323.531 192.289 323.531 c 192.598 323.531 l 211.047 323.449 228.402
 316.188 241.477 303.113 c 268.547 276.043 268.547 231.801 241.477 204.73
 c h
241.477 204.73 m f
0.992157 0.74902 0 rg
241.477 204.73 m 228.402 191.656 211.047 184.395 192.598 184.312 c 192.598
 323.531 l 211.047 323.449 228.402 316.188 241.477 303.113 c 268.547 276.043
 268.547 231.801 241.477 204.73 c h
241.477 204.73 m f
0.196078 0.223529 0.247059 rg
214.152 260.625 m 215.715 256.234 215.941 252.148 214.715 247.547 c 213.113
 241.566 209.266 236.559 203.906 233.461 c 201.535 232.094 199.012 231.355
 196.457 230.891 c 212.672 202.801 l 219.375 206.668 l 236.027 216.293 245.984
 234.254 246.023 253.535 c 246.039 260.625 l h
214.152 260.625 m f
0.341176 0.372549 0.392157 rg
226.008 296.617 m 209.766 268.152 l 206.672 271.867 202.961 274.805 198.32
 276.043 c 196.414 276.629 194.504 276.801 192.598 276.812 c 192.496 276.816
 192.391 276.816 192.289 276.816 c 192.133 276.816 192.133 276.816 191.98
 276.816 c 191.82 276.816 191.66 276.816 191.5 276.812 c 187.781 276.723
 183.949 275.652 180.688 273.723 c 178.367 272.332 176.512 270.473 174.809
 268.465 c 158.566 296.617 l 165.219 300.484 l 173.273 305.195 182.523 307.664
 191.5 307.75 c 191.66 307.754 191.82 307.754 191.98 307.754 c 192.133 307.754
 192.133 307.754 192.289 307.754 c 192.598 307.754 l 201.781 307.695 211.098
 305.227 219.359 300.484 c h
226.008 296.617 m f
172.254 241.941 m 168.898 247.77 168.117 253.215 170.785 260.625 c 138.441
 260.625 l 138.418 247.434 138.066 239.305 145.465 226.48 c 152.891 213.633
 160.625 209.352 171.992 202.824 c 188.199 230.898 l 181.742 232.086 175.793
 235.832 172.254 241.941 c h
172.254 241.941 m f
1 0.568627 0 rg
199.711 165.27 m 199.711 216.973 l 192.598 206.301 l 191.5 204.648 l 178.801
 185.602 l 169.664 171.898 l 149.75 142.023 l 184.348 124.773 l 184.348 
75.258 l 191.5 85.695 l 192.598 87.297 l 234.207 148.02 l h
199.711 165.27 m f
1 0.392157 0.101961 rg
234.207 148.02 m 192.598 87.297 l 192.598 206.297 l 199.711 216.973 l 199.711
 165.27 l h
234.207 148.02 m f
285.508 164.07 m 282.383 169.488 l 261.891 205.004 l 259.664 208.859 l 
259.18 201.344 l 255.168 139.133 l 253.867 118.957 l 292.363 121.266 l 318.215
 75 l 324.012 166.391 l h
285.508 164.07 m f
1 0.568627 0 rg
145.422 193.383 m 137.008 189.223 l 64.68 153.457 l 85.934 121.266 l 60.074
 75 l 140.828 116.422 l 119.574 148.602 l 141.117 185.922 l h
145.422 193.383 m f
0.341176 0.372549 0.392157 rg
198.938 257.48 m 197.602 259.855 195.117 261.238 192.598 261.336 c 192.492
 261.348 192.391 261.348 192.289 261.348 c 192.133 261.348 192.133 261.348
 191.977 261.348 c 191.824 261.348 191.664 261.34 191.5 261.324 c 190.504
 261.25 189.348 260.93 188.422 260.262 c 184.707 258.098 183.473 253.305
 185.637 249.746 c 186.797 247.57 189.051 246.207 191.5 245.918 c 191.66
 245.902 191.82 245.887 191.977 245.879 c 192.184 245.855 192.391 245.84
 192.598 245.836 c 193.781 245.824 194.969 246.145 196.156 246.805 c 199.867
 248.973 201.105 253.766 198.938 257.48 c h
198.938 257.48 m f
0.196078 0.223529 0.247059 rg
198.938 257.48 m 201.105 253.766 199.867 248.973 196.156 246.805 c 194.969
 246.145 193.781 245.824 192.598 245.836 c 192.598 261.336 l 195.117 261.238
 197.602 259.855 198.938 257.48 c h
198.938 257.48 m f
226.008 296.617 m 209.766 268.152 l 206.672 271.867 202.961 274.805 198.32
 276.043 c 196.414 276.629 194.504 276.801 192.598 276.812 c 192.598 307.754
 l 201.781 307.695 211.098 305.227 219.359 300.484 c h
226.008 296.617 m f
Q Q
showpage
%%Trailer
end restore
%%EOF
