%!PS-Adobe-3.0 EPSF-3.0
%%Creator: cairo 1.14.8 (http://cairographics.org)
%%CreationDate: Fri Feb 22 08:48:37 2019
%%Pages: 1
%%DocumentData: Clean7Bit
%%LanguageLevel: 2
%%BoundingBox: 0 0 384 384
%%EndComments
%%BeginProlog
save
50 dict begin
/q { gsave } bind def
/Q { grestore } bind def
/cm { 6 array astore concat } bind def
/w { setlinewidth } bind def
/J { setlinecap } bind def
/j { setlinejoin } bind def
/M { setmiterlimit } bind def
/d { setdash } bind def
/m { moveto } bind def
/l { lineto } bind def
/c { curveto } bind def
/h { closepath } bind def
/re { exch dup neg 3 1 roll 5 3 roll moveto 0 rlineto
      0 exch rlineto 0 rlineto closepath } bind def
/S { stroke } bind def
/f { fill } bind def
/f* { eofill } bind def
/n { newpath } bind def
/W { clip } bind def
/W* { eoclip } bind def
/BT { } bind def
/ET { } bind def
/pdfmark where { pop globaldict /?pdfmark /exec load put }
    { globaldict begin /?pdfmark /pop load def /pdfmark
    /cleartomark load def end } ifelse
/BDC { mark 3 1 roll /BDC pdfmark } bind def
/EMC { mark /EMC pdfmark } bind def
/cairo_store_point { /cairo_point_y exch def /cairo_point_x exch def } def
/Tj { show currentpoint cairo_store_point } bind def
/TJ {
  {
    dup
    type /stringtype eq
    { show } { -0.001 mul 0 cairo_font_matrix dtransform rmoveto } ifelse
  } forall
  currentpoint cairo_store_point
} bind def
/cairo_selectfont { cairo_font_matrix aload pop pop pop 0 0 6 array astore
    cairo_font exch selectfont cairo_point_x cairo_point_y moveto } bind def
/Tf { pop /cairo_font exch def /cairo_font_matrix where
      { pop cairo_selectfont } if } bind def
/Td { matrix translate cairo_font_matrix matrix concatmatrix dup
      /cairo_font_matrix exch def dup 4 get exch 5 get cairo_store_point
      /cairo_font where { pop cairo_selectfont } if } bind def
/Tm { 2 copy 8 2 roll 6 array astore /cairo_font_matrix exch def
      cairo_store_point /cairo_font where { pop cairo_selectfont } if } bind def
/g { setgray } bind def
/rg { setrgbcolor } bind def
/d1 { setcachedevice } bind def
%%EndProlog
%%BeginSetup
%%EndSetup
%%Page: 1 1
%%BeginPageSetup
%%PageBoundingBox: 0 0 384 384
%%EndPageSetup
q 0 0 384 384 rectclip q
1 0.392157 0.101961 rg
384 192 m 384 85.961 298.039 0 192 0 c 85.961 0 0 85.961 0 192 c 0 298.039
 85.961 384 192 384 c 298.039 384 384 298.039 384 192 c h
384 192 m f
0.941176 0.219608 0 rg
191.992 349.004 m 172.98 223.02 l 51.527 101.566 l 148.027 5.066 l 162.148
 1.758 176.871 0 192 0 c 287.035 0 365.93 69.051 381.281 159.715 c h
191.992 349.004 m f
0.878431 0.956863 1 rg
167.301 109.773 49.398 -41.711 re f
0.733333 0.862745 1 rg
192 109.773 24.699 -41.711 re f
0.341176 0.372549 0.392157 rg
192 349.012 m 51.5 101.543 l 332.5 101.543 l h
192 349.012 m f
0.196078 0.223529 0.247059 rg
332.5 101.543 m 192 101.543 l 192 349.012 l h
332.5 101.543 m f
1 0.854902 0.176471 rg
304.016 118.008 m 79.984 118.008 l 192 316.082 l h
304.016 118.008 m f
0.992157 0.74902 0 rg
304.016 118.008 m 192 118.008 l 192 316.082 l h
304.016 118.008 m f
0.341176 0.372549 0.392157 rg
192 173 m 175.535 150.938 l 183.766 150.938 l 183.766 134.473 l 152.484
 134.473 l 145.57 165.922 l 161.539 169.543 l 163.188 161.969 l 185.906 
192.102 l 141.289 176.953 l 192 259.441 l 194.305 263.227 l 208.301 254.668
 l 192 227.992 l 179.32 207.25 l 192 211.527 l 231.023 225.027 l h
192 173 m f
0.196078 0.223529 0.247059 rg
208.301 254.668 m 192 227.992 l 192 259.441 l 194.305 263.227 l h
208.301 254.668 m f
231.023 225.027 m 192 173 l 192 211.527 l h
231.023 225.027 m f
Q Q
showpage
%%Trailer
end restore
%%EOF
