%!PS-Adobe-3.0 EPSF-3.0
%%Creator: cairo 1.14.8 (http://cairographics.org)
%%CreationDate: Fri Feb 22 08:48:37 2019
%%Pages: 1
%%DocumentData: Clean7Bit
%%LanguageLevel: 2
%%BoundingBox: 0 0 384 384
%%EndComments
%%BeginProlog
save
50 dict begin
/q { gsave } bind def
/Q { grestore } bind def
/cm { 6 array astore concat } bind def
/w { setlinewidth } bind def
/J { setlinecap } bind def
/j { setlinejoin } bind def
/M { setmiterlimit } bind def
/d { setdash } bind def
/m { moveto } bind def
/l { lineto } bind def
/c { curveto } bind def
/h { closepath } bind def
/re { exch dup neg 3 1 roll 5 3 roll moveto 0 rlineto
      0 exch rlineto 0 rlineto closepath } bind def
/S { stroke } bind def
/f { fill } bind def
/f* { eofill } bind def
/n { newpath } bind def
/W { clip } bind def
/W* { eoclip } bind def
/BT { } bind def
/ET { } bind def
/pdfmark where { pop globaldict /?pdfmark /exec load put }
    { globaldict begin /?pdfmark /pop load def /pdfmark
    /cleartomark load def end } ifelse
/BDC { mark 3 1 roll /BDC pdfmark } bind def
/EMC { mark /EMC pdfmark } bind def
/cairo_store_point { /cairo_point_y exch def /cairo_point_x exch def } def
/Tj { show currentpoint cairo_store_point } bind def
/TJ {
  {
    dup
    type /stringtype eq
    { show } { -0.001 mul 0 cairo_font_matrix dtransform rmoveto } ifelse
  } forall
  currentpoint cairo_store_point
} bind def
/cairo_selectfont { cairo_font_matrix aload pop pop pop 0 0 6 array astore
    cairo_font exch selectfont cairo_point_x cairo_point_y moveto } bind def
/Tf { pop /cairo_font exch def /cairo_font_matrix where
      { pop cairo_selectfont } if } bind def
/Td { matrix translate cairo_font_matrix matrix concatmatrix dup
      /cairo_font_matrix exch def dup 4 get exch 5 get cairo_store_point
      /cairo_font where { pop cairo_selectfont } if } bind def
/Tm { 2 copy 8 2 roll 6 array astore /cairo_font_matrix exch def
      cairo_store_point /cairo_font where { pop cairo_selectfont } if } bind def
/g { setgray } bind def
/rg { setrgbcolor } bind def
/d1 { setcachedevice } bind def
%%EndProlog
%%BeginSetup
%%EndSetup
%%Page: 1 1
%%BeginPageSetup
%%PageBoundingBox: 0 0 384 384
%%EndPageSetup
q 0 0 384 384 rectclip q
0.776471 0.443137 0.352941 rg
384 192 m 384 85.961 298.039 0 192 0 c 85.961 0 0 85.961 0 192 c 0 298.039
 85.961 384 192 384 c 298.039 384 384 298.039 384 192 c h
384 192 m f
0.6 0.313726 0.239216 rg
384 192 m 384 200.562 383.43 208.992 382.344 217.258 c 298.082 301.52 l
 183.219 186.656 l 209.656 160.219 l 184.844 135.406 l 158.219 162.031 l
 69.688 73.5 l 134.387 8.801 l 152.574 3.086 171.926 0 192 0 c 298.039 0
 384 85.961 384 192 c h
384 192 m f
0.996078 0.823529 0.643137 rg
305.805 138.332 m 239.492 88.266 l 219.852 73.496 l 106.574 73.496 l 106.574
 73.496 103.324 76.746 99.188 81.176 c 99.188 146.602 l 103.324 155.316 
106.574 162.109 106.574 162.109 c 134.191 186.922 159.594 182.785 177.613
 166.984 c 181.156 163.883 l 182.484 162.703 184.258 162.109 186.031 162.109
 c 224.727 162.109 l 224.727 154.727 l 224.727 154.578 224.727 154.578 224.727
 154.43 c 224.578 142.172 213.5 132.57 201.242 132.57 c 158.266 132.57 l
 158.266 117.805 l 223.543 117.805 l 239.496 128.289 l 272.133 149.852 l
 281.883 156.203 294.879 153.691 301.672 144.242 c h
305.805 138.332 m f
0.341176 0.372549 0.392157 rg
297.734 301.875 m 281.832 317.629 261.238 325.605 240.477 325.652 c 240.281
 325.652 l 219.457 325.652 198.633 317.824 182.828 301.875 c 151.078 270.27
 151.078 218.727 182.828 186.973 c 198.633 171.168 219.457 163.195 240.281
 163.195 c 240.566 163.195 l 261.293 163.266 281.855 171.242 297.734 186.973
 c 329.34 218.727 329.34 270.27 297.734 301.875 c h
297.734 301.875 m f
0.196078 0.223529 0.247059 rg
297.734 186.973 m 281.855 171.242 261.293 163.266 240.566 163.195 c 240.477
 325.652 l 261.238 325.602 281.832 317.629 297.734 301.875 c 329.34 270.27
 329.34 218.727 297.734 186.973 c h
297.734 186.973 m f
1 0.854902 0.176471 rg
287.246 197.457 m 274.758 184.969 258.18 178.035 240.562 177.965 c 240.281
 177.965 l 222.41 177.965 205.723 184.902 193.316 197.457 c 167.32 223.305
 167.32 265.543 193.316 291.387 c 205.723 303.941 222.41 310.883 240.281
 310.883 c 240.488 310.883 l 258.133 310.828 274.742 303.895 287.246 291.387
 c 313.094 265.543 313.094 223.305 287.246 197.457 c h
287.246 197.457 m f
0.992157 0.74902 0 rg
287.246 197.457 m 274.758 184.969 258.18 178.035 240.562 177.965 c 240.488
 310.883 l 258.133 310.828 274.742 303.895 287.246 291.387 c 313.094 265.543
 313.094 223.305 287.246 197.457 c h
287.246 197.457 m f
0.196078 0.223529 0.247059 rg
261.156 250.727 m 262.648 246.531 262.867 242.73 261.691 238.34 c 260.164
 232.625 256.492 227.844 251.375 224.891 c 249.113 223.586 246.699 222.879
 244.262 222.434 c 259.746 195.617 l 266.145 199.309 l 282.043 208.496 291.551
 225.645 291.586 244.059 c 291.602 250.727 l h
261.156 250.727 m f
0.341176 0.372549 0.392157 rg
272.477 285.188 m 256.969 258.012 l 254.016 261.555 250.473 264.363 246.043
 265.543 c 244.199 266.109 242.355 266.266 240.512 266.277 c 240.434 266.281
 240.359 266.281 240.281 266.281 c 240.133 266.281 240.133 266.281 239.984
 266.281 c 236.293 266.281 232.453 265.25 229.203 263.328 c 226.988 262 
225.215 260.227 223.594 258.309 c 208.086 285.188 l 214.434 288.879 l 222.262
 293.457 231.273 295.82 239.984 295.82 c 240.133 295.82 240.133 295.82 240.281
 295.82 c 240.496 295.82 l 249.289 295.781 258.215 293.418 266.129 288.879
 c h
272.477 285.188 m f
221.105 232.988 m 217.902 238.551 217.152 243.652 219.703 250.727 c 188.824
 250.727 l 188.797 238.129 188.465 230.469 195.527 218.227 c 202.617 205.957
 210.004 201.871 220.855 195.641 c 236.328 222.441 l 230.164 223.578 224.484
 227.152 221.105 232.988 c h
221.105 232.988 m f
246.633 247.82 m 245.348 250.109 242.949 251.43 240.523 251.504 c 240.445
 251.512 240.359 251.512 240.281 251.512 c 240.133 251.512 240.133 251.512
 239.984 251.512 c 238.953 251.512 237.621 251.219 236.59 250.48 c 233.043
 248.41 231.863 243.832 233.93 240.438 c 235.113 238.219 237.477 236.891
 239.984 236.742 c 240.168 236.723 240.344 236.711 240.527 236.711 c 241.676
 236.684 242.824 236.988 243.973 237.629 c 247.52 239.699 248.699 244.277
 246.633 247.82 c h
246.633 247.82 m f
0.196078 0.223529 0.247059 rg
246.633 247.82 m 248.699 244.277 247.52 239.695 243.973 237.629 c 242.828
 236.988 241.676 236.684 240.527 236.711 c 240.523 251.504 l 242.949 251.43
 245.348 250.109 246.633 247.82 c h
246.633 247.82 m f
272.477 285.188 m 256.969 258.012 l 254.016 261.555 250.473 264.363 246.043
 265.543 c 244.199 266.109 242.355 266.266 240.512 266.277 c 240.496 295.82
 l 249.289 295.781 258.215 293.418 266.129 288.879 c h
272.477 285.188 m f
0.992157 0.74902 0 rg
69.648 162.109 36.926 -88.613 re f
Q Q
showpage
%%Trailer
end restore
%%EOF
