%!PS-Adobe-3.0 EPSF-3.0
%%Creator: cairo 1.14.8 (http://cairographics.org)
%%CreationDate: Fri Feb 22 08:48:37 2019
%%Pages: 1
%%DocumentData: Clean7Bit
%%LanguageLevel: 2
%%BoundingBox: 0 0 384 384
%%EndComments
%%BeginProlog
save
50 dict begin
/q { gsave } bind def
/Q { grestore } bind def
/cm { 6 array astore concat } bind def
/w { setlinewidth } bind def
/J { setlinecap } bind def
/j { setlinejoin } bind def
/M { setmiterlimit } bind def
/d { setdash } bind def
/m { moveto } bind def
/l { lineto } bind def
/c { curveto } bind def
/h { closepath } bind def
/re { exch dup neg 3 1 roll 5 3 roll moveto 0 rlineto
      0 exch rlineto 0 rlineto closepath } bind def
/S { stroke } bind def
/f { fill } bind def
/f* { eofill } bind def
/n { newpath } bind def
/W { clip } bind def
/W* { eoclip } bind def
/BT { } bind def
/ET { } bind def
/pdfmark where { pop globaldict /?pdfmark /exec load put }
    { globaldict begin /?pdfmark /pop load def /pdfmark
    /cleartomark load def end } ifelse
/BDC { mark 3 1 roll /BDC pdfmark } bind def
/EMC { mark /EMC pdfmark } bind def
/cairo_store_point { /cairo_point_y exch def /cairo_point_x exch def } def
/Tj { show currentpoint cairo_store_point } bind def
/TJ {
  {
    dup
    type /stringtype eq
    { show } { -0.001 mul 0 cairo_font_matrix dtransform rmoveto } ifelse
  } forall
  currentpoint cairo_store_point
} bind def
/cairo_selectfont { cairo_font_matrix aload pop pop pop 0 0 6 array astore
    cairo_font exch selectfont cairo_point_x cairo_point_y moveto } bind def
/Tf { pop /cairo_font exch def /cairo_font_matrix where
      { pop cairo_selectfont } if } bind def
/Td { matrix translate cairo_font_matrix matrix concatmatrix dup
      /cairo_font_matrix exch def dup 4 get exch 5 get cairo_store_point
      /cairo_font where { pop cairo_selectfont } if } bind def
/Tm { 2 copy 8 2 roll 6 array astore /cairo_font_matrix exch def
      cairo_store_point /cairo_font where { pop cairo_selectfont } if } bind def
/g { setgray } bind def
/rg { setrgbcolor } bind def
/d1 { setcachedevice } bind def
%%EndProlog
%%BeginSetup
%%EndSetup
%%Page: 1 1
%%BeginPageSetup
%%PageBoundingBox: 0 0 384 384
%%EndPageSetup
q 0 0 384 384 rectclip q
0.341176 0.372549 0.392157 rg
384 192 m 384 85.961 298.039 0 192 0 c 85.961 0 0 85.961 0 192 c 0 298.039
 85.961 384 192 384 c 298.039 384 384 298.039 384 192 c h
384 192 m f
0.196078 0.223529 0.247059 rg
238.18 238.188 m 204.562 271.805 l 78.004 145.25 l 98.27 124.984 l 91.816
 118.531 l 116.176 94.172 l 101.754 79.75 l 90.754 90.75 l 78.008 78.004
 l 151.777 4.234 l 164.75 1.469 178.203 0 192 0 c 298.039 0 384 85.961 384
 192 c 384 205.797 382.531 219.25 379.766 232.223 c 305.992 305.996 l h
238.18 238.188 m f
0.764706 0.917647 0.129412 rg
91.805 131.883 13.359 -13.359 re f
0.878431 0.956863 1 rg
306 306 m 306 185.32 l 264.273 171.961 l 109.84 171.961 l 78 185.32 l 78
 306 l h
306 306 m f
0.733333 0.862745 1 rg
306 306 m 306 185.32 l 264.273 171.961 l 192 171.961 l 192 306 l h
306 306 m f
78 185.32 228 -40.078 re f
0.603922 0.729412 0.858824 rg
192 185.32 114 -40.078 re f
0.341176 0.372549 0.392157 rg
192 278.836 m 158.867 278.836 131.883 251.852 131.883 218.719 c 131.883
 200.016 140.301 182.781 155.129 171.293 c 165.816 163.012 178.641 158.602
 192 158.602 c 197.211 158.602 202.555 159.27 207.766 160.605 c 233.949 
167.82 252.117 191.734 252.117 218.719 c 252.117 251.852 225.133 278.836
 192 278.836 c h
192 278.836 m f
0.196078 0.223529 0.247059 rg
252.117 218.719 m 252.117 191.734 233.949 167.82 207.762 160.605 c 202.555
 159.27 197.211 158.602 192 158.602 c 192 278.836 l 225.133 278.836 252.117
 251.852 252.117 218.719 c h
252.117 218.719 m f
0.611765 0.866667 0.0196078 rg
225.398 218.719 m 225.398 124 l 158.602 124 l 158.602 218.719 l 158.602
 237.156 173.562 252.117 192 252.117 c 210.434 252.117 225.398 237.156 225.398
 218.719 c h
225.398 218.719 m f
0.4 0.733333 0 rg
225.398 124 m 192 124 l 192 252.117 l 210.438 252.117 225.398 237.156 225.398
 218.719 c h
225.398 124 m f
0.764706 0.917647 0.129412 rg
185.32 212.039 13.359 -26.719 re f
185.32 171.961 13.359 -13.359 re f
0.611765 0.866667 0.0196078 rg
278.836 118.523 13.359 -13.359 re f
0.764706 0.917647 0.129412 rg
278.836 84.68 m 105.164 84.68 l 105.164 102.047 118.391 116.785 135.355
 118.391 c 136.559 120.395 138.027 122.398 139.766 124 c 149.117 133.484
 165.012 134.02 175.301 125.871 c 179.844 129.613 185.586 131.883 192 131.883
 c 198.414 131.883 204.156 129.613 208.699 125.871 c 218.988 134.02 234.883
 133.484 244.234 124 c 245.973 122.398 247.441 120.395 248.645 118.258 c
 266.012 116.254 278.836 101.645 278.836 84.68 c h
278.836 84.68 m f
0.611765 0.866667 0.0196078 rg
192 212.039 6.68 -26.719 re f
192 171.961 6.68 -13.359 re f
278.836 84.68 m 192 84.68 l 192 131.883 l 198.414 131.883 204.156 129.613
 208.699 125.871 c 218.988 134.02 234.883 133.484 244.234 124 c 245.973 
122.398 247.441 120.395 248.645 118.258 c 266.012 116.254 278.836 101.645
 278.836 84.68 c h
278.836 84.68 m f
78 91.359 228 -13.359 re f
0.4 0.733333 0 rg
192 91.359 114 -13.359 re f
Q Q
showpage
%%Trailer
end restore
%%EOF
