%!PS-Adobe-3.0 EPSF-3.0
%%Creator: cairo 1.14.8 (http://cairographics.org)
%%CreationDate: Fri Feb 22 08:48:37 2019
%%Pages: 1
%%DocumentData: Clean7Bit
%%LanguageLevel: 2
%%BoundingBox: 0 0 384 384
%%EndComments
%%BeginProlog
save
50 dict begin
/q { gsave } bind def
/Q { grestore } bind def
/cm { 6 array astore concat } bind def
/w { setlinewidth } bind def
/J { setlinecap } bind def
/j { setlinejoin } bind def
/M { setmiterlimit } bind def
/d { setdash } bind def
/m { moveto } bind def
/l { lineto } bind def
/c { curveto } bind def
/h { closepath } bind def
/re { exch dup neg 3 1 roll 5 3 roll moveto 0 rlineto
      0 exch rlineto 0 rlineto closepath } bind def
/S { stroke } bind def
/f { fill } bind def
/f* { eofill } bind def
/n { newpath } bind def
/W { clip } bind def
/W* { eoclip } bind def
/BT { } bind def
/ET { } bind def
/pdfmark where { pop globaldict /?pdfmark /exec load put }
    { globaldict begin /?pdfmark /pop load def /pdfmark
    /cleartomark load def end } ifelse
/BDC { mark 3 1 roll /BDC pdfmark } bind def
/EMC { mark /EMC pdfmark } bind def
/cairo_store_point { /cairo_point_y exch def /cairo_point_x exch def } def
/Tj { show currentpoint cairo_store_point } bind def
/TJ {
  {
    dup
    type /stringtype eq
    { show } { -0.001 mul 0 cairo_font_matrix dtransform rmoveto } ifelse
  } forall
  currentpoint cairo_store_point
} bind def
/cairo_selectfont { cairo_font_matrix aload pop pop pop 0 0 6 array astore
    cairo_font exch selectfont cairo_point_x cairo_point_y moveto } bind def
/Tf { pop /cairo_font exch def /cairo_font_matrix where
      { pop cairo_selectfont } if } bind def
/Td { matrix translate cairo_font_matrix matrix concatmatrix dup
      /cairo_font_matrix exch def dup 4 get exch 5 get cairo_store_point
      /cairo_font where { pop cairo_selectfont } if } bind def
/Tm { 2 copy 8 2 roll 6 array astore /cairo_font_matrix exch def
      cairo_store_point /cairo_font where { pop cairo_selectfont } if } bind def
/g { setgray } bind def
/rg { setrgbcolor } bind def
/d1 { setcachedevice } bind def
%%EndProlog
%%BeginSetup
%%EndSetup
%%Page: 1 1
%%BeginPageSetup
%%PageBoundingBox: 0 0 384 384
%%EndPageSetup
q 0 0 384 384 rectclip q
0.341176 0.372549 0.392157 rg
384 192 m 384 85.961 298.039 0 192 0 c 85.961 0 0 85.961 0 192 c 0 298.039
 85.961 384 192 384 c 298.039 384 384 298.039 384 192 c h
384 192 m f
0.196078 0.223529 0.247059 rg
383.145 173.91 m 253.719 303.336 l 131.191 180.809 l 148.125 163.875 l 
70.512 86.262 l 152.754 4.023 l 165.422 1.391 178.547 0 192 0 c 291.938 
0 374.027 76.355 383.145 173.91 c h
383.145 173.91 m f
0.992157 0.74902 0 rg
313.5 126.734 m 313.5 86.25 l 213.359 86.25 l 200.258 101.199 l 192 97.07
 l 170.641 86.25 l 70.5 86.25 l 70.5 126.734 l 99.168 140.828 l 106.855 
144.676 111.555 152.789 110.84 161.477 c 105.574 236.418 l 103.867 260.336
 112.266 284.113 128.641 301.629 c 144.871 319.141 168.078 329.25 192 329.25
 c 215.922 329.25 239.129 319.141 255.359 301.629 c 271.734 284.113 280.137
 260.336 278.426 236.418 c 273.16 161.477 l 272.445 152.789 277.145 144.676
 284.836 140.828 c h
313.5 126.734 m f
1 0.568627 0 rg
313.5 126.734 m 313.5 86.25 l 213.359 86.25 l 200.258 101.199 l 192 97.07
 l 192 329.25 l 215.922 329.25 239.129 319.141 255.359 301.629 c 271.734
 284.113 280.137 260.336 278.426 236.418 c 273.16 161.477 l 272.445 152.789
 277.145 144.676 284.836 140.828 c h
313.5 126.734 m f
0.486275 0.513726 0.533333 rg
170.641 143.676 42.715 -57.426 re f
0.341176 0.372549 0.392157 rg
192 143.676 21.359 -57.426 re f
0.486275 0.513726 0.533333 rg
246.246 215.344 m 227.598 172.152 l 192 158.484 l 186.445 156.352 l 156.402
 172.152 l 137.754 215.344 l 174.77 215.344 l 192 232.574 l 209.227 215.344
 l h
246.246 215.344 m f
0.341176 0.372549 0.392157 rg
246.246 215.344 m 227.598 172.152 l 192 158.484 l 192 232.574 l 209.227
 215.344 l h
246.246 215.344 m f
234.715 272.297 m 149.285 272.297 l 137.469 272.297 127.926 262.758 127.926
 250.938 c 127.926 222.461 l 127.926 210.645 137.465 201.105 149.285 201.105
 c 180.754 201.105 l 192 212.355 l 203.246 201.105 l 234.715 201.105 l 246.531
 201.105 256.074 210.645 256.074 222.465 c 256.074 250.941 l 256.074 262.758
 246.531 272.297 234.715 272.297 c h
234.715 272.297 m f
170.641 300.773 42.715 -14.238 re f
0.196078 0.223529 0.247059 rg
192 300.773 21.359 -14.238 re f
256.074 250.941 m 256.074 222.461 l 256.074 210.645 246.535 201.105 234.715
 201.105 c 203.246 201.105 l 192 212.355 l 192 272.297 l 234.715 272.297
 l 246.531 272.297 256.074 262.758 256.074 250.941 c h
256.074 250.941 m f
0.878431 0.956863 1 rg
241.832 250.941 m 241.832 222.461 l 241.832 218.477 238.703 215.344 234.715
 215.344 c 209.227 215.344 l 192 232.574 l 174.77 215.344 l 149.285 215.344
 l 145.297 215.344 142.164 218.477 142.164 222.461 c 142.164 250.941 l 142.164
 254.926 145.297 258.059 149.285 258.059 c 234.715 258.059 l 238.703 258.059
 241.832 254.926 241.832 250.941 c h
241.832 250.941 m f
0.733333 0.862745 1 rg
241.832 250.941 m 241.832 222.461 l 241.832 218.477 238.703 215.344 234.715
 215.344 c 209.227 215.344 l 192 232.574 l 192 258.059 l 234.715 258.059
 l 238.703 258.059 241.832 254.926 241.832 250.941 c h
241.832 250.941 m f
0.341176 0.372549 0.392157 rg
156.402 172.152 71.195 -42.711 re f
0.196078 0.223529 0.247059 rg
192 172.152 35.598 -42.711 re f
Q Q
showpage
%%Trailer
end restore
%%EOF
