%!PS-Adobe-3.0 EPSF-3.0
%%Creator: cairo 1.14.8 (http://cairographics.org)
%%CreationDate: Fri Feb 22 08:48:37 2019
%%Pages: 1
%%DocumentData: Clean7Bit
%%LanguageLevel: 2
%%BoundingBox: 0 0 384 384
%%EndComments
%%BeginProlog
save
50 dict begin
/q { gsave } bind def
/Q { grestore } bind def
/cm { 6 array astore concat } bind def
/w { setlinewidth } bind def
/J { setlinecap } bind def
/j { setlinejoin } bind def
/M { setmiterlimit } bind def
/d { setdash } bind def
/m { moveto } bind def
/l { lineto } bind def
/c { curveto } bind def
/h { closepath } bind def
/re { exch dup neg 3 1 roll 5 3 roll moveto 0 rlineto
      0 exch rlineto 0 rlineto closepath } bind def
/S { stroke } bind def
/f { fill } bind def
/f* { eofill } bind def
/n { newpath } bind def
/W { clip } bind def
/W* { eoclip } bind def
/BT { } bind def
/ET { } bind def
/pdfmark where { pop globaldict /?pdfmark /exec load put }
    { globaldict begin /?pdfmark /pop load def /pdfmark
    /cleartomark load def end } ifelse
/BDC { mark 3 1 roll /BDC pdfmark } bind def
/EMC { mark /EMC pdfmark } bind def
/cairo_store_point { /cairo_point_y exch def /cairo_point_x exch def } def
/Tj { show currentpoint cairo_store_point } bind def
/TJ {
  {
    dup
    type /stringtype eq
    { show } { -0.001 mul 0 cairo_font_matrix dtransform rmoveto } ifelse
  } forall
  currentpoint cairo_store_point
} bind def
/cairo_selectfont { cairo_font_matrix aload pop pop pop 0 0 6 array astore
    cairo_font exch selectfont cairo_point_x cairo_point_y moveto } bind def
/Tf { pop /cairo_font exch def /cairo_font_matrix where
      { pop cairo_selectfont } if } bind def
/Td { matrix translate cairo_font_matrix matrix concatmatrix dup
      /cairo_font_matrix exch def dup 4 get exch 5 get cairo_store_point
      /cairo_font where { pop cairo_selectfont } if } bind def
/Tm { 2 copy 8 2 roll 6 array astore /cairo_font_matrix exch def
      cairo_store_point /cairo_font where { pop cairo_selectfont } if } bind def
/g { setgray } bind def
/rg { setrgbcolor } bind def
/d1 { setcachedevice } bind def
%%EndProlog
%%BeginSetup
%%EndSetup
%%Page: 1 1
%%BeginPageSetup
%%PageBoundingBox: 0 0 384 384
%%EndPageSetup
q 0 0 384 384 rectclip q
0.992157 0.74902 0 rg
384 192 m 384 85.961 298.039 0 192 0 c 85.961 0 0 85.961 0 192 c 0 298.039
 85.961 384 192 384 c 298.039 384 384 298.039 384 192 c h
384 192 m f
1 0.568627 0 rg
202.609 0.297 m 303.715 5.805 384 89.523 384 192 c 384 195.426 383.906 
198.832 383.73 202.215 c 250.703 335.242 l 198.875 283.414 l 165.641 316.648
 l 133.289 284.297 l 233.164 184.422 l 125.824 77.082 l h
202.609 0.297 m f
0.878431 0.956863 1 rg
233.969 223.895 m 233.969 284.328 l 250.754 284.328 l 250.754 335.25 l 
133.246 335.25 l 133.246 284.328 l 150.031 284.328 l 161.574 275.41 l 150.031
 267.543 l 150.031 250.754 l 160 240.262 l 150.031 233.969 l 150.031 223.895
 l 119.312 208.117 99.672 176.555 99.672 141.637 c 99.672 90.773 141.133
 48.75 192 48.75 c 242.867 48.75 284.328 90.773 284.328 141.641 c 284.328
 176.555 264.688 208.117 233.969 223.895 c h
233.969 223.895 m f
0.733333 0.862745 1 rg
233.969 223.895 m 233.969 284.328 l 250.754 284.328 l 250.754 335.25 l 
192 335.25 l 192 48.75 l 242.867 48.75 284.328 90.773 284.328 141.641 c 
284.328 176.555 264.688 208.117 233.969 223.895 c h
233.969 223.895 m f
0.341176 0.372549 0.392157 rg
187.637 166.316 m 170.344 196.195 l 148.688 187.637 133.246 166.316 133.246
 141.641 c 133.246 138.785 133.301 135.539 133.805 132.684 c 168.328 132.684
 l 167.324 135.371 166.82 138.617 166.82 141.641 c 166.82 154.062 175.715
 164.301 187.637 166.316 c h
187.637 166.316 m f
0.196078 0.223529 0.247059 rg
214.16 196.027 m 197.035 166.316 l 208.617 163.965 217.18 153.895 217.18
 141.641 c 217.18 138.617 216.676 135.371 215.668 132.684 c 250.082 132.684
 l 250.586 135.539 250.754 138.785 250.754 141.641 c 250.754 166.148 235.645
 187.301 214.16 196.027 c h
214.16 196.027 m f
0.341176 0.372549 0.392157 rg
192 116.457 m 184.445 116.457 177.73 119.816 173.199 125.02 c 156.074 95.305
 l 165.98 87.418 178.57 82.883 192 82.883 c 205.766 82.883 218.523 87.586
 228.426 95.641 c 211.305 125.523 l 206.605 119.984 199.723 116.457 192 
116.457 c h
192 116.457 m f
0.196078 0.223529 0.247059 rg
228.426 95.641 m 211.305 125.523 l 206.605 119.984 199.723 116.457 192 
116.457 c 192 82.883 l 205.766 82.883 218.523 87.586 228.426 95.641 c h
228.426 95.641 m f
0.603922 0.729412 0.858824 rg
150.031 284.328 33.574 -16.785 re f
150.031 250.754 33.574 -16.785 re f
0.341176 0.372549 0.392157 rg
200.395 141.641 m 200.395 137.004 196.637 133.246 192 133.246 c 187.363
 133.246 183.605 137.004 183.605 141.641 c 183.605 146.273 187.363 150.031
 192 150.031 c 196.637 150.031 200.395 146.273 200.395 141.641 c h
200.395 141.641 m f
0.196078 0.223529 0.247059 rg
200.395 141.641 m 200.395 146.277 196.637 150.031 192 150.031 c 192 133.246
 l 196.637 133.246 200.395 137.004 200.395 141.641 c h
200.395 141.641 m f
Q Q
showpage
%%Trailer
end restore
%%EOF
