%!PS-Adobe-3.0 EPSF-3.0
%%Creator: cairo 1.14.8 (http://cairographics.org)
%%CreationDate: Fri Feb 22 08:48:37 2019
%%Pages: 1
%%DocumentData: Clean7Bit
%%LanguageLevel: 2
%%BoundingBox: 0 0 384 384
%%EndComments
%%BeginProlog
save
50 dict begin
/q { gsave } bind def
/Q { grestore } bind def
/cm { 6 array astore concat } bind def
/w { setlinewidth } bind def
/J { setlinecap } bind def
/j { setlinejoin } bind def
/M { setmiterlimit } bind def
/d { setdash } bind def
/m { moveto } bind def
/l { lineto } bind def
/c { curveto } bind def
/h { closepath } bind def
/re { exch dup neg 3 1 roll 5 3 roll moveto 0 rlineto
      0 exch rlineto 0 rlineto closepath } bind def
/S { stroke } bind def
/f { fill } bind def
/f* { eofill } bind def
/n { newpath } bind def
/W { clip } bind def
/W* { eoclip } bind def
/BT { } bind def
/ET { } bind def
/pdfmark where { pop globaldict /?pdfmark /exec load put }
    { globaldict begin /?pdfmark /pop load def /pdfmark
    /cleartomark load def end } ifelse
/BDC { mark 3 1 roll /BDC pdfmark } bind def
/EMC { mark /EMC pdfmark } bind def
/cairo_store_point { /cairo_point_y exch def /cairo_point_x exch def } def
/Tj { show currentpoint cairo_store_point } bind def
/TJ {
  {
    dup
    type /stringtype eq
    { show } { -0.001 mul 0 cairo_font_matrix dtransform rmoveto } ifelse
  } forall
  currentpoint cairo_store_point
} bind def
/cairo_selectfont { cairo_font_matrix aload pop pop pop 0 0 6 array astore
    cairo_font exch selectfont cairo_point_x cairo_point_y moveto } bind def
/Tf { pop /cairo_font exch def /cairo_font_matrix where
      { pop cairo_selectfont } if } bind def
/Td { matrix translate cairo_font_matrix matrix concatmatrix dup
      /cairo_font_matrix exch def dup 4 get exch 5 get cairo_store_point
      /cairo_font where { pop cairo_selectfont } if } bind def
/Tm { 2 copy 8 2 roll 6 array astore /cairo_font_matrix exch def
      cairo_store_point /cairo_font where { pop cairo_selectfont } if } bind def
/g { setgray } bind def
/rg { setrgbcolor } bind def
/d1 { setcachedevice } bind def
%%EndProlog
%%BeginSetup
%%EndSetup
%%Page: 1 1
%%BeginPageSetup
%%PageBoundingBox: 0 0 384 384
%%EndPageSetup
q 0 0 384 384 rectclip q
0.611765 0.866667 0.0196078 rg
384 192 m 384 85.961 298.039 0 192 0 c 85.961 0 0 85.961 0 192 c 0 298.039
 85.961 384 192 384 c 298.039 384 384 298.039 384 192 c h
384 192 m f
0.4 0.733333 0 rg
384 192 m 384 203.652 382.961 215.059 380.973 226.137 c 288.438 318.668
 l 136.383 166.617 l 166.602 136.398 l 95.48 65.273 l 157.691 3.062 l 168.824
 1.051 180.289 0 192 0 c 298.039 0 384 85.961 384 192 c h
384 192 m f
1 0.568627 0 rg
288.547 318.75 m 288.547 65.25 l 258.84 65.25 l 192 82.23 l 182.344 84.609
 l 125.16 65.25 l 95.453 65.25 l 95.453 318.75 l h
288.547 318.75 m f
1 0.392157 0.101961 rg
288.547 318.75 m 288.547 65.25 l 258.84 65.25 l 192 82.23 l 192 318.75 
l h
288.547 318.75 m f
0.341176 0.372549 0.392157 rg
125.16 288.547 133.68 -74.266 re f
0.196078 0.223529 0.247059 rg
192 288.547 66.84 -74.266 re f
0.341176 0.372549 0.392157 rg
125.16 169.719 59.414 -44.559 re f
0.196078 0.223529 0.247059 rg
199.426 169.719 59.414 -44.559 re f
0.341176 0.372549 0.392157 rg
140.012 199.426 14.855 -14.852 re f
169.719 199.426 14.855 -14.852 re f
0.196078 0.223529 0.247059 rg
199.426 199.426 14.855 -14.852 re f
229.133 199.426 14.855 -14.852 re f
0.878431 0.956863 1 rg
184.574 258.84 44.559 -14.852 re f
154.867 258.84 14.852 -14.852 re f
247.996 83.074 m 226.164 65.25 l 159.324 65.25 l 143.133 92.332 l 159.324
 110.305 l 226.164 110.305 l h
247.996 83.074 m f
0.733333 0.862745 1 rg
226.164 110.305 m 247.996 83.719 l 226.164 65.25 l 192 65.25 l 192 110.305
 l h
226.164 110.305 m f
192 258.84 37.133 -14.852 re f
159.324 65.25 m 125.16 65.25 l 125.16 95.453 l 125.16 103.656 131.809 110.305
 140.012 110.305 c 159.324 110.305 l h
159.324 65.25 m f
0.603922 0.729412 0.858824 rg
258.84 65.25 m 226.164 65.25 l 226.164 110.305 l 243.988 110.305 l 252.191
 110.305 258.84 103.656 258.84 95.453 c h
258.84 65.25 m f
Q Q
showpage
%%Trailer
end restore
%%EOF
