%!PS-Adobe-3.0 EPSF-3.0
%%Creator: cairo 1.14.8 (http://cairographics.org)
%%CreationDate: Fri Feb 22 08:48:37 2019
%%Pages: 1
%%DocumentData: Clean7Bit
%%LanguageLevel: 2
%%BoundingBox: 0 0 384 384
%%EndComments
%%BeginProlog
save
50 dict begin
/q { gsave } bind def
/Q { grestore } bind def
/cm { 6 array astore concat } bind def
/w { setlinewidth } bind def
/J { setlinecap } bind def
/j { setlinejoin } bind def
/M { setmiterlimit } bind def
/d { setdash } bind def
/m { moveto } bind def
/l { lineto } bind def
/c { curveto } bind def
/h { closepath } bind def
/re { exch dup neg 3 1 roll 5 3 roll moveto 0 rlineto
      0 exch rlineto 0 rlineto closepath } bind def
/S { stroke } bind def
/f { fill } bind def
/f* { eofill } bind def
/n { newpath } bind def
/W { clip } bind def
/W* { eoclip } bind def
/BT { } bind def
/ET { } bind def
/pdfmark where { pop globaldict /?pdfmark /exec load put }
    { globaldict begin /?pdfmark /pop load def /pdfmark
    /cleartomark load def end } ifelse
/BDC { mark 3 1 roll /BDC pdfmark } bind def
/EMC { mark /EMC pdfmark } bind def
/cairo_store_point { /cairo_point_y exch def /cairo_point_x exch def } def
/Tj { show currentpoint cairo_store_point } bind def
/TJ {
  {
    dup
    type /stringtype eq
    { show } { -0.001 mul 0 cairo_font_matrix dtransform rmoveto } ifelse
  } forall
  currentpoint cairo_store_point
} bind def
/cairo_selectfont { cairo_font_matrix aload pop pop pop 0 0 6 array astore
    cairo_font exch selectfont cairo_point_x cairo_point_y moveto } bind def
/Tf { pop /cairo_font exch def /cairo_font_matrix where
      { pop cairo_selectfont } if } bind def
/Td { matrix translate cairo_font_matrix matrix concatmatrix dup
      /cairo_font_matrix exch def dup 4 get exch 5 get cairo_store_point
      /cairo_font where { pop cairo_selectfont } if } bind def
/Tm { 2 copy 8 2 roll 6 array astore /cairo_font_matrix exch def
      cairo_store_point /cairo_font where { pop cairo_selectfont } if } bind def
/g { setgray } bind def
/rg { setrgbcolor } bind def
/d1 { setcachedevice } bind def
%%EndProlog
%%BeginSetup
%%EndSetup
%%Page: 1 1
%%BeginPageSetup
%%PageBoundingBox: 0 0 384 384
%%EndPageSetup
q 0 0 384 384 rectclip q
0.992157 0.74902 0 rg
384 192 m 384 85.961 298.039 0 192 0 c 85.961 0 0 85.961 0 192 c 0 298.039
 85.961 384 192 384 c 298.039 384 384 298.039 384 192 c h
384 192 m f
1 0.568627 0 rg
267.516 273.418 m 265.516 271.418 l 192.031 344.902 l 181.875 309.375 l
 162.68 289.938 l 116.484 243.742 l 141.668 218.559 l 99.684 176.574 l 144.5
 131.5 l 115.258 58.18 l 98.945 74.492 l 82.945 58.496 l 131.805 9.637 l
 150.742 3.391 170.973 0 192 0 c 287.016 0 365.898 69.023 381.273 159.66
 c h
267.516 273.418 m f
0.341176 0.372549 0.392157 rg
225.07 240.527 m 222.551 260.504 l 250.754 260.504 l 250.754 243.719 l 
267.543 243.719 l 267.543 273.43 l 214.996 308.348 l 192 345 l 169.004 308.348
 l 116.457 273.43 l 116.457 243.719 l 133.246 243.719 l 133.246 260.504 
l 161.449 260.504 l 158.93 240.527 l 99.672 206.617 l 99.672 176.57 l 116.457
 176.57 l 116.457 193.355 l 153.055 193.355 l 150.199 170.023 l 130.055 
109.422 l 116.457 68.406 l 152.719 68.406 l 179.746 109.422 l 204.254 109.422
 l 231.281 68.406 l 267.539 68.406 l 253.941 109.422 l 233.797 170.023 l
 230.945 193.355 l 267.539 193.355 l 267.539 176.57 l 284.328 176.57 l 284.328
 206.617 l h
231.449 277.293 m 220.371 277.293 l 219.363 285.352 l h
183.27 299.617 m 192 313.887 l 200.73 299.617 l 203.414 277.293 l 180.586
 277.293 l h
178.402 260.504 m 205.598 260.504 l 207.613 243.719 l 176.387 243.719 l
 h
174.207 226.93 m 209.793 226.93 l 211.809 210.145 l 172.191 210.145 l h
170.008 193.355 m 213.992 193.355 l 216.008 176.57 l 167.996 176.57 l h
152.551 277.293 m 164.637 285.352 l 163.629 277.293 l h
139.625 210.145 m 156.41 219.711 l 155.238 210.145 l h
137.105 75.289 m 136.434 75.289 l 147.684 109.422 l 159.602 109.422 l h
153.223 126.207 m 164.469 159.781 l 219.531 159.781 l 230.777 126.207 l
 h
236.316 109.422 m 247.566 75.289 l 246.895 75.289 l 224.398 109.422 l h
228.762 210.145 m 227.59 219.711 l 244.375 210.145 l h
228.762 210.145 m f
0.196078 0.223529 0.247059 rg
225.07 240.527 m 222.551 260.504 l 250.754 260.504 l 250.754 243.719 l 
267.543 243.719 l 267.543 273.43 l 214.996 308.348 l 192 345 l 192 313.887
 l 200.73 299.617 l 203.414 277.293 l 192 277.293 l 192 260.504 l 205.598
 260.504 l 207.613 243.719 l 192 243.719 l 192 226.93 l 209.793 226.93 l
 211.809 210.141 l 192 210.141 l 192 193.355 l 213.992 193.355 l 216.004
 176.566 l 192 176.566 l 192 159.781 l 219.531 159.781 l 230.777 126.207
 l 192 126.207 l 192 109.418 l 204.254 109.418 l 231.281 68.402 l 267.543
 68.402 l 253.945 109.418 l 233.801 170.02 l 230.945 193.355 l 267.539 193.355
 l 267.539 176.566 l 284.328 176.566 l 284.328 206.617 l h
219.363 285.352 m 231.449 277.293 l 220.371 277.293 l h
236.316 109.422 m 247.566 75.289 l 246.895 75.289 l 224.398 109.422 l h
228.762 210.145 m 227.59 219.711 l 244.375 210.145 l h
228.762 210.145 m f
0.764706 0.917647 0.129412 rg
301.117 75.289 m 301.117 58.5 l 192 58.5 l 61.059 58.5 128.543 58.5 82.883
 58.5 c 82.883 75.289 l 128.879 75.289 62.57 75.289 192 75.289 c h
301.117 75.289 m f
0.611765 0.866667 0.0196078 rg
192 75.289 109.117 -16.789 re f
Q Q
showpage
%%Trailer
end restore
%%EOF
