%!PS-Adobe-3.0 EPSF-3.0
%%Creator: cairo 1.14.8 (http://cairographics.org)
%%CreationDate: Fri Feb 22 08:48:37 2019
%%Pages: 1
%%DocumentData: Clean7Bit
%%LanguageLevel: 2
%%BoundingBox: 0 0 384 384
%%EndComments
%%BeginProlog
save
50 dict begin
/q { gsave } bind def
/Q { grestore } bind def
/cm { 6 array astore concat } bind def
/w { setlinewidth } bind def
/J { setlinecap } bind def
/j { setlinejoin } bind def
/M { setmiterlimit } bind def
/d { setdash } bind def
/m { moveto } bind def
/l { lineto } bind def
/c { curveto } bind def
/h { closepath } bind def
/re { exch dup neg 3 1 roll 5 3 roll moveto 0 rlineto
      0 exch rlineto 0 rlineto closepath } bind def
/S { stroke } bind def
/f { fill } bind def
/f* { eofill } bind def
/n { newpath } bind def
/W { clip } bind def
/W* { eoclip } bind def
/BT { } bind def
/ET { } bind def
/pdfmark where { pop globaldict /?pdfmark /exec load put }
    { globaldict begin /?pdfmark /pop load def /pdfmark
    /cleartomark load def end } ifelse
/BDC { mark 3 1 roll /BDC pdfmark } bind def
/EMC { mark /EMC pdfmark } bind def
/cairo_store_point { /cairo_point_y exch def /cairo_point_x exch def } def
/Tj { show currentpoint cairo_store_point } bind def
/TJ {
  {
    dup
    type /stringtype eq
    { show } { -0.001 mul 0 cairo_font_matrix dtransform rmoveto } ifelse
  } forall
  currentpoint cairo_store_point
} bind def
/cairo_selectfont { cairo_font_matrix aload pop pop pop 0 0 6 array astore
    cairo_font exch selectfont cairo_point_x cairo_point_y moveto } bind def
/Tf { pop /cairo_font exch def /cairo_font_matrix where
      { pop cairo_selectfont } if } bind def
/Td { matrix translate cairo_font_matrix matrix concatmatrix dup
      /cairo_font_matrix exch def dup 4 get exch 5 get cairo_store_point
      /cairo_font where { pop cairo_selectfont } if } bind def
/Tm { 2 copy 8 2 roll 6 array astore /cairo_font_matrix exch def
      cairo_store_point /cairo_font where { pop cairo_selectfont } if } bind def
/g { setgray } bind def
/rg { setrgbcolor } bind def
/d1 { setcachedevice } bind def
%%EndProlog
%%BeginSetup
%%EndSetup
%%Page: 1 1
%%BeginPageSetup
%%PageBoundingBox: 0 0 384 384
%%EndPageSetup
q 0 0 384 384 rectclip q
0.341176 0.372549 0.392157 rg
384 192 m 384 85.961 298.039 0 192 0 c 85.961 0 0 85.961 0 192 c 0 298.039
 85.961 384 192 384 c 298.039 384 384 298.039 384 192 c h
384 192 m f
0.196078 0.223529 0.247059 rg
296.184 279.695 m 260.684 244.195 l 203.715 301.164 l 209.75 266.75 l 174.133
 302.691 l 165.219 293.781 l 208.5 220.5 l 151.438 164.312 l 127.375 172.25
 l 105.766 168.562 l 133.539 140.789 l 125.188 132.438 l 118.062 139.562
 l 98.531 120.031 l 216.949 1.613 l 311.164 13.84 383.941 94.352 384 191.879
 c h
296.184 279.695 m f
0.992157 0.74902 0 rg
319.402 129.379 m 291.992 156.602 l 315.898 196.496 l 277.301 204.273 l
 296.168 279.746 l 241.727 225.16 l 225.305 257.996 l 203.699 301.207 l 
203.699 225.734 l 73.598 303.941 l 132.984 227.461 l 83.438 243.883 l 141.191
 186.27 l 105.762 168.555 l 156.461 151.562 l 121.316 98.703 l 172.59 115.84
 l 164.668 76.09 l 208.742 102.59 l 225.305 77.672 l 242.156 103.023 l 296.598
 75.656 l 278.453 121.316 l h
319.402 129.379 m f
1 0.568627 0 rg
278.453 121.312 m 296.598 75.656 l 242.156 103.023 l 225.305 77.672 l 225.305
 257.996 l 241.727 225.16 l 296.168 279.746 l 277.301 204.273 l 315.898 
196.496 l 291.992 156.602 l 319.402 129.379 l h
278.453 121.312 m f
174.137 302.703 m 231.746 187.484 l 218.863 181.043 l 161.254 296.262 l
 h
174.137 302.703 m f
98.516 120.023 m 92.848 133.262 l 193.664 176.469 l 199.336 163.234 l h
98.516 120.023 m f
1 0.392157 0.101961 rg
247.422 66.359 m 218.617 138.371 l 231.992 143.719 l 260.801 71.703 l h
247.422 66.359 m f
307.219 233.078 m 316.219 221.828 l 244.203 164.215 l 235.203 175.469 l
 h
307.219 233.078 m f
0.341176 0.372549 0.392157 rg
218.105 172.836 m 228.289 162.652 l 218.105 152.469 l 207.922 162.652 l
 h
218.105 172.836 m f
0.196078 0.223529 0.247059 rg
246.91 158.434 m 257.094 148.25 l 246.91 138.066 l 236.727 148.25 l h
246.91 158.434 m f
Q Q
showpage
%%Trailer
end restore
%%EOF
