%!PS-Adobe-3.0 EPSF-3.0
%%Creator: cairo 1.14.8 (http://cairographics.org)
%%CreationDate: Fri Feb 22 08:48:37 2019
%%Pages: 1
%%DocumentData: Clean7Bit
%%LanguageLevel: 2
%%BoundingBox: 0 0 384 384
%%EndComments
%%BeginProlog
save
50 dict begin
/q { gsave } bind def
/Q { grestore } bind def
/cm { 6 array astore concat } bind def
/w { setlinewidth } bind def
/J { setlinecap } bind def
/j { setlinejoin } bind def
/M { setmiterlimit } bind def
/d { setdash } bind def
/m { moveto } bind def
/l { lineto } bind def
/c { curveto } bind def
/h { closepath } bind def
/re { exch dup neg 3 1 roll 5 3 roll moveto 0 rlineto
      0 exch rlineto 0 rlineto closepath } bind def
/S { stroke } bind def
/f { fill } bind def
/f* { eofill } bind def
/n { newpath } bind def
/W { clip } bind def
/W* { eoclip } bind def
/BT { } bind def
/ET { } bind def
/pdfmark where { pop globaldict /?pdfmark /exec load put }
    { globaldict begin /?pdfmark /pop load def /pdfmark
    /cleartomark load def end } ifelse
/BDC { mark 3 1 roll /BDC pdfmark } bind def
/EMC { mark /EMC pdfmark } bind def
/cairo_store_point { /cairo_point_y exch def /cairo_point_x exch def } def
/Tj { show currentpoint cairo_store_point } bind def
/TJ {
  {
    dup
    type /stringtype eq
    { show } { -0.001 mul 0 cairo_font_matrix dtransform rmoveto } ifelse
  } forall
  currentpoint cairo_store_point
} bind def
/cairo_selectfont { cairo_font_matrix aload pop pop pop 0 0 6 array astore
    cairo_font exch selectfont cairo_point_x cairo_point_y moveto } bind def
/Tf { pop /cairo_font exch def /cairo_font_matrix where
      { pop cairo_selectfont } if } bind def
/Td { matrix translate cairo_font_matrix matrix concatmatrix dup
      /cairo_font_matrix exch def dup 4 get exch 5 get cairo_store_point
      /cairo_font where { pop cairo_selectfont } if } bind def
/Tm { 2 copy 8 2 roll 6 array astore /cairo_font_matrix exch def
      cairo_store_point /cairo_font where { pop cairo_selectfont } if } bind def
/g { setgray } bind def
/rg { setrgbcolor } bind def
/d1 { setcachedevice } bind def
%%EndProlog
%%BeginSetup
%%EndSetup
%%Page: 1 1
%%BeginPageSetup
%%PageBoundingBox: 0 0 384 384
%%EndPageSetup
q 0 0 384 384 rectclip q
0.992157 0.74902 0 rg
384 192 m 384 85.961 298.039 0 192 0 c 85.961 0 0 85.961 0 192 c 0 298.039
 85.961 384 192 384 c 298.039 384 384 298.039 384 192 c h
384 192 m f
1 0.568627 0 rg
383.711 181.484 m 327.742 237.453 l 326.059 235.773 l 259.75 302.082 l 
242.445 284.781 l 198.039 329.188 l 174.75 228.5 l 81.289 234.836 l 68.254
 221.801 l 136.445 153.609 l 98.621 115.785 l 83.398 131.008 l 70.363 117.973
 l 85.586 102.75 l 68.254 85.414 l 148.777 4.887 l 162.672 1.691 177.137
 0 192 0 c 294.512 0 378.25 80.336 383.711 181.484 c h
383.711 181.484 m f
0.603922 0.729412 0.858824 rg
75.059 115.82 m 75.059 100.668 l 100.059 100.668 l 129.262 115.82 l h
75.059 115.82 m f
0.733333 0.862745 1 rg
68.25 131.027 15.203 -45.617 re f
0.4 0.733333 0 rg
314.652 228.91 m 259.645 302.254 l 223.844 266.453 l 250.199 228.91 l h
314.652 228.91 m f
0.611765 0.866667 0.0196078 rg
145.801 228.91 m 172.156 266.453 l 136.355 302.254 l 81.348 228.91 l h
145.801 228.91 m f
0.764706 0.917647 0.129412 rg
268.703 228.945 m 127.297 228.945 l 198 329.25 l h
268.703 228.945 m f
0.611765 0.866667 0.0196078 rg
268.703 228.945 m 198 228.945 l 198 329.25 l h
268.703 228.945 m f
0.733333 0.862745 1 rg
84.418 225.602 m 100.078 100.668 l 295.922 100.668 l 311.582 225.602 l 
h
84.418 225.602 m f
0.603922 0.729412 0.858824 rg
295.922 100.668 m 198 100.668 l 198 225.602 l 311.582 225.602 l h
295.922 100.668 m f
0.341176 0.372549 0.392157 rg
144.781 69.75 m 128.012 69.75 114.371 83.391 114.371 100.16 c 114.371 116.934
 128.012 130.57 144.781 130.57 c 161.555 130.57 175.191 116.934 175.191 
100.16 c 175.191 83.391 161.555 69.75 144.781 69.75 c h
144.781 69.75 m f
0.733333 0.862745 1 rg
144.781 84.953 m 136.398 84.953 129.578 91.777 129.578 100.16 c 129.578
 108.543 136.398 115.363 144.781 115.363 c 153.164 115.363 159.988 108.543
 159.988 100.16 c 159.988 91.777 153.164 84.953 144.781 84.953 c h
144.781 84.953 m f
0.196078 0.223529 0.247059 rg
251.219 69.75 m 234.445 69.75 220.809 83.391 220.809 100.16 c 220.809 116.934
 234.445 130.57 251.219 130.57 c 267.988 130.57 281.629 116.934 281.629 
100.16 c 281.629 83.391 267.988 69.75 251.219 69.75 c h
251.219 69.75 m f
0.733333 0.862745 1 rg
251.219 84.953 m 242.836 84.953 236.012 91.777 236.012 100.16 c 236.012
 108.543 242.836 115.363 251.219 115.363 c 259.602 115.363 266.422 108.543
 266.422 100.16 c 266.422 91.777 259.602 84.953 251.219 84.953 c h
251.219 84.953 m f
0.341176 0.372549 0.392157 rg
68.25 237.461 259.5 -15.66 re f
0.196078 0.223529 0.247059 rg
198 237.461 129.75 -15.66 re f
Q Q
showpage
%%Trailer
end restore
%%EOF
