%!PS-Adobe-3.0 EPSF-3.0
%%Creator: cairo 1.14.8 (http://cairographics.org)
%%CreationDate: Fri Feb 22 08:48:37 2019
%%Pages: 1
%%DocumentData: Clean7Bit
%%LanguageLevel: 2
%%BoundingBox: 0 0 384 384
%%EndComments
%%BeginProlog
save
50 dict begin
/q { gsave } bind def
/Q { grestore } bind def
/cm { 6 array astore concat } bind def
/w { setlinewidth } bind def
/J { setlinecap } bind def
/j { setlinejoin } bind def
/M { setmiterlimit } bind def
/d { setdash } bind def
/m { moveto } bind def
/l { lineto } bind def
/c { curveto } bind def
/h { closepath } bind def
/re { exch dup neg 3 1 roll 5 3 roll moveto 0 rlineto
      0 exch rlineto 0 rlineto closepath } bind def
/S { stroke } bind def
/f { fill } bind def
/f* { eofill } bind def
/n { newpath } bind def
/W { clip } bind def
/W* { eoclip } bind def
/BT { } bind def
/ET { } bind def
/pdfmark where { pop globaldict /?pdfmark /exec load put }
    { globaldict begin /?pdfmark /pop load def /pdfmark
    /cleartomark load def end } ifelse
/BDC { mark 3 1 roll /BDC pdfmark } bind def
/EMC { mark /EMC pdfmark } bind def
/cairo_store_point { /cairo_point_y exch def /cairo_point_x exch def } def
/Tj { show currentpoint cairo_store_point } bind def
/TJ {
  {
    dup
    type /stringtype eq
    { show } { -0.001 mul 0 cairo_font_matrix dtransform rmoveto } ifelse
  } forall
  currentpoint cairo_store_point
} bind def
/cairo_selectfont { cairo_font_matrix aload pop pop pop 0 0 6 array astore
    cairo_font exch selectfont cairo_point_x cairo_point_y moveto } bind def
/Tf { pop /cairo_font exch def /cairo_font_matrix where
      { pop cairo_selectfont } if } bind def
/Td { matrix translate cairo_font_matrix matrix concatmatrix dup
      /cairo_font_matrix exch def dup 4 get exch 5 get cairo_store_point
      /cairo_font where { pop cairo_selectfont } if } bind def
/Tm { 2 copy 8 2 roll 6 array astore /cairo_font_matrix exch def
      cairo_store_point /cairo_font where { pop cairo_selectfont } if } bind def
/g { setgray } bind def
/rg { setrgbcolor } bind def
/d1 { setcachedevice } bind def
%%EndProlog
%%BeginSetup
%%EndSetup
%%Page: 1 1
%%BeginPageSetup
%%PageBoundingBox: 0 0 384 384
%%EndPageSetup
q 0 0 384 384 rectclip q
0.341176 0.372549 0.392157 rg
384 192 m 384 85.961 298.039 0 192 0 c 85.961 0 0 85.961 0 192 c 0 298.039
 85.961 384 192 384 c 298.039 384 384 298.039 384 192 c h
384 192 m f
0.196078 0.223529 0.247059 rg
383.699 202.688 m 306.18 280.207 l 250.875 318.938 l 232.312 239.438 l 
156.5 227.5 l 135 150 l 52.125 129.656 l 181.59 0.285 l 185.039 0.098 188.508
 0 192 0 c 298.039 0 384 85.961 384 192 c 384 195.586 383.895 199.148 383.699
 202.688 c h
383.699 202.688 m f
1 0.854902 0.176471 rg
150.914 221.355 m 162.559 232.996 l 233.082 162.473 l 221.438 150.828 l
 h
150.914 221.355 m f
247.719 195.086 m 235.91 183.277 l 183.352 235.836 l 195.16 247.645 l 221.441
 221.367 l h
247.719 195.086 m f
136.277 188.777 m 148.086 200.586 l 200.648 148.027 l 188.84 136.215 l 
h
136.277 188.777 m f
294.793 241.992 m 282.984 230.348 l 230.422 282.91 l 242.066 294.719 l 
h
294.793 241.992 m f
153.578 100.941 m 141.934 89.133 l 89.207 141.859 l 101.016 153.504 l h
153.578 100.941 m f
321.684 264.391 m 317.523 245.094 l 310.039 252.582 l 281.43 281.188 l 
252.82 309.797 l 246.168 316.453 l 264.465 321.609 l h
321.684 264.391 m f
138.996 66.234 m 119.535 62.242 l 62.316 119.461 l 65.145 140.086 l h
138.996 66.234 m f
0.992157 0.74902 0 rg
102.734 102.496 m 138.996 66.234 l 119.535 62.242 l 90.926 90.852 l h
102.734 102.496 m f
127.297 127.223 m 153.578 100.941 l 141.934 89.133 l 115.652 115.414 l 
h
127.297 127.223 m f
188.84 136.203 m 162.559 162.48 l 174.367 174.289 l 200.648 148.012 l h
188.84 136.203 m f
221.441 150.84 m 186.18 186.102 l 197.82 197.742 l 233.082 162.48 l h
221.441 150.84 m f
235.906 183.273 m 209.625 209.555 l 221.434 221.363 l 247.715 195.082 l
 h
235.906 183.273 m f
268.512 268.27 m 294.793 241.992 l 282.984 230.348 l 256.703 256.629 l 
h
268.512 268.27 m f
321.684 264.391 m 317.523 245.094 l 310.039 252.582 l 281.43 281.188 l 
293.074 293 l h
321.684 264.391 m f
1 0.568627 0 rg
264.465 321.609 m 259.473 318.613 255.648 314.457 252.82 309.797 c 242.344
 293.5 242.398 265.113 246.059 245.984 c 247.223 238.832 247.719 240.16 
249.383 228.52 c 252.379 209.223 254.375 171.965 233.082 150.844 c 211.961
 129.551 174.703 131.547 155.406 134.539 c 151.414 135.039 145.094 136.371
 137.609 137.535 c 113.492 141.527 75.793 143.578 62.316 119.461 c 50.066
 131.438 l 66.531 156.219 105.176 159.656 134.617 155.332 c 142.434 154.168
 146.926 153.004 151.914 151.84 c 157.402 150.676 163.391 149.68 175.535
 149.512 c 191.336 148.848 210.297 151.34 221.441 162.484 c 237.406 178.453
 235.746 209.559 232.086 231.848 c 232.086 232.012 l 230.59 239.164 229.758
 241.16 228.594 249.309 c 224.102 279.414 227.539 315.953 252.324 333.75
 c h
264.465 321.609 m f
1 0.392157 0.101961 rg
233.082 150.84 m 211.961 129.551 174.703 131.547 155.406 134.539 c 151.414
 135.039 145.094 136.371 137.609 137.535 c 151.914 151.84 l 157.402 150.676
 163.395 149.676 175.535 149.512 c 191.336 148.844 210.297 151.34 221.441
 162.484 c 237.41 178.453 235.746 209.555 232.086 231.844 c 232.086 232.012
 l 246.059 245.98 l 247.223 238.828 247.723 240.16 249.387 228.516 c 252.379
 209.223 254.375 171.965 233.082 150.84 c h
233.082 150.84 m f
0.611765 0.866667 0.0196078 rg
333.938 252.414 m 317.137 227.297 279.156 224.027 249.383 228.516 c 238.242
 230.18 239.07 230.68 232.086 231.844 c 232.086 232.012 l 217.781 234.34
 200.484 235.668 186.344 232.844 c 175.535 230.848 167.383 226.188 162.559
 221.367 c 146.426 205.23 148.254 174.125 151.914 151.84 c 152.082 151.84
 l 153.246 144.852 153.746 145.684 155.406 134.539 c 159.898 104.766 156.293
 67.066 131.676 50.102 c 119.535 62.242 l 143.82 75.551 141.602 113.418 
137.609 137.535 c 136.445 145.02 135.117 151.34 134.617 155.332 c 131.621
 174.629 129.625 211.883 150.918 233.008 c 172.039 254.297 209.297 252.305
 228.594 249.309 c 240.234 247.645 238.906 247.148 246.059 245.98 c 270.84
 241.16 309.539 242.102 321.684 264.391 c h
333.938 252.414 m f
0.4 0.733333 0 rg
155.406 134.539 m 159.898 104.766 156.293 67.066 131.676 50.102 c 119.535
 62.242 l 143.82 75.551 141.602 113.418 137.609 137.535 c 151.914 151.84
 l 152.082 151.84 l 153.246 144.852 153.742 145.684 155.406 134.539 c h
155.406 134.539 m f
333.938 252.414 m 317.137 227.297 279.156 224.027 249.383 228.516 c 238.242
 230.18 239.07 230.68 232.086 231.844 c 232.086 232.012 l 246.059 245.98
 l 270.84 241.16 309.543 242.102 321.684 264.391 c h
333.938 252.414 m f
Q Q
showpage
%%Trailer
end restore
%%EOF
