%!PS-Adobe-3.0 EPSF-3.0
%%Creator: cairo 1.14.8 (http://cairographics.org)
%%CreationDate: Fri Feb 22 08:48:37 2019
%%Pages: 1
%%DocumentData: Clean7Bit
%%LanguageLevel: 2
%%BoundingBox: 0 0 384 384
%%EndComments
%%BeginProlog
save
50 dict begin
/q { gsave } bind def
/Q { grestore } bind def
/cm { 6 array astore concat } bind def
/w { setlinewidth } bind def
/J { setlinecap } bind def
/j { setlinejoin } bind def
/M { setmiterlimit } bind def
/d { setdash } bind def
/m { moveto } bind def
/l { lineto } bind def
/c { curveto } bind def
/h { closepath } bind def
/re { exch dup neg 3 1 roll 5 3 roll moveto 0 rlineto
      0 exch rlineto 0 rlineto closepath } bind def
/S { stroke } bind def
/f { fill } bind def
/f* { eofill } bind def
/n { newpath } bind def
/W { clip } bind def
/W* { eoclip } bind def
/BT { } bind def
/ET { } bind def
/pdfmark where { pop globaldict /?pdfmark /exec load put }
    { globaldict begin /?pdfmark /pop load def /pdfmark
    /cleartomark load def end } ifelse
/BDC { mark 3 1 roll /BDC pdfmark } bind def
/EMC { mark /EMC pdfmark } bind def
/cairo_store_point { /cairo_point_y exch def /cairo_point_x exch def } def
/Tj { show currentpoint cairo_store_point } bind def
/TJ {
  {
    dup
    type /stringtype eq
    { show } { -0.001 mul 0 cairo_font_matrix dtransform rmoveto } ifelse
  } forall
  currentpoint cairo_store_point
} bind def
/cairo_selectfont { cairo_font_matrix aload pop pop pop 0 0 6 array astore
    cairo_font exch selectfont cairo_point_x cairo_point_y moveto } bind def
/Tf { pop /cairo_font exch def /cairo_font_matrix where
      { pop cairo_selectfont } if } bind def
/Td { matrix translate cairo_font_matrix matrix concatmatrix dup
      /cairo_font_matrix exch def dup 4 get exch 5 get cairo_store_point
      /cairo_font where { pop cairo_selectfont } if } bind def
/Tm { 2 copy 8 2 roll 6 array astore /cairo_font_matrix exch def
      cairo_store_point /cairo_font where { pop cairo_selectfont } if } bind def
/g { setgray } bind def
/rg { setrgbcolor } bind def
/d1 { setcachedevice } bind def
%%EndProlog
%%BeginSetup
%%EndSetup
%%Page: 1 1
%%BeginPageSetup
%%PageBoundingBox: 0 0 384 384
%%EndPageSetup
q 0 0 384 384 rectclip q
0.992157 0.74902 0 rg
384 192 m 384 85.961 298.039 0 192 0 c 85.961 0 0 85.961 0 192 c 0 298.039
 85.961 384 192 384 c 298.039 384 384 298.039 384 192 c h
384 192 m f
1 0.568627 0 rg
383.91 186.32 m 282.355 287.871 l 97.781 103.297 l 123.102 77.977 l 107.484
 62.359 l 168.398 1.445 l 176.133 0.496 184.008 0 192 0 c 296.137 0 380.902
 82.91 383.91 186.32 c h
383.91 186.32 m f
0.733333 0.862745 1 rg
266.684 109.746 m 264.996 109.285 262.844 108.98 260.539 108.98 c 123.461
 108.98 l 121.152 108.98 119.004 109.285 117.312 109.746 c 107.477 112.668
 l 107.477 62.363 l 276.52 62.363 l 276.52 112.668 l h
266.684 109.746 m f
0.603922 0.729412 0.858824 rg
276.52 112.668 m 276.52 62.363 l 192 62.363 l 192 108.977 l 260.539 108.977
 l 262.844 108.977 264.996 109.285 266.684 109.746 c h
276.52 112.668 m f
0.878431 0.956863 1 rg
321.906 212.402 m 313.762 270.031 265.301 316.594 207.52 323.355 c 202.293
 323.973 197.07 324.637 192 324.637 c 159.727 324.637 129.297 312.598 105.02
 290.93 c 77.355 266.188 60.863 230.691 60.863 193.5 c 60.863 161.535 73.207
 130.492 94.566 106.367 c 99.793 100.836 106.246 96.84 113.008 94.996 c 
116.082 94.074 119.617 93.609 123.457 93.609 c 260.539 93.609 l 264.379 
93.609 267.914 94.074 270.832 94.996 c 277.75 96.84 284.203 100.836 289.43
 106.367 c 289.43 106.52 l 314.855 134.992 327.246 174.094 321.906 212.402
 c h
321.906 212.402 m f
0.733333 0.862745 1 rg
289.43 106.52 m 289.43 106.367 l 284.203 100.836 277.75 96.84 270.836 94.996
 c 267.914 94.074 264.383 93.609 260.539 93.609 c 192 93.609 l 192 324.637
 l 197.07 324.637 202.297 323.973 207.52 323.355 c 265.305 316.594 313.762
 270.031 321.906 212.402 c 327.246 174.094 314.855 134.992 289.43 106.52
 c h
289.43 106.52 m f
261.152 193.5 m 261.152 173.215 252.238 154.004 236.871 140.941 c 147.125
 140.941 l 131.758 154.004 122.844 173.215 122.844 193.5 c 122.844 231.613
 153.887 262.652 191.996 262.652 c 230.109 262.652 261.152 231.613 261.152
 193.5 c h
261.152 193.5 m f
1 0.568627 0 rg
168.945 293.391 46.105 -15.367 re f
1 0.392157 0.101961 rg
192 293.391 23.051 -15.367 re f
0.603922 0.729412 0.858824 rg
261.152 193.5 m 261.152 173.215 252.238 154.004 236.871 140.941 c 191.996
 140.941 l 191.996 262.652 l 230.109 262.652 261.152 231.613 261.152 193.5
 c h
261.152 193.5 m f
0.341176 0.372549 0.392157 rg
230.418 193.5 m 230.418 186.738 228.574 180.129 225.348 174.289 c 158.652
 174.289 l 155.426 180.129 153.578 186.738 153.578 193.5 c 153.578 214.707
 170.793 231.918 192 231.918 c 213.207 231.918 230.418 214.707 230.418 193.5
 c h
230.418 193.5 m f
0.196078 0.223529 0.247059 rg
225.348 174.289 m 192 174.289 l 192 231.918 l 213.207 231.918 230.418 214.707
 230.418 193.5 c 230.418 186.738 228.574 180.129 225.348 174.289 c h
225.348 174.289 m f
0.341176 0.372549 0.392157 rg
153.578 139.715 76.84 -77.352 re f
1 0.568627 0 rg
92.109 216.551 15.367 -15.367 re f
92.109 185.816 15.367 -15.367 re f
1 0.392157 0.101961 rg
276.52 216.551 15.367 -15.367 re f
0.196078 0.223529 0.247059 rg
192 139.715 38.418 -77.352 re f
1 0.392157 0.101961 rg
276.52 185.816 15.367 -15.367 re f
1 0.854902 0.176471 rg
223.656 185.816 m 160.34 185.816 l 134.371 124.348 l 249.629 124.348 l 
h
223.656 185.816 m f
0.992157 0.74902 0 rg
249.629 124.348 m 192 124.348 l 192 185.816 l 223.656 185.816 l h
249.629 124.348 m f
Q Q
showpage
%%Trailer
end restore
%%EOF
