%!PS-Adobe-3.0 EPSF-3.0
%%Creator: cairo 1.14.8 (http://cairographics.org)
%%CreationDate: Fri Feb 22 08:48:37 2019
%%Pages: 1
%%DocumentData: Clean7Bit
%%LanguageLevel: 2
%%BoundingBox: 0 0 384 384
%%EndComments
%%BeginProlog
save
50 dict begin
/q { gsave } bind def
/Q { grestore } bind def
/cm { 6 array astore concat } bind def
/w { setlinewidth } bind def
/J { setlinecap } bind def
/j { setlinejoin } bind def
/M { setmiterlimit } bind def
/d { setdash } bind def
/m { moveto } bind def
/l { lineto } bind def
/c { curveto } bind def
/h { closepath } bind def
/re { exch dup neg 3 1 roll 5 3 roll moveto 0 rlineto
      0 exch rlineto 0 rlineto closepath } bind def
/S { stroke } bind def
/f { fill } bind def
/f* { eofill } bind def
/n { newpath } bind def
/W { clip } bind def
/W* { eoclip } bind def
/BT { } bind def
/ET { } bind def
/pdfmark where { pop globaldict /?pdfmark /exec load put }
    { globaldict begin /?pdfmark /pop load def /pdfmark
    /cleartomark load def end } ifelse
/BDC { mark 3 1 roll /BDC pdfmark } bind def
/EMC { mark /EMC pdfmark } bind def
/cairo_store_point { /cairo_point_y exch def /cairo_point_x exch def } def
/Tj { show currentpoint cairo_store_point } bind def
/TJ {
  {
    dup
    type /stringtype eq
    { show } { -0.001 mul 0 cairo_font_matrix dtransform rmoveto } ifelse
  } forall
  currentpoint cairo_store_point
} bind def
/cairo_selectfont { cairo_font_matrix aload pop pop pop 0 0 6 array astore
    cairo_font exch selectfont cairo_point_x cairo_point_y moveto } bind def
/Tf { pop /cairo_font exch def /cairo_font_matrix where
      { pop cairo_selectfont } if } bind def
/Td { matrix translate cairo_font_matrix matrix concatmatrix dup
      /cairo_font_matrix exch def dup 4 get exch 5 get cairo_store_point
      /cairo_font where { pop cairo_selectfont } if } bind def
/Tm { 2 copy 8 2 roll 6 array astore /cairo_font_matrix exch def
      cairo_store_point /cairo_font where { pop cairo_selectfont } if } bind def
/g { setgray } bind def
/rg { setrgbcolor } bind def
/d1 { setcachedevice } bind def
%%EndProlog
%%BeginSetup
%%EndSetup
%%Page: 1 1
%%BeginPageSetup
%%PageBoundingBox: 0 0 384 384
%%EndPageSetup
q 0 0 384 384 rectclip q
1 0.392157 0.101961 rg
384 192 m 384 85.961 298.039 0 192 0 c 85.961 0 0 85.961 0 192 c 0 298.039
 85.961 384 192 384 c 298.039 384 384 298.039 384 192 c h
384 192 m f
0.941176 0.219608 0 rg
259.34 266.836 m 238.375 287.801 l 209.969 259.395 l 235.969 233.391 l 
234.723 232.148 l 186.984 279.887 l 148.5 273.5 l 172.891 168.359 l 85.516
 80.984 l 79.516 86.984 l 69.766 77.234 l 139.82 7.18 l 156.41 2.504 173.914
 0 192 0 c 298.039 0 384 85.961 384 192 c 384 211.641 381.043 230.59 375.566
 248.434 c 308.25 315.75 l h
259.34 266.836 m f
0.764706 0.917647 0.129412 rg
294.273 245.41 m 285.051 236.887 l 294.273 231.438 l 294.273 217.461 l 
287.707 207.262 l 294.273 203.488 l 294.273 189.512 l 287.008 180.848 l 
294.273 175.539 l 294.273 161.562 l 286.449 153.039 l 294.273 147.59 l 294.273
 119.641 l 267.164 105.664 l 239.727 105.664 l 223.938 119.641 l 223.938
 273.359 l 294.273 273.359 l h
294.273 245.41 m f
0.611765 0.866667 0.0196078 rg
294.273 245.41 m 285.051 236.887 l 294.273 231.438 l 294.273 217.461 l 
287.707 207.262 l 294.273 203.488 l 294.273 189.512 l 287.008 180.848 l 
294.273 175.539 l 294.273 161.562 l 286.449 153.039 l 294.273 147.59 l 294.273
 119.641 l 267.164 105.664 l 259.34 105.664 l 259.34 273.359 l 294.273 273.359
 l h
294.273 245.41 m f
1 0.568627 0 rg
195.988 205.527 m 182.012 205.527 l 182.012 259.387 l 182.012 267.09 175.742
 273.359 168.039 273.359 c 160.332 273.359 154.062 267.09 154.062 259.387
 c 154.062 252.398 l 140.09 252.398 l 140.09 259.387 l 140.09 274.801 152.621
 287.336 168.039 287.336 c 183.453 287.336 195.988 274.801 195.988 259.387
 c h
195.988 205.527 m f
0.341176 0.372549 0.392157 rg
126.113 259.387 41.926 -43.32 re f
0.196078 0.223529 0.247059 rg
147.078 259.387 20.961 -43.32 re f
0.341176 0.372549 0.392157 rg
96.992 80.363 m 85.363 88.113 l 110.25 125.91 l 121.875 118.16 l h
96.992 80.363 m f
0.196078 0.223529 0.247059 rg
197.16 80.363 m 172.277 118.16 l 183.902 125.91 l 208.789 88.113 l h
197.16 80.363 m f
0.341176 0.372549 0.392157 rg
69.75 91.227 238.5 -13.977 re f
0.611765 0.866667 0.0196078 rg
252.352 245.41 41.922 -13.973 re f
252.352 217.461 41.922 -13.973 re f
252.352 189.512 41.922 -13.973 re f
252.352 161.562 41.922 -13.973 re f
0.733333 0.862745 1 rg
223.938 119.641 70.336 -34.145 re f
1 0.854902 0.176471 rg
209.543 175.539 m 209.543 175.539 203.254 165.617 200.879 161.562 c 93.555
 161.562 l 84.609 175.539 l 88.105 206.98 114.797 231.438 147.078 231.438
 c 179.359 231.438 206.047 206.98 209.543 175.539 c h
209.543 175.539 m f
199.062 133.613 m 187.742 116.285 168.039 105.664 147.074 105.664 c 126.113
 105.664 106.41 116.285 95.09 133.613 c 102.215 147.59 l 196.406 147.59 
l h
199.062 133.613 m f
0.4 0.733333 0 rg
259.34 245.41 34.934 -13.973 re f
259.34 217.461 34.934 -13.973 re f
259.34 189.512 34.934 -13.973 re f
259.34 161.562 34.934 -13.973 re f
0.603922 0.729412 0.858824 rg
259.34 119.641 34.934 -34.145 re f
0.992157 0.74902 0 rg
196.406 147.59 m 199.062 133.613 l 187.742 116.285 168.039 105.664 147.074
 105.664 c 147.074 147.59 l h
196.406 147.59 m f
209.543 175.539 m 209.543 175.539 203.254 165.617 200.879 161.562 c 147.078
 161.562 l 147.078 231.438 l 179.355 231.438 206.047 206.98 209.543 175.539
 c h
209.543 175.539 m f
0.196078 0.223529 0.247059 rg
147.078 91.227 161.172 -13.977 re f
0.341176 0.372549 0.392157 rg
209.543 175.539 m 84.609 175.539 l 84.328 173.301 84.191 170.926 84.191
 168.551 c 84.191 166.176 84.328 163.801 84.609 161.562 c 85.168 156.812
 86.285 152.062 87.965 147.59 c 89.082 144.516 92.855 135.852 95.09 133.613
 c 199.062 133.613 l 200.039 134.734 200.738 135.852 201.438 137.109 c 203.395
 140.461 204.93 143.957 206.188 147.59 c 207.867 152.062 208.984 156.812
 209.543 161.562 c 209.82 163.801 209.961 166.176 209.961 168.551 c 209.961
 170.926 209.82 173.301 209.543 175.539 c h
209.543 175.539 m f
0.196078 0.223529 0.247059 rg
199.062 133.613 m 147.074 133.613 l 147.074 175.539 l 209.543 175.539 l
 209.82 173.301 209.961 170.926 209.961 168.551 c 209.961 166.176 209.82
 163.801 209.543 161.562 c 208.984 156.812 207.863 152.062 206.188 147.59
 c 204.93 143.953 203.395 140.461 201.438 137.109 c 200.738 135.852 200.039
 134.73 199.062 133.613 c h
199.062 133.613 m f
0.878431 0.956863 1 rg
209.961 315.75 98.289 -56.363 re f
0.733333 0.862745 1 rg
259.34 315.75 48.91 -56.363 re f
Q Q
showpage
%%Trailer
end restore
%%EOF
