%!PS-Adobe-3.0 EPSF-3.0
%%Creator: cairo 1.14.8 (http://cairographics.org)
%%CreationDate: Fri Feb 22 08:48:37 2019
%%Pages: 1
%%DocumentData: Clean7Bit
%%LanguageLevel: 2
%%BoundingBox: 0 0 384 384
%%EndComments
%%BeginProlog
save
50 dict begin
/q { gsave } bind def
/Q { grestore } bind def
/cm { 6 array astore concat } bind def
/w { setlinewidth } bind def
/J { setlinecap } bind def
/j { setlinejoin } bind def
/M { setmiterlimit } bind def
/d { setdash } bind def
/m { moveto } bind def
/l { lineto } bind def
/c { curveto } bind def
/h { closepath } bind def
/re { exch dup neg 3 1 roll 5 3 roll moveto 0 rlineto
      0 exch rlineto 0 rlineto closepath } bind def
/S { stroke } bind def
/f { fill } bind def
/f* { eofill } bind def
/n { newpath } bind def
/W { clip } bind def
/W* { eoclip } bind def
/BT { } bind def
/ET { } bind def
/pdfmark where { pop globaldict /?pdfmark /exec load put }
    { globaldict begin /?pdfmark /pop load def /pdfmark
    /cleartomark load def end } ifelse
/BDC { mark 3 1 roll /BDC pdfmark } bind def
/EMC { mark /EMC pdfmark } bind def
/cairo_store_point { /cairo_point_y exch def /cairo_point_x exch def } def
/Tj { show currentpoint cairo_store_point } bind def
/TJ {
  {
    dup
    type /stringtype eq
    { show } { -0.001 mul 0 cairo_font_matrix dtransform rmoveto } ifelse
  } forall
  currentpoint cairo_store_point
} bind def
/cairo_selectfont { cairo_font_matrix aload pop pop pop 0 0 6 array astore
    cairo_font exch selectfont cairo_point_x cairo_point_y moveto } bind def
/Tf { pop /cairo_font exch def /cairo_font_matrix where
      { pop cairo_selectfont } if } bind def
/Td { matrix translate cairo_font_matrix matrix concatmatrix dup
      /cairo_font_matrix exch def dup 4 get exch 5 get cairo_store_point
      /cairo_font where { pop cairo_selectfont } if } bind def
/Tm { 2 copy 8 2 roll 6 array astore /cairo_font_matrix exch def
      cairo_store_point /cairo_font where { pop cairo_selectfont } if } bind def
/g { setgray } bind def
/rg { setrgbcolor } bind def
/d1 { setcachedevice } bind def
%%EndProlog
%%BeginSetup
%%EndSetup
%%Page: 1 1
%%BeginPageSetup
%%PageBoundingBox: 0 0 384 384
%%EndPageSetup
q 0 0 384 384 rectclip q
0.992157 0.74902 0 rg
384 192 m 384 85.961 298.039 0 192 0 c 85.961 0 0 85.961 0 192 c 0 298.039
 85.961 384 192 384 c 298.039 384 384 298.039 384 192 c h
384 192 m f
1 0.568627 0 rg
305.266 243.5 m 303.914 242.148 l 249.609 296.449 l 219.441 266.277 l 196.496
 289.223 l 80.523 173.246 l 142.094 111.68 l 115.883 85.469 l 201.129 0.223
 l 294.367 4.586 370.207 75.449 382.305 166.457 c h
305.266 243.5 m f
0.878431 0.956863 1 rg
271.656 259.48 m 261.738 294.648 229.121 320.25 192 320.25 c 160.738 320.25
 132.184 302.016 118.207 274.359 c 87.996 271.203 63.75 245.352 63.75 214.543
 c 63.75 181.328 91.152 154.426 124.367 154.426 c 267.145 154.426 l 296.152
 154.426 320.25 178.023 320.25 207.031 c 320.25 234.535 298.559 257.227 
271.656 259.48 c h
271.656 259.48 m f
0.733333 0.862745 1 rg
320.25 207.027 m 320.25 178.023 296.152 154.426 267.145 154.426 c 192 154.426
 l 192 320.25 l 229.121 320.25 261.738 294.648 271.656 259.48 c 298.559 
257.227 320.25 234.535 320.25 207.027 c h
320.25 207.027 m f
0.196078 0.223529 0.247059 rg
213.543 244.102 m 215.062 239.836 215.281 235.965 214.09 231.496 c 212.535
 225.684 208.797 220.82 203.586 217.809 c 201.285 216.484 198.832 215.766
 196.352 215.312 c 212.109 188.023 l 218.617 191.781 l 234.797 201.129 244.473
 218.582 244.508 237.316 c 244.523 244.102 l h
213.543 244.102 m f
0.764706 0.917647 0.129412 rg
198.16 120.562 m 192 129.578 l 185.84 120.562 l 180.879 113.496 169.457
 95.914 169.457 86.293 c 169.457 73.82 179.523 63.75 192 63.75 c 204.477
 63.75 214.543 73.82 214.543 86.293 c 214.543 95.914 203.121 113.496 198.16
 120.562 c h
198.16 120.562 m f
0.611765 0.866667 0.0196078 rg
252.117 78.777 m 239.688 78.777 229.574 88.891 229.574 101.324 c 229.574
 110.93 241.012 128.527 245.93 135.652 c 252.117 144.605 l 258.305 135.652
 l 263.223 128.527 274.66 110.93 274.66 101.324 c 274.66 88.891 264.551 
78.777 252.117 78.777 c h
252.117 78.777 m f
0.764706 0.917647 0.129412 rg
131.883 78.777 m 119.453 78.777 109.34 88.891 109.34 101.324 c 109.34 110.93
 120.777 128.527 125.695 135.652 c 131.883 144.605 l 138.07 135.652 l 142.988
 128.527 154.426 110.93 154.426 101.324 c 154.426 88.891 144.312 78.777 
131.883 78.777 c h
131.883 78.777 m f
0.341176 0.372549 0.392157 rg
225.066 279.168 m 209.285 251.516 l 206.277 255.121 202.672 257.98 198.16
 259.18 c 196.059 259.781 194.105 259.934 192 259.934 c 188.242 259.934 
184.336 258.879 181.027 256.926 c 178.773 255.574 176.973 253.77 175.316
 251.816 c 159.535 279.168 l 166 282.926 l 173.965 287.586 183.133 289.992
 192 289.992 c 201.168 289.992 210.336 287.586 218.602 282.926 c h
225.066 279.168 m f
172.789 226.051 m 169.527 231.711 168.766 236.902 171.359 244.102 c 139.938
 244.102 l 139.91 231.285 139.57 223.488 146.758 211.027 c 153.973 198.543
 161.488 194.387 172.531 188.043 c 188.277 215.32 l 182.004 216.477 176.227
 220.113 172.789 226.051 c h
172.789 226.051 m f
198.762 241.145 m 197.41 243.551 194.855 244.902 192.301 244.902 c 192.148
 244.902 192.148 244.902 192 244.902 c 190.949 244.902 189.594 244.602 188.543
 243.852 c 184.938 241.746 183.734 237.086 185.84 233.633 c 187.039 231.379
 189.445 230.023 192 229.875 c 193.352 229.723 194.703 230.023 196.059 230.777
 c 199.664 232.879 200.867 237.539 198.762 241.145 c h
198.762 241.145 m f
0.196078 0.223529 0.247059 rg
196.059 230.777 m 194.707 230.023 193.352 229.723 192 229.875 c 192 244.902
 l 192.152 244.902 192.152 244.902 192.301 244.902 c 194.855 244.902 197.41
 243.551 198.762 241.145 c 200.867 237.539 199.664 232.879 196.059 230.777
 c h
196.059 230.777 m f
0.611765 0.866667 0.0196078 rg
198.16 120.562 m 203.121 113.496 214.543 95.914 214.543 86.293 c 214.543
 73.82 204.477 63.75 192 63.75 c 192 129.578 l h
198.16 120.562 m f
0.196078 0.223529 0.247059 rg
198.16 259.18 m 196.059 259.781 194.105 259.934 192 259.934 c 192 289.992
 l 201.168 289.992 210.336 287.586 218.602 282.926 c 225.066 279.168 l 209.285
 251.516 l 206.277 255.121 202.672 257.98 198.16 259.18 c h
198.16 259.18 m f
Q Q
showpage
%%Trailer
end restore
%%EOF
