%!PS-Adobe-3.0 EPSF-3.0
%%Creator: cairo 1.14.8 (http://cairographics.org)
%%CreationDate: Fri Feb 22 08:48:37 2019
%%Pages: 1
%%DocumentData: Clean7Bit
%%LanguageLevel: 2
%%BoundingBox: 0 0 384 384
%%EndComments
%%BeginProlog
save
50 dict begin
/q { gsave } bind def
/Q { grestore } bind def
/cm { 6 array astore concat } bind def
/w { setlinewidth } bind def
/J { setlinecap } bind def
/j { setlinejoin } bind def
/M { setmiterlimit } bind def
/d { setdash } bind def
/m { moveto } bind def
/l { lineto } bind def
/c { curveto } bind def
/h { closepath } bind def
/re { exch dup neg 3 1 roll 5 3 roll moveto 0 rlineto
      0 exch rlineto 0 rlineto closepath } bind def
/S { stroke } bind def
/f { fill } bind def
/f* { eofill } bind def
/n { newpath } bind def
/W { clip } bind def
/W* { eoclip } bind def
/BT { } bind def
/ET { } bind def
/pdfmark where { pop globaldict /?pdfmark /exec load put }
    { globaldict begin /?pdfmark /pop load def /pdfmark
    /cleartomark load def end } ifelse
/BDC { mark 3 1 roll /BDC pdfmark } bind def
/EMC { mark /EMC pdfmark } bind def
/cairo_store_point { /cairo_point_y exch def /cairo_point_x exch def } def
/Tj { show currentpoint cairo_store_point } bind def
/TJ {
  {
    dup
    type /stringtype eq
    { show } { -0.001 mul 0 cairo_font_matrix dtransform rmoveto } ifelse
  } forall
  currentpoint cairo_store_point
} bind def
/cairo_selectfont { cairo_font_matrix aload pop pop pop 0 0 6 array astore
    cairo_font exch selectfont cairo_point_x cairo_point_y moveto } bind def
/Tf { pop /cairo_font exch def /cairo_font_matrix where
      { pop cairo_selectfont } if } bind def
/Td { matrix translate cairo_font_matrix matrix concatmatrix dup
      /cairo_font_matrix exch def dup 4 get exch 5 get cairo_store_point
      /cairo_font where { pop cairo_selectfont } if } bind def
/Tm { 2 copy 8 2 roll 6 array astore /cairo_font_matrix exch def
      cairo_store_point /cairo_font where { pop cairo_selectfont } if } bind def
/g { setgray } bind def
/rg { setrgbcolor } bind def
/d1 { setcachedevice } bind def
%%EndProlog
%%BeginSetup
%%EndSetup
%%Page: 1 1
%%BeginPageSetup
%%PageBoundingBox: 0 0 384 384
%%EndPageSetup
q 0 0 384 384 rectclip q
0.776471 0.443137 0.352941 rg
384 192 m 384 85.961 298.039 0 192 0 c 85.961 0 0 85.961 0 192 c 0 298.039
 85.961 384 192 384 c 298.039 384 384 298.039 384 192 c h
384 192 m f
0.6 0.313726 0.239216 rg
288.484 288.48 m 256.754 320.211 l 207.77 271.23 l 164.379 314.621 l 94.371
 244.609 l 109.496 229.484 l 94.621 214.609 l 177.191 132.039 l 115.875 
70.719 l 186.512 0.082 l 188.336 0.031 190.164 0 192 0 c 298.039 0 384 85.961
 384 192 c 384 193.141 383.977 194.277 383.957 195.414 c 289.688 289.684
 l h
288.484 288.48 m f
0.4 0.733333 0 rg
263.391 229.574 26.301 -15.031 re f
0.611765 0.866667 0.0196078 rg
94.309 229.574 26.301 -15.031 re f
256.777 320.25 m 127.223 320.25 l 104.68 274.66 l 279.32 274.66 l h
256.777 320.25 m f
0.764706 0.917647 0.129412 rg
109.941 259.633 m 121.965 115.953 l 122.414 105.582 l 131.883 109.34 l 
136.094 109.34 139.398 106.035 139.398 101.824 c 139.398 78.777 l 244.602
 78.777 l 244.602 101.824 l 244.602 106.035 247.91 109.34 251.816 109.641
 c 261.133 105.883 l 274.059 259.633 l h
109.941 259.633 m f
0.611765 0.866667 0.0196078 rg
192 259.633 m 274.059 259.633 l 261.133 105.883 l 251.816 109.641 l 247.91
 109.34 244.602 106.035 244.602 101.824 c 244.602 78.777 l 192 78.777 l 
h
192 259.633 m f
0.4 0.733333 0 rg
279.32 274.66 m 192 274.66 l 192 320.25 l 256.777 320.25 l h
279.32 274.66 m f
0.341176 0.372549 0.392157 rg
131.883 63.75 m 119.453 63.75 109.34 73.863 109.34 86.293 c 109.34 101.824
 l 109.34 112.816 117.008 121.977 127.684 123.875 c 129.371 124.367 130.848
 124.367 131.883 124.367 c 144.312 124.367 154.426 114.258 154.426 101.824
 c 154.426 86.293 l 154.426 73.863 144.312 63.75 131.883 63.75 c h
131.883 63.75 m f
0.196078 0.223529 0.247059 rg
252.117 63.75 m 239.688 63.75 229.574 73.863 229.574 86.293 c 229.574 101.824
 l 229.574 114.254 239.684 124.367 252.117 124.367 c 253.152 124.367 254.625
 124.367 256.316 123.875 c 266.992 121.977 274.66 112.816 274.66 101.824
 c 274.66 86.293 l 274.66 73.863 264.551 63.75 252.117 63.75 c h
252.117 63.75 m f
0.341176 0.372549 0.392157 rg
94.309 289.691 195.383 -45.09 re f
0.196078 0.223529 0.247059 rg
213.543 183.984 m 215.062 179.715 215.281 175.848 214.09 171.379 c 212.535
 165.566 208.797 160.699 203.586 157.691 c 201.285 156.367 198.832 155.645
 196.352 155.195 c 212.109 127.906 l 218.617 131.664 l 234.797 141.012 244.473
 158.465 244.508 177.199 c 244.523 183.984 l h
213.543 183.984 m f
0.341176 0.372549 0.392157 rg
225.066 219.051 m 209.285 191.398 l 206.277 195.008 202.672 197.863 198.16
 199.062 c 196.059 199.664 194.105 199.816 192 199.816 c 188.242 199.816
 184.336 198.762 181.027 196.809 c 178.773 195.457 176.973 193.652 175.316
 191.699 c 159.535 219.051 l 166 222.809 l 173.965 227.469 183.133 229.875
 192 229.875 c 201.168 229.875 210.336 227.469 218.602 222.809 c h
225.066 219.051 m f
172.789 165.934 m 169.527 171.594 168.766 176.785 171.359 183.984 c 140
 183.984 l 139.973 171.168 139.57 163.371 146.758 150.91 c 153.973 138.426
 161.488 134.27 172.531 127.926 c 188.277 155.203 l 182.004 156.359 176.227
 159.996 172.789 165.934 c h
172.789 165.934 m f
198.762 181.027 m 197.41 183.434 194.855 184.785 192.301 184.785 c 192.148
 184.785 192.148 184.785 192 184.785 c 190.949 184.785 189.594 184.484 188.543
 183.734 c 184.938 181.629 183.734 176.973 185.84 173.516 c 187.039 171.262
 189.445 169.906 192 169.758 c 193.352 169.605 194.703 169.906 196.059 170.66
 c 199.664 172.762 200.867 177.422 198.762 181.027 c h
198.762 181.027 m f
0.196078 0.223529 0.247059 rg
196.059 170.66 m 194.707 169.906 193.352 169.605 192 169.758 c 192 184.785
 l 192.152 184.785 192.152 184.785 192.301 184.785 c 194.855 184.785 197.41
 183.434 198.762 181.027 c 200.867 177.422 199.664 172.762 196.059 170.66
 c h
196.059 170.66 m f
198.16 199.062 m 196.059 199.664 194.105 199.816 192 199.816 c 192 229.875
 l 201.168 229.875 210.336 227.469 218.602 222.809 c 225.066 219.051 l 209.285
 191.398 l 206.277 195.008 202.672 197.863 198.16 199.062 c h
198.16 199.062 m f
192 289.691 97.691 -45.09 re f
Q Q
showpage
%%Trailer
end restore
%%EOF
