%!PS-Adobe-3.0 EPSF-3.0
%%Creator: cairo 1.14.8 (http://cairographics.org)
%%CreationDate: Fri Feb 22 08:48:37 2019
%%Pages: 1
%%DocumentData: Clean7Bit
%%LanguageLevel: 2
%%BoundingBox: 0 0 384 384
%%EndComments
%%BeginProlog
save
50 dict begin
/q { gsave } bind def
/Q { grestore } bind def
/cm { 6 array astore concat } bind def
/w { setlinewidth } bind def
/J { setlinecap } bind def
/j { setlinejoin } bind def
/M { setmiterlimit } bind def
/d { setdash } bind def
/m { moveto } bind def
/l { lineto } bind def
/c { curveto } bind def
/h { closepath } bind def
/re { exch dup neg 3 1 roll 5 3 roll moveto 0 rlineto
      0 exch rlineto 0 rlineto closepath } bind def
/S { stroke } bind def
/f { fill } bind def
/f* { eofill } bind def
/n { newpath } bind def
/W { clip } bind def
/W* { eoclip } bind def
/BT { } bind def
/ET { } bind def
/pdfmark where { pop globaldict /?pdfmark /exec load put }
    { globaldict begin /?pdfmark /pop load def /pdfmark
    /cleartomark load def end } ifelse
/BDC { mark 3 1 roll /BDC pdfmark } bind def
/EMC { mark /EMC pdfmark } bind def
/cairo_store_point { /cairo_point_y exch def /cairo_point_x exch def } def
/Tj { show currentpoint cairo_store_point } bind def
/TJ {
  {
    dup
    type /stringtype eq
    { show } { -0.001 mul 0 cairo_font_matrix dtransform rmoveto } ifelse
  } forall
  currentpoint cairo_store_point
} bind def
/cairo_selectfont { cairo_font_matrix aload pop pop pop 0 0 6 array astore
    cairo_font exch selectfont cairo_point_x cairo_point_y moveto } bind def
/Tf { pop /cairo_font exch def /cairo_font_matrix where
      { pop cairo_selectfont } if } bind def
/Td { matrix translate cairo_font_matrix matrix concatmatrix dup
      /cairo_font_matrix exch def dup 4 get exch 5 get cairo_store_point
      /cairo_font where { pop cairo_selectfont } if } bind def
/Tm { 2 copy 8 2 roll 6 array astore /cairo_font_matrix exch def
      cairo_store_point /cairo_font where { pop cairo_selectfont } if } bind def
/g { setgray } bind def
/rg { setrgbcolor } bind def
/d1 { setcachedevice } bind def
%%EndProlog
%%BeginSetup
%%EndSetup
%%Page: 1 1
%%BeginPageSetup
%%PageBoundingBox: 0 0 384 384
%%EndPageSetup
q 0 0 384 384 rectclip q
0.992157 0.74902 0 rg
384 192 m 384 85.961 298.039 0 192 0 c 85.961 0 0 85.961 0 192 c 0 298.039
 85.961 384 192 384 c 298.039 384 384 298.039 384 192 c h
384 192 m f
1 0.568627 0 rg
383.953 195.574 m 275.785 303.742 l 160.285 188.238 l 166.168 182.355 l
 108.164 124.352 l 158.074 74.441 l 133.898 50.266 l 183.984 0.18 l 186.645
 0.07 189.312 0 192 0 c 298.039 0 384 85.961 384 192 c 384 193.195 383.977
 194.383 383.953 195.574 c h
383.953 195.574 m f
0.878431 0.956863 1 rg
299.973 241.832 m 299.973 221.234 294.16 199.145 283.363 179.375 c 283.363
 142.168 l 283.363 128.379 272.234 117.25 258.445 117.25 c 253.793 117.25
 250.141 113.594 250.141 108.945 c 250.141 100.637 l 240.504 89.176 l 250.141
 84.027 l 250.141 50.25 l 133.859 50.25 l 133.859 84.027 l 143.496 89.508
 l 133.859 100.637 l 133.859 108.941 l 133.859 113.594 130.207 117.25 125.555
 117.25 c 111.766 117.25 100.637 128.379 100.637 142.164 c 100.637 179.375
 l 89.84 199.141 84.027 221.234 84.027 241.832 c 84.027 297.316 126.387 
333.75 192 333.75 c 257.613 333.75 299.973 297.316 299.973 241.832 c h
299.973 241.832 m f
0.733333 0.862745 1 rg
299.973 241.832 m 299.973 221.234 294.16 199.145 283.363 179.375 c 283.363
 142.168 l 283.363 128.379 272.234 117.25 258.445 117.25 c 253.793 117.25
 250.141 113.594 250.141 108.945 c 250.141 100.637 l 240.504 89.176 l 250.141
 84.027 l 250.141 50.25 l 192 50.25 l 192 333.75 l 257.613 333.75 299.973
 297.316 299.973 241.832 c h
299.973 241.832 m f
0.341176 0.372549 0.392157 rg
150.473 250.141 m 132.199 250.141 117.25 235.191 117.25 216.918 c 117.25
 198.645 132.199 183.695 150.473 183.695 c 168.742 183.695 183.695 198.645
 183.695 216.918 c 183.695 235.191 168.742 250.141 150.473 250.141 c h
150.473 250.141 m f
0.196078 0.223529 0.247059 rg
233.527 250.141 m 215.258 250.141 200.305 235.191 200.305 216.918 c 200.305
 198.645 215.258 183.695 233.527 183.695 c 251.801 183.695 266.75 198.645
 266.75 216.918 c 266.75 235.191 251.801 250.141 233.527 250.141 c h
233.527 250.141 m f
0.341176 0.372549 0.392157 rg
192.664 183.695 m 192 183.695 l 174.891 183.695 167.082 151.801 167.082
 142.168 c 167.082 137.184 168.742 133.527 171.898 131.535 c 176.883 128.211
 181.867 130.371 185.523 131.867 c 187.625 132.77 189.867 133.262 192 133.223
 c 192.223 133.223 192.441 133.211 192.664 133.195 c 194.656 133.195 196.484
 132.699 198.477 131.867 c 203.629 129.875 207.281 128.379 212.102 131.535
 c 215.258 133.527 216.918 137.184 216.918 142.168 c 216.918 151.633 209.277
 182.863 192.664 183.695 c h
192.664 183.695 m f
0.733333 0.862745 1 rg
133.859 100.637 116.281 -16.609 re f
162.102 117.25 16.609 -49.836 re f
0.603922 0.729412 0.858824 rg
203.629 117.25 16.609 -49.836 re f
0.196078 0.223529 0.247059 rg
216.918 142.168 m 216.918 137.184 215.258 133.527 212.102 131.535 c 207.281
 128.379 203.629 129.875 198.477 131.867 c 196.484 132.699 194.656 133.195
 192.664 133.195 c 192.441 133.211 192.223 133.223 192 133.223 c 192 183.695
 l 192.664 183.695 l 209.277 182.863 216.918 151.633 216.918 142.168 c h
216.918 142.168 m f
0.603922 0.729412 1 rg
192 100.637 58.141 -16.609 re f
Q Q
showpage
%%Trailer
end restore
%%EOF
