%!PS-Adobe-3.0 EPSF-3.0
%%Creator: cairo 1.14.8 (http://cairographics.org)
%%CreationDate: Fri Feb 22 08:48:37 2019
%%Pages: 1
%%DocumentData: Clean7Bit
%%LanguageLevel: 2
%%BoundingBox: 0 0 384 384
%%EndComments
%%BeginProlog
save
50 dict begin
/q { gsave } bind def
/Q { grestore } bind def
/cm { 6 array astore concat } bind def
/w { setlinewidth } bind def
/J { setlinecap } bind def
/j { setlinejoin } bind def
/M { setmiterlimit } bind def
/d { setdash } bind def
/m { moveto } bind def
/l { lineto } bind def
/c { curveto } bind def
/h { closepath } bind def
/re { exch dup neg 3 1 roll 5 3 roll moveto 0 rlineto
      0 exch rlineto 0 rlineto closepath } bind def
/S { stroke } bind def
/f { fill } bind def
/f* { eofill } bind def
/n { newpath } bind def
/W { clip } bind def
/W* { eoclip } bind def
/BT { } bind def
/ET { } bind def
/pdfmark where { pop globaldict /?pdfmark /exec load put }
    { globaldict begin /?pdfmark /pop load def /pdfmark
    /cleartomark load def end } ifelse
/BDC { mark 3 1 roll /BDC pdfmark } bind def
/EMC { mark /EMC pdfmark } bind def
/cairo_store_point { /cairo_point_y exch def /cairo_point_x exch def } def
/Tj { show currentpoint cairo_store_point } bind def
/TJ {
  {
    dup
    type /stringtype eq
    { show } { -0.001 mul 0 cairo_font_matrix dtransform rmoveto } ifelse
  } forall
  currentpoint cairo_store_point
} bind def
/cairo_selectfont { cairo_font_matrix aload pop pop pop 0 0 6 array astore
    cairo_font exch selectfont cairo_point_x cairo_point_y moveto } bind def
/Tf { pop /cairo_font exch def /cairo_font_matrix where
      { pop cairo_selectfont } if } bind def
/Td { matrix translate cairo_font_matrix matrix concatmatrix dup
      /cairo_font_matrix exch def dup 4 get exch 5 get cairo_store_point
      /cairo_font where { pop cairo_selectfont } if } bind def
/Tm { 2 copy 8 2 roll 6 array astore /cairo_font_matrix exch def
      cairo_store_point /cairo_font where { pop cairo_selectfont } if } bind def
/g { setgray } bind def
/rg { setrgbcolor } bind def
/d1 { setcachedevice } bind def
%%EndProlog
%%BeginSetup
%%EndSetup
%%Page: 1 1
%%BeginPageSetup
%%PageBoundingBox: 0 0 384 384
%%EndPageSetup
q 0 0 384 384 rectclip q
0.341176 0.372549 0.392157 rg
384 192 m 384 85.961 298.039 0 192 0 c 85.961 0 0 85.961 0 192 c 0 298.039
 85.961 384 192 384 c 298.039 384 384 298.039 384 192 c h
384 192 m f
0.196078 0.223529 0.247059 rg
280.086 278.664 m 284.707 274.043 l 277.789 267.125 l 313.789 231.125 l
 307.066 224.402 l 248.883 282.586 l 179.773 213.477 l 113.508 279.742 l
 107.633 273.867 l 90.383 291.117 l 80.961 281.695 l 146.605 216.051 l 130.273
 199.719 l 96.68 233.312 l 84.215 220.852 l 76.922 228.145 l 67.5 218.723
 l 108.391 177.832 l 88.254 157.695 l 171.941 74.008 l 166.285 68.352 l 
230.727 3.906 l 318.203 21.824 384 99.227 384 192 c 384 196.93 383.812 201.812
 383.449 206.648 c 295.758 294.336 l h
280.086 278.664 m f
0.878431 0.956863 1 rg
228.477 101.52 m 220.305 93.348 l 227.746 86.93 l 224.391 70.297 209.652
 57.75 192 57.75 c 174.348 57.75 159.609 70.297 156.254 86.93 c 163.695 
91.891 l 155.523 101.52 l 155.523 124.477 l 228.477 124.477 l h
228.477 101.52 m f
0.733333 0.862745 1 rg
228.477 101.52 m 220.305 93.348 l 227.746 86.93 l 224.391 70.297 209.652
 57.75 192 57.75 c 192 124.473 l 228.477 124.473 l h
228.477 101.52 m f
0.603922 0.729412 0.858824 rg
228.477 101.52 m 228.477 94.223 l 228.477 91.742 228.184 89.266 227.746
 86.93 c 199.297 86.93 l 199.297 101.52 l h
228.477 101.52 m f
0.733333 0.862745 1 rg
184.703 101.52 m 184.703 86.93 l 156.254 86.93 l 155.816 89.266 155.527
 91.746 155.527 94.227 c 155.527 101.52 l h
184.703 101.52 m f
1 0.854902 0.176471 rg
272.242 226.02 m 272.242 195.816 255.176 168.242 228.477 154.676 c 228.477
 124.473 l 155.523 124.473 l 155.523 154.676 l 124.305 170.578 106.941 205.012
 112.922 240.172 c 118.469 272.125 143.27 298.434 174.785 305 c 180.473 
306.168 186.309 306.75 192 306.75 c 210.383 306.75 228.184 300.137 242.625
 288.32 c 261.449 273 272.242 250.238 272.242 226.02 c h
272.242 226.02 m f
1 0.568627 0 rg
272.242 226.02 m 272.242 195.816 255.176 168.242 228.477 154.676 c 228.477
 124.473 l 192 124.473 l 192 306.75 l 210.383 306.75 228.184 300.137 242.625
 288.32 c 261.449 273 272.242 250.238 272.242 226.02 c h
272.242 226.02 m f
0.992157 0.74902 0 rg
184.703 160.363 14.59 -36.473 re f
1 0.568627 0 rg
287.32 233.316 29.18 -14.59 re f
1 0.854902 0.176471 rg
67.5 233.316 29.18 -14.59 re f
1 0.568627 0 rg
277.781 184.93 m 303.051 170.34 l 295.754 157.703 l 270.488 172.293 l h
277.781 184.93 m f
1 0.854902 0.176471 rg
88.25 294.348 m 113.516 279.758 l 106.223 267.121 l 80.953 281.711 l h
88.25 294.348 m f
1 0.568627 0 rg
295.746 294.336 m 303.039 281.699 l 277.77 267.113 l 270.477 279.75 l h
295.746 294.336 m f
1 0.854902 0.176471 rg
106.215 184.922 m 113.508 172.281 l 88.238 157.695 l 80.941 170.336 l h
106.215 184.922 m f
0.341176 0.372549 0.392157 rg
140.934 131.184 102.133 -14.586 re f
0.196078 0.223529 0.247059 rg
212.914 232.828 m 214.387 228.684 214.602 224.93 213.441 220.59 c 211.934
 214.949 208.305 210.227 203.25 207.305 c 201.016 206.016 198.633 205.316
 196.223 204.879 c 211.52 178.387 l 217.836 182.035 l 233.547 191.109 242.938
 208.051 242.973 226.238 c 242.988 232.828 l h
212.914 232.828 m f
0.341176 0.372549 0.392157 rg
224.098 266.871 m 208.777 240.027 l 205.859 243.527 202.359 246.301 197.98
 247.469 c 195.938 248.051 194.043 248.195 192 248.195 c 188.352 248.195
 184.559 247.176 181.352 245.277 c 179.16 243.965 177.41 242.215 175.805
 240.316 c 160.488 266.871 l 166.762 270.52 l 174.492 275.039 183.391 277.375
 192 277.375 c 200.898 277.375 209.801 275.043 217.824 270.52 c h
224.098 266.871 m f
173.352 215.305 m 170.184 220.801 169.445 225.84 171.961 232.828 c 141.457
 232.828 l 141.434 220.383 141.102 212.816 148.082 200.723 c 155.086 188.602
 162.383 184.566 173.102 178.41 c 188.387 204.887 l 182.297 206.012 176.688
 209.539 173.352 215.305 c h
173.352 215.305 m f
198.566 229.961 m 197.254 232.293 194.773 233.605 192.293 233.605 c 192.145
 233.605 192.145 233.605 192 233.605 c 190.977 233.605 189.664 233.316 188.645
 232.586 c 185.145 230.543 183.977 226.02 186.02 222.664 c 187.184 220.477
 189.52 219.16 192 219.016 c 193.312 218.871 194.625 219.164 195.941 219.891
 c 199.441 221.934 200.609 226.457 198.566 229.961 c h
198.566 229.961 m f
0.196078 0.223529 0.247059 rg
195.941 219.891 m 194.625 219.164 193.312 218.871 192 219.016 c 192 233.605
 l 192.145 233.605 192.145 233.605 192.293 233.605 c 194.773 233.605 197.25
 232.293 198.566 229.961 c 200.609 226.457 199.441 221.934 195.941 219.891
 c h
195.941 219.891 m f
197.98 247.469 m 195.938 248.051 194.043 248.195 192 248.195 c 192 277.375
 l 200.898 277.375 209.801 275.039 217.824 270.516 c 224.098 266.871 l 208.777
 240.027 l 205.859 243.527 202.359 246.301 197.98 247.469 c h
197.98 247.469 m f
1 0.392157 0.101961 rg
192 160.363 7.297 -36.473 re f
0.196078 0.223529 0.247059 rg
192 131.184 51.066 -14.586 re f
Q Q
showpage
%%Trailer
end restore
%%EOF
