%!PS-Adobe-3.0 EPSF-3.0
%%Creator: cairo 1.14.8 (http://cairographics.org)
%%CreationDate: Fri Feb 22 08:48:37 2019
%%Pages: 1
%%DocumentData: Clean7Bit
%%LanguageLevel: 2
%%BoundingBox: 0 0 384 384
%%EndComments
%%BeginProlog
save
50 dict begin
/q { gsave } bind def
/Q { grestore } bind def
/cm { 6 array astore concat } bind def
/w { setlinewidth } bind def
/J { setlinecap } bind def
/j { setlinejoin } bind def
/M { setmiterlimit } bind def
/d { setdash } bind def
/m { moveto } bind def
/l { lineto } bind def
/c { curveto } bind def
/h { closepath } bind def
/re { exch dup neg 3 1 roll 5 3 roll moveto 0 rlineto
      0 exch rlineto 0 rlineto closepath } bind def
/S { stroke } bind def
/f { fill } bind def
/f* { eofill } bind def
/n { newpath } bind def
/W { clip } bind def
/W* { eoclip } bind def
/BT { } bind def
/ET { } bind def
/pdfmark where { pop globaldict /?pdfmark /exec load put }
    { globaldict begin /?pdfmark /pop load def /pdfmark
    /cleartomark load def end } ifelse
/BDC { mark 3 1 roll /BDC pdfmark } bind def
/EMC { mark /EMC pdfmark } bind def
/cairo_store_point { /cairo_point_y exch def /cairo_point_x exch def } def
/Tj { show currentpoint cairo_store_point } bind def
/TJ {
  {
    dup
    type /stringtype eq
    { show } { -0.001 mul 0 cairo_font_matrix dtransform rmoveto } ifelse
  } forall
  currentpoint cairo_store_point
} bind def
/cairo_selectfont { cairo_font_matrix aload pop pop pop 0 0 6 array astore
    cairo_font exch selectfont cairo_point_x cairo_point_y moveto } bind def
/Tf { pop /cairo_font exch def /cairo_font_matrix where
      { pop cairo_selectfont } if } bind def
/Td { matrix translate cairo_font_matrix matrix concatmatrix dup
      /cairo_font_matrix exch def dup 4 get exch 5 get cairo_store_point
      /cairo_font where { pop cairo_selectfont } if } bind def
/Tm { 2 copy 8 2 roll 6 array astore /cairo_font_matrix exch def
      cairo_store_point /cairo_font where { pop cairo_selectfont } if } bind def
/g { setgray } bind def
/rg { setrgbcolor } bind def
/d1 { setcachedevice } bind def
%%EndProlog
%%BeginSetup
%%EndSetup
%%Page: 1 1
%%BeginPageSetup
%%PageBoundingBox: 0 0 384 384
%%EndPageSetup
q 0 0 384 384 rectclip q
0.992157 0.74902 0 rg
384 192 m 384 85.961 298.039 0 192 0 c 85.961 0 0 85.961 0 192 c 0 298.039
 85.961 384 192 384 c 298.039 384 384 298.039 384 192 c h
384 192 m f
1 0.568627 0 rg
376.625 244.867 m 309.25 312.242 l 300.469 303.465 l 295.562 298.5 l 281.312
 312.238 l 232 299.75 l 219.48 312.242 l 186 305.25 l 149.414 302.25 l 130.199
 271.035 l 199.121 202.109 l 169.129 172.117 l 86.465 254.785 l 74.777 243.098
 l 157.441 160.43 l 74.758 77.746 l 147.246 5.258 l 161.605 1.828 176.59
 0 192 0 c 298.039 0 384 85.961 384 192 c 384 210.336 381.426 228.07 376.625
 244.867 c h
376.625 244.867 m f
0.733333 0.862745 1 rg
239.953 248.449 m 238.719 241.031 l 237.48 233.746 l 235.145 219.594 233.91
 205.441 233.77 191.152 c 233.77 177 234.871 162.711 236.93 148.695 c 237.066
 147.734 l 237.203 146.77 l 223.879 112.559 l 210.41 77.75 l 74.75 77.75
 l 78.871 92.312 l 83.27 107.336 l 89.453 127.262 93.301 147.734 94.676 
168.48 c 96.047 189.23 95.086 210.113 91.652 230.586 c 90.141 239.52 l 88.629
 248.449 l h
239.953 248.449 m f
0.603922 0.729412 0.858824 rg
239.953 248.449 m 238.719 241.031 l 237.48 233.746 l 235.145 219.594 233.91
 205.441 233.77 191.152 c 233.77 177 234.871 162.711 236.93 148.695 c 237.066
 147.734 l 237.203 146.77 l 223.879 112.559 l 210.41 77.75 l 164.52 77.75
 l 164.52 248.449 l h
239.953 248.449 m f
1 0.392157 0.101961 rg
74.75 256.832 179.082 -13.742 re f
0.486275 0.513726 0.533333 rg
219.48 312.25 m 219.48 298.508 l 164.52 298.508 l 153.117 298.508 143.91
 289.305 143.91 277.898 c 143.91 271.031 l 130.172 271.031 l 130.172 277.898
 l 130.172 296.859 145.559 312.25 164.52 312.25 c h
219.48 312.25 m f
281.312 312.25 m 281.312 298.508 l 246.961 298.508 l 243.113 298.508 240.09
 295.488 240.09 291.641 c 240.09 280.234 230.887 271.031 219.48 271.031 
c 157.648 271.031 l 157.648 284.77 l 219.48 284.77 l 223.328 284.77 226.352
 287.793 226.352 291.641 c 226.352 303.043 235.555 312.25 246.961 312.25
 c h
281.312 312.25 m f
0.341176 0.372549 0.392157 rg
295.508 312.25 13.742 -13.742 re f
0.878431 0.956863 1 rg
309.25 105.688 m 309.25 77.75 l 198.871 77.75 l 198.871 105.688 l 228.961
 119.43 l 276.641 119.43 l h
309.25 105.688 m f
0.196078 0.223529 0.247059 rg
184.215 173.934 m 185.602 170.031 185.805 166.492 184.715 162.406 c 183.293
 157.094 179.875 152.645 175.113 149.895 c 173.008 148.68 170.766 148.023
 168.496 147.613 c 182.902 122.664 l 188.855 126.098 l 203.648 134.645 212.492
 150.598 212.527 167.727 c 212.539 173.934 l h
184.215 173.934 m f
0.341176 0.372549 0.392157 rg
194.746 205.992 m 180.32 180.711 l 177.574 184.008 174.273 186.617 170.152
 187.719 c 168.23 188.266 166.441 188.406 164.52 188.406 c 161.086 188.406
 157.512 187.441 154.488 185.656 c 152.43 184.422 150.777 182.77 149.27 
180.984 c 134.84 205.992 l 140.75 209.43 l 148.031 213.688 156.414 215.887
 164.52 215.887 c 172.902 215.887 181.281 213.688 188.84 209.43 c h
194.746 205.992 m f
146.953 157.43 m 143.973 162.605 143.277 167.352 145.648 173.93 c 116.922
 173.93 l 116.898 162.215 116.586 155.086 123.16 143.695 c 129.754 132.281
 136.625 128.48 146.719 122.684 c 161.117 147.617 l 155.379 148.676 150.098
 152 146.953 157.43 c h
146.953 157.43 m f
170.703 171.23 m 169.465 173.43 167.129 174.664 164.793 174.664 c 164.656
 174.664 164.656 174.664 164.52 174.664 c 163.559 174.664 162.32 174.391
 161.359 173.703 c 158.062 171.777 156.961 167.52 158.887 164.359 c 159.984
 162.297 162.184 161.062 164.52 160.922 c 165.758 160.785 166.992 161.062
 168.23 161.746 c 171.527 163.672 172.625 167.934 170.703 171.23 c h
170.703 171.23 m f
0.196078 0.223529 0.247059 rg
168.23 161.75 m 166.992 161.062 165.758 160.785 164.52 160.926 c 164.52
 174.664 l 164.656 174.664 164.656 174.664 164.793 174.664 c 167.129 174.664
 169.465 173.43 170.703 171.23 c 172.625 167.934 171.527 163.672 168.23 
161.75 c h
168.23 161.75 m f
170.152 187.719 m 168.23 188.266 166.441 188.406 164.52 188.406 c 164.52
 215.887 l 172.902 215.887 181.281 213.688 188.84 209.43 c 194.746 205.992
 l 180.32 180.711 l 177.574 184.008 174.273 186.617 170.152 187.719 c h
170.152 187.719 m f
0.941176 0.219608 0 rg
164.52 256.832 89.312 -13.742 re f
0.341176 0.372549 0.392157 rg
164.52 312.25 54.961 -13.742 re f
281.312 312.25 m 281.312 298.508 l 246.961 298.508 l 243.113 298.508 240.09
 295.488 240.09 291.641 c 240.09 280.234 230.887 271.031 219.48 271.031 
c 164.52 271.031 l 164.52 284.77 l 219.48 284.77 l 223.328 284.77 226.352
 287.793 226.352 291.641 c 226.352 303.043 235.555 312.25 246.961 312.25
 c h
281.312 312.25 m f
0.733333 0.862745 1 rg
309.25 105.688 m 309.25 77.75 l 253.832 77.75 l 253.832 119.43 l 276.641
 119.43 l h
309.25 105.688 m f
1 0.568627 0 rg
308.562 113.797 m 307.465 119.43 l 301.281 143.336 278.977 160.648 253.832
 160.648 c 239.129 160.648 225.25 154.879 215.086 144.574 c 208.078 137.703
 203.129 129.047 200.793 119.43 c 200.656 118.879 200.52 118.469 200.383
 117.918 c 199.559 113.797 l 199.008 111.184 198.871 108.438 198.871 105.688
 c 309.25 105.688 l 309.25 108.438 309.113 111.184 308.562 113.797 c h
308.562 113.797 m f
1 0.392157 0.101961 rg
309.25 105.688 m 253.832 105.688 l 253.832 160.648 l 278.977 160.648 301.281
 143.336 307.465 119.43 c 308.562 113.797 l 309.113 111.184 309.25 108.438
 309.25 105.688 c h
309.25 105.688 m f
Q Q
showpage
%%Trailer
end restore
%%EOF
