%!PS-Adobe-3.0 EPSF-3.0
%%Creator: cairo 1.14.8 (http://cairographics.org)
%%CreationDate: Fri Feb 22 08:48:37 2019
%%Pages: 1
%%DocumentData: Clean7Bit
%%LanguageLevel: 2
%%BoundingBox: 0 0 384 384
%%EndComments
%%BeginProlog
save
50 dict begin
/q { gsave } bind def
/Q { grestore } bind def
/cm { 6 array astore concat } bind def
/w { setlinewidth } bind def
/J { setlinecap } bind def
/j { setlinejoin } bind def
/M { setmiterlimit } bind def
/d { setdash } bind def
/m { moveto } bind def
/l { lineto } bind def
/c { curveto } bind def
/h { closepath } bind def
/re { exch dup neg 3 1 roll 5 3 roll moveto 0 rlineto
      0 exch rlineto 0 rlineto closepath } bind def
/S { stroke } bind def
/f { fill } bind def
/f* { eofill } bind def
/n { newpath } bind def
/W { clip } bind def
/W* { eoclip } bind def
/BT { } bind def
/ET { } bind def
/pdfmark where { pop globaldict /?pdfmark /exec load put }
    { globaldict begin /?pdfmark /pop load def /pdfmark
    /cleartomark load def end } ifelse
/BDC { mark 3 1 roll /BDC pdfmark } bind def
/EMC { mark /EMC pdfmark } bind def
/cairo_store_point { /cairo_point_y exch def /cairo_point_x exch def } def
/Tj { show currentpoint cairo_store_point } bind def
/TJ {
  {
    dup
    type /stringtype eq
    { show } { -0.001 mul 0 cairo_font_matrix dtransform rmoveto } ifelse
  } forall
  currentpoint cairo_store_point
} bind def
/cairo_selectfont { cairo_font_matrix aload pop pop pop 0 0 6 array astore
    cairo_font exch selectfont cairo_point_x cairo_point_y moveto } bind def
/Tf { pop /cairo_font exch def /cairo_font_matrix where
      { pop cairo_selectfont } if } bind def
/Td { matrix translate cairo_font_matrix matrix concatmatrix dup
      /cairo_font_matrix exch def dup 4 get exch 5 get cairo_store_point
      /cairo_font where { pop cairo_selectfont } if } bind def
/Tm { 2 copy 8 2 roll 6 array astore /cairo_font_matrix exch def
      cairo_store_point /cairo_font where { pop cairo_selectfont } if } bind def
/g { setgray } bind def
/rg { setrgbcolor } bind def
/d1 { setcachedevice } bind def
%%EndProlog
%%BeginSetup
%%EndSetup
%%Page: 1 1
%%BeginPageSetup
%%PageBoundingBox: 0 0 384 384
%%EndPageSetup
q 0 0 384 384 rectclip q
0.611765 0.866667 0.0196078 rg
384 192 m 384 85.961 298.039 0 192 0 c 85.961 0 0 85.961 0 192 c 0 298.039
 85.961 384 192 384 c 298.039 384 384 298.039 384 192 c h
384 192 m f
0.4 0.733333 0 rg
209.613 0.812 m 307.395 9.707 384 91.902 384 192 c 384 198.609 383.664 
205.141 383.012 211.582 c 296.109 298.484 l 248.484 250.859 l 211.672 287.672
 l 189.891 265.887 l 157.285 298.492 l 108.762 249.969 l 128 157 l 117.762
 92.664 l h
209.613 0.812 m f
0.878431 0.956863 1 rg
139.988 229.066 m 157.285 242.953 l 157.285 298.5 l 87.852 298.5 l 87.852
 242.953 l 102 229.066 l h
139.988 229.066 m f
1 0.392157 0.101961 rg
226.715 242.953 m 226.715 165.648 l 226.715 146.484 211.164 130.934 192
 130.934 c 182.695 130.934 174.086 134.543 167.422 141.07 c 160.895 147.738
 157.285 156.348 157.285 165.648 c 157.285 242.953 l 87.852 242.953 l 87.852
 165.648 l 87.852 108.16 134.508 61.5 192 61.5 c 219.773 61.5 246.02 72.332
 265.602 92.051 c 285.32 111.633 296.152 137.879 296.152 165.652 c 296.152
 242.953 l h
226.715 242.953 m f
1 0.854902 0.176471 rg
218.801 256.84 m 192 216.43 l 183.945 204.348 l 172.281 212.125 l 192 241.566
 l 192.973 242.953 l 165.199 242.953 l 192 283.363 l 200.055 295.445 l 211.719
 287.668 l 192 258.23 l 191.027 256.84 l h
218.801 256.84 m f
0.733333 0.862745 1 rg
281.777 229.066 m 296.148 242.953 l 296.148 298.5 l 226.715 298.5 l 226.715
 242.953 l 241.578 229.066 l h
281.777 229.066 m f
0.992157 0.74902 0 rg
211.719 287.668 m 192 258.23 l 192 283.363 l 200.055 295.445 l h
211.719 287.668 m f
218.801 256.84 m 192 216.43 l 192 256.84 l h
218.801 256.84 m f
0.941176 0.219608 0 rg
296.148 242.953 m 296.148 165.648 l 296.148 137.879 285.316 111.629 265.598
 92.051 c 246.02 72.332 219.773 61.5 192 61.5 c 192 130.934 l 211.164 130.934
 226.715 146.484 226.715 165.648 c 226.715 242.953 l h
296.148 242.953 m f
Q Q
showpage
%%Trailer
end restore
%%EOF
