%!PS-Adobe-3.0 EPSF-3.0
%%Creator: cairo 1.14.8 (http://cairographics.org)
%%CreationDate: Fri Feb 22 08:48:37 2019
%%Pages: 1
%%DocumentData: Clean7Bit
%%LanguageLevel: 2
%%BoundingBox: 0 0 384 384
%%EndComments
%%BeginProlog
save
50 dict begin
/q { gsave } bind def
/Q { grestore } bind def
/cm { 6 array astore concat } bind def
/w { setlinewidth } bind def
/J { setlinecap } bind def
/j { setlinejoin } bind def
/M { setmiterlimit } bind def
/d { setdash } bind def
/m { moveto } bind def
/l { lineto } bind def
/c { curveto } bind def
/h { closepath } bind def
/re { exch dup neg 3 1 roll 5 3 roll moveto 0 rlineto
      0 exch rlineto 0 rlineto closepath } bind def
/S { stroke } bind def
/f { fill } bind def
/f* { eofill } bind def
/n { newpath } bind def
/W { clip } bind def
/W* { eoclip } bind def
/BT { } bind def
/ET { } bind def
/pdfmark where { pop globaldict /?pdfmark /exec load put }
    { globaldict begin /?pdfmark /pop load def /pdfmark
    /cleartomark load def end } ifelse
/BDC { mark 3 1 roll /BDC pdfmark } bind def
/EMC { mark /EMC pdfmark } bind def
/cairo_store_point { /cairo_point_y exch def /cairo_point_x exch def } def
/Tj { show currentpoint cairo_store_point } bind def
/TJ {
  {
    dup
    type /stringtype eq
    { show } { -0.001 mul 0 cairo_font_matrix dtransform rmoveto } ifelse
  } forall
  currentpoint cairo_store_point
} bind def
/cairo_selectfont { cairo_font_matrix aload pop pop pop 0 0 6 array astore
    cairo_font exch selectfont cairo_point_x cairo_point_y moveto } bind def
/Tf { pop /cairo_font exch def /cairo_font_matrix where
      { pop cairo_selectfont } if } bind def
/Td { matrix translate cairo_font_matrix matrix concatmatrix dup
      /cairo_font_matrix exch def dup 4 get exch 5 get cairo_store_point
      /cairo_font where { pop cairo_selectfont } if } bind def
/Tm { 2 copy 8 2 roll 6 array astore /cairo_font_matrix exch def
      cairo_store_point /cairo_font where { pop cairo_selectfont } if } bind def
/g { setgray } bind def
/rg { setrgbcolor } bind def
/d1 { setcachedevice } bind def
%%EndProlog
%%BeginSetup
%%EndSetup
%%Page: 1 1
%%BeginPageSetup
%%PageBoundingBox: 0 0 384 384
%%EndPageSetup
q 0 0 384 384 rectclip q
0.992157 0.74902 0 rg
384 192 m 384 85.961 298.039 0 192 0 c 85.961 0 0 85.961 0 192 c 0 298.039
 85.961 384 192 384 c 298.039 384 384 298.039 384 192 c h
384 192 m f
1 0.568627 0 rg
265.508 292.66 m 247.156 274.309 l 203.547 317.918 l 194.5 294.5 l 171.18
 317.988 l 155.848 302.652 l 168.359 290.141 l 166.234 288.016 l 141.641
 312.609 l 133.367 304.332 l 157.957 279.742 l 157.266 279.047 l 186 250.125
 l 178.5 221.062 l 129.73 251.934 l 115.574 237.777 l 208.719 144.633 l 
204.34 140.254 l 142.953 201.641 l 138.578 197.266 l 115.57 220.273 l 101.684
 206.387 l 122.625 185.438 l 115.828 188.422 l 106.406 178.996 l 174.742
 110.66 l 171.934 107.848 l 143.359 136.422 l 129.473 122.539 l 158.047 
93.965 l 135.75 87 l 85.355 92.77 l 73.438 80.855 l 149.582 4.711 l 163.227
 1.633 177.422 0 192 0 c 292.285 0 374.598 76.891 383.238 174.934 c h
265.508 292.66 m f
0.341176 0.372549 0.392157 rg
239.246 179.973 m 218.262 173.023 l 224.375 111.559 l 251.473 93.633 l 
247.582 87.797 l 136.418 87.797 l 132.527 93.633 l 160.039 111.836 l 164.488
 150.789 l 145.312 150.789 l 139.613 167.883 l 106.402 179 l 110.848 192.062
 l 134.055 184.418 l 129.887 197.203 l 142.949 201.648 l 155.316 164.688
 l 166.016 164.688 l 169.488 194.699 l 115.574 237.777 l 115.574 285.719
 l 140.586 260.707 l 175.188 243.477 l 177.965 265.289 l 157.262 279.047
 l 157.262 292.387 l 133.359 304.336 l 139.473 316.844 l 157.262 307.949
 l 157.262 318 l 171.156 318 l 171.156 286.551 l 182.41 279.047 l 192 294.887
 l 203.535 317.953 l 208.812 267.93 l 229.934 275.016 l 249.25 294.332 l
 249.805 294.887 251.75 296.691 256.613 301.559 c 266.34 291.832 l 254.527
 279.879 l 254.527 251.531 l 213.535 220.824 l 216.871 187.195 l 228.125
 191.086 l 241.051 229.438 l 254.113 224.992 l 251.195 215.961 l 258.422
 219.574 l 264.535 207.066 l 244.941 197.34 l h
239.246 179.973 m f
0.196078 0.223529 0.247059 rg
239.246 179.973 m 218.262 173.023 l 224.375 111.559 l 251.473 93.633 l 
247.582 87.797 l 192 87.797 l 192 294.887 l 203.535 317.953 l 208.812 267.93
 l 229.934 275.016 l 249.25 294.332 l 249.805 294.887 251.75 296.691 256.613
 301.559 c 266.34 291.832 l 254.527 279.879 l 254.527 251.531 l 213.535 
220.824 l 216.871 187.195 l 228.125 191.086 l 241.051 229.438 l 254.113 
224.992 l 251.195 215.961 l 258.422 219.574 l 264.535 207.066 l 244.941 
197.34 l h
239.246 179.973 m f
0.486275 0.513726 0.533333 rg
73.426 94.746 237.148 -13.898 re f
0.341176 0.372549 0.392157 rg
192 94.746 118.574 -13.898 re f
254.531 192.477 13.895 -13.895 re f
0.486275 0.513726 0.533333 rg
129.469 136.43 13.898 -13.895 re f
101.68 220.27 13.895 -13.898 re f
Q Q
showpage
%%Trailer
end restore
%%EOF
