%!PS-Adobe-3.0 EPSF-3.0
%%Creator: cairo 1.14.8 (http://cairographics.org)
%%CreationDate: Fri Feb 22 08:48:37 2019
%%Pages: 1
%%DocumentData: Clean7Bit
%%LanguageLevel: 2
%%BoundingBox: 0 0 384 384
%%EndComments
%%BeginProlog
save
50 dict begin
/q { gsave } bind def
/Q { grestore } bind def
/cm { 6 array astore concat } bind def
/w { setlinewidth } bind def
/J { setlinecap } bind def
/j { setlinejoin } bind def
/M { setmiterlimit } bind def
/d { setdash } bind def
/m { moveto } bind def
/l { lineto } bind def
/c { curveto } bind def
/h { closepath } bind def
/re { exch dup neg 3 1 roll 5 3 roll moveto 0 rlineto
      0 exch rlineto 0 rlineto closepath } bind def
/S { stroke } bind def
/f { fill } bind def
/f* { eofill } bind def
/n { newpath } bind def
/W { clip } bind def
/W* { eoclip } bind def
/BT { } bind def
/ET { } bind def
/pdfmark where { pop globaldict /?pdfmark /exec load put }
    { globaldict begin /?pdfmark /pop load def /pdfmark
    /cleartomark load def end } ifelse
/BDC { mark 3 1 roll /BDC pdfmark } bind def
/EMC { mark /EMC pdfmark } bind def
/cairo_store_point { /cairo_point_y exch def /cairo_point_x exch def } def
/Tj { show currentpoint cairo_store_point } bind def
/TJ {
  {
    dup
    type /stringtype eq
    { show } { -0.001 mul 0 cairo_font_matrix dtransform rmoveto } ifelse
  } forall
  currentpoint cairo_store_point
} bind def
/cairo_selectfont { cairo_font_matrix aload pop pop pop 0 0 6 array astore
    cairo_font exch selectfont cairo_point_x cairo_point_y moveto } bind def
/Tf { pop /cairo_font exch def /cairo_font_matrix where
      { pop cairo_selectfont } if } bind def
/Td { matrix translate cairo_font_matrix matrix concatmatrix dup
      /cairo_font_matrix exch def dup 4 get exch 5 get cairo_store_point
      /cairo_font where { pop cairo_selectfont } if } bind def
/Tm { 2 copy 8 2 roll 6 array astore /cairo_font_matrix exch def
      cairo_store_point /cairo_font where { pop cairo_selectfont } if } bind def
/g { setgray } bind def
/rg { setrgbcolor } bind def
/d1 { setcachedevice } bind def
%%EndProlog
%%BeginSetup
%%EndSetup
%%Page: 1 1
%%BeginPageSetup
%%PageBoundingBox: 0 0 384 384
%%EndPageSetup
q 0 0 384 384 rectclip q
0.611765 0.866667 0.0196078 rg
384 192 m 384 85.961 298.039 0 192 0 c 85.961 0 0 85.961 0 192 c 0 298.039
 85.961 384 192 384 c 298.039 384 384 298.039 384 192 c h
384 192 m f
0.4 0.733333 0 rg
384 192 m 384 194.625 383.934 197.23 383.828 199.828 c 313.355 270.301 
l 291.742 248.691 l 241.758 298.672 l 151 289 l 119.617 147.66 l 70.684 
98.723 l 167.906 1.5 l 175.797 0.516 183.84 0 192 0 c 298.039 0 384 85.961
 384 192 c h
384 192 m f
0.341176 0.372549 0.392157 rg
99.559 106.746 14.223 -20.812 re f
0.196078 0.223529 0.247059 rg
270.219 106.746 14.223 -20.812 re f
0.341176 0.372549 0.392157 rg
241.777 298.738 m 241.777 263.184 l 227.555 263.184 l 227.555 285.039 l
 156.445 285.039 l 156.445 263.184 l 142.223 263.184 l 142.223 298.738 l
 h
241.777 298.738 m f
0.196078 0.223529 0.247059 rg
241.777 298.738 m 241.777 263.184 l 227.555 263.184 l 227.555 285.039 l
 192 285.039 l 192 298.738 l h
241.777 298.738 m f
0.992157 0.74902 0 rg
313.359 270.297 m 313.359 98.734 l 70.641 98.734 l 70.641 270.297 l 99.559
 270.297 l 121.32 245.406 l 142.223 270.297 l 241.777 270.297 l 266.664 
242.277 l 284.441 270.297 l h
313.359 270.297 m f
1 0.568627 0 rg
313.359 270.297 m 313.359 98.734 l 192 98.734 l 192 270.297 l 241.777 270.297
 l 266.664 242.277 l 284.441 270.297 l h
313.359 270.297 m f
0.341176 0.372549 0.392157 rg
99.559 270.297 42.664 -56.367 re f
0.196078 0.223529 0.247059 rg
241.777 270.297 42.664 -56.367 re f
212.387 184.539 m 213.82 180.5 214.031 176.793 212.902 172.562 c 211.43
 167.062 207.895 162.461 202.965 159.613 c 200.785 158.355 198.465 157.676
 196.117 157.25 c 211.027 131.426 l 217.188 134.98 l 232.5 143.828 241.652
 160.34 241.688 178.07 c 241.703 184.539 l h
212.387 184.539 m f
0.341176 0.372549 0.392157 rg
223.289 217.676 m 208.355 191.508 l 205.512 194.922 202.098 197.625 197.832
 198.762 c 195.84 199.328 193.992 199.473 192 199.473 c 188.445 199.473 
184.746 198.477 181.617 196.629 c 179.484 195.348 177.777 193.641 176.215
 191.793 c 161.281 217.676 l 167.398 221.23 l 174.934 225.641 183.609 227.914
 192 227.914 c 200.676 227.914 209.352 225.641 217.172 221.23 c h
223.289 217.676 m f
173.82 167.41 m 170.734 172.77 170.016 177.727 172.469 184.539 c 142.734
 184.539 l 142.711 172.41 142.387 164.984 149.188 153.195 c 156.016 141.383
 163.129 137.449 173.578 131.445 c 188.477 157.258 l 182.539 158.352 177.074
 161.793 173.82 167.41 c h
173.82 167.41 m f
198.398 181.695 m 197.121 183.969 194.703 185.25 192.285 185.25 c 192.141
 185.25 192.141 185.25 192 185.25 c 191.004 185.25 189.723 184.965 188.727
 184.254 c 185.316 182.262 184.176 177.855 186.168 174.586 c 187.305 172.449
 189.582 171.172 192 171.027 c 193.281 170.887 194.559 171.172 195.84 171.883
 c 199.254 173.875 200.391 178.281 198.398 181.695 c h
198.398 181.695 m f
0.196078 0.223529 0.247059 rg
195.84 171.883 m 194.559 171.172 193.281 170.887 192 171.027 c 192 185.25
 l 192.141 185.25 192.141 185.25 192.285 185.25 c 194.703 185.25 197.121
 183.969 198.402 181.695 c 200.391 178.281 199.254 173.875 195.84 171.883
 c h
195.84 171.883 m f
197.832 198.762 m 195.84 199.328 193.992 199.473 192 199.473 c 192 227.914
 l 200.676 227.914 209.352 225.641 217.172 221.23 c 223.289 217.676 l 208.355
 191.508 l 205.512 194.922 202.098 197.621 197.832 198.762 c h
197.832 198.762 m f
Q Q
showpage
%%Trailer
end restore
%%EOF
