%!PS-Adobe-3.0 EPSF-3.0
%%Creator: cairo 1.14.8 (http://cairographics.org)
%%CreationDate: Fri Feb 22 08:48:37 2019
%%Pages: 1
%%DocumentData: Clean7Bit
%%LanguageLevel: 2
%%BoundingBox: 0 0 384 384
%%EndComments
%%BeginProlog
save
50 dict begin
/q { gsave } bind def
/Q { grestore } bind def
/cm { 6 array astore concat } bind def
/w { setlinewidth } bind def
/J { setlinecap } bind def
/j { setlinejoin } bind def
/M { setmiterlimit } bind def
/d { setdash } bind def
/m { moveto } bind def
/l { lineto } bind def
/c { curveto } bind def
/h { closepath } bind def
/re { exch dup neg 3 1 roll 5 3 roll moveto 0 rlineto
      0 exch rlineto 0 rlineto closepath } bind def
/S { stroke } bind def
/f { fill } bind def
/f* { eofill } bind def
/n { newpath } bind def
/W { clip } bind def
/W* { eoclip } bind def
/BT { } bind def
/ET { } bind def
/pdfmark where { pop globaldict /?pdfmark /exec load put }
    { globaldict begin /?pdfmark /pop load def /pdfmark
    /cleartomark load def end } ifelse
/BDC { mark 3 1 roll /BDC pdfmark } bind def
/EMC { mark /EMC pdfmark } bind def
/cairo_store_point { /cairo_point_y exch def /cairo_point_x exch def } def
/Tj { show currentpoint cairo_store_point } bind def
/TJ {
  {
    dup
    type /stringtype eq
    { show } { -0.001 mul 0 cairo_font_matrix dtransform rmoveto } ifelse
  } forall
  currentpoint cairo_store_point
} bind def
/cairo_selectfont { cairo_font_matrix aload pop pop pop 0 0 6 array astore
    cairo_font exch selectfont cairo_point_x cairo_point_y moveto } bind def
/Tf { pop /cairo_font exch def /cairo_font_matrix where
      { pop cairo_selectfont } if } bind def
/Td { matrix translate cairo_font_matrix matrix concatmatrix dup
      /cairo_font_matrix exch def dup 4 get exch 5 get cairo_store_point
      /cairo_font where { pop cairo_selectfont } if } bind def
/Tm { 2 copy 8 2 roll 6 array astore /cairo_font_matrix exch def
      cairo_store_point /cairo_font where { pop cairo_selectfont } if } bind def
/g { setgray } bind def
/rg { setrgbcolor } bind def
/d1 { setcachedevice } bind def
%%EndProlog
%%BeginSetup
%%EndSetup
%%Page: 1 1
%%BeginPageSetup
%%PageBoundingBox: 0 0 384 384
%%EndPageSetup
q 0 0 384 384 rectclip q
0.611765 0.866667 0.0196078 rg
384 192 m 384 85.961 298.039 0 192 0 c 85.961 0 0 85.961 0 192 c 0 298.039
 85.961 384 192 384 c 298.039 384 384 298.039 384 192 c h
384 192 m f
0.4 0.733333 0 rg
313.883 233.793 m 303.43 223.34 l 295.223 231.551 l 281.258 217.59 l 300.34
 198.512 l 296.23 194.402 l 273.074 217.559 l 259.113 203.598 l 282.27 180.441
 l 271.793 169.965 l 158.949 282.809 l 150.793 274.652 l 126.316 299.129
 l 94.531 267.344 l 119.008 242.867 l 98.289 222.148 l 141.883 178.555 l
 65.57 102.242 l 166.062 1.75 l 174.547 0.605 183.203 0 192 0 c 289.047 
0 369.262 72.008 382.172 165.504 c h
313.883 233.793 m f
0.603922 0.729412 0.858824 rg
289.406 226.258 16.309 -33.129 re f
0.341176 0.372549 0.392157 rg
142.625 282.828 16.309 -40.773 re f
77.387 299.137 m 77.387 250.211 l 78.41 248.68 84.289 241.09 89.91 233.902
 c 126.316 233.902 l 126.316 299.137 l h
77.387 299.137 m f
1 0.568627 0 rg
216.016 217.594 m 192.57 182.934 l 216.016 152.355 l 227.926 152.355 237.07
 152.355 248.633 152.355 c 262.125 152.355 273.098 163.328 273.098 176.82
 c 273.098 217.594 l 251.621 217.594 236.363 217.594 216.016 217.594 c h
216.016 217.594 m f
1 0.854902 0.176471 rg
158.934 217.594 57.082 -65.238 re f
0.992157 0.74902 0 rg
216.016 217.594 m 216.016 152.355 l 200.281 152.355 l 200.266 217.594 l
 h
216.016 217.594 m f
0.733333 0.862745 1 rg
175.242 152.355 m 144.582 152.355 l 135.195 152.355 126.777 157.516 122.613
 165.82 c 113.105 184.973 l 77.387 184.973 l 77.387 250.211 l 175.242 250.211
 l h
175.242 152.355 m f
0.196078 0.223529 0.247059 rg
281.254 233.902 32.617 -16.309 re f
0.341176 0.372549 0.392157 rg
339.422 201.281 m 333.551 189.539 l 323.438 169.316 322.023 146.648 322.023
 123.977 c 322.023 103.102 l 307.184 89.891 288.266 90.055 273.422 103.43
 c 258.746 116.965 239.336 116.965 224.496 103.43 c 217.234 96.648 208.855
 93.387 200.297 93.32 c 200.242 93.32 l 200.172 93.316 200.102 93.316 200.031
 93.316 c 191.551 93.316 183.07 96.578 175.566 103.43 c 160.891 116.965 
141.48 116.965 126.641 103.43 c 113.43 91.359 96.633 90.219 82.605 99.676
 c 68.582 128.707 61.078 161 61.078 193.129 c 61.078 201.285 l 123.215 201.285
 l 137.242 173.07 l 138.547 170.297 141.48 168.664 144.582 168.664 c 248.633
 168.664 l 253.199 168.664 256.789 172.254 256.789 176.82 c 256.789 201.285
 l 339.422 201.285 l h
339.422 201.281 m f
0.196078 0.223529 0.247059 rg
339.422 201.281 m 333.551 189.539 l 323.438 169.316 322.023 146.648 322.023
 123.977 c 322.023 103.102 l 307.184 89.891 288.266 90.055 273.422 103.43
 c 258.746 116.965 239.336 116.965 224.496 103.43 c 217.234 96.648 208.855
 93.387 200.297 93.32 c 200.277 168.664 l 248.633 168.664 l 253.199 168.664
 256.789 172.254 256.789 176.82 c 256.789 201.281 l h
339.422 201.281 m f
0.733333 0.862745 1 rg
273.098 152.355 16.309 -16.309 re f
0.878431 0.956863 1 rg
334.094 101.961 m 331.973 100.656 329.852 99.188 327.895 97.395 c 318.926
 89.238 308.488 85.16 297.887 85.16 c 287.449 85.16 277.012 89.238 268.043
 97.395 c 256.301 107.996 241.785 107.996 230.043 97.395 c 221.148 89.309
 210.812 85.23 200.305 85.16 c 200.035 85.16 l 189.594 85.16 179.156 89.238
 170.188 97.395 c 158.445 107.996 143.93 107.996 132.188 97.395 c 114.246
 81.086 90.273 81.086 72.332 97.395 c 70.051 99.352 67.766 100.98 65.484
 102.285 c 72.984 116.637 l 76.574 114.844 80.16 112.398 83.262 109.461 
c 95.004 98.699 109.52 98.699 121.262 109.461 c 139.199 125.773 163.176 
125.773 181.117 109.461 c 186.984 104.082 193.512 101.473 200.035 101.473
 c 200.301 101.473 l 206.895 101.543 213.32 104.152 219.117 109.461 c 237.055
 125.773 261.031 125.773 278.969 109.461 c 290.711 98.699 305.227 98.699
 316.969 109.461 c 319.906 112.07 323.004 114.355 326.266 116.148 c h
334.094 101.961 m f
0.733333 0.862745 1 rg
334.094 101.961 m 331.973 100.656 329.852 99.188 327.895 97.395 c 318.926
 89.238 308.488 85.16 297.887 85.16 c 287.449 85.16 277.012 89.238 268.043
 97.395 c 256.301 107.996 241.785 107.996 230.043 97.395 c 221.148 89.309
 210.812 85.23 200.305 85.16 c 200.301 101.473 l 206.895 101.543 213.32 
104.152 219.113 109.461 c 237.055 125.773 261.027 125.773 278.969 109.461
 c 290.711 98.699 305.227 98.699 316.969 109.461 c 319.906 112.07 323.004
 114.355 326.266 116.148 c h
334.094 101.961 m f
Q Q
showpage
%%Trailer
end restore
%%EOF
