%!PS-Adobe-3.0 EPSF-3.0
%%Creator: cairo 1.14.8 (http://cairographics.org)
%%CreationDate: Fri Feb 22 08:48:37 2019
%%Pages: 1
%%DocumentData: Clean7Bit
%%LanguageLevel: 2
%%BoundingBox: 0 0 384 384
%%EndComments
%%BeginProlog
save
50 dict begin
/q { gsave } bind def
/Q { grestore } bind def
/cm { 6 array astore concat } bind def
/w { setlinewidth } bind def
/J { setlinecap } bind def
/j { setlinejoin } bind def
/M { setmiterlimit } bind def
/d { setdash } bind def
/m { moveto } bind def
/l { lineto } bind def
/c { curveto } bind def
/h { closepath } bind def
/re { exch dup neg 3 1 roll 5 3 roll moveto 0 rlineto
      0 exch rlineto 0 rlineto closepath } bind def
/S { stroke } bind def
/f { fill } bind def
/f* { eofill } bind def
/n { newpath } bind def
/W { clip } bind def
/W* { eoclip } bind def
/BT { } bind def
/ET { } bind def
/pdfmark where { pop globaldict /?pdfmark /exec load put }
    { globaldict begin /?pdfmark /pop load def /pdfmark
    /cleartomark load def end } ifelse
/BDC { mark 3 1 roll /BDC pdfmark } bind def
/EMC { mark /EMC pdfmark } bind def
/cairo_store_point { /cairo_point_y exch def /cairo_point_x exch def } def
/Tj { show currentpoint cairo_store_point } bind def
/TJ {
  {
    dup
    type /stringtype eq
    { show } { -0.001 mul 0 cairo_font_matrix dtransform rmoveto } ifelse
  } forall
  currentpoint cairo_store_point
} bind def
/cairo_selectfont { cairo_font_matrix aload pop pop pop 0 0 6 array astore
    cairo_font exch selectfont cairo_point_x cairo_point_y moveto } bind def
/Tf { pop /cairo_font exch def /cairo_font_matrix where
      { pop cairo_selectfont } if } bind def
/Td { matrix translate cairo_font_matrix matrix concatmatrix dup
      /cairo_font_matrix exch def dup 4 get exch 5 get cairo_store_point
      /cairo_font where { pop cairo_selectfont } if } bind def
/Tm { 2 copy 8 2 roll 6 array astore /cairo_font_matrix exch def
      cairo_store_point /cairo_font where { pop cairo_selectfont } if } bind def
/g { setgray } bind def
/rg { setrgbcolor } bind def
/d1 { setcachedevice } bind def
%%EndProlog
%%BeginSetup
%%EndSetup
%%Page: 1 1
%%BeginPageSetup
%%PageBoundingBox: 0 0 384 384
%%EndPageSetup
q 0 0 384 384 rectclip q
0.611765 0.866667 0.0196078 rg
384 192 m 384 85.961 298.039 0 192 0 c 85.961 0 0 85.961 0 192 c 0 298.039
 85.961 384 192 384 c 298.039 384 384 298.039 384 192 c h
384 192 m f
0.4 0.733333 0 rg
383.645 203.562 m 271.688 315.516 l 267.922 311.75 l 263.34 316.332 l 244.609
 297.602 l 295.117 247.094 l 285.246 237.223 l 199.246 323.223 l 187.758
 297.254 l 184.75 294.25 l 250.539 228.461 l 234.832 212.75 l 124.855 322.727
 l 115.312 313.188 l 132.488 296.012 l 126.84 290.363 l 219.641 197.562 
l 188.895 166.812 l 105.918 249.789 l 99.438 243.312 l 80.609 262.141 l 
71.453 252.984 l 173.258 151.18 l 97.797 75.719 l 172.539 0.977 l 178.938
 0.332 185.43 0 192 0 c 298.039 0 384 85.961 384 192 c 384 195.883 383.871
 199.734 383.645 203.562 c h
383.645 203.562 m f
1 0.392157 0.101961 rg
259.578 245.859 m 257.984 264.566 242.465 278.777 223.469 278.777 c 160.531
 278.777 l 141.535 278.777 126.016 264.566 124.422 245.859 c 111.516 104.754
 l 272.484 104.754 l h
259.578 245.859 m f
0.941176 0.219608 0 rg
272.484 104.754 m 192 104.754 l 192 278.777 l 223.469 278.777 l 242.465
 278.777 257.984 264.566 259.578 245.859 c h
272.484 104.754 m f
1 0.392157 0.101961 rg
184.75 213.52 14.5 -72.512 re f
0.941176 0.219608 0 rg
192 213.52 7.25 -72.512 re f
1 0.854902 0.176471 rg
184.75 323.25 14.5 -29.004 re f
0.992157 0.74902 0 rg
259.141 322.77 m 271.703 315.52 l 257.176 290.352 l 244.617 297.602 l h
259.141 322.77 m f
305.285 265.543 m 312.539 252.98 l 285.289 237.254 l 278.039 249.816 l 
h
305.285 265.543 m f
1 0.854902 0.176471 rg
124.863 322.77 m 139.395 297.605 l 126.832 290.352 l 112.301 315.52 l h
124.863 322.77 m f
78.703 265.547 m 105.949 249.82 l 98.699 237.258 l 71.453 252.984 l h
78.703 265.547 m f
1 0.568627 0 rg
192 221.641 m 155.746 239.766 l 155.746 158.266 l 192 176.395 l 228.254
 158.266 l 228.254 239.766 l h
192 221.641 m f
141.242 148.262 101.516 -36.258 re f
0.992157 0.74902 0 rg
192 323.25 7.25 -29.004 re f
1 0.392157 0.101961 rg
228.254 158.266 m 192 176.395 l 192 221.641 l 228.254 239.766 l h
228.254 158.266 m f
192 148.262 50.758 -36.258 re f
0.341176 0.372549 0.392157 rg
97.738 119.258 188.523 -43.508 re f
0.196078 0.223529 0.247059 rg
192 119.258 94.262 -43.508 re f
Q Q
showpage
%%Trailer
end restore
%%EOF
