\babel@toc {german}{}
\babel@toc {ngerman}{}
\contentsline {section}{\numberline {1}Kontaktierung Zwischen Batterie-Module}{2}
\contentsline {subsection}{\numberline {1.1}Kontaktierung Strategie}{2}
\contentsline {subsection}{\numberline {1.2}Probleme mit der Kontaktierung-Vorgang}{2}
