\relax 
\catcode `"\active 
\babel@aux{german}{}
\babel@aux{ngerman}{}
\@writefile{toc}{\contentsline {section}{\numberline {1}Kontaktierung Zwischen Batterie-Module}{2}}
\@writefile{toc}{\contentsline {subsection}{\numberline {1.1}Kontaktierung Strategie}{2}}
\@writefile{toc}{\contentsline {subsection}{\numberline {1.2}Probleme mit der Kontaktierung-Vorgang}{2}}
