\relax 
\catcode `"\active 
\babel@aux{english}{}
\@writefile{toc}{\contentsline {chapter}{\numberline {1}Adjustments for Pack Controller}{2}}
\@writefile{lof}{\addvspace {10\p@ }}
\@writefile{lot}{\addvspace {10\p@ }}
\@writefile{toc}{\contentsline {section}{\numberline {1.1}Combine Power and Proses board}{2}}
\@writefile{toc}{\contentsline {section}{\numberline {1.2}Parts Restructure}{2}}
\@writefile{toc}{\contentsline {section}{\numberline {1.3}Parts Reconfiguration}{3}}
\@writefile{lof}{\contentsline {figure}{\numberline {1.1}{\ignorespaces Ferrite bead after short circuit}}{3}}
\newlabel{fig:Bild1}{{1.1}{3}}
\@writefile{lof}{\contentsline {figure}{\numberline {1.2}{\ignorespaces Contact place on the BOT side}}{3}}
\newlabel{fig:Bild2}{{1.2}{3}}
\@writefile{lof}{\contentsline {figure}{\numberline {1.3}{\ignorespaces Contact place on the TOP side}}{4}}
\newlabel{fig:Bild3}{{1.3}{4}}
\@writefile{toc}{\contentsline {section}{\numberline {1.4}New lines}{4}}
\@writefile{toc}{\contentsline {section}{\numberline {1.5}Adapting for 8 batteries}{4}}
\@writefile{lof}{\contentsline {figure}{\numberline {1.4}{\ignorespaces Cell Connection Schemes for 5 to 12 Cells}}{5}}
\newlabel{fig:Bild4}{{1.4}{5}}
\@writefile{toc}{\contentsline {section}{\numberline {1.6}Balancing resistors}{5}}
