\babel@toc {english}{}
\contentsline {chapter}{\numberline {1}Adjustments for Pack Controller}{2}
\contentsline {section}{\numberline {1.1}Combine Power and Proses board}{2}
\contentsline {section}{\numberline {1.2}Parts Restructure}{2}
\contentsline {section}{\numberline {1.3}Parts Reconfiguration}{3}
\contentsline {section}{\numberline {1.4}New lines}{4}
\contentsline {section}{\numberline {1.5}Adapting for 8 batteries}{4}
\contentsline {section}{\numberline {1.6}Balancing resistors}{5}
