\babel@toc {german}{}
\babel@toc {ngerman}{}
\contentsline {chapter}{\numberline {1}Probleme Leistungsplatine}{2}
\contentsline {section}{\numberline {1.1}Externe Widerst\"ande}{2}
\contentsline {section}{\numberline {1.2}Positionierung von Elementen}{2}
\contentsline {section}{\numberline {1.3}Erdungsschicht}{2}
\contentsline {section}{\numberline {1.4}Schwache Kontaktfl\"ache auf der Leistungsplatine}{4}
\contentsline {section}{\numberline {1.5}Montage Probleme}{4}
\contentsline {section}{\numberline {1.6}Temperatur Management}{4}
\contentsline {section}{\numberline {1.7}Balancing feedback}{4}
\contentsline {section}{\numberline {1.8}Elektronikbauteile}{4}
\contentsline {chapter}{\numberline {2}Securityboard Problems}{6}
\contentsline {section}{\numberline {2.1}Kommunikationsprobleme}{6}
\contentsline {section}{\numberline {2.2}Security Enable}{6}
\contentsline {section}{\numberline {2.3}Relay ON/OFF am MCU start}{6}
