\relax 
\catcode `"\active 
\babel@aux{german}{}
\babel@aux{ngerman}{}
\@writefile{toc}{\contentsline {chapter}{\numberline {1}Probleme Leistungsplatine}{2}}
\@writefile{lof}{\addvspace {10\p@ }}
\@writefile{lot}{\addvspace {10\p@ }}
\@writefile{toc}{\contentsline {section}{\numberline {1.1}Externe Widerst\"ande}{2}}
\@writefile{toc}{\contentsline {section}{\numberline {1.2}Positionierung von Elementen}{2}}
\@writefile{toc}{\contentsline {section}{\numberline {1.3}Erdungsschicht}{2}}
\@writefile{lof}{\contentsline {figure}{\numberline {1.1}{\ignorespaces Verbrannte Ferriteperle nach der Kurzschl\"usse}}{3}}
\newlabel{fig:Bild1}{{1.1}{3}}
\@writefile{lof}{\contentsline {figure}{\numberline {1.2}{\ignorespaces Kontaktstelle R\"uckseite der Leistungsplatine}}{3}}
\newlabel{fig:Bild2}{{1.2}{3}}
\@writefile{lof}{\contentsline {figure}{\numberline {1.3}{\ignorespaces Kontaktstelle Vorderseite der Leistungsplatine}}{4}}
\newlabel{fig:Bild3}{{1.3}{4}}
\@writefile{toc}{\contentsline {section}{\numberline {1.4}Schwache Kontaktfl\"ache auf der Leistungsplatine}{4}}
\@writefile{toc}{\contentsline {section}{\numberline {1.5}Montage Probleme}{4}}
\@writefile{toc}{\contentsline {section}{\numberline {1.6}Temperatur Management}{4}}
\@writefile{toc}{\contentsline {section}{\numberline {1.7}Balancing feedback}{4}}
\@writefile{toc}{\contentsline {section}{\numberline {1.8}Elektronikbauteile}{4}}
\@writefile{toc}{\contentsline {chapter}{\numberline {2}Securityboard Problems}{6}}
\@writefile{lof}{\addvspace {10\p@ }}
\@writefile{lot}{\addvspace {10\p@ }}
\@writefile{toc}{\contentsline {section}{\numberline {2.1}Kommunikationsprobleme}{6}}
\@writefile{toc}{\contentsline {section}{\numberline {2.2}Security Enable}{6}}
\@writefile{toc}{\contentsline {section}{\numberline {2.3}Relay ON/OFF am MCU start}{6}}
