EESchema Schematic File Version 2
LIBS:power
LIBS:device
LIBS:switches
LIBS:relays
LIBS:motors
LIBS:transistors
LIBS:conn
LIBS:linear
LIBS:regul
LIBS:74xx
LIBS:cmos4000
LIBS:adc-dac
LIBS:memory
LIBS:xilinx
LIBS:microcontrollers
LIBS:dsp
LIBS:microchip
LIBS:analog_switches
LIBS:motorola
LIBS:texas
LIBS:intel
LIBS:audio
LIBS:interface
LIBS:digital-audio
LIBS:philips
LIBS:display
LIBS:cypress
LIBS:siliconi
LIBS:opto
LIBS:atmel
LIBS:contrib
LIBS:valves
LIBS:Pack_Controller
EELAYER 25 0
EELAYER END
$Descr A4 11693 8268
encoding utf-8
Sheet 1 1
Title ""
Date ""
Rev ""
Comp ""
Comment1 ""
Comment2 ""
Comment3 ""
Comment4 ""
$EndDescr
$Comp
L LTC6811 U1
U 1 1 5C40CA07
P 5250 4350
F 0 "U1" H 5250 3050 60  0000 C CNN
F 1 "LTC6811" H 5200 5700 60  0000 C CNN
F 2 "" H 5250 4350 60  0001 C CNN
F 3 "" H 5250 4350 60  0001 C CNN
	1    5250 4350
	1    0    0    -1  
$EndComp
$Comp
L Battery_Cell ZELLE_1
U 1 1 5C40CBF0
P 2600 5800
F 0 "ZELLE_1" H 2700 5900 50  0000 L CNN
F 1 "~" H 2700 5800 50  0000 L CNN
F 2 "" V 2600 5860 50  0001 C CNN
F 3 "" V 2600 5860 50  0001 C CNN
	1    2600 5800
	1    0    0    -1  
$EndComp
$Comp
L Ferrite_Bead FB1
U 1 1 5C40CF45
P 6200 5750
F 0 "FB1" H 6300 5850 50  0000 C CNN
F 1 "Ferrite_Bead" H 6450 5600 50  0000 C CNN
F 2 "" V 6130 5750 50  0001 C CNN
F 3 "" H 6200 5750 50  0001 C CNN
	1    6200 5750
	1    0    0    -1  
$EndComp
$Comp
L GND #PWR1
U 1 1 5C40D020
P 6400 5100
F 0 "#PWR1" H 6400 4850 50  0001 C CNN
F 1 "GND" H 6400 4950 50  0000 C CNN
F 2 "" H 6400 5100 50  0001 C CNN
F 3 "" H 6400 5100 50  0001 C CNN
	1    6400 5100
	1    0    0    -1  
$EndComp
$Comp
L R R10
U 1 1 5C40D21A
P 4250 3200
F 0 "R10" V 4330 3200 50  0000 C CNN
F 1 "10" V 4250 3200 50  0000 C CNN
F 2 "" V 4180 3200 50  0001 C CNN
F 3 "" H 4250 3200 50  0001 C CNN
	1    4250 3200
	0    1    1    0   
$EndComp
$Comp
L R R1
U 1 1 5C40D9A9
P 2850 1900
F 0 "R1" V 2930 1900 50  0000 C CNN
F 1 "100" V 2850 1900 50  0000 C CNN
F 2 "" V 2780 1900 50  0001 C CNN
F 3 "" H 2850 1900 50  0001 C CNN
	1    2850 1900
	0    1    1    0   
$EndComp
Wire Wire Line
	2600 2300 2600 2500
Wire Wire Line
	2600 2800 2600 3000
Wire Wire Line
	2600 3300 2600 3500
Wire Wire Line
	2600 3800 2600 4100
Wire Wire Line
	2600 4400 2600 4600
Wire Wire Line
	2600 4900 2600 5100
Wire Wire Line
	2600 5400 2600 5600
Wire Wire Line
	2600 5900 2600 6250
Wire Wire Line
	6000 5400 5850 5400
Wire Wire Line
	5850 5000 6400 5000
Wire Wire Line
	5850 4900 6200 4900
Connection ~ 6200 5000
Wire Wire Line
	6400 5000 6400 5100
Wire Wire Line
	6200 4900 6200 5600
Wire Wire Line
	2600 6000 2700 6000
Connection ~ 2600 6000
Wire Wire Line
	2600 5500 2700 5500
Connection ~ 2600 5500
Wire Wire Line
	2700 5000 2600 5000
Connection ~ 2600 5000
Wire Wire Line
	2700 4500 2600 4500
Wire Wire Line
	2600 4500 2600 4450
Connection ~ 2600 4450
Wire Wire Line
	2700 3950 2600 3950
Connection ~ 2600 3950
Wire Wire Line
	2700 3400 2600 3400
Connection ~ 2600 3400
Wire Wire Line
	2700 2900 2600 2900
Connection ~ 2600 2900
Wire Wire Line
	2700 2400 2600 2400
Connection ~ 2600 2400
Wire Wire Line
	2700 1900 2600 1900
Wire Wire Line
	2600 1750 2600 2000
Connection ~ 2600 1900
Wire Wire Line
	4400 3200 4550 3200
Wire Wire Line
	4550 3300 4450 3300
Wire Wire Line
	4450 3300 4450 3700
Wire Wire Line
	4450 3500 4550 3500
Connection ~ 4450 3500
Connection ~ 4450 3700
Wire Wire Line
	4550 4500 4450 4500
Wire Wire Line
	4450 4500 4450 4900
Wire Wire Line
	4450 4700 4550 4700
Connection ~ 4450 4700
Connection ~ 4450 4900
Wire Wire Line
	3000 6000 6000 6000
Wire Wire Line
	6000 6000 6000 5400
Wire Wire Line
	6200 5900 6200 6250
Wire Wire Line
	6200 6250 2600 6250
Wire Wire Line
	3000 5500 4550 5500
Wire Wire Line
	3000 5000 3300 5000
Wire Wire Line
	3300 5000 3300 5300
Wire Wire Line
	3300 5300 4550 5300
Wire Wire Line
	3000 4500 3400 4500
Wire Wire Line
	3400 4500 3400 5100
Wire Wire Line
	3400 5100 4550 5100
Wire Wire Line
	3500 4900 4550 4900
Wire Wire Line
	3500 4900 3500 3950
Wire Wire Line
	3500 3950 3000 3950
Wire Wire Line
	3000 3400 3600 3400
Wire Wire Line
	3600 3400 3600 4300
Wire Wire Line
	3600 4300 4550 4300
Wire Wire Line
	3000 2900 3700 2900
Wire Wire Line
	3700 2900 3700 4100
Wire Wire Line
	3700 4100 4550 4100
Wire Wire Line
	3800 3900 4550 3900
Wire Wire Line
	3800 3900 3800 2400
Wire Wire Line
	3800 2400 3000 2400
Wire Wire Line
	3000 1900 3900 1900
Wire Wire Line
	3900 1900 3900 3700
Wire Wire Line
	3900 3700 4550 3700
Wire Wire Line
	2600 1750 4000 1750
Wire Wire Line
	4000 1750 4000 3200
Wire Wire Line
	4000 3200 4100 3200
$Comp
L Battery_Cell ZELLE_2
U 1 1 5C40FE7C
P 2600 5300
F 0 "ZELLE_2" H 2700 5400 50  0000 L CNN
F 1 "~" H 2700 5300 50  0000 L CNN
F 2 "" V 2600 5360 50  0001 C CNN
F 3 "" V 2600 5360 50  0001 C CNN
	1    2600 5300
	1    0    0    -1  
$EndComp
$Comp
L Battery_Cell ZELLE_3
U 1 1 5C40FEC8
P 2600 4800
F 0 "ZELLE_3" H 2700 4900 50  0000 L CNN
F 1 "~" H 2700 4800 50  0000 L CNN
F 2 "" V 2600 4860 50  0001 C CNN
F 3 "" V 2600 4860 50  0001 C CNN
	1    2600 4800
	1    0    0    -1  
$EndComp
$Comp
L Battery_Cell ZELLE_4
U 1 1 5C40FF15
P 2600 4300
F 0 "ZELLE_4" H 2700 4400 50  0000 L CNN
F 1 "~" H 2700 4300 50  0000 L CNN
F 2 "" V 2600 4360 50  0001 C CNN
F 3 "" V 2600 4360 50  0001 C CNN
	1    2600 4300
	1    0    0    -1  
$EndComp
$Comp
L Battery_Cell ZELLE_5
U 1 1 5C40FF9B
P 2600 3700
F 0 "ZELLE_5" H 2700 3800 50  0000 L CNN
F 1 "~" H 2700 3700 50  0000 L CNN
F 2 "" V 2600 3760 50  0001 C CNN
F 3 "" V 2600 3760 50  0001 C CNN
	1    2600 3700
	1    0    0    -1  
$EndComp
$Comp
L Battery_Cell ZELLE_6
U 1 1 5C40FFEE
P 2600 3200
F 0 "ZELLE_6" H 2700 3300 50  0000 L CNN
F 1 "~" H 2700 3200 50  0000 L CNN
F 2 "" V 2600 3260 50  0001 C CNN
F 3 "" V 2600 3260 50  0001 C CNN
	1    2600 3200
	1    0    0    -1  
$EndComp
$Comp
L Battery_Cell ZELLE_7
U 1 1 5C410042
P 2600 2700
F 0 "ZELLE_7" H 2700 2800 50  0000 L CNN
F 1 "~" H 2700 2700 50  0000 L CNN
F 2 "" V 2600 2760 50  0001 C CNN
F 3 "" V 2600 2760 50  0001 C CNN
	1    2600 2700
	1    0    0    -1  
$EndComp
$Comp
L Battery_Cell ZELLE_8
U 1 1 5C4100A5
P 2600 2200
F 0 "ZELLE_8" H 2700 2300 50  0000 L CNN
F 1 "~" H 2700 2200 50  0000 L CNN
F 2 "" V 2600 2260 50  0001 C CNN
F 3 "" V 2600 2260 50  0001 C CNN
	1    2600 2200
	1    0    0    -1  
$EndComp
$Comp
L R R2
U 1 1 5C410A51
P 2850 2400
F 0 "R2" V 2930 2400 50  0000 C CNN
F 1 "100" V 2850 2400 50  0000 C CNN
F 2 "" V 2780 2400 50  0001 C CNN
F 3 "" H 2850 2400 50  0001 C CNN
	1    2850 2400
	0    1    1    0   
$EndComp
$Comp
L R R3
U 1 1 5C410AAA
P 2850 2900
F 0 "R3" V 2930 2900 50  0000 C CNN
F 1 "100" V 2850 2900 50  0000 C CNN
F 2 "" V 2780 2900 50  0001 C CNN
F 3 "" H 2850 2900 50  0001 C CNN
	1    2850 2900
	0    1    1    0   
$EndComp
$Comp
L R R4
U 1 1 5C410AFE
P 2850 3400
F 0 "R4" V 2930 3400 50  0000 C CNN
F 1 "100" V 2850 3400 50  0000 C CNN
F 2 "" V 2780 3400 50  0001 C CNN
F 3 "" H 2850 3400 50  0001 C CNN
	1    2850 3400
	0    1    1    0   
$EndComp
$Comp
L R R5
U 1 1 5C410B4B
P 2850 3950
F 0 "R5" V 2930 3950 50  0000 C CNN
F 1 "100" V 2850 3950 50  0000 C CNN
F 2 "" V 2780 3950 50  0001 C CNN
F 3 "" H 2850 3950 50  0001 C CNN
	1    2850 3950
	0    1    1    0   
$EndComp
$Comp
L R R6
U 1 1 5C410B9D
P 2850 4500
F 0 "R6" V 2930 4500 50  0000 C CNN
F 1 "100" V 2850 4500 50  0000 C CNN
F 2 "" V 2780 4500 50  0001 C CNN
F 3 "" H 2850 4500 50  0001 C CNN
	1    2850 4500
	0    1    1    0   
$EndComp
$Comp
L R R7
U 1 1 5C410BF2
P 2850 5000
F 0 "R7" V 2930 5000 50  0000 C CNN
F 1 "100" V 2850 5000 50  0000 C CNN
F 2 "" V 2780 5000 50  0001 C CNN
F 3 "" H 2850 5000 50  0001 C CNN
	1    2850 5000
	0    1    1    0   
$EndComp
$Comp
L R R8
U 1 1 5C410C48
P 2850 5500
F 0 "R8" V 2930 5500 50  0000 C CNN
F 1 "100" V 2850 5500 50  0000 C CNN
F 2 "" V 2780 5500 50  0001 C CNN
F 3 "" H 2850 5500 50  0001 C CNN
	1    2850 5500
	0    1    1    0   
$EndComp
$Comp
L R R9
U 1 1 5C410CA5
P 2850 6000
F 0 "R9" V 2930 6000 50  0000 C CNN
F 1 "100" V 2850 6000 50  0000 C CNN
F 2 "" V 2780 6000 50  0001 C CNN
F 3 "" H 2850 6000 50  0001 C CNN
	1    2850 6000
	0    1    1    0   
$EndComp
Wire Notes Line
	2300 3800 3150 3800
Wire Notes Line
	3150 3800 3150 6200
Wire Notes Line
	3150 6200 2300 6200
Wire Notes Line
	2300 6200 2300 3800
Wire Notes Line
	3150 3750 2300 3750
Wire Notes Line
	2300 3750 2300 1800
Wire Notes Line
	2300 1800 3150 1800
Wire Notes Line
	3150 1800 3150 3750
Text Notes 2000 2750 0    60   ~ 0
ADC 2
Text Notes 2000 4900 0    60   ~ 0
ADC 1
$EndSCHEMATC
