(export (version D)
  (design
    (source C:\Users\peus\Documents\Bachelorarbeit\thesis\KiCad\Pack_Controller_isoSPI\isoSPI.sch)
    (date "18.01.2019 18:33:06")
    (tool "Eeschema 4.0.7")
    (sheet (number 1) (name /) (tstamps /)
      (title_block
        (title)
        (company)
        (rev)
        (date)
        (source isoSPI.sch)
        (comment (number 1) (value ""))
        (comment (number 2) (value ""))
        (comment (number 3) (value ""))
        (comment (number 4) (value "")))))
  (components
    (comp (ref U1)
      (value LTC6811)
      (libsource (lib Pack_Controller) (part LTC6811))
      (sheetpath (names /) (tstamps /))
      (tstamp 5C4202B7))
    (comp (ref R1)
      (value R)
      (libsource (lib device) (part R))
      (sheetpath (names /) (tstamps /))
      (tstamp 5C420326))
    (comp (ref R4)
      (value R)
      (libsource (lib device) (part R))
      (sheetpath (names /) (tstamps /))
      (tstamp 5C4203D7))
    (comp (ref C1)
      (value C)
      (libsource (lib device) (part C))
      (sheetpath (names /) (tstamps /))
      (tstamp 5C42043E))
    (comp (ref R3)
      (value R)
      (libsource (lib device) (part R))
      (sheetpath (names /) (tstamps /))
      (tstamp 5C4204F2))
    (comp (ref R6)
      (value R)
      (libsource (lib device) (part R))
      (sheetpath (names /) (tstamps /))
      (tstamp 5C42054B))
    (comp (ref C2)
      (value C)
      (libsource (lib device) (part C))
      (sheetpath (names /) (tstamps /))
      (tstamp 5C4205FB))
    (comp (ref R2)
      (value R)
      (libsource (lib device) (part R))
      (sheetpath (names /) (tstamps /))
      (tstamp 5C42092E))
    (comp (ref R5)
      (value R)
      (libsource (lib device) (part R))
      (sheetpath (names /) (tstamps /))
      (tstamp 5C420974))
    (comp (ref U2)
      (value H1102NL)
      (libsource (lib Pack_Controller) (part H1102NL))
      (sheetpath (names /) (tstamps /))
      (tstamp 5C4224AA))
    (comp (ref C3)
      (value 10n)
      (libsource (lib device) (part C))
      (sheetpath (names /) (tstamps /))
      (tstamp 5C4229DA))
    (comp (ref C4)
      (value 10n)
      (libsource (lib device) (part C))
      (sheetpath (names /) (tstamps /))
      (tstamp 5C422B02)))
  (libparts
    (libpart (lib device) (part C)
      (footprints
        (fp C_*))
      (fields
        (field (name Reference) C)
        (field (name Value) C))
      (pins
        (pin (num 1) (name ~) (type passive))
        (pin (num 2) (name ~) (type passive))))
    (libpart (lib Pack_Controller) (part H1102NL)
      (fields
        (field (name Reference) U)
        (field (name Value) H1102NL))
      (pins
        (pin (num 1) (name TD+) (type input))
        (pin (num 2) (name CTD) (type input))
        (pin (num 3) (name TD-) (type input))
        (pin (num 6) (name RD+) (type input))
        (pin (num 7) (name CRD) (type input))
        (pin (num 8) (name RD-) (type input))
        (pin (num 9) (name RX-) (type input))
        (pin (num 10) (name CRX) (type input))
        (pin (num 11) (name RX+) (type input))
        (pin (num 14) (name TX-) (type input))
        (pin (num 15) (name CTX) (type input))
        (pin (num 16) (name TX+) (type input))))
    (libpart (lib Pack_Controller) (part LTC6811)
      (fields
        (field (name Reference) U)
        (field (name Value) LTC6811))
      (pins
        (pin (num 1) (name V+) (type input))
        (pin (num 2) (name C12) (type input))
        (pin (num 3) (name S12) (type input))
        (pin (num 4) (name C11) (type input))
        (pin (num 5) (name S11) (type input))
        (pin (num 6) (name C10) (type input))
        (pin (num 7) (name S10) (type input))
        (pin (num 8) (name C9) (type input))
        (pin (num 9) (name S9) (type input))
        (pin (num 10) (name C8) (type input))
        (pin (num 11) (name S8) (type input))
        (pin (num 12) (name C7) (type input))
        (pin (num 13) (name S7) (type input))
        (pin (num 14) (name C6) (type input))
        (pin (num 15) (name S6) (type input))
        (pin (num 16) (name C5) (type input))
        (pin (num 17) (name S5) (type input))
        (pin (num 18) (name C4) (type input))
        (pin (num 19) (name S4) (type input))
        (pin (num 20) (name C3) (type input))
        (pin (num 21) (name S3) (type input))
        (pin (num 22) (name C2) (type input))
        (pin (num 23) (name S2) (type input))
        (pin (num 24) (name C1) (type input))
        (pin (num 25) (name S1) (type input))
        (pin (num 26) (name C0) (type input))
        (pin (num 27) (name GPIO1) (type input))
        (pin (num 28) (name GPIO2) (type input))
        (pin (num 29) (name GPIO3) (type input))
        (pin (num 30) (name V-) (type input))
        (pin (num 31) (name V-) (type input))
        (pin (num 32) (name GPIO4) (type input))
        (pin (num 33) (name GPIO5) (type input))
        (pin (num 34) (name Vref2) (type input))
        (pin (num 35) (name Vref1) (type input))
        (pin (num 36) (name DTEN) (type input))
        (pin (num 37) (name Vreg~) (type input))
        (pin (num 38) (name DRIVE~) (type input))
        (pin (num 39) (name WDT~) (type input))
        (pin (num 40) (name ISOMD) (type input))
        (pin (num 41) (name "CSB(IMA)") (type input))
        (pin (num 42) (name "SCK(IPA)") (type input))
        (pin (num 43) (name SDI) (type input))
        (pin (num 44) (name SDO) (type input))
        (pin (num 45) (name IBIAS) (type input))
        (pin (num 46) (name ICMP) (type input))
        (pin (num 47) (name IMB) (type input))
        (pin (num 48) (name IPB) (type input))))
    (libpart (lib device) (part R)
      (footprints
        (fp R_*))
      (fields
        (field (name Reference) R)
        (field (name Value) R))
      (pins
        (pin (num 1) (name ~) (type passive))
        (pin (num 2) (name ~) (type passive)))))
  (libraries
    (library (logical Pack_Controller)
      (uri C:\Users\peus\Documents\Bachelorarbeit\thesis\KiCad\Pack_Controller.lib))
    (library (logical device)
      (uri "C:\\Program Files\\KiCad\\share\\kicad\\library\\device.lib")))
  (nets
    (net (code 1) (name "Net-(R2-Pad1)")
      (node (ref R2) (pin 1))
      (node (ref U1) (pin 46))
      (node (ref R5) (pin 2)))
    (net (code 2) (name +5V)
      (node (ref U1) (pin 37))
      (node (ref U1) (pin 40)))
    (net (code 3) (name "Net-(R2-Pad2)")
      (node (ref U1) (pin 45))
      (node (ref R2) (pin 2)))
    (net (code 4) (name GND)
      (node (ref C3) (pin 2))
      (node (ref C4) (pin 2))
      (node (ref U1) (pin 31))
      (node (ref U1) (pin 30))
      (node (ref C2) (pin 2))
      (node (ref C1) (pin 2))
      (node (ref R5) (pin 1)))
    (net (code 5) (name "Net-(C3-Pad1)")
      (node (ref C3) (pin 1))
      (node (ref U2) (pin 2)))
    (net (code 6) (name isoSPI_A_input_iso-)
      (node (ref U2) (pin 3))
      (node (ref U1) (pin 41))
      (node (ref R6) (pin 1)))
    (net (code 7) (name "Net-(U2-Pad15)")
      (node (ref U2) (pin 15)))
    (net (code 8) (name "Net-(U2-Pad10)")
      (node (ref U2) (pin 10)))
    (net (code 9) (name "Net-(C4-Pad1)")
      (node (ref C4) (pin 1))
      (node (ref U2) (pin 7)))
    (net (code 10) (name isoSPI_B_output-)
      (node (ref U2) (pin 9)))
    (net (code 11) (name isoSPI_B_output+)
      (node (ref U2) (pin 11)))
    (net (code 12) (name isoSPI_A_input-)
      (node (ref U2) (pin 14)))
    (net (code 13) (name isoSPI_A_input+)
      (node (ref U2) (pin 16)))
    (net (code 14) (name "Net-(U1-Pad15)")
      (node (ref U1) (pin 15)))
    (net (code 15) (name isoSPI_A_input_iso+)
      (node (ref R3) (pin 2))
      (node (ref U2) (pin 1))
      (node (ref U1) (pin 42)))
    (net (code 16) (name "Net-(U1-Pad13)")
      (node (ref U1) (pin 13)))
    (net (code 17) (name "Net-(U1-Pad23)")
      (node (ref U1) (pin 23)))
    (net (code 18) (name "Net-(U1-Pad33)")
      (node (ref U1) (pin 33)))
    (net (code 19) (name "Net-(U1-Pad43)")
      (node (ref U1) (pin 43)))
    (net (code 20) (name "Net-(U1-Pad14)")
      (node (ref U1) (pin 14)))
    (net (code 21) (name "Net-(U1-Pad24)")
      (node (ref U1) (pin 24)))
    (net (code 22) (name "Net-(U1-Pad34)")
      (node (ref U1) (pin 34)))
    (net (code 23) (name "Net-(U1-Pad44)")
      (node (ref U1) (pin 44)))
    (net (code 24) (name "Net-(U1-Pad32)")
      (node (ref U1) (pin 32)))
    (net (code 25) (name "Net-(U1-Pad25)")
      (node (ref U1) (pin 25)))
    (net (code 26) (name "Net-(U1-Pad35)")
      (node (ref U1) (pin 35)))
    (net (code 27) (name "Net-(U1-Pad16)")
      (node (ref U1) (pin 16)))
    (net (code 28) (name "Net-(U1-Pad26)")
      (node (ref U1) (pin 26)))
    (net (code 29) (name "Net-(U1-Pad36)")
      (node (ref U1) (pin 36)))
    (net (code 30) (name "Net-(U1-Pad17)")
      (node (ref U1) (pin 17)))
    (net (code 31) (name "Net-(U1-Pad20)")
      (node (ref U1) (pin 20)))
    (net (code 32) (name "Net-(U1-Pad2)")
      (node (ref U1) (pin 2)))
    (net (code 33) (name "Net-(U1-Pad3)")
      (node (ref U1) (pin 3)))
    (net (code 34) (name "Net-(U1-Pad4)")
      (node (ref U1) (pin 4)))
    (net (code 35) (name "Net-(U1-Pad5)")
      (node (ref U1) (pin 5)))
    (net (code 36) (name "Net-(U1-Pad6)")
      (node (ref U1) (pin 6)))
    (net (code 37) (name "Net-(U1-Pad7)")
      (node (ref U1) (pin 7)))
    (net (code 38) (name "Net-(U1-Pad8)")
      (node (ref U1) (pin 8)))
    (net (code 39) (name "Net-(U1-Pad9)")
      (node (ref U1) (pin 9)))
    (net (code 40) (name "Net-(U1-Pad10)")
      (node (ref U1) (pin 10)))
    (net (code 41) (name "Net-(U1-Pad27)")
      (node (ref U1) (pin 27)))
    (net (code 42) (name "Net-(U1-Pad11)")
      (node (ref U1) (pin 11)))
    (net (code 43) (name "Net-(U1-Pad21)")
      (node (ref U1) (pin 21)))
    (net (code 44) (name "Net-(U1-Pad12)")
      (node (ref U1) (pin 12)))
    (net (code 45) (name "Net-(U1-Pad22)")
      (node (ref U1) (pin 22)))
    (net (code 46) (name "Net-(C1-Pad1)")
      (node (ref R4) (pin 2))
      (node (ref R1) (pin 1))
      (node (ref C1) (pin 1)))
    (net (code 47) (name "Net-(C2-Pad1)")
      (node (ref C2) (pin 1))
      (node (ref R6) (pin 2))
      (node (ref R3) (pin 1)))
    (net (code 48) (name "Net-(U1-Pad39)")
      (node (ref U1) (pin 39)))
    (net (code 49) (name isoSPI_B_output_iso-)
      (node (ref U1) (pin 47))
      (node (ref R4) (pin 1))
      (node (ref U2) (pin 8)))
    (net (code 50) (name "Net-(U1-Pad18)")
      (node (ref U1) (pin 18)))
    (net (code 51) (name "Net-(U1-Pad28)")
      (node (ref U1) (pin 28)))
    (net (code 52) (name "Net-(U1-Pad38)")
      (node (ref U1) (pin 38)))
    (net (code 53) (name "Net-(U1-Pad19)")
      (node (ref U1) (pin 19)))
    (net (code 54) (name "Net-(U1-Pad29)")
      (node (ref U1) (pin 29)))
    (net (code 55) (name "Net-(U1-Pad1)")
      (node (ref U1) (pin 1)))
    (net (code 56) (name isoSPI_B_output_iso+)
      (node (ref U2) (pin 6))
      (node (ref R1) (pin 2))
      (node (ref U1) (pin 48)))))