EESchema Schematic File Version 2
LIBS:power
LIBS:device
LIBS:switches
LIBS:relays
LIBS:motors
LIBS:transistors
LIBS:conn
LIBS:linear
LIBS:regul
LIBS:74xx
LIBS:cmos4000
LIBS:adc-dac
LIBS:memory
LIBS:xilinx
LIBS:microcontrollers
LIBS:dsp
LIBS:microchip
LIBS:analog_switches
LIBS:motorola
LIBS:texas
LIBS:intel
LIBS:audio
LIBS:interface
LIBS:digital-audio
LIBS:philips
LIBS:display
LIBS:cypress
LIBS:siliconi
LIBS:opto
LIBS:atmel
LIBS:contrib
LIBS:valves
LIBS:Pack_Controller
EELAYER 25 0
EELAYER END
$Descr A4 11693 8268
encoding utf-8
Sheet 1 1
Title ""
Date ""
Rev ""
Comp ""
Comment1 ""
Comment2 ""
Comment3 ""
Comment4 ""
$EndDescr
$Comp
L LTC6811 U1
U 1 1 5C4202B7
P 2000 3900
F 0 "U1" H 2000 2600 60  0000 C CNN
F 1 "LTC6811" H 1950 5250 60  0000 C CNN
F 2 "" H 2000 3900 60  0001 C CNN
F 3 "" H 2000 3900 60  0001 C CNN
	1    2000 3900
	1    0    0    -1  
$EndComp
$Comp
L R R1
U 1 1 5C420326
P 2950 2250
F 0 "R1" V 3030 2250 50  0000 C CNN
F 1 "51" V 2950 2250 50  0000 C CNN
F 2 "" V 2880 2250 50  0001 C CNN
F 3 "" H 2950 2250 50  0001 C CNN
	1    2950 2250
	0    1    1    0   
$EndComp
$Comp
L R R4
U 1 1 5C4203D7
P 3450 2250
F 0 "R4" V 3530 2250 50  0000 C CNN
F 1 "51" V 3450 2250 50  0000 C CNN
F 2 "" V 3380 2250 50  0001 C CNN
F 3 "" H 3450 2250 50  0001 C CNN
	1    3450 2250
	0    1    1    0   
$EndComp
$Comp
L C C1
U 1 1 5C42043E
P 3200 2500
F 0 "C1" H 3225 2600 50  0000 L CNN
F 1 "10n" H 3225 2400 50  0000 L CNN
F 2 "" H 3238 2350 50  0001 C CNN
F 3 "" H 3200 2500 50  0001 C CNN
	1    3200 2500
	1    0    0    -1  
$EndComp
Wire Wire Line
	2800 2750 2600 2750
Wire Wire Line
	2600 2850 4400 2850
Wire Wire Line
	3100 2250 3300 2250
Wire Wire Line
	3200 2350 3200 2250
Connection ~ 3200 2250
$Comp
L GND #PWR3
U 1 1 5C4204B0
P 3200 2650
F 0 "#PWR3" H 3200 2400 50  0001 C CNN
F 1 "GND" H 3200 2500 50  0000 C CNN
F 2 "" H 3200 2650 50  0001 C CNN
F 3 "" H 3200 2650 50  0001 C CNN
	1    3200 2650
	1    0    0    -1  
$EndComp
$Comp
L R R3
U 1 1 5C4204F2
P 2950 3350
F 0 "R3" V 3030 3350 50  0000 C CNN
F 1 "51" V 2950 3350 50  0000 C CNN
F 2 "" V 2880 3350 50  0001 C CNN
F 3 "" H 2950 3350 50  0001 C CNN
	1    2950 3350
	0    1    1    0   
$EndComp
$Comp
L R R6
U 1 1 5C42054B
P 3450 3350
F 0 "R6" V 3530 3350 50  0000 C CNN
F 1 "51" V 3450 3350 50  0000 C CNN
F 2 "" V 3380 3350 50  0001 C CNN
F 3 "" H 3450 3350 50  0001 C CNN
	1    3450 3350
	0    1    1    0   
$EndComp
Wire Wire Line
	3300 3350 3100 3350
Wire Wire Line
	2600 3350 2800 3350
$Comp
L C C2
U 1 1 5C4205FB
P 3200 3600
F 0 "C2" H 3225 3700 50  0000 L CNN
F 1 "10n" H 3225 3500 50  0000 L CNN
F 2 "" H 3238 3450 50  0001 C CNN
F 3 "" H 3200 3600 50  0001 C CNN
	1    3200 3600
	1    0    0    -1  
$EndComp
$Comp
L GND #PWR4
U 1 1 5C420602
P 3200 3750
F 0 "#PWR4" H 3200 3500 50  0001 C CNN
F 1 "GND" H 3200 3600 50  0000 C CNN
F 2 "" H 3200 3750 50  0001 C CNN
F 3 "" H 3200 3750 50  0001 C CNN
	1    3200 3750
	1    0    0    -1  
$EndComp
Wire Wire Line
	3200 3450 3200 3350
Connection ~ 3200 3350
Wire Wire Line
	3600 3350 4400 3350
Wire Wire Line
	2800 2150 2800 2750
Connection ~ 2800 2250
Wire Wire Line
	3600 2250 3600 2850
Connection ~ 3600 2850
Wire Wire Line
	2600 3450 2800 3450
Wire Wire Line
	2800 3450 2800 4050
Wire Wire Line
	2800 4050 3600 4050
Wire Wire Line
	3600 4050 3600 3350
Wire Wire Line
	2800 2150 3700 2150
Wire Wire Line
	3700 2150 3700 2750
Wire Wire Line
	2600 3850 2700 3850
Wire Wire Line
	2700 3550 2700 4250
Wire Wire Line
	2700 4250 3000 4250
$Comp
L +5V #PWR1
U 1 1 5C42086B
P 3000 4250
F 0 "#PWR1" H 3000 4100 50  0001 C CNN
F 1 "+5V" H 3000 4390 50  0000 C CNN
F 2 "" H 3000 4250 50  0001 C CNN
F 3 "" H 3000 4250 50  0001 C CNN
	1    3000 4250
	0    1    1    0   
$EndComp
Wire Wire Line
	2600 4450 3100 4450
Wire Wire Line
	3100 4450 3100 4650
Wire Wire Line
	3100 4550 2600 4550
Connection ~ 3100 4550
$Comp
L GND #PWR2
U 1 1 5C4208DF
P 3100 4650
F 0 "#PWR2" H 3100 4400 50  0001 C CNN
F 1 "GND" H 3100 4500 50  0000 C CNN
F 2 "" H 3100 4650 50  0001 C CNN
F 3 "" H 3100 4650 50  0001 C CNN
	1    3100 4650
	1    0    0    -1  
$EndComp
Wire Wire Line
	2600 3550 2700 3550
Connection ~ 2700 3850
$Comp
L R R2
U 1 1 5C42092E
P 2950 3050
F 0 "R2" V 3030 3050 50  0000 C CNN
F 1 "1" V 2950 3050 50  0000 C CNN
F 2 "" V 2880 3050 50  0001 C CNN
F 3 "" H 2950 3050 50  0001 C CNN
	1    2950 3050
	0    1    1    0   
$EndComp
$Comp
L R R5
U 1 1 5C420974
P 3450 3050
F 0 "R5" V 3530 3050 50  0000 C CNN
F 1 "1" V 3450 3050 50  0000 C CNN
F 2 "" V 3380 3050 50  0001 C CNN
F 3 "" H 3450 3050 50  0001 C CNN
	1    3450 3050
	0    1    1    0   
$EndComp
Wire Wire Line
	3300 3050 3100 3050
Wire Wire Line
	2800 3050 2600 3050
Wire Wire Line
	2600 2950 3200 2950
Wire Wire Line
	3200 2950 3200 3050
Connection ~ 3200 3050
Wire Wire Line
	3600 3050 3800 3050
$Comp
L GND #PWR5
U 1 1 5C420A79
P 3800 3050
F 0 "#PWR5" H 3800 2800 50  0001 C CNN
F 1 "GND" H 3800 2900 50  0000 C CNN
F 2 "" H 3800 3050 50  0001 C CNN
F 3 "" H 3800 3050 50  0001 C CNN
	1    3800 3050
	0    -1   -1   0   
$EndComp
Wire Wire Line
	2800 3350 2800 3250
Wire Wire Line
	2800 3250 4400 3250
Wire Wire Line
	3700 2750 4400 2750
$Comp
L H1102NL U2
U 1 1 5C4224AA
P 6500 4350
F 0 "U2" H 6500 3650 60  0000 C CNN
F 1 "H1102NL" H 6525 5000 60  0000 C CNN
F 2 "" H 6250 4350 60  0001 C CNN
F 3 "" H 6250 4350 60  0001 C CNN
	1    6500 4350
	1    0    0    -1  
$EndComp
Text GLabel 5400 3850 0    60   Input ~ 0
isoSPI_A_input_iso+
Text GLabel 5400 4250 0    60   Input ~ 0
isoSPI_A_input_iso-
Text GLabel 5400 4450 0    60   Input ~ 0
isoSPI_B_output_iso+
Text GLabel 5400 4850 0    60   Input ~ 0
isoSPI_B_output_iso-
Wire Wire Line
	5400 4050 5150 4050
Wire Wire Line
	5400 4650 5150 4650
$Comp
L GND #PWR7
U 1 1 5C4227E9
P 4650 4650
F 0 "#PWR7" H 4650 4400 50  0001 C CNN
F 1 "GND" H 4650 4500 50  0000 C CNN
F 2 "" H 4650 4650 50  0001 C CNN
F 3 "" H 4650 4650 50  0001 C CNN
	1    4650 4650
	0    1    1    0   
$EndComp
$Comp
L GND #PWR6
U 1 1 5C422862
P 4650 4050
F 0 "#PWR6" H 4650 3800 50  0001 C CNN
F 1 "GND" H 4650 3900 50  0000 C CNN
F 2 "" H 4650 4050 50  0001 C CNN
F 3 "" H 4650 4050 50  0001 C CNN
	1    4650 4050
	0    1    1    0   
$EndComp
$Comp
L C C3
U 1 1 5C4229DA
P 5000 4050
F 0 "C3" V 5100 4150 50  0000 L CNN
F 1 "10n" V 5100 3850 50  0000 L CNN
F 2 "" H 5038 3900 50  0001 C CNN
F 3 "" H 5000 4050 50  0001 C CNN
	1    5000 4050
	0    1    1    0   
$EndComp
Wire Wire Line
	4650 4050 4850 4050
$Comp
L C C4
U 1 1 5C422B02
P 5000 4650
F 0 "C4" V 5100 4750 50  0000 L CNN
F 1 "10n" V 5100 4450 50  0000 L CNN
F 2 "" H 5038 4500 50  0001 C CNN
F 3 "" H 5000 4650 50  0001 C CNN
	1    5000 4650
	0    1    1    0   
$EndComp
Wire Wire Line
	4850 4650 4650 4650
Text GLabel 7650 3850 2    60   Input ~ 0
isoSPI_A_input+
Text GLabel 7650 4250 2    60   Input ~ 0
isoSPI_A_input-
Text GLabel 7650 4450 2    60   Input ~ 0
isoSPI_B_output+
Text GLabel 7650 4850 2    60   Input ~ 0
isoSPI_B_output-
Text GLabel 4400 2750 2    60   Input ~ 0
isoSPI_B_output_iso+
Text GLabel 4400 2850 2    60   Input ~ 0
isoSPI_B_output_iso-
Text GLabel 4400 3250 2    60   Input ~ 0
isoSPI_A_input_iso+
Text GLabel 4400 3350 2    60   Input ~ 0
isoSPI_A_input_iso-
NoConn ~ 7650 4050
NoConn ~ 7650 4650
$EndSCHEMATC
