This is BibTeX, Version 0.99dThe top-level auxiliary file: Main.tex.aux
I couldn't open database file my_literature.bib
---line 2 of file Main.tex.aux
 : \bibdata{my_literature
 :                       }
I'm skipping whatever remains of this command
The style file: alphadin.bst
I found no \citation commands---while reading file Main.tex.aux
I found no database files---while reading file Main.tex.aux
(There were 3 error messages)
