\relax 
\@writefile{toc}{\contentsline {section}{\numberline {1}Einleitung}{2}}
\@writefile{toc}{\contentsline {subsection}{\numberline {1.1}Motivation}{2}}
\@writefile{toc}{\contentsline {subsection}{\numberline {1.2}Abgrenzung}{2}}
\@writefile{toc}{\contentsline {section}{\numberline {2}Theoretische Betrachtungen}{3}}
