\relax 
\catcode `"\active 
\babel@aux{ngerman}{}
\@writefile{toc}{\contentsline {section}{\numberline {1}Zielsetzung der Arbeit}{3}}
\@writefile{toc}{\contentsline {subsection}{\numberline {1.1}Batterie-Pack Monitor}{3}}
\@writefile{toc}{\contentsline {subsection}{\numberline {1.2}Multicell Batterie Monitor LTC6811}{3}}
\@writefile{toc}{\contentsline {subsection}{\numberline {1.3}Kommunikation}{3}}
\@writefile{lof}{\contentsline {figure}{\numberline {1}{\ignorespaces SPI Signal und isoSPI Impulse, f\IeC {\"u}r Master MSTR = 1.}}{4}}
\@writefile{toc}{\contentsline {section}{\numberline {2}Signalfluss}{5}}
\@writefile{lof}{\contentsline {figure}{\numberline {2}{\ignorespaces Signalflussdiagramm}}{5}}
\newlabel{Signalfluss}{{2}{5}}
\@writefile{toc}{\contentsline {subsection}{\numberline {2.1}Schnittstellen}{5}}
\@writefile{toc}{\contentsline {subsection}{\numberline {2.2}Datentransfer}{5}}
\@writefile{lot}{\contentsline {table}{\numberline {1}{\ignorespaces Broadcast Schreibbefehl}}{5}}
\newlabel{Datenpaket}{{1}{5}}
\@writefile{toc}{\contentsline {section}{\numberline {3}LTC6811 Peripherie}{6}}
\@writefile{toc}{\contentsline {subsection}{\numberline {3.1}Spannungmessung}{6}}
\@writefile{lof}{\contentsline {figure}{\numberline {3}{\ignorespaces ADC Spannungsmessung Aufbau}}{6}}
\newlabel{ADCConwention}{{3}{6}}
\@writefile{lof}{\contentsline {figure}{\numberline {4}{\ignorespaces Timing f\IeC {\"u}r ADCV Befehl Messung alle 12 Batteriezellen}}{6}}
\newlabel{Measurement_von_ADC}{{4}{6}}
\@writefile{toc}{\contentsline {subsection}{\numberline {3.2}MUX und GPIO1}{6}}
\@writefile{lof}{\contentsline {figure}{\numberline {5}{\ignorespaces MUX f\IeC {\"u}r Temperatur Messung und Balanciere Feedback}}{7}}
\newlabel{MUX Pic}{{5}{7}}
\@writefile{lof}{\contentsline {figure}{\numberline {6}{\ignorespaces GPIO Expander f\IeC {\"u}r MUX Ansteuerung}}{7}}
\newlabel{GPIO Expander Pic}{{6}{7}}
\@writefile{toc}{\contentsline {subsection}{\numberline {3.3}Balancing und Balancing Feedback}{7}}
\@writefile{lof}{\contentsline {figure}{\numberline {7}{\ignorespaces Batterie Balancieren und Balanciere-Feedback}}{8}}
\newlabel{Batterie Ballancing}{{7}{8}}
\@writefile{toc}{\contentsline {subsection}{\numberline {3.4}Temperaturmessung der Batteriezelle}{8}}
\newlabel{Temperaturberechnung}{{3.4.1}{8}}
