\relax 
\catcode `"\active 
\babel@aux{ngerman}{}
\@writefile{toc}{\contentsline {section}{\numberline {1}Zielsetzung des Arbeits}{2}}
\@writefile{toc}{\contentsline {subsection}{\numberline {1.1}Batterie-Pack Monitor}{2}}
\@writefile{toc}{\contentsline {subsection}{\numberline {1.2}Multicell Batterie Monitor LTC\IeC {\textregistered }6811}{2}}
\@writefile{toc}{\contentsline {subsection}{\numberline {1.3}Kommunikation}{2}}
