This is BibTeX, Version 0.99dThe top-level auxiliary file: Bericht_KonstantinGalizdra_Meilenstein_Zwei_Balancing.aux
I couldn't open database file my_literature.bib
---line 39 of file Bericht_KonstantinGalizdra_Meilenstein_Zwei_Balancing.aux
 : \bibdata{my_literature
 :                       }
I'm skipping whatever remains of this command
The style file: alphadin.bst
I found no \citation commands---while reading file Bericht_KonstantinGalizdra_Meilenstein_Zwei_Balancing.aux
I found no database files---while reading file Bericht_KonstantinGalizdra_Meilenstein_Zwei_Balancing.aux
(There were 3 error messages)
