\relax 
\@writefile{toc}{\contentsline {chapter}{\numberline {1}Untersuchung von Balancingwiderst\"ande}{3}}
\@writefile{lof}{\addvspace {10\p@ }}
\@writefile{lot}{\addvspace {10\p@ }}
\@writefile{lof}{\contentsline {figure}{\numberline {1.1}{\ignorespaces Widerstandsvergleich}}{4}}
\newlabel{img:Widerstandsvergleich}{{1.1}{4}}
\@writefile{toc}{\contentsline {section}{\numberline {1.1}Allgemeine Messungen}{4}}
\@writefile{toc}{\contentsline {subsection}{\numberline {1.1.1}Balancing Theorie}{5}}
\@writefile{toc}{\contentsline {section}{\numberline {1.2}Widerstandsanpassung an Minimalladestrom}{5}}
\@writefile{toc}{\contentsline {section}{\numberline {1.3}W\"armebilder von Balancing-Widerst\"ande im Batteriepack}{5}}
\@writefile{toc}{\contentsline {subsection}{\numberline {1.3.1}Balancing-Vorgang einer Batteriezelle}{6}}
\@writefile{lof}{\contentsline {figure}{\numberline {1.2}{\ignorespaces W\"armeausbreitung w\"ahrend Balancing-Vorgang einer Batteriezelle}}{6}}
\newlabel{img:Warmebild_a}{{1.2}{6}}
\@writefile{toc}{\contentsline {subsection}{\numberline {1.3.2}Balancing-Vorgang alle Batteriezellen}{6}}
\@writefile{lof}{\contentsline {figure}{\numberline {1.3}{\ignorespaces W\"armeausbreitung w\"ahrend Balancing-Vorgang alle Batteriezelle}}{6}}
\newlabel{img:Warmebild_B}{{1.3}{6}}
\@writefile{toc}{\contentsline {section}{\numberline {1.4}Testaufbau f\"ur den Temperaturausbreitungsmessung}{7}}
\newlabel{sec:Testaufbau f\"ur den Temperaturausbreitungsmessung}{{1.4}{7}}
\@writefile{lof}{\contentsline {figure}{\numberline {1.4}{\ignorespaces Sensoren Positionierung im Batteriepack (Sicht von Oben)}}{7}}
\newlabel{img:Sensoren_Oben}{{1.4}{7}}
\@writefile{lof}{\contentsline {figure}{\numberline {1.5}{\ignorespaces Sensoren Positionierung im Batteriepack (Sicht von der Seite)}}{8}}
\newlabel{img:Sensoren_Seite}{{1.5}{8}}
\@writefile{toc}{\contentsline {section}{\numberline {1.5}Tests}{8}}
\@writefile{toc}{\contentsline {subsection}{\numberline {1.5.1}Test A}{9}}
\@writefile{lof}{\contentsline {figure}{\numberline {1.6}{\ignorespaces Widerstandsvergleich}}{9}}
\newlabel{img:WiderstanTestA}{{1.6}{9}}
\@writefile{lof}{\contentsline {figure}{\numberline {1.7}{\ignorespaces Kompletter Batteriepack mit Sensoren}}{9}}
\newlabel{img:Pack_TestA}{{1.7}{9}}
\@writefile{toc}{\contentsline {subsection}{\numberline {1.5.2}Test B}{10}}
\@writefile{lof}{\contentsline {figure}{\numberline {1.8}{\ignorespaces Widerstandsvergleich}}{10}}
\newlabel{img:WiderstanTestB}{{1.8}{10}}
\@writefile{lof}{\contentsline {figure}{\numberline {1.9}{\ignorespaces Gelochter-Deckel}}{10}}
\newlabel{img:Gelochterdeckel}{{1.9}{10}}
\@writefile{toc}{\contentsline {subsection}{\numberline {1.5.3}Test C}{11}}
\@writefile{lof}{\contentsline {figure}{\numberline {1.10}{\ignorespaces Widerstandsvergleich}}{11}}
\newlabel{img:WiderstanTestC}{{1.10}{11}}
\@writefile{lof}{\contentsline {figure}{\numberline {1.11}{\ignorespaces Isolator-Schicht Styropor}}{11}}
\newlabel{img:Styropor}{{1.11}{11}}
\bibdata{my_literature}
\@writefile{toc}{\contentsline {section}{\numberline {1.6}Probleme und L\"osungen}{12}}
\@writefile{toc}{\contentsline {subsection}{\numberline {1.6.1}N\"achste Schritte}{12}}
\@writefile{toc}{\contentsline {section}{\numberline {1.7}Fazit}{12}}
\@writefile{toc}{\contentsline {chapter}{Literatur}{12}}
\bibstyle{alphadin}
