<?xml version="1.0" encoding="UTF-8" standalone="no"?>
<!-- Created with Inkscape (http://www.inkscape.org/) -->

<svg
   xmlns:ns0="http://www.iki.fi/pav/software/textext/"
   xmlns:dc="http://purl.org/dc/elements/1.1/"
   xmlns:cc="http://creativecommons.org/ns#"
   xmlns:rdf="http://www.w3.org/1999/02/22-rdf-syntax-ns#"
   xmlns:svg="http://www.w3.org/2000/svg"
   xmlns="http://www.w3.org/2000/svg"
   xmlns:sodipodi="http://sodipodi.sourceforge.net/DTD/sodipodi-0.dtd"
   xmlns:inkscape="http://www.inkscape.org/namespaces/inkscape"
   width="140mm"
   height="50mm"
   viewBox="0 0 140 50"
   version="1.1"
   id="svg8"
   inkscape:version="0.92.4 (5da689c313, 2019-01-14)"
   sodipodi:docname="Passiver_Balancing.svg">
  <defs
     id="defs2">
    <marker
       inkscape:stockid="arrowVoltageStart"
       style="overflow:visible"
       refY="0"
       refX="0"
       orient="auto"
       id="arrowVoltageStart">
      <path
         id="path32"
         transform="matrix(0.25,0,0,0.25,1.823125,0)"
         style="fill:#217b21;fill-rule:evenodd;stroke:#217b21;stroke-width:1"
         d="M 0,0 5,-5 -12.5,0 5,5 Z"
         inkscape:connector-curvature="0" />
    </marker>
    <marker
       inkscape:stockid="arrowVoltageEnd"
       style="overflow:visible"
       refY="0"
       refX="0"
       orient="auto"
       id="arrowVoltageEnd">
      <path
         id="path35"
         transform="matrix(-0.25,0,0,-0.25,-1.823125,0)"
         style="fill:#217b21;fill-rule:evenodd;stroke:#217b21;stroke-width:1"
         d="M 0,0 5,-5 -12.5,0 5,5 Z"
         inkscape:connector-curvature="0" />
    </marker>
    <marker
       inkscape:stockid="arrowCurrentStart"
       style="overflow:visible"
       refY="0"
       refX="0"
       orient="auto"
       id="arrowCurrentStart">
      <path
         id="path38"
         transform="matrix(0.25,0,0,0.25,1.823125,0)"
         style="fill:#ff0000;fill-rule:evenodd;stroke:#ff0000;stroke-width:1"
         d="M 0,0 5,-5 -12.5,0 5,5 Z"
         inkscape:connector-curvature="0" />
    </marker>
    <marker
       inkscape:stockid="arrowCurrentEnd"
       style="overflow:visible"
       refY="0"
       refX="0"
       orient="auto"
       id="arrowCurrentEnd">
      <path
         id="path41"
         transform="matrix(-0.25,0,0,-0.25,-1.823125,0)"
         style="fill:#ff0000;fill-rule:evenodd;stroke:#ff0000;stroke-width:1"
         d="M 0,0 5,-5 -12.5,0 5,5 Z"
         inkscape:connector-curvature="0" />
    </marker>
    <marker
       inkscape:stockid="arrowCurrentEnd"
       style="overflow:visible"
       refY="0"
       refX="0"
       orient="auto"
       id="arrowCurrentEnd-3">
      <path
         inkscape:connector-curvature="0"
         id="path41-6"
         transform="matrix(-0.25,0,0,-0.25,-1.823125,0)"
         style="fill:#ff0000;fill-rule:evenodd;stroke:#ff0000;stroke-width:1"
         d="M 0,0 5,-5 -12.5,0 5,5 Z" />
    </marker>
    <marker
       inkscape:stockid="arrowCurrentEnd"
       style="overflow:visible"
       refY="0"
       refX="0"
       orient="auto"
       id="arrowCurrentEnd-3-2">
      <path
         inkscape:connector-curvature="0"
         id="path41-6-0"
         transform="matrix(-0.25,0,0,-0.25,-1.823125,0)"
         style="fill:#ff0000;fill-rule:evenodd;stroke:#ff0000;stroke-width:1"
         d="M 0,0 5,-5 -12.5,0 5,5 Z" />
    </marker>
    <marker
       inkscape:stockid="MOSArrow"
       style="overflow:visible"
       refY="0"
       refX="0"
       orient="auto"
       id="MOSArrow">
      <path
         id="path2834"
         style="fill:#000000;fill-rule:evenodd;stroke:#000000;stroke-width:0.60000002"
         d="M -0.3,0 -2.7,1 V -1 Z"
         inkscape:connector-curvature="0" />
    </marker>
  </defs>
  <sodipodi:namedview
     id="base"
     pagecolor="#ffffff"
     bordercolor="#666666"
     borderopacity="1.0"
     inkscape:pageopacity="0.0"
     inkscape:pageshadow="2"
     inkscape:zoom="1.4"
     inkscape:cx="260.51985"
     inkscape:cy="63.994855"
     inkscape:document-units="mm"
     inkscape:current-layer="g2568-7-2"
     showgrid="false"
     inkscape:window-width="1440"
     inkscape:window-height="791"
     inkscape:window-x="0"
     inkscape:window-y="31"
     inkscape:window-maximized="1" />
  <metadata
     id="metadata5">
    <rdf:RDF>
      <cc:Work
         rdf:about="">
        <dc:format>image/svg+xml</dc:format>
        <dc:type
           rdf:resource="http://purl.org/dc/dcmitype/StillImage" />
        <dc:title />
      </cc:Work>
    </rdf:RDF>
  </metadata>
  <g
     inkscape:label="Ebene 1"
     inkscape:groupmode="layer"
     id="layer1"
     transform="translate(0,-247)">
    <g
       id="g1380"
       transform="matrix(-0.30165117,0,0,-0.30165117,88.700195,280.48271)"
       inkscape:label="MOSFET">
      <g
         id="g1378"
         transform="rotate(90,99,32.5)"
         inkscape:label="arrowI">
        <path
           id="path1368"
           inkscape:label="none"
           style="fill:none;stroke:#ff0000;stroke-width:1;stroke-linecap:round;stroke-linejoin:round;stroke-dasharray:none;marker-end:url(#arrowCurrentEnd)"
           d="M 97.956203,32.5 H 90.456204"
           inkscape:connector-curvature="0" />
        <g
           transform="matrix(0,0.739645,0.739645,0,-261.87715,-140.9359)"
           ns0:preamble="/home/dykon/.config/inkscape/extensions/textextLib/CircuitSymbolsLatexPreamble.tex"
           ns0:text=" $i_d$"
           word-spacing="normal"
           letter-spacing="normal"
           font-size-adjust="none"
           font-stretch="normal"
           font-weight="normal"
           font-variant="normal"
           font-style="normal"
           stroke-miterlimit="10.433"
           xml:space="preserve"
           id="g1376"
           style="font-style:normal;font-variant:normal;font-weight:normal;font-stretch:normal;letter-spacing:normal;word-spacing:normal;text-anchor:start;fill:none;fill-opacity:1;fill-rule:evenodd;stroke:#000000;stroke-linecap:butt;stroke-linejoin:miter;stroke-miterlimit:10.43299961;stroke-dasharray:none;stroke-dashoffset:0;stroke-opacity:1">
<path
   id="path1370"
   style="fill:#ff0000;stroke-width:0"
   d="m 226.26,483.44 v 0.02 0.02 0.02 0.02 l -0.01,0.01 v 0.02 l -0.01,0.02 v 0.01 l -0.01,0.02 -0.01,0.01 v 0.02 l -0.01,0.01 -0.01,0.02 -0.01,0.01 -0.01,0.01 -0.01,0.02 -0.02,0.01 -0.01,0.01 -0.01,0.01 -0.02,0.01 -0.01,0.01 -0.02,0.01 -0.01,0.01 h -0.02 l -0.02,0.01 -0.02,0.01 H 226 225.98 l -0.02,0.01 h -0.02 -0.02 -0.02 c -0.27,0 -0.54,-0.26 -0.54,-0.53 0,-0.18 0.14,-0.35 0.38,-0.35 0.22,0 0.52,0.23 0.52,0.52 z"
   inkscape:connector-curvature="0" />
<path
   id="path1372"
   style="fill:#ff0000;stroke-width:0"
   d="m 225.51,479.71 0.01,0.02 0.01,0.03 0.01,0.02 0.01,0.02 v 0.03 l 0.01,0.02 0.01,0.01 0.01,0.02 v 0.02 l 0.01,0.02 0.01,0.01 v 0.02 l 0.01,0.01 v 0.02 l 0.01,0.02 0.01,0.03 0.01,0.03 0.01,0.02 v 0.01 l 0.01,0.02 0.01,0.01 v 0.02 l 0.01,0.02 0.01,0.02 v 0.01 l 0.01,0.03 0.01,0.02 0.01,0.02 0.01,0.03 c 0.07,0.19 0.12,0.33 0.12,0.52 0,0.45 -0.31,0.82 -0.81,0.82 -0.94,0 -1.32,-1.45 -1.32,-1.53 0,-0.1 0.1,-0.1 0.12,-0.1 0.1,0 0.11,0.02 0.16,0.17 0.27,0.94 0.67,1.24 1.01,1.24 0.08,0 0.25,0 0.25,-0.32 0,-0.21 -0.07,-0.42 -0.11,-0.52 -0.08,-0.26 -0.53,-1.41 -0.69,-1.84 -0.1,-0.25 -0.23,-0.58 -0.23,-0.79 0,-0.47 0.34,-0.81 0.82,-0.81 0.94,0 1.3,1.44 1.3,1.53 0,0.1 -0.09,0.1 -0.12,0.1 -0.1,0 -0.1,-0.03 -0.14,-0.18 -0.19,-0.63 -0.51,-1.24 -1.02,-1.24 -0.17,0 -0.24,0.1 -0.24,0.33 0,0.25 0.06,0.39 0.29,1 z"
   inkscape:connector-curvature="0" />
<path
   id="path1374"
   style="fill:#ff0000;stroke-width:0"
   d="m 230.86,480.36 v 0 0 0 0 0 0 0.01 0 0 0 0.01 0 0 l 0.01,0.01 v 0 0.01 0 0.01 0.01 0.01 h 0.01 v 0.01 0 0 0.01 0 0.01 0 0 0 0 0 0 0.01 0 0 0 0 0 0 c 0,0.03 -0.02,0.1 -0.11,0.1 -0.14,0 -0.72,-0.06 -0.89,-0.07 -0.06,-0.01 -0.16,-0.02 -0.16,-0.16 0,-0.1 0.1,-0.1 0.19,-0.1 0.33,0 0.33,-0.05 0.33,-0.1 0,-0.05 -0.01,-0.09 -0.03,-0.16 l -0.39,-1.58 c -0.15,0.23 -0.39,0.41 -0.73,0.41 v -0.2 c 0.49,0 0.63,-0.53 0.63,-0.6 0,-0.03 -0.02,-0.08 -0.02,-0.1 l -0.33,-1.3 c -0.05,-0.19 -0.21,-0.33 -0.36,-0.47 -0.06,-0.05 -0.34,-0.27 -0.64,-0.27 -0.26,0 -0.51,0.18 -0.51,0.67 0,0.37 0.2,1.13 0.36,1.41 0.32,0.56 0.68,0.66 0.87,0.66 v 0.2 c -0.89,0 -1.8,-0.98 -1.8,-1.98 0,-0.68 0.45,-1.16 1.06,-1.16 0.37,0 0.71,0.22 0.99,0.49 0.13,-0.42 0.54,-0.49 0.72,-0.49 0.25,0 0.43,0.15 0.55,0.37 0.16,0.27 0.25,0.67 0.25,0.69 0,0.1 -0.09,0.1 -0.12,0.1 -0.09,0 -0.1,-0.03 -0.15,-0.22 -0.08,-0.33 -0.22,-0.74 -0.51,-0.74 -0.18,0 -0.23,0.15 -0.23,0.34 0,0.13 0.01,0.19 0.03,0.28 z"
   inkscape:connector-curvature="0" />
</g>        <rect
           style="fill:#decd87;stroke:#000000;stroke-width:0.892048;stroke-linecap:round;stroke-linejoin:round;stroke-miterlimit:4;stroke-dasharray:none;stroke-opacity:1"
           id="rect1569"
           width="50.134747"
           height="27.660183"
           x="56.10725"
           y="-105.77936"
           transform="rotate(90)" />
        <path
           style="fill:none;stroke:#000000;stroke-width:0.85757232;stroke-linecap:butt;stroke-linejoin:miter;stroke-miterlimit:4;stroke-dasharray:none;stroke-opacity:1"
           d="M 92.500004,37.500003 V 56.534824"
           id="path1571"
           inkscape:connector-curvature="0" />
        <path
           style="fill:none;stroke:#000000;stroke-width:0.95096302;stroke-linecap:butt;stroke-linejoin:miter;stroke-miterlimit:4;stroke-dasharray:none;stroke-opacity:1"
           d="m 92.500396,106.09151 v 19.03482"
           id="path1573"
           inkscape:connector-curvature="0" />
      </g>
    </g>
    <text
       xml:space="preserve"
       style="font-style:normal;font-weight:normal;font-size:2.43072724px;line-height:1.10000002;font-family:sans-serif;letter-spacing:0px;word-spacing:0px;fill:#000000;fill-opacity:1;stroke:none;stroke-width:0.15192044"
       x="73.451454"
       y="272.17435"
       id="text1581"><tspan
         sodipodi:role="line"
         x="73.451454"
         y="272.17435"
         style="font-size:2.43072724px;line-height:1.10000002;text-align:center;text-anchor:middle;stroke-width:0.15192044"
         id="tspan1583">Balancing</tspan><tspan
         sodipodi:role="line"
         x="73.451454"
         y="274.84814"
         style="font-size:2.43072724px;line-height:1.10000002;text-align:center;text-anchor:middle;stroke-width:0.15192044"
         id="tspan1587">Feedback</tspan></text>
  </g>
  <path
     style="fill:none;stroke:#000000;stroke-width:0.28256464;stroke-linecap:butt;stroke-linejoin:miter;stroke-miterlimit:4;stroke-dasharray:none;stroke-opacity:1"
     d="m 48.265116,39.76802 12.079869,-1e-5"
     id="path2593"
     inkscape:connector-curvature="0" />
  <g
     id="g7929"
     transform="matrix(0,-0.28256466,0.28256466,0,57.519339,68.024471)"
     inkscape:label="Resistor">
    <g
       id="g7915">
      <path
         id="path7913"
         inkscape:label="none"
         style="fill:none;stroke:#000000;stroke-width:1;stroke-linecap:round;stroke-linejoin:round;stroke-dasharray:none"
         d="m 100,10 h 15.5 l 2,3 3,-6 3,6 3,-6 3,6 3,-6 2,3 H 150"
         inkscape:connector-curvature="0" />
    </g>
    <g
       transform="matrix(0.739645,0,0,-0.739645,-43.195273,356.49213)"
       ns0:preamble="/home/dykon/.config/inkscape/extensions/textextLib/CircuitSymbolsLatexPreamble.tex"
       ns0:text=" $R$"
       word-spacing="normal"
       letter-spacing="normal"
       font-size-adjust="none"
       font-stretch="normal"
       font-weight="normal"
       font-variant="normal"
       font-style="normal"
       stroke-miterlimit="10.433"
       xml:space="preserve"
       id="g7919"
       style="font-style:normal;font-variant:normal;font-weight:normal;font-stretch:normal;letter-spacing:normal;word-spacing:normal;text-anchor:start;fill:none;fill-opacity:1;fill-rule:evenodd;stroke:#000000;stroke-linecap:butt;stroke-linejoin:miter;stroke-miterlimit:10.43299961;stroke-dasharray:none;stroke-dashoffset:0;stroke-opacity:1">
<path
   id="path7917"
   style="fill:#000000;stroke-width:0"
   d="m 228.61,480.61 0.09,0.02 0.1,0.03 0.09,0.03 0.1,0.03 0.1,0.03 0.09,0.03 0.1,0.04 0.1,0.04 0.09,0.05 0.09,0.04 0.09,0.05 0.09,0.05 0.09,0.05 0.09,0.06 0.08,0.06 0.08,0.06 0.08,0.06 0.07,0.06 0.08,0.07 0.06,0.07 0.07,0.07 0.06,0.07 0.05,0.08 0.05,0.08 0.05,0.08 0.03,0.08 0.04,0.08 0.03,0.09 0.02,0.09 0.02,0.09 0.01,0.09 v 0.09 c 0,0.85 -0.9,1.49 -2.2,1.49 h -2.84 c -0.2,0 -0.29,0 -0.29,-0.2 0,-0.11 0.09,-0.11 0.28,-0.11 0.01,0 0.21,0 0.37,-0.02 0.18,-0.02 0.27,-0.03 0.27,-0.16 0,-0.04 -0.01,-0.07 -0.04,-0.19 l -1.33,-5.33 c -0.1,-0.39 -0.12,-0.47 -0.91,-0.47 -0.18,0 -0.27,0 -0.27,-0.2 0,-0.11 0.12,-0.11 0.14,-0.11 0.28,0 0.98,0.04 1.26,0.04 0.28,0 0.98,-0.04 1.26,-0.04 0.08,0 0.2,0 0.2,0.2 0,0.11 -0.09,0.11 -0.28,0.11 -0.37,0 -0.65,0 -0.65,0.18 0,0.06 0.02,0.11 0.03,0.17 l 0.66,2.63 h 1.19 l -0.01,0.22 h -1.12 l 0.65,2.59 c 0.06,0.24 0.09,0.34 0.28,0.37 0.09,0.01 0.41,0.01 0.61,0.01 0.71,0 1.81,0 1.81,-0.98 0,-0.34 -0.16,-1.03 -0.55,-1.41 -0.25,-0.26 -0.78,-0.58 -1.68,-0.58 l 0.01,-0.22 c 0.91,0 1.09,-0.55 1.09,-0.9 0,-0.15 -0.08,-0.46 -0.14,-0.69 -0.07,-0.27 -0.16,-0.64 -0.16,-0.84 0,-1.07 1.19,-1.07 1.32,-1.07 0.85,0 1.2,1 1.2,1.14 0,0.12 -0.11,0.12 -0.12,0.12 -0.09,0 -0.11,-0.07 -0.13,-0.14 -0.25,-0.74 -0.68,-0.91 -0.91,-0.91 -0.32,0 -0.4,0.22 -0.4,0.61 0,0.31 0.06,0.82 0.11,1.13 0.01,0.14 0.03,0.33 0.03,0.47 0,0.76 -0.66,1.07 -0.93,1.17 z"
   inkscape:connector-curvature="0" />
</g>    <g
       id="g7927"
       inkscape:label="name">
      <path
         id="path7921"
         inkscape:label="arc"
         sodipodi:type="arc"
         sodipodi:start="1.2309594"
         sodipodi:ry="30"
         sodipodi:rx="30"
         sodipodi:open="true"
         sodipodi:end="1.9106332"
         sodipodi:cy="-13.284271"
         sodipodi:cx="125"
         style="fill:none;stroke:#217b21;stroke-width:1;stroke-linecap:round;stroke-linejoin:round;stroke-dasharray:none;marker-end:url(#arrowVoltageEnd)"
         d="m 135,15 a 30,30 0 0 1 -20,0" />
      <g
         transform="matrix(0,0.739645,0.739645,0,-229.57102,-144.75765)"
         ns0:preamble="/home/dykon/.config/inkscape/extensions/textextLib/CircuitSymbolsLatexPreamble.tex"
         ns0:text=" $v$"
         word-spacing="normal"
         letter-spacing="normal"
         font-size-adjust="none"
         font-stretch="normal"
         font-weight="normal"
         font-variant="normal"
         font-style="normal"
         stroke-miterlimit="10.433"
         xml:space="preserve"
         id="g7925"
         style="font-style:normal;font-variant:normal;font-weight:normal;font-stretch:normal;letter-spacing:normal;word-spacing:normal;text-anchor:start;fill:none;fill-opacity:1;fill-rule:evenodd;stroke:#000000;stroke-linecap:butt;stroke-linejoin:miter;stroke-miterlimit:10.43299961;stroke-dasharray:none;stroke-dashoffset:0;stroke-opacity:1">
<path
   id="path7923"
   style="fill:#217b21;stroke-width:0"
   d="m 228.1,480.93 v 0.02 0.03 0.02 0.03 l -0.01,0.02 v 0.02 0.02 0.02 l -0.01,0.04 -0.01,0.04 v 0.04 l -0.01,0.04 -0.01,0.03 -0.02,0.03 -0.01,0.03 -0.01,0.03 -0.02,0.02 -0.01,0.03 -0.02,0.02 -0.01,0.02 -0.02,0.02 -0.02,0.02 -0.01,0.01 -0.02,0.02 -0.02,0.01 -0.02,0.01 -0.02,0.01 -0.02,0.01 -0.01,0.01 -0.02,0.01 h -0.02 l -0.02,0.01 h -0.02 -0.02 l -0.01,0.01 h -0.02 c -0.25,0 -0.49,-0.26 -0.49,-0.48 0,-0.13 0.05,-0.19 0.16,-0.3 0.21,-0.2 0.34,-0.46 0.34,-0.81 0,-0.42 -0.61,-2.7 -1.77,-2.7 -0.51,0 -0.74,0.35 -0.74,0.87 0,0.56 0.27,1.28 0.58,2.1 0.06,0.17 0.11,0.31 0.11,0.5 0,0.45 -0.31,0.82 -0.81,0.82 -0.94,0 -1.32,-1.45 -1.32,-1.53 0,-0.1 0.1,-0.1 0.12,-0.1 0.1,0 0.11,0.02 0.16,0.17 0.29,1.01 0.72,1.24 1.01,1.24 0.08,0 0.25,0 0.25,-0.32 0,-0.25 -0.1,-0.52 -0.17,-0.7 -0.44,-1.15 -0.57,-1.6 -0.57,-2.03 0,-1.07 0.88,-1.23 1.33,-1.23 1.68,0 2.25,3.28 2.25,3.8 z"
   inkscape:connector-curvature="0" />
</g>    </g>
  </g>
  <g
     id="g2568-7-2"
     inkscape:label="Source"
     transform="matrix(0,-0.82263318,0.82263318,0,38.172535,92.123939)">
    <rect
       style="fill:#b3b3b3;stroke:#000000;stroke-width:0.29622155;stroke-linecap:round;stroke-linejoin:round;stroke-miterlimit:4;stroke-dasharray:none;stroke-opacity:1"
       id="rect1135"
       width="20.974121"
       height="50.203125"
       x="59.073166"
       y="-109.72671"
       transform="rotate(90)" />
    <text
       xml:space="preserve"
       style="font-style:normal;font-weight:normal;font-size:7.38703346px;line-height:1.25;font-family:sans-serif;letter-spacing:0px;word-spacing:0px;fill:#000000;fill-opacity:1;stroke:none;stroke-width:0.18467583"
       x="60.809071"
       y="-90.310776"
       id="text1139"
       transform="rotate(90)"><tspan
         sodipodi:role="line"
         id="tspan1137"
         x="60.809071"
         y="-90.310776"
         style="font-size:4.71723686px;stroke-width:0.18467583">S(x+1)</tspan></text>
    <text
       xml:space="preserve"
       style="font-style:normal;font-weight:normal;font-size:7.38703346px;line-height:1.25;font-family:sans-serif;letter-spacing:0px;word-spacing:0px;fill:#000000;fill-opacity:1;stroke:none;stroke-width:0.18467583"
       x="60.809071"
       y="-62.905876"
       id="text1139-3"
       transform="rotate(90)"><tspan
         sodipodi:role="line"
         id="tspan1137-6"
         x="60.809071"
         y="-62.905876"
         style="font-size:4.71723686px;stroke-width:0.18467583">C(x)</tspan></text>
    <text
       xml:space="preserve"
       style="font-style:normal;font-weight:normal;font-size:7.38703346px;line-height:1.25;font-family:sans-serif;letter-spacing:0px;word-spacing:0px;fill:#000000;fill-opacity:1;stroke:none;stroke-width:0.18467583"
       x="60.809071"
       y="-98.445374"
       id="text1139-7"
       transform="rotate(90)"><tspan
         sodipodi:role="line"
         id="tspan1137-5"
         x="60.809071"
         y="-98.445374"
         style="font-size:4.71723686px;stroke-width:0.18467583">C(x+1)</tspan></text>
    <path
       style="fill:none;stroke:#000000;stroke-width:0.34899372;stroke-linecap:butt;stroke-linejoin:miter;stroke-miterlimit:4;stroke-dasharray:none;stroke-opacity:1"
       d="M 63.644324,26.953021 V 59.027073"
       id="path1167"
       inkscape:connector-curvature="0" />
    <text
       xml:space="preserve"
       style="font-style:normal;font-weight:normal;font-size:7.38703346px;line-height:1.25;font-family:sans-serif;letter-spacing:0px;word-spacing:0px;fill:#000000;fill-opacity:1;stroke:none;stroke-width:0.18467583"
       x="69.832581"
       y="-105.16966"
       id="text1175"
       transform="rotate(90)"><tspan
         sodipodi:role="line"
         x="69.832581"
         y="-105.16966"
         style="font-size:4.717237px;line-height:1.47740662px;text-align:center;text-anchor:middle;stroke-width:0.18467583"
         id="tspan1177">LTC6811</tspan><tspan
         sodipodi:role="line"
         x="69.832581"
         y="-95.935867"
         style="font-size:2.95481324px;line-height:1.47740662px;text-align:center;text-anchor:middle;stroke-width:0.18467583"
         id="tspan1181" /></text>
    <text
       xml:space="preserve"
       style="font-style:normal;font-weight:normal;font-size:7.38703346px;line-height:1.25;font-family:sans-serif;letter-spacing:0px;word-spacing:0px;fill:#000000;fill-opacity:1;stroke:none;stroke-width:0.18467583"
       x="38.160976"
       y="-103.21114"
       id="text1175-3"
       transform="rotate(90)"><tspan
         sodipodi:role="line"
         x="38.160976"
         y="-103.21114"
         style="font-size:4.717237px;line-height:1.47740662px;text-align:center;text-anchor:middle;stroke-width:0.18467583"
         id="tspan1177-5">Balancing</tspan><tspan
         sodipodi:role="line"
         x="38.160976"
         y="-93.977348"
         style="font-size:2.95481324px;line-height:1.47740662px;text-align:center;text-anchor:middle;stroke-width:0.18467583"
         id="tspan1181-6" /></text>
    <text
       xml:space="preserve"
       style="font-style:normal;font-weight:normal;font-size:10.58333302px;line-height:1.25;font-family:sans-serif;letter-spacing:0px;word-spacing:0px;fill:#000000;fill-opacity:1;stroke:none;stroke-width:0.26458332"
       x="40.217941"
       y="-109.13868"
       id="text1577"
       transform="rotate(90)"><tspan
         sodipodi:role="line"
         id="tspan1575"
         x="40.217941"
         y="-99.77491"
         style="stroke-width:0.26458332" /></text>
    <text
       xml:space="preserve"
       style="font-style:normal;font-weight:normal;font-size:12.86519146px;line-height:1.25;font-family:sans-serif;letter-spacing:0px;word-spacing:0px;fill:#000000;fill-opacity:1;stroke:none;stroke-width:0.32162979"
       x="60.855267"
       y="-79.050179"
       id="text3502"
       transform="rotate(90)"><tspan
         sodipodi:role="line"
         id="tspan3500"
         x="60.855267"
         y="-79.050179"
         style="font-size:4.717237px;stroke-width:0.32162979">GPIO</tspan></text>
  </g>
  <path
     style="fill:none;stroke:#000000;stroke-width:0.28709382;stroke-linecap:butt;stroke-linejoin:miter;stroke-miterlimit:4;stroke-dasharray:none;stroke-opacity:1"
     d="M 60.344983,10.557214 H 86.78424"
     id="path1413"
     inkscape:connector-curvature="0" />
  <path
     style="fill:none;stroke:#000000;stroke-width:0.28709382;stroke-linecap:butt;stroke-linejoin:miter;stroke-miterlimit:4;stroke-dasharray:none;stroke-opacity:1"
     d="M 60.344983,10.557214 H 48.264278"
     id="path1421"
     inkscape:connector-curvature="0" />
  <g
     id="g3013"
     transform="matrix(-0.29524525,0,0,-0.29524525,82.193133,27.411246)"
     inkscape:label="MOSFET">
    <g
       id="g2975"
       inkscape:label="MOSFET">
      <path
         id="path2957"
         inkscape:label="none"
         style="fill:none;stroke:#000000;stroke-width:1;stroke-linecap:round;stroke-linejoin:round;stroke-dasharray:none"
         d="M 67,24 V 36 H 39"
         inkscape:connector-curvature="0" />
      <path
         id="path2959"
         inkscape:label="none"
         style="fill:none;stroke:#000000;stroke-width:1;stroke-linecap:round;stroke-linejoin:round;stroke-dasharray:none"
         d="M 74,24.6 V 6"
         inkscape:connector-curvature="0" />
      <path
         id="path2961"
         inkscape:label="none"
         style="fill:none;stroke:#000000;stroke-width:0.69999999;stroke-linecap:round;stroke-linejoin:round;stroke-dasharray:none"
         d="m 69,24.75 h 5 V 19.5"
         inkscape:connector-curvature="0" />
      <path
         id="path2963"
         inkscape:label="none"
         style="fill:none;stroke:#000000;stroke-width:0.97239095;stroke-linecap:round;stroke-linejoin:round;stroke-miterlimit:4;stroke-dasharray:none"
         d="M 74,35.264987 V 56.628209"
         inkscape:connector-curvature="0" />
      <path
         id="path2965"
         inkscape:label="none"
         style="fill:none;stroke:#000000;stroke-width:0.69999999;stroke-linecap:round;stroke-linejoin:round;stroke-dasharray:none"
         d="m 69,35.25 h 5 V 30"
         inkscape:connector-curvature="0" />
      <circle
         id="path2967"
         inkscape:label="circle"
         style="fill:none;stroke:#000000;stroke-width:1;stroke-linecap:round;stroke-linejoin:round;stroke-dasharray:none"
         cx="74"
         cy="35.25"
         r="0.40000001" />
      <path
         id="path2969"
         inkscape:label="none"
         style="fill:none;stroke:#000000;stroke-width:0.69999999;stroke-linecap:round;stroke-linejoin:round;stroke-dasharray:none;marker-end:url(#MOSArrow)"
         d="m 69,30 h 5"
         inkscape:connector-curvature="0" />
      <path
         id="path2971"
         inkscape:label="none"
         style="fill:none;stroke:#000000;stroke-width:0.69999999;stroke-linecap:round;stroke-linejoin:round;stroke-dasharray:none"
         d="M 69,23 V 37"
         inkscape:connector-curvature="0" />
      <circle
         id="path2973"
         inkscape:label="circle"
         style="fill:none;stroke:#000000;stroke-width:1;stroke-linecap:round;stroke-linejoin:round;stroke-dasharray:none"
         cx="70"
         cy="30"
         r="10" />
      <path
         style="fill:none;stroke:#000000;stroke-width:0.97239095;stroke-linecap:butt;stroke-linejoin:miter;stroke-miterlimit:4;stroke-dasharray:none;stroke-opacity:1"
         d="M 39.000005,36.000004 H -15.496933"
         id="path3088"
         inkscape:connector-curvature="0" />
    </g>
    <g
       transform="matrix(-0.394477,0,0,0.394477,146.69421,-156.59748)"
       ns0:preamble="/home/dykon/.config/inkscape/extensions/textextLib/CircuitSymbolsLatexPreamble.tex"
       ns0:text=" G"
       word-spacing="normal"
       letter-spacing="normal"
       font-size-adjust="none"
       font-stretch="normal"
       font-weight="normal"
       font-variant="normal"
       font-style="normal"
       stroke-miterlimit="10.433"
       xml:space="preserve"
       id="g2979"
       style="font-style:normal;font-variant:normal;font-weight:normal;font-stretch:normal;letter-spacing:normal;word-spacing:normal;text-anchor:start;fill:none;fill-opacity:1;fill-rule:evenodd;stroke:#000000;stroke-linecap:butt;stroke-linejoin:miter;stroke-miterlimit:10.43299961;stroke-dasharray:none;stroke-dashoffset:0;stroke-opacity:1">
<path
   id="path2977"
   style="fill:#000000;stroke-width:0"
   d="m 229.35,477.86 0.01,-0.02 0.01,-0.02 0.02,-0.02 0.02,-0.03 0.01,-0.02 0.02,-0.03 0.02,-0.02 0.02,-0.03 0.03,-0.02 0.02,-0.03 0.05,-0.05 0.04,-0.05 0.05,-0.05 0.03,-0.02 0.02,-0.03 0.02,-0.02 0.03,-0.02 0.02,-0.02 0.02,-0.02 0.03,-0.01 0.02,-0.02 0.02,-0.01 0.02,-0.02 0.01,-0.01 0.02,-0.01 0.02,-0.01 h 0.01 0.01 v 0 h 0.01 v -0.01 c 0.09,0 0.09,0.08 0.09,0.23 v 1.73 c 0,0.39 0.04,0.44 0.69,0.44 v 0.31 c -0.37,-0.01 -0.92,-0.03 -1.22,-0.03 -0.39,0 -1.24,0 -1.6,0.03 v -0.31 h 0.32 c 0.9,0 0.93,-0.11 0.93,-0.48 v -0.63 c 0,-1.12 -1.27,-1.21 -1.55,-1.21 -0.65,0 -2.62,0.35 -2.62,3.31 0,2.97 1.96,3.3 2.56,3.3 1.07,0 1.97,-0.89 2.17,-2.35 0.02,-0.14 0.02,-0.17 0.16,-0.17 0.16,0 0.16,0.03 0.16,0.24 V 484 c 0,0.17 0,0.24 -0.11,0.24 -0.04,0 -0.08,0 -0.16,-0.12 l -0.49,-0.74 c -0.32,0.32 -0.86,0.86 -1.85,0.86 -1.85,0 -3.47,-1.57 -3.47,-3.61 0,-2.03 1.6,-3.61 3.49,-3.61 0.73,0 1.53,0.25 1.87,0.84 z"
   inkscape:connector-curvature="0" />
</g>    <g
       transform="matrix(-0.394477,0,0,0.394477,166.09756,-171.09551)"
       ns0:preamble="/home/dykon/.config/inkscape/extensions/textextLib/CircuitSymbolsLatexPreamble.tex"
       ns0:text=" D"
       word-spacing="normal"
       letter-spacing="normal"
       font-size-adjust="none"
       font-stretch="normal"
       font-weight="normal"
       font-variant="normal"
       font-style="normal"
       stroke-miterlimit="10.433"
       xml:space="preserve"
       id="g2983"
       style="font-style:normal;font-variant:normal;font-weight:normal;font-stretch:normal;letter-spacing:normal;word-spacing:normal;text-anchor:start;fill:none;fill-opacity:1;fill-rule:evenodd;stroke:#000000;stroke-linecap:butt;stroke-linejoin:miter;stroke-miterlimit:10.43299961;stroke-dasharray:none;stroke-dashoffset:0;stroke-opacity:1">
<path
   id="path2981"
   style="fill:#000000;stroke-width:0"
   d="m 223.78,484.02 v -0.31 h 0.24 c 0.77,0 0.79,-0.11 0.79,-0.47 v -5.23 c 0,-0.36 -0.02,-0.47 -0.79,-0.47 h -0.24 v -0.31 h 3.65 l -0.27,0.31 h -1.01 c -0.46,0 -0.48,0.07 -0.48,0.4 v 5.38 c 0,0.32 0.02,0.39 0.48,0.39 h 1 c 0.62,0 1.31,-0.22 1.82,-0.92 0.43,-0.59 0.52,-1.44 0.52,-2.22 0,-1.1 -0.19,-1.7 -0.55,-2.18 -0.2,-0.27 -0.77,-0.85 -1.78,-0.85 l 0.27,-0.31 c 1.68,0 3.05,1.47 3.05,3.34 0,1.89 -1.34,3.45 -3.05,3.45 z"
   inkscape:connector-curvature="0" />
</g>    <g
       transform="matrix(-0.394477,0,0,0.394477,165.7307,-148.09748)"
       ns0:preamble="/home/dykon/.config/inkscape/extensions/textextLib/CircuitSymbolsLatexPreamble.tex"
       ns0:text=" S"
       word-spacing="normal"
       letter-spacing="normal"
       font-size-adjust="none"
       font-stretch="normal"
       font-weight="normal"
       font-variant="normal"
       font-style="normal"
       stroke-miterlimit="10.433"
       xml:space="preserve"
       id="g2987"
       style="font-style:normal;font-variant:normal;font-weight:normal;font-stretch:normal;letter-spacing:normal;word-spacing:normal;text-anchor:start;fill:none;fill-opacity:1;fill-rule:evenodd;stroke:#000000;stroke-linecap:butt;stroke-linejoin:miter;stroke-miterlimit:10.43299961;stroke-dasharray:none;stroke-dashoffset:0;stroke-opacity:1">
<path
   id="path2985"
   style="fill:#000000;stroke-width:0"
   d="m 226.91,481.09 -1.27,0.31 c -0.62,0.15 -1.01,0.68 -1.01,1.26 0,0.69 0.54,1.3 1.32,1.3 1.66,0 1.88,-1.63 1.94,-2.08 0.01,-0.06 0.01,-0.11 0.12,-0.11 0.13,0 0.13,0.05 0.13,0.23 v 2 c 0,0.17 0,0.24 -0.11,0.24 -0.07,0 -0.08,-0.01 -0.15,-0.13 l -0.35,-0.57 c -0.3,0.29 -0.71,0.7 -1.6,0.7 -1.1,0 -1.94,-0.88 -1.94,-1.93 0,-0.82 0.53,-1.55 1.31,-1.82 0.11,-0.04 0.61,-0.16 1.31,-0.32 0.27,-0.07 0.57,-0.14 0.85,-0.51 0.21,-0.26 0.31,-0.59 0.31,-0.92 0,-0.7 -0.5,-1.42 -1.34,-1.42 -0.29,0 -1.04,0.05 -1.57,0.54 -0.58,0.54 -0.61,1.17 -0.62,1.53 -0.01,0.1 -0.09,0.1 -0.12,0.1 -0.13,0 -0.13,-0.07 -0.13,-0.25 v -1.98 c 0,-0.17 0,-0.24 0.11,-0.24 0.07,0 0.08,0.02 0.15,0.13 0,0.01 0.03,0.03 0.36,0.56 0.31,-0.34 0.95,-0.69 1.83,-0.69 1.17,0 1.97,0.97 1.97,2.06 0,1 -0.66,1.81 -1.5,2.01 z"
   inkscape:connector-curvature="0" />
</g>    <g
       id="g2999"
       transform="rotate(-90,85,30)"
       inkscape:label="arrowV">
      <path
         id="path2989"
         inkscape:label="arc"
         sodipodi:type="arc"
         sodipodi:start="1.2309594"
         sodipodi:ry="30"
         sodipodi:rx="30"
         sodipodi:open="true"
         sodipodi:end="1.9106332"
         sodipodi:cy="1.7157288"
         sodipodi:cx="85"
         style="fill:none;stroke:#217b21;stroke-width:1;stroke-linecap:round;stroke-linejoin:round;stroke-dasharray:none;marker-start:url(#arrowVoltageStart)"
         d="M 95,30 A 30,30 0 0 1 75.000001,30" />
      <g
         transform="matrix(0,-0.739645,-0.739645,0,439.03108,210.04266)"
         ns0:preamble="/home/dykon/.config/inkscape/extensions/textextLib/CircuitSymbolsLatexPreamble.tex"
         ns0:text=" $v_{ds}$"
         word-spacing="normal"
         letter-spacing="normal"
         font-size-adjust="none"
         font-stretch="normal"
         font-weight="normal"
         font-variant="normal"
         font-style="normal"
         stroke-miterlimit="10.433"
         xml:space="preserve"
         id="g2997"
         style="font-style:normal;font-variant:normal;font-weight:normal;font-stretch:normal;letter-spacing:normal;word-spacing:normal;text-anchor:start;fill:none;fill-opacity:1;fill-rule:evenodd;stroke:#000000;stroke-linecap:butt;stroke-linejoin:miter;stroke-miterlimit:10.43299961;stroke-dasharray:none;stroke-dashoffset:0;stroke-opacity:1">
<path
   id="path2991"
   style="fill:#217b21;stroke-width:0"
   d="m 228.1,480.93 v 0.02 0.03 0.02 0.03 l -0.01,0.02 v 0.02 0.02 0.02 l -0.01,0.04 -0.01,0.04 v 0.04 l -0.01,0.04 -0.01,0.03 -0.02,0.03 -0.01,0.03 -0.01,0.03 -0.02,0.02 -0.01,0.03 -0.02,0.02 -0.01,0.02 -0.02,0.02 -0.02,0.02 -0.01,0.01 -0.02,0.02 -0.02,0.01 -0.02,0.01 -0.02,0.01 -0.02,0.01 -0.01,0.01 -0.02,0.01 h -0.02 l -0.02,0.01 h -0.02 -0.02 l -0.01,0.01 h -0.02 c -0.25,0 -0.49,-0.26 -0.49,-0.48 0,-0.13 0.05,-0.19 0.16,-0.3 0.21,-0.2 0.34,-0.46 0.34,-0.81 0,-0.42 -0.61,-2.7 -1.77,-2.7 -0.51,0 -0.74,0.35 -0.74,0.87 0,0.56 0.27,1.28 0.58,2.1 0.06,0.17 0.11,0.31 0.11,0.5 0,0.45 -0.31,0.82 -0.81,0.82 -0.94,0 -1.32,-1.45 -1.32,-1.53 0,-0.1 0.1,-0.1 0.12,-0.1 0.1,0 0.11,0.02 0.16,0.17 0.29,1.01 0.72,1.24 1.01,1.24 0.08,0 0.25,0 0.25,-0.32 0,-0.25 -0.1,-0.52 -0.17,-0.7 -0.44,-1.15 -0.57,-1.6 -0.57,-2.03 0,-1.07 0.88,-1.23 1.33,-1.23 1.68,0 2.25,3.28 2.25,3.8 z"
   inkscape:connector-curvature="0" />
<path
   id="path2993"
   style="fill:#217b21;stroke-width:0"
   d="m 232.25,480.36 v 0 0 0 0 0 h 0.01 v 0.01 0 0 0 0.01 0 0 0.01 0 0.01 h 0.01 v 0.01 0.01 0.01 0 0.01 0 h 0.01 v 0.01 0 0.01 0 0 0 0 0 0 0.01 0 0 0 0 0 0 c 0,0.03 -0.03,0.1 -0.11,0.1 -0.14,0 -0.72,-0.06 -0.9,-0.07 -0.05,-0.01 -0.15,-0.02 -0.15,-0.16 0,-0.1 0.1,-0.1 0.18,-0.1 0.34,0 0.34,-0.05 0.34,-0.1 0,-0.05 -0.02,-0.09 -0.03,-0.16 l -0.4,-1.58 c -0.14,0.23 -0.38,0.41 -0.72,0.41 v -0.2 c 0.49,0 0.62,-0.53 0.62,-0.6 0,-0.03 -0.01,-0.08 -0.02,-0.1 l -0.33,-1.3 c -0.05,-0.19 -0.2,-0.33 -0.35,-0.47 -0.06,-0.05 -0.34,-0.27 -0.65,-0.27 -0.25,0 -0.51,0.18 -0.51,0.67 0,0.37 0.21,1.13 0.37,1.41 0.32,0.56 0.68,0.66 0.87,0.66 v 0.2 c -0.89,0 -1.8,-0.98 -1.8,-1.98 0,-0.68 0.45,-1.16 1.05,-1.16 0.38,0 0.72,0.22 1,0.49 0.13,-0.42 0.53,-0.49 0.72,-0.49 0.25,0 0.42,0.15 0.55,0.37 0.15,0.27 0.24,0.67 0.24,0.69 0,0.1 -0.09,0.1 -0.11,0.1 -0.1,0 -0.1,-0.03 -0.15,-0.22 -0.09,-0.33 -0.22,-0.74 -0.51,-0.74 -0.19,0 -0.23,0.15 -0.23,0.34 0,0.13 0.01,0.19 0.03,0.28 z"
   inkscape:connector-curvature="0" />
<path
   id="path2995"
   style="fill:#217b21;stroke-width:0"
   d="m 235.42,478.36 -0.01,-0.01 h -0.02 l -0.02,-0.01 h -0.01 l -0.02,-0.01 -0.01,-0.01 -0.02,-0.01 h -0.01 l -0.01,-0.01 -0.02,-0.01 -0.01,-0.01 -0.01,-0.01 -0.01,-0.01 -0.01,-0.01 -0.01,-0.01 -0.01,-0.01 -0.01,-0.01 -0.01,-0.01 -0.01,-0.02 -0.01,-0.01 v -0.01 l -0.01,-0.01 -0.01,-0.01 v -0.02 l -0.01,-0.01 v -0.01 -0.02 l -0.01,-0.01 v -0.01 -0.01 -0.02 -0.01 c 0,-0.16 0.14,-0.22 0.23,-0.22 0.07,0 0.33,0.04 0.33,0.39 0,0.45 -0.5,0.61 -0.93,0.61 -1.09,0 -1.28,-0.8 -1.28,-1.02 0,-0.25 0.14,-0.42 0.24,-0.5 0.18,-0.14 0.31,-0.17 0.79,-0.26 0.15,-0.02 0.6,-0.11 0.6,-0.45 0,-0.12 -0.08,-0.39 -0.37,-0.56 -0.28,-0.15 -0.62,-0.15 -0.7,-0.15 -0.28,0 -0.68,0.06 -0.84,0.29 0.23,0.03 0.38,0.2 0.38,0.39 0,0.18 -0.12,0.26 -0.27,0.26 -0.2,0 -0.41,-0.16 -0.41,-0.46 0,-0.42 0.45,-0.68 1.13,-0.68 1.29,0 1.52,0.88 1.52,1.15 0,0.64 -0.7,0.76 -0.96,0.81 -0.06,0.02 -0.24,0.04 -0.28,0.06 -0.26,0.05 -0.38,0.19 -0.38,0.35 0,0.16 0.12,0.34 0.28,0.44 0.18,0.12 0.43,0.13 0.55,0.13 0.14,0 0.51,-0.02 0.66,-0.25 z"
   inkscape:connector-curvature="0" />
</g>    </g>
  </g>
  <g
     id="g2568-7-9"
     inkscape:label="Source"
     transform="matrix(0,-0.28256466,0.28256466,0,39.788134,42.639342)">
    <g
       id="g1848-1"
       transform="matrix(0,0.52049211,-0.52049211,0,286.5475,-186.4905)">
      <path
         sodipodi:nodetypes="cc"
         inkscape:connector-curvature="0"
         id="path1315-2"
         d="M 433.5084,425.70744 H 398.34874"
         style="fill:none;stroke:#000000;stroke-width:2.19747901;stroke-linecap:square;stroke-linejoin:miter;stroke-miterlimit:4;stroke-dasharray:none;stroke-opacity:1" />
      <path
         sodipodi:nodetypes="cc"
         inkscape:connector-curvature="0"
         id="path1317-7"
         d="M 424.71849,430.1024 H 407.13866"
         style="fill:none;stroke:#000000;stroke-width:4.39495802;stroke-linecap:square;stroke-linejoin:miter;stroke-miterlimit:4;stroke-dasharray:none;stroke-opacity:1" />
      <path
         sodipodi:nodetypes="cc"
         inkscape:connector-curvature="0"
         id="path2220-0"
         d="m 415.92857,416.91752 v 8.78992"
         style="fill:none;stroke:#000000;stroke-width:2.19747901;stroke-linecap:round;stroke-linejoin:miter;stroke-miterlimit:4;stroke-dasharray:none;stroke-opacity:1" />
      <path
         sodipodi:nodetypes="cc"
         inkscape:connector-curvature="0"
         id="path2222-9"
         d="m 415.92857,430.1024 v 21.97479"
         style="fill:none;stroke:#000000;stroke-width:2.19747901;stroke-linecap:round;stroke-linejoin:miter;stroke-miterlimit:4;stroke-dasharray:none;stroke-opacity:1" />
      <path
         inkscape:connector-curvature="0"
         style="fill:none;stroke:#000000;stroke-width:1.25570345px;stroke-linecap:butt;stroke-linejoin:miter;stroke-opacity:1"
         d="m 431.31092,416.91752 h -6.59243"
         id="path1478-3"
         sodipodi:nodetypes="cc" />
      <path
         inkscape:connector-curvature="0"
         style="fill:none;stroke:#000000;stroke-width:1.25570345px;stroke-linecap:butt;stroke-linejoin:miter;stroke-opacity:1"
         d="M 428.01471,420.21374 V 413.6213"
         id="path1480-6"
         sodipodi:nodetypes="cc" />
    </g>
  </g>
  <path
     style="fill:none;stroke:#000000;stroke-width:0.28709382;stroke-linecap:butt;stroke-linejoin:miter;stroke-miterlimit:4;stroke-dasharray:none;stroke-opacity:1"
     d="m 48.264237,22.988319 4.1e-5,-12.431106"
     id="path6556"
     inkscape:connector-curvature="0" />
  <path
     style="fill:none;stroke:#000000;stroke-width:0.28709382;stroke-linecap:butt;stroke-linejoin:miter;stroke-miterlimit:4;stroke-dasharray:none;stroke-opacity:1"
     d="m 48.264237,28.159346 9.05e-4,11.608672"
     id="path6598"
     inkscape:connector-curvature="0" />
  <g
     id="g2568-7-9-3"
     inkscape:label="Source"
     transform="matrix(0,-0.28256466,0.28256466,0,39.788175,25.037207)">
    <g
       id="g1848-1-1"
       transform="matrix(0,0.52049211,-0.52049211,0,286.5475,-186.4905)">
      <path
         sodipodi:nodetypes="cc"
         inkscape:connector-curvature="0"
         id="path1315-2-3"
         d="M 433.5084,425.70744 H 398.34874"
         style="fill:none;stroke:#000000;stroke-width:2.19747901;stroke-linecap:square;stroke-linejoin:miter;stroke-miterlimit:4;stroke-dasharray:none;stroke-opacity:1" />
      <path
         sodipodi:nodetypes="cc"
         inkscape:connector-curvature="0"
         id="path1317-7-3"
         d="M 424.71849,430.1024 H 407.13866"
         style="fill:none;stroke:#000000;stroke-width:4.39495802;stroke-linecap:square;stroke-linejoin:miter;stroke-miterlimit:4;stroke-dasharray:none;stroke-opacity:1" />
      <path
         sodipodi:nodetypes="cc"
         inkscape:connector-curvature="0"
         id="path2220-0-5"
         d="m 415.92857,416.91752 v 8.78992"
         style="fill:none;stroke:#000000;stroke-width:2.19747901;stroke-linecap:round;stroke-linejoin:miter;stroke-miterlimit:4;stroke-dasharray:none;stroke-opacity:1" />
      <path
         sodipodi:nodetypes="cc"
         inkscape:connector-curvature="0"
         id="path2222-9-3"
         d="m 415.92857,430.1024 v 21.97479"
         style="fill:none;stroke:#000000;stroke-width:2.19747901;stroke-linecap:round;stroke-linejoin:miter;stroke-miterlimit:4;stroke-dasharray:none;stroke-opacity:1" />
      <path
         inkscape:connector-curvature="0"
         style="fill:none;stroke:#000000;stroke-width:1.25570345px;stroke-linecap:butt;stroke-linejoin:miter;stroke-opacity:1"
         d="m 431.31092,416.91752 h -6.59243"
         id="path1478-3-7"
         sodipodi:nodetypes="cc" />
      <path
         inkscape:connector-curvature="0"
         style="fill:none;stroke:#000000;stroke-width:1.25570345px;stroke-linecap:butt;stroke-linejoin:miter;stroke-opacity:1"
         d="M 428.01471,420.21374 V 413.6213"
         id="path1480-6-7"
         sodipodi:nodetypes="cc" />
    </g>
  </g>
  <g
     id="g2568-7-9-7"
     inkscape:label="Source"
     transform="matrix(0,-0.28256466,0.28256466,0,39.789012,59.419042)">
    <g
       id="g1848-1-6"
       transform="matrix(0,0.52049211,-0.52049211,0,286.5475,-186.4905)">
      <path
         sodipodi:nodetypes="cc"
         inkscape:connector-curvature="0"
         id="path1315-2-8"
         d="M 433.5084,425.70744 H 398.34874"
         style="fill:none;stroke:#000000;stroke-width:2.19747901;stroke-linecap:square;stroke-linejoin:miter;stroke-miterlimit:4;stroke-dasharray:none;stroke-opacity:1" />
      <path
         sodipodi:nodetypes="cc"
         inkscape:connector-curvature="0"
         id="path1317-7-6"
         d="M 424.71849,430.1024 H 407.13866"
         style="fill:none;stroke:#000000;stroke-width:4.39495802;stroke-linecap:square;stroke-linejoin:miter;stroke-miterlimit:4;stroke-dasharray:none;stroke-opacity:1" />
      <path
         sodipodi:nodetypes="cc"
         inkscape:connector-curvature="0"
         id="path2220-0-2"
         d="m 415.92857,416.91752 v 8.78992"
         style="fill:none;stroke:#000000;stroke-width:2.19747901;stroke-linecap:round;stroke-linejoin:miter;stroke-miterlimit:4;stroke-dasharray:none;stroke-opacity:1" />
      <path
         sodipodi:nodetypes="cc"
         inkscape:connector-curvature="0"
         id="path2222-9-9"
         d="m 415.92857,430.1024 v 21.97479"
         style="fill:none;stroke:#000000;stroke-width:2.19747901;stroke-linecap:round;stroke-linejoin:miter;stroke-miterlimit:4;stroke-dasharray:none;stroke-opacity:1" />
      <path
         inkscape:connector-curvature="0"
         style="fill:none;stroke:#000000;stroke-width:1.25570345px;stroke-linecap:butt;stroke-linejoin:miter;stroke-opacity:1"
         d="m 431.31092,416.91752 h -6.59243"
         id="path1478-3-9"
         sodipodi:nodetypes="cc" />
      <path
         inkscape:connector-curvature="0"
         style="fill:none;stroke:#000000;stroke-width:1.25570345px;stroke-linecap:butt;stroke-linejoin:miter;stroke-opacity:1"
         d="M 428.01471,420.21374 V 413.6213"
         id="path1480-6-2"
         sodipodi:nodetypes="cc" />
    </g>
  </g>
  <text
     xml:space="preserve"
     style="font-style:normal;font-weight:normal;font-size:13.48961544px;line-height:1.25;font-family:sans-serif;letter-spacing:0px;word-spacing:0px;fill:#000000;fill-opacity:1;stroke:none;stroke-width:0.3372404"
     x="-0.041248772"
     y="-47.922485"
     id="text1064"
     transform="rotate(90)"><tspan
       sodipodi:role="line"
       id="tspan1062"
       x="-0.041248772"
       y="-47.922485"
       style="font-size:5.39584637px;stroke-width:0.3372404">...</tspan></text>
  <text
     xml:space="preserve"
     style="font-style:normal;font-weight:normal;font-size:13.48961544px;line-height:1.25;font-family:sans-serif;letter-spacing:0px;word-spacing:0px;fill:#000000;fill-opacity:1;stroke:none;stroke-width:0.3372404"
     x="45.431446"
     y="-47.88628"
     id="text1064-3"
     transform="rotate(90)"><tspan
       sodipodi:role="line"
       id="tspan1062-0"
       x="45.431446"
       y="-47.88628"
       style="font-size:5.39584637px;stroke-width:0.3372404">...</tspan></text>
</svg>
