EESchema Schematic File Version 2
LIBS:power
LIBS:device
LIBS:switches
LIBS:relays
LIBS:motors
LIBS:transistors
LIBS:conn
LIBS:linear
LIBS:regul
LIBS:74xx
LIBS:cmos4000
LIBS:adc-dac
LIBS:memory
LIBS:xilinx
LIBS:microcontrollers
LIBS:dsp
LIBS:microchip
LIBS:analog_switches
LIBS:motorola
LIBS:texas
LIBS:intel
LIBS:audio
LIBS:interface
LIBS:digital-audio
LIBS:philips
LIBS:display
LIBS:cypress
LIBS:siliconi
LIBS:opto
LIBS:atmel
LIBS:contrib
LIBS:valves
LIBS:Pack_Controller
EELAYER 25 0
EELAYER END
$Descr A4 11693 8268
encoding utf-8
Sheet 1 1
Title ""
Date ""
Rev ""
Comp ""
Comment1 ""
Comment2 ""
Comment3 ""
Comment4 ""
$EndDescr
$Comp
L LTC6811 U1
U 1 1 5C4114A6
P 6900 2550
F 0 "U1" H 6900 1250 60  0000 C CNN
F 1 "LTC6811" H 6850 3900 60  0000 C CNN
F 2 "" H 6900 2550 60  0001 C CNN
F 3 "" H 6900 2550 60  0001 C CNN
	1    6900 2550
	1    0    0    -1  
$EndComp
$Comp
L Q_PMOS_GDS Q1
U 1 1 5C411539
P 4000 3400
F 0 "Q1" H 4200 3450 50  0000 L CNN
F 1 "AP9435GM" H 4200 3350 50  0000 L CNN
F 2 "" H 4200 3500 50  0001 C CNN
F 3 "" H 4000 3400 50  0001 C CNN
	1    4000 3400
	-1   0    0    -1  
$EndComp
$Comp
L R R1
U 1 1 5C4115F1
P 3700 3950
F 0 "R1" V 3780 3950 50  0000 C CNN
F 1 "3,3" V 3700 3950 50  0000 C CNN
F 2 "" V 3630 3950 50  0001 C CNN
F 3 "" H 3700 3950 50  0001 C CNN
	1    3700 3950
	1    0    0    -1  
$EndComp
$Comp
L 4N25 U2
U 1 1 5C411704
P 5200 4200
F 0 "U2" H 5000 4400 50  0000 L CNN
F 1 "4N25" H 5200 4400 50  0000 L CNN
F 2 "Housings_DIP:DIP-6_W7.62mm" H 5000 4000 50  0001 L CIN
F 3 "" H 5200 4200 50  0001 L CNN
	1    5200 4200
	1    0    0    -1  
$EndComp
$Comp
L R R5
U 1 1 5C411756
P 4650 4100
F 0 "R5" V 4730 4100 50  0000 C CNN
F 1 "150" V 4650 4100 50  0000 C CNN
F 2 "" V 4580 4100 50  0001 C CNN
F 3 "" H 4650 4100 50  0001 C CNN
	1    4650 4100
	0    1    1    0   
$EndComp
Wire Wire Line
	4800 4100 4900 4100
Wire Wire Line
	4500 4100 4300 4100
Wire Wire Line
	4300 4100 4300 3700
Wire Wire Line
	4300 3700 3700 3700
Wire Wire Line
	3900 3700 3900 3600
Wire Wire Line
	3700 3700 3700 3800
Connection ~ 3900 3700
Wire Wire Line
	4100 3700 4100 3800
Connection ~ 4100 3700
Wire Wire Line
	3700 4100 3700 4300
Wire Wire Line
	4100 4100 4100 4300
Wire Wire Line
	4100 4600 4100 4700
Wire Wire Line
	3700 4700 4300 4700
Wire Wire Line
	3700 4700 3700 4600
Wire Wire Line
	3900 4700 3900 4800
Wire Wire Line
	3000 4800 7700 4800
Wire Wire Line
	7700 4800 7700 3550
Wire Wire Line
	7700 3600 7500 3600
Connection ~ 3900 4700
Wire Wire Line
	7500 3700 7600 3700
Wire Wire Line
	7600 3700 7600 3950
Wire Wire Line
	7600 3950 4800 3950
Wire Wire Line
	4800 3950 4800 3400
Wire Wire Line
	4800 3400 4200 3400
Wire Wire Line
	6200 3700 4900 3700
Wire Wire Line
	4900 3700 4900 3000
Wire Wire Line
	4900 3000 3000 3000
Wire Wire Line
	3900 3000 3900 3200
Wire Wire Line
	4900 4300 4300 4300
Wire Wire Line
	4300 4300 4300 4700
Connection ~ 4100 4700
Wire Wire Line
	3700 4200 4100 4200
Connection ~ 4100 4200
Connection ~ 3700 4200
$Comp
L +5V #PWR1
U 1 1 5C411A75
P 5700 4150
F 0 "#PWR1" H 5700 4000 50  0001 C CNN
F 1 "+5V" H 5700 4290 50  0000 C CNN
F 2 "" H 5700 4150 50  0001 C CNN
F 3 "" H 5700 4150 50  0001 C CNN
	1    5700 4150
	1    0    0    -1  
$EndComp
Wire Wire Line
	5700 4200 5500 4200
Wire Wire Line
	5700 4150 5700 4200
NoConn ~ 5500 4100
$Comp
L GND #PWR2
U 1 1 5C411B4C
P 6100 4600
F 0 "#PWR2" H 6100 4350 50  0001 C CNN
F 1 "GND" H 6100 4450 50  0000 C CNN
F 2 "" H 6100 4600 50  0001 C CNN
F 3 "" H 6100 4600 50  0001 C CNN
	1    6100 4600
	1    0    0    -1  
$EndComp
Wire Wire Line
	7900 3100 7500 3100
Wire Wire Line
	7500 3200 8100 3200
Connection ~ 7900 3200
$Comp
L Ferrite_Bead FB1
U 1 1 5C411BF2
P 7700 3400
F 0 "FB1" H 7800 3500 50  0000 C CNN
F 1 "Ferrite_Bead" H 7950 3250 50  0000 C CNN
F 2 "" V 7630 3400 50  0001 C CNN
F 3 "" H 7700 3400 50  0001 C CNN
	1    7700 3400
	1    0    0    -1  
$EndComp
Wire Wire Line
	7700 3250 7700 3200
Connection ~ 7700 3200
Connection ~ 7700 3600
Wire Wire Line
	7900 3200 7900 3100
Wire Wire Line
	8100 3200 8100 3300
$Comp
L GND #PWR3
U 1 1 5C411DF4
P 8100 3300
F 0 "#PWR3" H 8100 3050 50  0001 C CNN
F 1 "GND" H 8100 3150 50  0000 C CNN
F 2 "" H 8100 3300 50  0001 C CNN
F 3 "" H 8100 3300 50  0001 C CNN
	1    8100 3300
	1    0    0    -1  
$EndComp
$Comp
L C C1
U 1 1 5C411E13
P 6200 4350
F 0 "C1" H 6225 4450 50  0000 L CNN
F 1 "1n" H 6225 4250 50  0000 L CNN
F 2 "" H 6238 4200 50  0001 C CNN
F 3 "" H 6200 4350 50  0001 C CNN
	1    6200 4350
	1    0    0    -1  
$EndComp
$Comp
L R R6
U 1 1 5C411EA2
P 6000 4350
F 0 "R6" H 5900 4300 50  0000 C CNN
F 1 "10K" V 6000 4350 50  0000 C CNN
F 2 "" V 5930 4350 50  0001 C CNN
F 3 "" H 6000 4350 50  0001 C CNN
	1    6000 4350
	1    0    0    -1  
$EndComp
Wire Wire Line
	6000 4500 6000 4550
Wire Wire Line
	6000 4550 6200 4550
Wire Wire Line
	6200 4550 6200 4500
Wire Wire Line
	6100 4550 6100 4600
Connection ~ 6100 4550
Wire Wire Line
	6200 4200 6200 4150
Wire Wire Line
	6200 4150 6000 4150
Wire Wire Line
	6000 4150 6000 4200
Wire Wire Line
	5500 4300 5800 4300
Wire Wire Line
	5800 4300 5800 4100
Wire Wire Line
	5800 4100 6500 4100
Wire Wire Line
	6100 4100 6100 4150
Connection ~ 6100 4150
Connection ~ 6100 4100
Text GLabel 6500 4100 2    60   Input ~ 0
Balancing_Feedback_1
Text GLabel 6100 1400 0    60   Input ~ 0
V+
Wire Wire Line
	6100 1400 6200 1400
$Comp
L Battery_Cell ZELLE_1
U 1 1 5C4120B3
P 3000 4100
F 0 "ZELLE_1" H 3100 4200 50  0000 L CNN
F 1 "~" H 3100 4100 50  0000 L CNN
F 2 "" V 3000 4160 50  0001 C CNN
F 3 "" V 3000 4160 50  0001 C CNN
	1    3000 4100
	1    0    0    -1  
$EndComp
Wire Wire Line
	3000 3000 3000 3900
Connection ~ 3900 3000
Wire Wire Line
	3000 4200 3000 4800
Connection ~ 3900 4800
$Comp
L R R2
U 1 1 5C41239B
P 3700 4450
F 0 "R2" V 3780 4450 50  0000 C CNN
F 1 "3,3" V 3700 4450 50  0000 C CNN
F 2 "" V 3630 4450 50  0001 C CNN
F 3 "" H 3700 4450 50  0001 C CNN
	1    3700 4450
	1    0    0    -1  
$EndComp
$Comp
L R R4
U 1 1 5C4123D9
P 4100 4450
F 0 "R4" V 4180 4450 50  0000 C CNN
F 1 "3,3" V 4100 4450 50  0000 C CNN
F 2 "" V 4030 4450 50  0001 C CNN
F 3 "" H 4100 4450 50  0001 C CNN
	1    4100 4450
	1    0    0    -1  
$EndComp
$Comp
L R R3
U 1 1 5C412420
P 4100 3950
F 0 "R3" V 4180 3950 50  0000 C CNN
F 1 "3,3" V 4100 3950 50  0000 C CNN
F 2 "" V 4030 3950 50  0001 C CNN
F 3 "" H 4100 3950 50  0001 C CNN
	1    4100 3950
	1    0    0    -1  
$EndComp
$EndSCHEMATC
