\relax 
\citation{Weicker2013}
\@writefile{toc}{\contentsline {chapter}{\numberline {1}Einleitung}{10}\protected@file@percent }
\@writefile{lof}{\addvspace {10\p@ }}
\@writefile{lot}{\addvspace {10\p@ }}
\AC@undonewlabel{acro:cad}
\newlabel{acro:cad}{{1}{10}}
\acronymused{cad}
\acronymused{bms}
\acronymused{bms}
\newlabel{Idee der Untersuchung}{{1}{10}}
\acronymused{bms}
\acronymused{bms}
\acronymused{bms}
\acronymused{bms}
\AC@undonewlabel{acro:pcb}
\newlabel{acro:pcb}{{1}{10}}
\acronymused{pcb}
\acronymused{bms}
\@setckpt{Chapter/0_Einleitung}{
\setcounter{page}{11}
\setcounter{equation}{0}
\setcounter{enumi}{0}
\setcounter{enumii}{0}
\setcounter{enumiii}{0}
\setcounter{enumiv}{0}
\setcounter{footnote}{0}
\setcounter{mpfootnote}{0}
\setcounter{part}{0}
\setcounter{chapter}{1}
\setcounter{section}{0}
\setcounter{subsection}{0}
\setcounter{subsubsection}{0}
\setcounter{paragraph}{0}
\setcounter{subparagraph}{0}
\setcounter{figure}{0}
\setcounter{table}{0}
}
