\relax 
\citation{MachManfred2015}
\citation{PeterKurzweil2018}
\@writefile{toc}{\contentsline {chapter}{\numberline {2}Theoretische Grundlagen zur Energiespeicherung}{11}\protected@file@percent }
\@writefile{lof}{\addvspace {10\p@ }}
\@writefile{lot}{\addvspace {10\p@ }}
\newlabel{Theoretische Grundlagen Stromspeicherung}{{2}{11}}
\@setckpt{Chapter/1_TheoretischeGrundlagen}{
\setcounter{page}{12}
\setcounter{equation}{0}
\setcounter{enumi}{0}
\setcounter{enumii}{0}
\setcounter{enumiii}{0}
\setcounter{enumiv}{0}
\setcounter{footnote}{0}
\setcounter{mpfootnote}{0}
\setcounter{part}{0}
\setcounter{chapter}{2}
\setcounter{section}{0}
\setcounter{subsection}{0}
\setcounter{subsubsection}{0}
\setcounter{paragraph}{0}
\setcounter{subparagraph}{0}
\setcounter{figure}{0}
\setcounter{table}{0}
}
