\relax 
\citation{PeterKurzweil2018}
\@writefile{toc}{\contentsline {chapter}{\numberline {3}Stand der Technik}{12}\protected@file@percent }
\@writefile{lof}{\addvspace {10\p@ }}
\@writefile{lot}{\addvspace {10\p@ }}
\@writefile{toc}{\contentsline {section}{\numberline {3.1}Arten der Energiespeicherung}{12}\protected@file@percent }
\@writefile{toc}{\contentsline {section}{\numberline {3.2}Elektrochemische Energiespeicherung}{12}\protected@file@percent }
\citation{2013RheinerKorthauer}
\citation{Weicker2013}
\newlabel{eq. nernst_gleichung}{{3.1}{13}}
\@writefile{toc}{\contentsline {section}{\numberline {3.3}Parallele und Serielle Skalierung von Batterien}{13}\protected@file@percent }
\citation{PeterKurzweil2018}
\citation{PeterKurzweil2018}
\citation{Weicker2013}
\acronymused{lfp}
\acronymused{lfp}
\AC@undonewlabel{acro:soc}
\newlabel{acro:soc}{{3.3}{14}}
\acronymused{soc}
\acronymused{bms}
\acronymused{lfp}
\@writefile{toc}{\contentsline {section}{\numberline {3.4}\acf {lfp}}{14}\protected@file@percent }
\newlabel{lipo_anforderungen}{{3.4}{14}}
\acronymused{lfp}
\acronymused{lfp}
\citation{Symposium2015}
\@writefile{toc}{\contentsline {subsection}{\numberline {3.4.1}Aufbau und Wirkungsweise}{15}\protected@file@percent }
\@writefile{toc}{\contentsline {subsection}{\numberline {3.4.2}Charakteristiken}{15}\protected@file@percent }
\@writefile{toc}{\contentsline {subsection}{\numberline {3.4.3}Einsatzgebiet}{16}\protected@file@percent }
\acronymused{bms}
\@setckpt{Chapter/2_Standdertechnik}{
\setcounter{page}{17}
\setcounter{equation}{1}
\setcounter{enumi}{9}
\setcounter{enumii}{0}
\setcounter{enumiii}{0}
\setcounter{enumiv}{0}
\setcounter{footnote}{0}
\setcounter{mpfootnote}{0}
\setcounter{part}{0}
\setcounter{chapter}{3}
\setcounter{section}{4}
\setcounter{subsection}{3}
\setcounter{subsubsection}{0}
\setcounter{paragraph}{0}
\setcounter{subparagraph}{0}
\setcounter{figure}{0}
\setcounter{table}{0}
}
