\relax 
\citation{Weicker2013}
\@writefile{toc}{\contentsline {chapter}{\numberline {1}Grundlagen zum \acl {bms}}{9}\protected@file@percent }
\@writefile{lof}{\addvspace {10\p@ }}
\@writefile{lot}{\addvspace {10\p@ }}
\acronymused{bms}
\acronymused{bms}
\@writefile{toc}{\contentsline {section}{\numberline {1.1}Hauptaufgaben des \aclp {bms}}{9}\protected@file@percent }
\acronymused{bms}
\acronymused{bms}
\acronymused{bms}
\acronymused{bms}
\acronymused{bms}
\acronymused{bms}
\acronymused{bms}
\acronymused{bms}
\acronymused{bms}
\AC@undonewlabel{acro:soc}
\newlabel{acro:soc}{{1.1}{9}}
\acronymused{soc}
\acronymused{soc}
\citation{Andrea2010}
\acronymused{bms}
\@writefile{toc}{\contentsline {section}{\numberline {1.2}Charakteristiken des \aclp {bms}}{10}\protected@file@percent }
\newlabel{definition des bmss}{{1.2}{10}}
\acronymused{bms}
\acronymused{bms}
\acronymused{bms}
\acronymused{bms}
\acronymused{cccv}
\acronymused{bms}
\acronymused{bms}
\acronymused{cccv}
\acronymused{cccv}
\@writefile{toc}{\contentsline {subsection}{\numberline {1.2.1}\acf {cccv}}{10}\protected@file@percent }
\acronymused{cccv}
\acronymused{cccv}
\acronymused{cccv}
\acronymused{cccv}
\AC@undonewlabel{acro:lfp}
\newlabel{acro:lfp}{{1.2.1}{10}}
\acronymused{lfp}
\acronymused{bms}
\acronymused{cccv}
\acronymused{bms}
\acronymused{bms}
\acronymused{bms}
\acronymused{cccv}
\acronymused{bms}
\acronymused{cccv}
\@writefile{lof}{\contentsline {figure}{\numberline {1.1}{\ignorespaces (Links)\ac {cccv} Charakteristiken und (Rechts) Strom und Spannung bei der Ladevorgang}}{11}\protected@file@percent }
\acronymused{cccv}
\newlabel{img:cccv}{{1.1}{11}}
\@writefile{toc}{\contentsline {subsection}{\numberline {1.2.2}Regler}{11}\protected@file@percent }
\@writefile{toc}{\contentsline {subsection}{\numberline {1.2.3}Meter}{12}\protected@file@percent }
\acronymused{soc}
\acronymused{bms}
\acronymused{bms}
\citation{Andrea2010}
\@writefile{toc}{\contentsline {subsection}{\numberline {1.2.4}Monitor}{13}\protected@file@percent }
\@writefile{toc}{\contentsline {subsection}{\numberline {1.2.5}Ausgleicher (Balancer)}{13}\protected@file@percent }
\acronymused{lfp}
\acronymused{bms}
\@writefile{toc}{\contentsline {subsection}{\numberline {1.2.6}Protector}{13}\protected@file@percent }
\@writefile{toc}{\contentsline {subsection}{\numberline {1.2.7}Funktionalit\IeC {\"a}tsvergleich}{13}\protected@file@percent }
\acronymused{bms}
\acronymused{lfp}
\acronymused{bms}
\@writefile{toc}{\contentsline {section}{\numberline {1.3}Entwickelte Arten des \aclp {bms} }{14}\protected@file@percent }
\newlabel{kap. bms_arten}{{1.3}{14}}
\acronymused{bms}
\acronymused{bms}
\acronymused{bms}
\@writefile{toc}{\contentsline {subsection}{\numberline {1.3.1}Centralized \ac {bms}}{14}\protected@file@percent }
\newlabel{Centralized_bms}{{1.3.1}{14}}
\acronymused{bms}
\acronymused{bms}
\@writefile{lof}{\contentsline {figure}{\numberline {1.2}{\ignorespaces Topologie des Monolithisches BMS}}{14}\protected@file@percent }
\newlabel{bms_centralized}{{1.2}{14}}
\acronymused{bms}
\@writefile{toc}{\contentsline {subsection}{\numberline {1.3.2}Modular \ac {bms}}{15}\protected@file@percent }
\newlabel{Modular_bms}{{1.3.2}{15}}
\acronymused{bms}
\acronymused{bms}
\acronymused{bms}
\acronymused{bms}
\acronymused{bms}
\@writefile{lof}{\contentsline {figure}{\numberline {1.3}{\ignorespaces Topologie des Modulares BMS}}{15}\protected@file@percent }
\newlabel{bms_modul}{{1.3}{15}}
\acronymused{bms}
\@writefile{toc}{\contentsline {subsection}{\numberline {1.3.3}Master - Slave \ac {bms}}{16}\protected@file@percent }
\acronymused{bms}
\acronymused{bms}
\@writefile{lof}{\contentsline {figure}{\numberline {1.4}{\ignorespaces Topologie des Master - Slave BMS}}{16}\protected@file@percent }
\newlabel{bms_master_slave}{{1.4}{16}}
\citation{Andrea2010}
\acronymused{bms}
\@writefile{toc}{\contentsline {subsection}{\numberline {1.3.4}Distributed \ac {bms}}{17}\protected@file@percent }
\@writefile{lof}{\contentsline {figure}{\numberline {1.5}{\ignorespaces Topologie des Verteiltes BMS}}{17}\protected@file@percent }
\newlabel{bms_distributed}{{1.5}{17}}
\acronymused{bms}
\acronymused{emv}
\newlabel{Vergleich von bms Topologie}{{1.3.4}{17}}
\@writefile{toc}{\contentsline {section}{\numberline {1.4}Gesetzliche technische Normen von Ger\IeC {\"a}teentwicklung f\IeC {\"u}r Industrie und Privatgebiet }{18}\protected@file@percent }
\newlabel{technische normen}{{1.4}{18}}
\AC@undonewlabel{acro:vde}
\newlabel{acro:vde}{{1.4}{18}}
\acronymused{vde}
\acronymused{bms}
\acronymused{bms}
\acronymused{vde}
\acronymused{vde}
\@setckpt{Chapter/3_BMS_Arten_und_Funktionalitaet}{
\setcounter{page}{19}
\setcounter{equation}{0}
\setcounter{enumi}{8}
\setcounter{enumii}{0}
\setcounter{enumiii}{0}
\setcounter{enumiv}{0}
\setcounter{footnote}{0}
\setcounter{mpfootnote}{0}
\setcounter{part}{0}
\setcounter{chapter}{1}
\setcounter{section}{4}
\setcounter{subsection}{0}
\setcounter{subsubsection}{0}
\setcounter{paragraph}{0}
\setcounter{subparagraph}{0}
\setcounter{figure}{5}
\setcounter{table}{0}
}
