\relax 
\citation{Weicker2013}
\@writefile{toc}{\contentsline {chapter}{\numberline {2}Entwicklung und Implementierung von \acl {bms}}{19}\protected@file@percent }
\@writefile{lof}{\addvspace {10\p@ }}
\@writefile{lot}{\addvspace {10\p@ }}
\acronymused{bms}
\acronymused{bms}
\@writefile{toc}{\contentsline {section}{\numberline {2.1}\acl {bms} Strukturplan}{19}\protected@file@percent }
\acronymused{bms}
\acronymused{bms}
\acronymused{bms}
\acronymused{bms}
\AC@undonewlabel{acro:pcu}
\newlabel{acro:pcu}{{2.1}{19}}
\acronymused{pcu}
\AC@undonewlabel{acro:bcu}
\newlabel{acro:bcu}{{2.1}{19}}
\acronymused{bcu}
\acronymused{bms}
\acronymused{bms}
\acronymused{bms}
\acronymused{pcu}
\acronymused{bcu}
\citation{Weicker2013}
\acronymused{pcu}
\acronymused{bms}
\acronymused{bms}
\acronymused{bms}
\acronymused{bms}
\acronymused{lfp}
\@writefile{lof}{\contentsline {figure}{\numberline {2.1}{\ignorespaces Topologie der BMS Aufbau}}{20}\protected@file@percent }
\newlabel{abb. batteriepack_open}{{2.1}{20}}
\acronymused{bms}
\AC@undonewlabel{acro:i2c}
\newlabel{acro:i2c}{{2.1}{20}}
\acronymused{i2c}
\acronymused{pcu}
\acronymused{bms}
\@writefile{lof}{\contentsline {figure}{\numberline {2.2}{\ignorespaces Topologie der BMS Aufbau}}{21}\protected@file@percent }
\newlabel{GessamtStrukturAufbau}{{2.2}{21}}
\@writefile{toc}{\contentsline {section}{\numberline {2.2}Zielhardware und eingesetzte Werkzeuge}{21}\protected@file@percent }
\acronymused{bcu}
\@writefile{toc}{\contentsline {subsection}{\numberline {2.2.1}\acl {bcu}}{21}\protected@file@percent }
\acronymused{bcu}
\AC@undonewlabel{acro:rpi}
\newlabel{acro:rpi}{{2.2.1}{21}}
\acronymused{rpi}
\acronymused{rpi}
\acronymused{spi}
\acronymused{isospi}
\acronymused{can}
\acronymused{i2c}
\AC@undonewlabel{acro:rtc}
\newlabel{acro:rtc}{{2.2.1}{21}}
\acronymused{rtc}
\acronymused{uart}
\AC@undonewlabel{acro:mcu}
\newlabel{acro:mcu}{{2.2.1}{21}}
\acronymused{mcu}
\citation{ltc6811}
\citation{ltc6811}
\AC@undonewlabel{acro:gpio}
\newlabel{acro:gpio}{{2.2.1}{22}}
\acronymused{gpio}
\acronymused{can}
\acronymused{bms}
\acronymused{rpi}
\acronymused{rtc}
\acronymused{i2c}
\acronymused{rpi}
\acronymused{rtc}
\AC@undonewlabel{acro:spi}
\newlabel{acro:spi}{{2.2.1}{22}}
\acronymused{spi}
\acronymused{rpi}
\acronymused{spi}
\acronymused{can}
\acronymused{spi}
\acronymused{rpi}
\acronymused{pcu}
\@writefile{toc}{\contentsline {subsection}{\numberline {2.2.2}\acl {pcu}}{22}\protected@file@percent }
\acronymused{pcu}
\AC@undonewlabel{acro:ic}
\newlabel{acro:ic}{{2.2.2}{22}}
\acronymused{ic}
\acronymused{ic}
\acronymused{gpio}
\acronymused{ic}
\acronymused{ic}
\acronymused{ic}
\acronymused{bcu}
\acronymused{i2c}
\acronymused{spi}
\acronymused{bcu}
\acronymused{bcu}
\citation{Weicker2013}
\citation{ltc6811}
\citation{isospi_Abbildung_3}
\citation{isospi_Abbildung_3}
\citation{Weicker2013}
\@writefile{toc}{\contentsline {section}{\numberline {2.3}Implementierung und Kommunikation}{23}\protected@file@percent }
\acronymused{pcu}
\acronymused{pcu}
\acronymused{bcu}
\acronymused{isospi}
\acronymused{bcu}
\acronymused{pcu}
\acronymused{can}
\acronymused{bms}
\acronymused{bcu}
\acronymused{bcu}
\AC@undonewlabel{acro:emv}
\newlabel{acro:emv}{{2.3}{23}}
\acronymused{emv}
\acronymused{isospi}
\acronymused{can}
\acronymused{isospi}
\@writefile{toc}{\contentsline {subsection}{\numberline {2.3.1}\ac {isospi}}{23}\protected@file@percent }
\acronymused{isospi}
\acronymused{isospi}
\acronymused{isospi}
\acronymused{pcu}
\acronymused{isospi}
\acronymused{ic}
\acronymused{isospi}
\acronymused{pcu}
\acronymused{spi}
\acronymused{isospi}
\acronymused{bcu}
\acronymused{can}
\@writefile{toc}{\contentsline {subsection}{\numberline {2.3.2}\ac {can}}{23}\protected@file@percent }
\acronymused{can}
\acronymused{bcu}
\acronymused{can}
\acronymused{emv}
\@writefile{lof}{\contentsline {figure}{\numberline {2.3}{\ignorespaces \ac {isospi} Kommunikation zwischen LTC6811 (\acs {pcu}) und \acs {bcu} \IeC {\"u}ber LTC6820 (\acs {spi} auf \acs {isospi} Adapter). Eigene Darstellung in Anlehnung an \cite  [Abbildung: 3]{isospi_Abbildung_3}}}{24}\protected@file@percent }
\acronymused{isospi}
\acronymused{pcu}
\acronymused{bcu}
\acronymused{spi}
\acronymused{isospi}
\newlabel{isoSpi_LTC6811}{{2.3}{24}}
\@writefile{lof}{\contentsline {figure}{\numberline {2.4}{\ignorespaces CANbus Kommunikationslinie mit \ac {bcu}, Sicherheitsbord (SB), Strommesseinheit (ISA)}}{24}\protected@file@percent }
\acronymused{bcu}
\newlabel{abb. Canbus_line}{{2.4}{24}}
\@writefile{toc}{\contentsline {subsection}{\numberline {2.3.3}Datentransfer}{24}\protected@file@percent }
\acronymused{bcu}
\acronymused{rpi}
\acronymused{pcu}
\acronymused{spi}
\acronymused{rpi}
\acronymused{spi}
\acronymused{isospi}
\acronymused{pcu}
\acronymused{spi}
\acronymused{isospi}
\AC@undonewlabel{acro:lt}
\newlabel{acro:lt}{{2.3.3}{24}}
\acronymused{lt}
\acronymused{ic}
\acronymused{bcu}
\AC@undonewlabel{acro:cmd}
\newlabel{acro:cmd}{{2.3.3}{24}}
\acronymused{cmd}
\AC@undonewlabel{acro:pec}
\newlabel{acro:pec}{{2.3.3}{24}}
\acronymused{pec}
\acronymused{pcu}
\acronymused{spi}
\acronymused{spi}
\citation{ltc6811}
\citation{ltc6811}
\acronymused{pec}
\acronymused{pec}
\AC@undonewlabel{acro:crc}
\newlabel{acro:crc}{{2.3.3}{25}}
\acronymused{crc}
\AC@undonewlabel{acro:adc}
\newlabel{acro:adc}{{2.3.3}{25}}
\acronymused{adc}
\acronymused{adc}
\acronymused{pcu}
\acronymused{adc}
\acronymused{pcu}
\acronymused{pcu}
\acronymused{adc}
\acronymused{gpio}
\acronymused{gpio}
\AC@undonewlabel{acro:mux}
\newlabel{acro:mux}{{7}{25}}
\acronymused{mux}
\acronymused{pcu}
\acronymused{pcu}
\acronymused{pcu}
\acronymused{adc}
\acronymused{pcu}
\@writefile{lot}{\contentsline {table}{\numberline {2.1}{\ignorespaces Broadcast Schreibbefehl. Nach dieser Muster wurden die Daten auf \ac {pcu} \IeC {\"U}bertragen und der Antwort von \ac {pcu} erhalten}}{25}\protected@file@percent }
\acronymused{pcu}
\acronymused{pcu}
\newlabel{Datenpaket}{{2.1}{25}}
\@writefile{toc}{\contentsline {section}{\numberline {2.4}Spannungsmessungen}{25}\protected@file@percent }
\acronymused{lfp}
\acronymused{adc}
\citation{ltc6811}
\citation{ltc6811}
\citation{ltc6811}
\citation{ltc6811}
\citation{ltc6811}
\citation{ltc6811}
\acronymused{adc}
\@writefile{lof}{\contentsline {figure}{\numberline {2.5}{\ignorespaces ADC Spannungsmessaufbau in der LTC6811 Entnommen aus\cite  [S. 17]{ltc6811}}}{26}\protected@file@percent }
\newlabel{ADCConwention}{{2.5}{26}}
\acronymused{adc}
\@writefile{lof}{\contentsline {figure}{\numberline {2.6}{\ignorespaces Zeitverteilung bei der Messung aller 12 Zellen; Entnommen aus\cite  [S. 24 Figure 3]{ltc6811}}}{26}\protected@file@percent }
\newlabel{Measurement_von_ADC}{{2.6}{26}}
\acronymused{adc}
\acronymused{adc}
\acronymused{lt}
\acronymused{ic}
\acronymused{adc}
\acronymused{bcu}
\acronymused{bcu}
\@writefile{lof}{\contentsline {figure}{\numberline {2.7}{\ignorespaces Optimaler Verschaltung von 8 Zellen mit LTC6811}}{27}\protected@file@percent }
\newlabel{Acht_Zellen_Verschaltung}{{2.7}{27}}
\@writefile{toc}{\contentsline {section}{\numberline {2.5}Strommessung}{27}\protected@file@percent }
\newlabel{sec. Strommessung}{{2.5}{27}}
\citation{isa_ivt-s}
\citation{isa_ivt-s}
\citation{isa_ivt-s}
\acronymused{bms}
\AC@undonewlabel{acro:wr}
\newlabel{acro:wr}{{2.5}{28}}
\acronymused{wr}
\acronymused{adc}
\acronymused{can}
\@writefile{lof}{\contentsline {figure}{\numberline {2.8}{\ignorespaces Strom und Spannungsmessung Verschaltung von Isabellen H\IeC {\"u}tte IVT-S. Entnommen aus\cite  [S. 10]{isa_ivt-s}}}{28}\protected@file@percent }
\newlabel{abb. isabellen_hutte}{{2.8}{28}}
\@writefile{toc}{\contentsline {section}{\numberline {2.6}Temperaturmessung}{28}\protected@file@percent }
\AC@undonewlabel{acro:ntc}
\newlabel{acro:ntc}{{2.6}{28}}
\acronymused{ntc}
\AC@undonewlabel{acro:ptc}
\newlabel{acro:ptc}{{2.6}{28}}
\acronymused{ptc}
\acronymused{mux}
\acronymused{gpio}
\acronymused{mux}
\acronymused{i2c}
\acronymused{ic}
\acronymused{i2c}
\acronymused{spi}
\@writefile{toc}{\contentsline {section}{\numberline {2.7}Balancieren}{29}\protected@file@percent }
\acronymused{soc}
\acronymused{soc}
\acronymused{soc}
\acronymused{soc}
\citation{Weicker2013}
\citation{ltc6811}
\acronymused{wr}
\@writefile{lof}{\contentsline {figure}{\numberline {2.9}{\ignorespaces Balancing Schaltung f\IeC {\"u}r die Zelle 1 (Balancing anderer Zellen ist identisch)}}{30}\protected@file@percent }
\newlabel{Balancing_Verschaltung}{{2.9}{30}}
\@writefile{lof}{\contentsline {figure}{\numberline {2.10}{\ignorespaces Lade und Balancing einer Pack mit 10A, 5A und nach der Balancing beginn mit 1A}}{31}\protected@file@percent }
\newlabel{Ladavorgang_mit_balancing}{{2.10}{31}}
\@writefile{toc}{\contentsline {section}{\numberline {2.8}Balancing Feedback}{31}\protected@file@percent }
\acronymused{pcu}
\acronymused{bms}
\acronymused{gpio}
\acronymused{bcu}
\AC@undonewlabel{acro:op}
\newlabel{acro:op}{{2.8}{32}}
\acronymused{op}
\@writefile{lof}{\contentsline {figure}{\numberline {2.11}{\ignorespaces Balancing Feedback Schaltung welcher auf \ac {mux} Basis aufgebaut ist}}{32}\protected@file@percent }
\acronymused{mux}
\newlabel{Balancing_Feedback}{{2.11}{32}}
\acronymused{gpio}
\acronymused{i2c}
\acronymused{i2c}
\AC@undonewlabel{acro:io}
\newlabel{acro:io}{{2.8}{32}}
\acronymused{io}
\acronymused{i2c}
\acronymused{bcu}
\acronymused{i2c}
\acronymused{i2c}
\acronymused{gpio}
\acronymused{gpio}
\acronymused{bcu}
\@writefile{lot}{\contentsline {table}{\numberline {2.2}{\ignorespaces Wahrheitstabelle zu CD74HC4067}}{33}\protected@file@percent }
\newlabel{Wahrheitstabelle zu CD74HC4067}{{2.2}{33}}
\@writefile{toc}{\contentsline {section}{\numberline {2.9}Temperatur Management}{33}\protected@file@percent }
\acronymused{adc}
\acronymused{pcu}
\acronymused{pcu}
\citation{ltc6811}
\acronymused{pcu}
\acronymused{pcu}
\acronymused{pcu}
\AC@undonewlabel{acro:pwm}
\newlabel{acro:pwm}{{2.9}{34}}
\acronymused{pwm}
\acronymused{pwm}
\acronymused{soc}
\newlabel{PWM_Waemeleistung}{{2.1}{34}}
\newlabel{PWM_Anpassung}{{2.2}{34}}
\acronymused{pcu}
\@setckpt{Chapter/4_BMS_Entwicklung_und_Implementierung}{
\setcounter{page}{35}
\setcounter{equation}{2}
\setcounter{enumi}{6}
\setcounter{enumii}{0}
\setcounter{enumiii}{0}
\setcounter{enumiv}{0}
\setcounter{footnote}{0}
\setcounter{mpfootnote}{0}
\setcounter{part}{0}
\setcounter{chapter}{2}
\setcounter{section}{9}
\setcounter{subsection}{0}
\setcounter{subsubsection}{0}
\setcounter{paragraph}{0}
\setcounter{subparagraph}{0}
\setcounter{figure}{11}
\setcounter{table}{2}
}
