\relax 
\@writefile{toc}{\contentsline {chapter}{\numberline {6}Entwicklung und Implementierung von Batteriesicherheitssystem}{43}\protected@file@percent }
\@writefile{lof}{\addvspace {10\p@ }}
\@writefile{lot}{\addvspace {10\p@ }}
\newlabel{cap. Sicherheitsboard}{{6}{43}}
\@writefile{toc}{\contentsline {section}{\numberline {6.1}Motivation und Aufbau}{43}\protected@file@percent }
\acronymused{mcu}
\acronymused{mcu}
\acronymused{mcu}
\acronymused{wr}
\@writefile{toc}{\contentsline {section}{\numberline {6.2}Implementierung des Sicherheitssystems}{43}\protected@file@percent }
\acronymused{bms}
\acronymused{bms}
\acronymused{wr}
\acronymused{wr}
\acronymused{bcu}
\AC@undonewlabel{acro:api}
\newlabel{acro:api}{{6.2}{43}}
\acronymused{api}
\acronymused{wr}
\acronymused{bcu}
\citation{Weicker2013}
\citation{Weicker2013}
\acronymused{mcu}
\acronymused{bcu}
\acronymused{can}
\acronymused{uart}
\@writefile{toc}{\contentsline {section}{\numberline {6.3}Precharge Schaltkreis}{44}\protected@file@percent }
\acronymused{bms}
\@writefile{lof}{\contentsline {figure}{\numberline {6.1}{\ignorespaces Soft-Start oder Precharge Topologie Sicher die Batterie von hohe Str\IeC {\"o}me die aus der Batterie in der Kapazitiver last einflie\IeC {\ss }en}}{44}\protected@file@percent }
\newlabel{Precharge}{{6.1}{44}}
\acronymused{mcu}
\@writefile{lof}{\contentsline {figure}{\numberline {6.2}{\ignorespaces Relay Ansteuerung}}{45}\protected@file@percent }
\newlabel{Relay_set}{{6.2}{45}}
\@writefile{toc}{\contentsline {section}{\numberline {6.4}Eigenschaften und Funktionalit\IeC {\"a}t des Sicherheitssystems}{45}\protected@file@percent }
\citation{radlock}
\citation{stm32l433}
\@writefile{toc}{\contentsline {section}{\numberline {6.5}Elektronische Komponente des Sicherheitssystems}{46}\protected@file@percent }
\newlabel{SecKomponente}{{6.5}{46}}
\acronymused{mcu}
\@writefile{toc}{\contentsline {section}{\numberline {6.6}Aufbau und Implementierung des Sicherheitssystems}{46}\protected@file@percent }
\acronymused{mcu}
\acronymused{uart}
\acronymused{can}
\acronymused{mcu}
\AC@undonewlabel{acro:uart}
\newlabel{acro:uart}{{8}{46}}
\acronymused{uart}
\acronymused{pcb}
\@writefile{lof}{\contentsline {figure}{\numberline {6.3}{\ignorespaces Sicherheitstestaufbau f\IeC {\"u}r die Peripherie Testvorgang}}{47}\protected@file@percent }
\newlabel{abb. sec_platte}{{6.3}{47}}
\@writefile{toc}{\contentsline {section}{\numberline {6.7}Ansteuerung von Sicherheitssystem mittels Seriel Kommunikation }{47}\protected@file@percent }
\acronymused{mcu}
\@writefile{toc}{\contentsline {section}{\numberline {6.8}Sicherheitsparameter state machine}{47}\protected@file@percent }
\@setckpt{Chapter/5_BMS_Sicherheitssystem}{
\setcounter{page}{48}
\setcounter{equation}{0}
\setcounter{enumi}{8}
\setcounter{enumii}{0}
\setcounter{enumiii}{0}
\setcounter{enumiv}{0}
\setcounter{footnote}{0}
\setcounter{mpfootnote}{0}
\setcounter{part}{0}
\setcounter{chapter}{6}
\setcounter{section}{8}
\setcounter{subsection}{0}
\setcounter{subsubsection}{0}
\setcounter{paragraph}{0}
\setcounter{subparagraph}{0}
\setcounter{figure}{3}
\setcounter{table}{0}
}
