\relax 
\@writefile{toc}{\contentsline {chapter}{\numberline {3}Ergebnis}{35}\protected@file@percent }
\@writefile{lof}{\addvspace {10\p@ }}
\@writefile{lot}{\addvspace {10\p@ }}
\@writefile{toc}{\contentsline {section}{\numberline {3.1}Ergebnis Auswertung}{35}\protected@file@percent }
\acronymused{bms}
\acronymused{bms}
\acronymused{pcu}
\acronymused{bcu}
\acronymused{pcu}
\acronymused{bcu}
\acronymused{pwm}
\acronymused{wr}
\acronymused{bcu}
\acronymused{bms}
\acronymused{bms}
\acronymused{soc}
\AC@undonewlabel{acro:soh}
\newlabel{acro:soh}{{3.1}{35}}
\acronymused{soh}
\citation{ltc6811}
\@writefile{lof}{\contentsline {figure}{\numberline {3.1}{\ignorespaces Relay Ansteuerung}}{36}\protected@file@percent }
\newlabel{abb. Pack}{{3.1}{36}}
\acronymused{bcu}
\acronymused{ic}
\acronymused{pcu}
\acronymused{bcu}
\acronymused{mcu}
\acronymused{bms}
\acronymused{pcu}
\@writefile{lof}{\contentsline {figure}{\numberline {3.2}{\ignorespaces Relay Ansteuerung}}{37}\protected@file@percent }
\newlabel{abb. ks_versuch_zelle}{{3.2}{37}}
\acronymused{ic}
\acronymused{lfp}
\@setckpt{Chapter/6_Ergebnisse}{
\setcounter{page}{38}
\setcounter{equation}{0}
\setcounter{enumi}{6}
\setcounter{enumii}{0}
\setcounter{enumiii}{0}
\setcounter{enumiv}{0}
\setcounter{footnote}{0}
\setcounter{mpfootnote}{0}
\setcounter{part}{0}
\setcounter{chapter}{3}
\setcounter{section}{1}
\setcounter{subsection}{0}
\setcounter{subsubsection}{0}
\setcounter{paragraph}{0}
\setcounter{subparagraph}{0}
\setcounter{figure}{2}
\setcounter{table}{0}
}
