\relax 
\@writefile{toc}{\contentsline {chapter}{\numberline {2}Fazit}{11}\protected@file@percent }
\@writefile{lof}{\addvspace {10\p@ }}
\@writefile{lot}{\addvspace {10\p@ }}
\acronymused{bms}
\acronymused{bms}
\acronymused{bms}
\acronymused{bms}
\acronymused{bms}
\acronymused{bcu}
\acronymused{bms}
\acronymused{wr}
\acronymused{wr}
\acronymused{wr}
\acronymused{bms}
\@setckpt{Chapter/7_Zusammenfassung}{
\setcounter{page}{12}
\setcounter{equation}{0}
\setcounter{enumi}{0}
\setcounter{enumii}{0}
\setcounter{enumiii}{0}
\setcounter{enumiv}{0}
\setcounter{footnote}{0}
\setcounter{mpfootnote}{0}
\setcounter{part}{0}
\setcounter{chapter}{2}
\setcounter{section}{0}
\setcounter{subsection}{0}
\setcounter{subsubsection}{0}
\setcounter{paragraph}{0}
\setcounter{subparagraph}{0}
\setcounter{figure}{0}
\setcounter{table}{0}
}
