This is BibTeX, Version 0.99dThe top-level auxiliary file: Main.aux
A level-1 auxiliary file: Struktur/Nomenklatur.aux
A level-1 auxiliary file: Struktur/description.aux
A level-1 auxiliary file: Struktur/formel.aux
A level-1 auxiliary file: Chapter/Zusammenfassung_corr.aux
A level-1 auxiliary file: Chapter/Einleitung_corr.aux
A level-1 auxiliary file: Chapter/Theoretische_Grundlagen.aux
A level-1 auxiliary file: Chapter/Stand_der_Technik.aux
A level-1 auxiliary file: Chapter/Implementierung.aux
A level-1 auxiliary file: Chapter/funktionsbeschreibung.aux
A level-1 auxiliary file: Chapter/Fazit.aux
The style file: unsrt.bst
Database file #1: Referensis.bib
Warning--I'm ignoring isospi_Abbildung_3's extra "note" field
--line 149 of file Referensis.bib
Warning--can't use both author and editor fields in PeterKurzweil2018
(There were 2 warnings)
