\relax 
\AC@reset@newl@bel
\providecommand\@newglossary[4]{}
\@newglossary{main}{glg}{gls}{glo}
\providecommand\@glsorder[1]{}
\providecommand\@istfilename[1]{}
\@istfilename{Main.ist}
\@glsorder{word}
\acronymused{lfp}
\AC@undonewlabel{acro:bms}
\newlabel{acro:bms}{{}{2}}
\acronymused{bms}
\AC@undonewlabel{acro:cccv}
\newlabel{acro:cccv}{{}{2}}
\acronymused{cccv}
\acronymused{bms}
\acronymused{bms}
\acronymused{bms}
\acronymused{bms}
\acronymused{bms}
\acronymused{bms}
\acronymused{bms}
\acronymused{bms}
\acronymused{bms}
\AC@undonewlabel{acro:bcu}
\newlabel{acro:bcu}{{}{3}}
\acronymused{bcu}
\AC@undonewlabel{acro:pcu}
\newlabel{acro:pcu}{{}{3}}
\acronymused{pcu}
\acronymused{bms}
\AC@undonewlabel{acro:isospi}
\newlabel{acro:isospi}{{}{3}}
\acronymused{isospi}
\AC@undonewlabel{acro:can}
\newlabel{acro:can}{{}{3}}
\acronymused{can}
\acronymused{bcu}
\acronymused{pcu}
\@input{Struktur/Nomenklatur.aux}
\@input{Struktur/description.aux}
\@input{Struktur/formel.aux}
\@input{Chapter/Zusammenfassung_corr.aux}
\@input{Chapter/Einleitung_corr.aux}
\@input{Chapter/Theoretische_Grundlagen.aux}
\@input{Chapter/Stand_der_Technik.aux}
\@input{Chapter/Implementierung.aux}
\@input{Chapter/funktionsbeschreibung.aux}
\@input{Chapter/Fazit.aux}
\bibdata{Referensis}
\bibcite{2013RheinerKorthauer}{1}
\bibcite{Weicker2013}{2}
\bibcite{PeterKurzweil2018}{3}
\bibcite{DIN}{4}
\bibcite{Andrea2010}{5}
\bibcite{DeviceTrees2018}{6}
\bibcite{spican2018}{7}
\bibcite{ltc6811}{8}
\bibcite{isospi_Abbildung_3}{9}
\bibcite{isa_ivt-s}{10}
\bibcite{radlock}{11}
\bibstyle{unsrt}
