Time;myseries.mean {IVT_Msg_Result: U1};myseries.mean {IVT_Msg_Result: U2};myseries.mean {IVT_Msg_Result: U3}
2019-01-31T14:09;16.573;16.459352941176473;0.047764705882352945
2019-01-31T14:09;null;null;null
2019-01-31T14:09;null;null;null
2019-01-31T14:09;null;null;null
2019-01-31T14:09;null;null;null
2019-01-31T14:09;null;null;null
2019-01-31T14:09;null;null;null
2019-01-31T14:09;null;null;null
2019-01-31T14:09;null;null;null
2019-01-31T14:09;null;null;null
2019-01-31T14:09;16.560125;16.4516875;0.04118750000000001
2019-01-31T14:09;null;null;null
2019-01-31T14:09;null;null;null
2019-01-31T14:09;null;null;null
2019-01-31T14:09;null;null;null
2019-01-31T14:09;null;null;null
2019-01-31T14:09;null;null;null
2019-01-31T14:09;null;null;null
2019-01-31T14:09;null;null;null
2019-01-31T14:09;null;null;null
2019-01-31T14:09;16.537411764705887;16.42470588235294;0.05382352941176471
2019-01-31T14:09;null;null;null
2019-01-31T14:09;null;null;null
2019-01-31T14:09;null;null;null
2019-01-31T14:09;null;null;null
2019-01-31T14:09;null;null;null
2019-01-31T14:09;null;null;null
2019-01-31T14:09;null;null;null
2019-01-31T14:09;null;null;null
2019-01-31T14:09;null;null;null
2019-01-31T14:09;16.517941176470586;16.41276470588235;0.04588235294117647
2019-01-31T14:09;null;null;null
2019-01-31T14:09;null;null;null
2019-01-31T14:09;null;null;null
2019-01-31T14:09;null;null;null
2019-01-31T14:09;null;null;null
2019-01-31T14:09;null;null;null
2019-01-31T14:09;null;null;null
2019-01-31T14:09;null;null;null
2019-01-31T14:09;null;null;null
2019-01-31T14:09;16.490352941176475;16.393058823529415;0.046875000000000014
2019-01-31T14:09;null;null;null
2019-01-31T14:09;null;null;null
2019-01-31T14:09;null;null;null
2019-01-31T14:09;null;null;null
2019-01-31T14:09;null;null;null
2019-01-31T14:09;null;null;null
2019-01-31T14:09;null;null;null
2019-01-31T14:09;null;null;null
2019-01-31T14:09;null;null;null
2019-01-31T14:09;16.481624999999998;16.376749999999998;0.048058823529411765
2019-01-31T14:09;null;null;null
2019-01-31T14:09;null;null;null
2019-01-31T14:09;null;null;null
2019-01-31T14:09;null;null;null
2019-01-31T14:09;null;null;null
2019-01-31T14:09;null;null;null
2019-01-31T14:09;null;null;null
2019-01-31T14:09;null;null;null
2019-01-31T14:09;null;null;null
2019-01-31T14:09;null;null;null
2019-01-31T14:09;null;null;null
2019-01-31T14:09;null;null;null
2019-01-31T14:09;null;null;null
2019-01-31T14:09;null;null;null
2019-01-31T14:09;null;null;null
2019-01-31T14:09;null;null;null
2019-01-31T14:09;null;null;null
2019-01-31T14:09;null;null;null
2019-01-31T14:09;null;null;null
2019-01-31T14:09;16.4566875;16.359062499999997;0.05006250000000002
2019-01-31T14:09;null;null;null
2019-01-31T14:09;null;null;null
2019-01-31T14:09;null;null;null
2019-01-31T14:09;null;null;null
2019-01-31T14:09;null;null;null
2019-01-31T14:09;null;null;null
2019-01-31T14:09;null;null;null
2019-01-31T14:09;null;null;null
2019-01-31T14:09;null;null;null
2019-01-31T14:09;16.40425;16.303875;0.0494375
2019-01-31T14:09;null;null;null
2019-01-31T14:09;null;null;null
2019-01-31T14:09;null;null;null
2019-01-31T14:09;null;null;null
2019-01-31T14:09;null;null;null
2019-01-31T14:09;null;null;null
2019-01-31T14:09;null;null;null
2019-01-31T14:09;null;null;null
2019-01-31T14:09;null;null;null
2019-01-31T14:09;null;null;null
2019-01-31T14:09;null;null;null
2019-01-31T14:09;null;null;null
2019-01-31T14:09;null;null;null
2019-01-31T14:09;null;null;null
2019-01-31T14:09;null;null;null
2019-01-31T14:09;null;null;null
2019-01-31T14:09;null;null;null
2019-01-31T14:09;null;null;null
2019-01-31T14:09;null;null;null
2019-01-31T14:09;16.370882352941177;16.27011764705882;0.04170588235294118
2019-01-31T14:09;null;null;null
2019-01-31T14:09;null;null;null
2019-01-31T14:09;null;null;null
2019-01-31T14:09;null;null;null
2019-01-31T14:09;null;null;null
2019-01-31T14:09;null;null;null
2019-01-31T14:09;null;null;null
2019-01-31T14:09;null;null;null
2019-01-31T14:09;null;null;null
2019-01-31T14:09;16.35311764705882;16.25935294117647;0.04841176470588236
2019-01-31T14:09;null;null;null
2019-01-31T14:09;null;null;null
2019-01-31T14:09;null;null;null
2019-01-31T14:09;null;null;null
2019-01-31T14:09;null;null;null
2019-01-31T14:09;null;null;null
2019-01-31T14:09;null;null;null
2019-01-31T14:09;null;null;null
2019-01-31T14:09;null;null;null
2019-01-31T14:09;16.323;16.229000000000003;0.03941176470588236
2019-01-31T14:09;null;null;null
2019-01-31T14:09;null;null;null
2019-01-31T14:09;null;null;null
2019-01-31T14:09;null;null;null
2019-01-31T14:09;null;null;null
2019-01-31T14:09;null;null;null
2019-01-31T14:09;null;null;null
2019-01-31T14:09;null;null;null
2019-01-31T14:09;null;null;null
2019-01-31T14:09;16.261647058823527;16.170235294117646;0.04547058823529412
2019-01-31T14:09;null;null;null
2019-01-31T14:09;null;null;null
2019-01-31T14:09;null;null;null
2019-01-31T14:09;null;null;null
2019-01-31T14:09;null;null;null
2019-01-31T14:09;null;null;null
2019-01-31T14:09;null;null;null
2019-01-31T14:09;null;null;null
2019-01-31T14:09;null;null;null
2019-01-31T14:09;16.2433125;16.135875;0.041875
2019-01-31T14:09;null;null;null
2019-01-31T14:09;null;null;null
2019-01-31T14:09;null;null;null
2019-01-31T14:09;null;null;null
2019-01-31T14:09;null;null;null
2019-01-31T14:09;null;null;null
2019-01-31T14:09;null;null;null
2019-01-31T14:09;null;null;null
2019-01-31T14:09;null;null;null
2019-01-31T14:09;16.20688235294118;16.116;0.044352941176470595
2019-01-31T14:09;null;null;null
2019-01-31T14:09;null;null;null
2019-01-31T14:09;null;null;null
2019-01-31T14:09;null;null;null
2019-01-31T14:09;null;null;null
2019-01-31T14:09;null;null;null
2019-01-31T14:09;null;null;null
2019-01-31T14:09;null;null;null
2019-01-31T14:09;null;null;null
2019-01-31T14:09;16.170529411764704;16.065529411764704;0.034
2019-01-31T14:09;null;null;null
2019-01-31T14:09;null;null;null
2019-01-31T14:09;null;null;null
2019-01-31T14:09;null;null;null
2019-01-31T14:09;null;null;null
2019-01-31T14:09;null;null;null
2019-01-31T14:09;null;null;null
2019-01-31T14:09;null;null;null
2019-01-31T14:09;null;null;null
2019-01-31T14:09;16.1464375;16.05025;0.0461875
2019-01-31T14:09;null;null;null
2019-01-31T14:09;null;null;null
2019-01-31T14:09;null;null;null
2019-01-31T14:09;null;null;null
2019-01-31T14:09;null;null;null
2019-01-31T14:09;null;null;null
2019-01-31T14:09;null;null;null
2019-01-31T14:09;null;null;null
2019-01-31T14:09;null;null;null
2019-01-31T14:09;16.095117647058824;16.012235294117648;0.03805882352941177
2019-01-31T14:09;null;null;null
2019-01-31T14:09;null;null;null
2019-01-31T14:09;null;null;null
2019-01-31T14:09;null;null;null
2019-01-31T14:09;null;null;null
2019-01-31T14:09;null;null;null
2019-01-31T14:09;null;null;null
2019-01-31T14:09;null;null;null
2019-01-31T14:09;null;null;null
2019-01-31T14:09;16.077058823529413;15.984470588235293;0.04158823529411766
2019-01-31T14:09;null;null;null
2019-01-31T14:09;null;null;null
2019-01-31T14:09;null;null;null
2019-01-31T14:09;null;null;null
2019-01-31T14:09;null;null;null
2019-01-31T14:09;null;null;null
2019-01-31T14:09;null;null;null
2019-01-31T14:09;null;null;null
2019-01-31T14:09;null;null;null
2019-01-31T14:09;16.054882352941178;15.962374999999998;0.04281250000000001
2019-01-31T14:09;null;null;null
2019-01-31T14:09;null;null;null
2019-01-31T14:09;null;null;null
2019-01-31T14:09;null;null;null
2019-01-31T14:09;null;null;null
2019-01-31T14:09;null;null;null
2019-01-31T14:09;null;null;null
2019-01-31T14:09;null;null;null
2019-01-31T14:09;null;null;null
2019-01-31T14:09;16.045125000000002;15.940058823529409;0.053882352941176485
2019-01-31T14:09;null;null;null
2019-01-31T14:09;null;null;null
2019-01-31T14:09;null;null;null
2019-01-31T14:09;null;null;null
2019-01-31T14:09;null;null;null
2019-01-31T14:09;null;null;null
2019-01-31T14:09;null;null;null
2019-01-31T14:09;null;null;null
2019-01-31T14:09;null;null;null
2019-01-31T14:09;16.018647058823525;15.909882352941178;0.03488235294117647
2019-01-31T14:09;null;null;null
2019-01-31T14:09;null;null;null
2019-01-31T14:09;null;null;null
2019-01-31T14:09;null;null;null
2019-01-31T14:09;null;null;null
2019-01-31T14:09;null;null;null
2019-01-31T14:09;null;null;null
2019-01-31T14:09;null;null;null
2019-01-31T14:09;null;null;null
2019-01-31T14:09;null;null;null
2019-01-31T14:09;null;null;null
2019-01-31T14:09;null;null;null
2019-01-31T14:09;null;null;null
2019-01-31T14:09;null;null;null
2019-01-31T14:09;null;null;null
2019-01-31T14:09;null;null;null
2019-01-31T14:09;null;null;null
2019-01-31T14:09;null;null;null
2019-01-31T14:09;null;null;null
2019-01-31T14:09;15.951125000000001;15.867687499999999;0.03956250000000001
2019-01-31T14:09;null;null;null
2019-01-31T14:09;null;null;null
2019-01-31T14:09;null;null;null
2019-01-31T14:09;null;null;null
2019-01-31T14:09;null;null;null
2019-01-31T14:09;null;null;null
2019-01-31T14:09;null;null;null
2019-01-31T14:09;null;null;null
2019-01-31T14:09;null;null;null
2019-01-31T14:09;null;null;null
2019-01-31T14:09;null;null;null
2019-01-31T14:09;null;null;null
2019-01-31T14:09;null;null;null
2019-01-31T14:09;null;null;null
2019-01-31T14:09;null;null;null
2019-01-31T14:09;null;null;null
2019-01-31T14:09;null;null;null
2019-01-31T14:09;null;null;null
2019-01-31T14:09;null;null;null
2019-01-31T14:09;15.704058823529412;15.616882352941175;0.04111764705882354
2019-01-31T14:09;null;null;null
2019-01-31T14:09;null;null;null
2019-01-31T14:09;null;null;null
2019-01-31T14:09;null;null;null
2019-01-31T14:09;null;null;null
2019-01-31T14:09;null;null;null
2019-01-31T14:09;null;null;null
2019-01-31T14:09;null;null;null
2019-01-31T14:09;null;null;null
2019-01-31T14:09;15.737250000000003;15.6475;0.036562500000000005
2019-01-31T14:09;null;null;null
2019-01-31T14:09;null;null;null
2019-01-31T14:09;null;null;null
2019-01-31T14:09;null;null;null
2019-01-31T14:09;null;null;null
2019-01-31T14:09;null;null;null
2019-01-31T14:09;null;null;null
2019-01-31T14:09;null;null;null
2019-01-31T14:09;null;null;null
2019-01-31T14:09;15.813411764705881;15.71335294117647;0.03988235294117648
2019-01-31T14:09;null;null;null
2019-01-31T14:09;null;null;null
2019-01-31T14:09;null;null;null
2019-01-31T14:09;null;null;null
2019-01-31T14:09;null;null;null
2019-01-31T14:09;null;null;null
2019-01-31T14:09;null;null;null
2019-01-31T14:09;null;null;null
2019-01-31T14:09;null;null;null
2019-01-31T14:09;15.764882352941179;15.680000000000003;0.035882352941176476
2019-01-31T14:09;null;null;null
2019-01-31T14:09;null;null;null
2019-01-31T14:09;null;null;null
2019-01-31T14:09;null;null;null
2019-01-31T14:09;null;null;null
2019-01-31T14:09;null;null;null
2019-01-31T14:09;null;null;null
2019-01-31T14:09;null;null;null
2019-01-31T14:09;null;null;null
2019-01-31T14:09;15.6640625;15.572125;0.0341875
2019-01-31T14:09;null;null;null
2019-01-31T14:09;null;null;null
2019-01-31T14:09;null;null;null
2019-01-31T14:09;null;null;null
2019-01-31T14:09;null;null;null
2019-01-31T14:09;null;null;null
2019-01-31T14:09;null;null;null
2019-01-31T14:09;null;null;null
2019-01-31T14:09;null;null;null
2019-01-31T14:09;15.540352941176472;15.47;0.04999999999999999
2019-01-31T14:09;null;null;null
2019-01-31T14:09;null;null;null
2019-01-31T14:09;null;null;null
2019-01-31T14:09;null;null;null
2019-01-31T14:09;null;null;null
2019-01-31T14:09;null;null;null
2019-01-31T14:09;null;null;null
2019-01-31T14:09;null;null;null
2019-01-31T14:09;null;null;null
2019-01-31T14:09;15.47870588235294;15.392;0.04911764705882353
2019-01-31T14:09;null;null;null
2019-01-31T14:09;null;null;null
2019-01-31T14:09;null;null;null
2019-01-31T14:09;null;null;null
2019-01-31T14:09;null;null;null
2019-01-31T14:09;null;null;null
2019-01-31T14:09;null;null;null
2019-01-31T14:09;null;null;null
2019-01-31T14:09;null;null;null
2019-01-31T14:09;15.414529411764704;15.321000000000002;0.037500000000000006
2019-01-31T14:09;null;null;null
2019-01-31T14:09;null;null;null
2019-01-31T14:09;null;null;null
2019-01-31T14:09;null;null;null
2019-01-31T14:09;null;null;null
2019-01-31T14:09;null;null;null
2019-01-31T14:09;null;null;null
2019-01-31T14:09;null;null;null
2019-01-31T14:09;null;null;null
2019-01-31T14:09;15.398249999999999;15.305764705882352;0.039647058823529424
2019-01-31T14:09;null;null;null
2019-01-31T14:09;null;null;null
2019-01-31T14:09;null;null;null
2019-01-31T14:09;null;null;null
2019-01-31T14:09;null;null;null
2019-01-31T14:09;null;null;null
2019-01-31T14:09;null;null;null
2019-01-31T14:09;null;null;null
2019-01-31T14:09;null;null;null
2019-01-31T14:09;15.293294117647058;15.208411764705883;0.020941176470588237
2019-01-31T14:09;null;null;null
2019-01-31T14:09;null;null;null
2019-01-31T14:09;null;null;null
2019-01-31T14:09;null;null;null
2019-01-31T14:09;null;null;null
2019-01-31T14:09;null;null;null
2019-01-31T14:09;null;null;null
2019-01-31T14:09;null;null;null
2019-01-31T14:09;null;null;null
2019-01-31T14:09;15.198882352941178;15.100352941176471;0.035375000000000004
2019-01-31T14:09;null;null;null
2019-01-31T14:09;null;null;null
2019-01-31T14:09;null;null;null
2019-01-31T14:09;null;null;null
2019-01-31T14:09;null;null;null
2019-01-31T14:09;null;null;null
2019-01-31T14:09;null;null;null
2019-01-31T14:09;null;null;null
2019-01-31T14:09;null;null;null
2019-01-31T14:09;15.147470588235294;15.061117647058822;0.045833333333333344
2019-01-31T14:09;null;null;null
2019-01-31T14:09;null;null;null
2019-01-31T14:09;null;null;null
2019-01-31T14:09;null;null;null
2019-01-31T14:09;null;null;null
2019-01-31T14:09;null;null;null
2019-01-31T14:09;null;null;null
2019-01-31T14:09;null;null;null
2019-01-31T14:09;null;null;null
2019-01-31T14:09;15.085687499999997;15.002687499999999;0.0383125
2019-01-31T14:09;null;null;null
2019-01-31T14:09;null;null;null
2019-01-31T14:09;null;null;null
2019-01-31T14:09;null;null;null
2019-01-31T14:09;null;null;null
2019-01-31T14:09;null;null;null
2019-01-31T14:09;null;null;null
2019-01-31T14:09;null;null;null
2019-01-31T14:09;null;null;null
2019-01-31T14:09;15.045117647058824;14.966823529411764;0.02682352941176471
2019-01-31T14:09;null;null;null
2019-01-31T14:09;null;null;null
2019-01-31T14:09;null;null;null
2019-01-31T14:09;null;null;null
2019-01-31T14:09;null;null;null
2019-01-31T14:09;null;null;null
2019-01-31T14:09;null;null;null
2019-01-31T14:09;null;null;null
2019-01-31T14:09;null;null;null
2019-01-31T14:09;null;null;null
2019-01-31T14:09;null;null;null
2019-01-31T14:09;null;null;null
2019-01-31T14:09;null;null;null
2019-01-31T14:09;null;null;null
2019-01-31T14:09;null;null;null
2019-01-31T14:09;null;null;null
2019-01-31T14:09;null;null;null
2019-01-31T14:09;null;null;null
2019-01-31T14:09;null;null;null
2019-01-31T14:09;15.010705882352944;14.938705882352942;0.0441764705882353
2019-01-31T14:09;null;null;null
2019-01-31T14:09;null;null;null
2019-01-31T14:09;null;null;null
2019-01-31T14:09;null;null;null
2019-01-31T14:09;null;null;null
2019-01-31T14:09;null;null;null
2019-01-31T14:09;null;null;null
2019-01-31T14:09;null;null;null
2019-01-31T14:09;null;null;null
2019-01-31T14:09;14.996823529411765;14.916941176470587;0.042705882352941184
2019-01-31T14:09;null;null;null
2019-01-31T14:09;null;null;null
2019-01-31T14:09;null;null;null
2019-01-31T14:09;null;null;null
2019-01-31T14:09;null;null;null
2019-01-31T14:09;null;null;null
2019-01-31T14:09;null;null;null
2019-01-31T14:09;null;null;null
2019-01-31T14:09;null;null;null
2019-01-31T14:09;14.96888235294118;14.884235294117648;0.046647058823529416
2019-01-31T14:09;null;null;null
2019-01-31T14:09;null;null;null
2019-01-31T14:09;null;null;null
2019-01-31T14:09;null;null;null
2019-01-31T14:09;null;null;null
2019-01-31T14:09;null;null;null
2019-01-31T14:09;null;null;null
2019-01-31T14:09;null;null;null
2019-01-31T14:09;null;null;null
2019-01-31T14:09;14.937500000000002;14.862312499999998;0.046062500000000006
2019-01-31T14:09;null;null;null
2019-01-31T14:09;null;null;null
2019-01-31T14:09;null;null;null
2019-01-31T14:09;null;null;null
2019-01-31T14:09;null;null;null
2019-01-31T14:09;null;null;null
2019-01-31T14:09;null;null;null
2019-01-31T14:09;null;null;null
2019-01-31T14:09;null;null;null
2019-01-31T14:09;14.893235294117646;14.81323529411765;0.04341176470588236
2019-01-31T14:09;null;null;null
2019-01-31T14:09;null;null;null
2019-01-31T14:09;null;null;null
2019-01-31T14:09;null;null;null
2019-01-31T14:09;null;null;null
2019-01-31T14:09;null;null;null
2019-01-31T14:09;null;null;null
2019-01-31T14:09;null;null;null
2019-01-31T14:09;null;null;null
2019-01-31T14:09;14.798941176470587;14.734437499999999;0.04237500000000001
2019-01-31T14:09;null;null;null
2019-01-31T14:09;null;null;null
2019-01-31T14:09;null;null;null
2019-01-31T14:09;null;null;null
2019-01-31T14:09;null;null;null
2019-01-31T14:09;null;null;null
2019-01-31T14:09;null;null;null
2019-01-31T14:09;null;null;null
2019-01-31T14:09;null;null;null
2019-01-31T14:10;14.764;14.687411764705885;0.04288235294117648
2019-01-31T14:10;null;null;null
2019-01-31T14:10;null;null;null
2019-01-31T14:10;null;null;null
2019-01-31T14:10;null;null;null
2019-01-31T14:10;null;null;null
2019-01-31T14:10;null;null;null
2019-01-31T14:10;null;null;null
2019-01-31T14:10;null;null;null
2019-01-31T14:10;null;null;null
2019-01-31T14:10;14.704941176470587;14.629176470588236;0.037058823529411755
2019-01-31T14:10;null;null;null
2019-01-31T14:10;null;null;null
2019-01-31T14:10;null;null;null
2019-01-31T14:10;null;null;null
2019-01-31T14:10;null;null;null
2019-01-31T14:10;null;null;null
2019-01-31T14:10;null;null;null
2019-01-31T14:10;null;null;null
2019-01-31T14:10;null;null;null
2019-01-31T14:10;14.6504375;14.585124999999998;0.048375000000000015
2019-01-31T14:10;null;null;null
2019-01-31T14:10;null;null;null
2019-01-31T14:10;null;null;null
2019-01-31T14:10;null;null;null
2019-01-31T14:10;null;null;null
2019-01-31T14:10;null;null;null
2019-01-31T14:10;null;null;null
2019-01-31T14:10;null;null;null
2019-01-31T14:10;null;null;null
2019-01-31T14:10;14.616777777777779;14.536352941176471;0.03552941176470588
2019-01-31T14:10;null;null;null
2019-01-31T14:10;null;null;null
2019-01-31T14:10;null;null;null
2019-01-31T14:10;null;null;null
2019-01-31T14:10;null;null;null
2019-01-31T14:10;null;null;null
2019-01-31T14:10;null;null;null
2019-01-31T14:10;null;null;null
2019-01-31T14:10;null;null;null
2019-01-31T14:10;14.542062499999998;14.472647058823528;0.030235294117647065
2019-01-31T14:10;null;null;null
2019-01-31T14:10;null;null;null
2019-01-31T14:10;null;null;null
2019-01-31T14:10;null;null;null
2019-01-31T14:10;null;null;null
2019-01-31T14:10;null;null;null
2019-01-31T14:10;null;null;null
2019-01-31T14:10;null;null;null
2019-01-31T14:10;null;null;null
2019-01-31T14:10;14.491411764705882;14.414764705882352;0.04176470588235295
2019-01-31T14:10;null;null;null
2019-01-31T14:10;null;null;null
2019-01-31T14:10;null;null;null
2019-01-31T14:10;null;null;null
2019-01-31T14:10;null;null;null
2019-01-31T14:10;null;null;null
2019-01-31T14:10;null;null;null
2019-01-31T14:10;null;null;null
2019-01-31T14:10;null;null;null
2019-01-31T14:10;14.429;14.345117647058823;0.04282352941176471
2019-01-31T14:10;null;null;null
2019-01-31T14:10;null;null;null
2019-01-31T14:10;null;null;null
2019-01-31T14:10;null;null;null
2019-01-31T14:10;null;null;null
2019-01-31T14:10;null;null;null
2019-01-31T14:10;null;null;null
2019-01-31T14:10;null;null;null
2019-01-31T14:10;null;null;null
2019-01-31T14:10;14.354;14.294588235294118;0.03429411764705883
2019-01-31T14:10;null;null;null
2019-01-31T14:10;null;null;null
2019-01-31T14:10;null;null;null
2019-01-31T14:10;null;null;null
2019-01-31T14:10;null;null;null
2019-01-31T14:10;null;null;null
2019-01-31T14:10;null;null;null
2019-01-31T14:10;null;null;null
2019-01-31T14:10;null;null;null
2019-01-31T14:10;null;null;null
2019-01-31T14:10;null;null;null
2019-01-31T14:10;null;null;null
2019-01-31T14:10;null;null;null
2019-01-31T14:10;null;null;null
2019-01-31T14:10;null;null;null
2019-01-31T14:10;null;null;null
2019-01-31T14:10;null;null;null
2019-01-31T14:10;null;null;null
2019-01-31T14:10;null;null;null
2019-01-31T14:10;14.293125000000002;14.220687500000002;0.03875000000000001
2019-01-31T14:10;null;null;null
2019-01-31T14:10;null;null;null
2019-01-31T14:10;null;null;null
2019-01-31T14:10;null;null;null
2019-01-31T14:10;null;null;null
2019-01-31T14:10;null;null;null
2019-01-31T14:10;null;null;null
2019-01-31T14:10;null;null;null
2019-01-31T14:10;null;null;null
2019-01-31T14:10;14.21029411764706;14.137999999999998;0.03682352941176472
2019-01-31T14:10;null;null;null
2019-01-31T14:10;null;null;null
2019-01-31T14:10;null;null;null
2019-01-31T14:10;null;null;null
2019-01-31T14:10;null;null;null
2019-01-31T14:10;null;null;null
2019-01-31T14:10;null;null;null
2019-01-31T14:10;null;null;null
2019-01-31T14:10;null;null;null
2019-01-31T14:10;14.137647058823532;14.069875;0.04393750000000001
2019-01-31T14:10;null;null;null
2019-01-31T14:10;null;null;null
2019-01-31T14:10;null;null;null
2019-01-31T14:10;null;null;null
2019-01-31T14:10;null;null;null
2019-01-31T14:10;null;null;null
2019-01-31T14:10;null;null;null
2019-01-31T14:10;null;null;null
2019-01-31T14:10;null;null;null
2019-01-31T14:10;14.012470588235294;13.942833333333335;0.028777777777777777
2019-01-31T14:10;null;null;null
2019-01-31T14:10;null;null;null
2019-01-31T14:10;null;null;null
2019-01-31T14:10;null;null;null
2019-01-31T14:10;null;null;null
2019-01-31T14:10;null;null;null
2019-01-31T14:10;null;null;null
2019-01-31T14:10;null;null;null
2019-01-31T14:10;null;null;null
2019-01-31T14:10;13.8875625;13.819529411764707;0.040352941176470584
2019-01-31T14:10;null;null;null
2019-01-31T14:10;null;null;null
2019-01-31T14:10;null;null;null
2019-01-31T14:10;null;null;null
2019-01-31T14:10;null;null;null
2019-01-31T14:10;null;null;null
2019-01-31T14:10;null;null;null
2019-01-31T14:10;null;null;null
2019-01-31T14:10;null;null;null
2019-01-31T14:10;13.706882352941179;13.647588235294117;0.0341764705882353
2019-01-31T14:10;null;null;null
2019-01-31T14:10;null;null;null
2019-01-31T14:10;null;null;null
2019-01-31T14:10;null;null;null
2019-01-31T14:10;null;null;null
2019-01-31T14:10;null;null;null
2019-01-31T14:10;null;null;null
2019-01-31T14:10;null;null;null
2019-01-31T14:10;null;null;null
2019-01-31T14:10;13.593470588235293;13.524529411764707;0.02482352941176471
2019-01-31T14:10;null;null;null
2019-01-31T14:10;null;null;null
2019-01-31T14:10;null;null;null
2019-01-31T14:10;null;null;null
2019-01-31T14:10;null;null;null
2019-01-31T14:10;null;null;null
2019-01-31T14:10;null;null;null
2019-01-31T14:10;null;null;null
2019-01-31T14:10;null;null;null
2019-01-31T14:10;13.459000000000003;13.389812499999998;0.022374999999999996
2019-01-31T14:10;null;null;null
2019-01-31T14:10;null;null;null
2019-01-31T14:10;null;null;null
2019-01-31T14:10;null;null;null
2019-01-31T14:10;null;null;null
2019-01-31T14:10;null;null;null
2019-01-31T14:10;null;null;null
2019-01-31T14:10;null;null;null
2019-01-31T14:10;null;null;null
2019-01-31T14:10;13.332176470588237;13.28123529411765;0.038470588235294124
2019-01-31T14:10;null;null;null
2019-01-31T14:10;null;null;null
2019-01-31T14:10;null;null;null
2019-01-31T14:10;null;null;null
2019-01-31T14:10;null;null;null
2019-01-31T14:10;null;null;null
2019-01-31T14:10;null;null;null
2019-01-31T14:10;null;null;null
2019-01-31T14:10;null;null;null
2019-01-31T14:10;13.107000000000001;13.03735294117647;0.032941176470588245
2019-01-31T14:10;null;null;null
2019-01-31T14:10;null;null;null
2019-01-31T14:10;null;null;null
2019-01-31T14:10;null;null;null
2019-01-31T14:10;null;null;null
2019-01-31T14:10;null;null;null
2019-01-31T14:10;null;null;null
2019-01-31T14:10;null;null;null
2019-01-31T14:10;null;null;null
2019-01-31T14:10;12.843470588235293;12.785235294117648;0.02823529411764706
2019-01-31T14:10;null;null;null
2019-01-31T14:10;null;null;null
2019-01-31T14:10;null;null;null
2019-01-31T14:10;null;null;null
2019-01-31T14:10;null;null;null
2019-01-31T14:10;null;null;null
2019-01-31T14:10;null;null;null
2019-01-31T14:10;null;null;null
2019-01-31T14:10;null;null;null
2019-01-31T14:10;12.634250000000003;12.5953125;0.03375
2019-01-31T14:10;null;null;null
2019-01-31T14:10;null;null;null
2019-01-31T14:10;null;null;null
2019-01-31T14:10;null;null;null
2019-01-31T14:10;null;null;null
2019-01-31T14:10;null;null;null
2019-01-31T14:10;null;null;null
2019-01-31T14:10;null;null;null
2019-01-31T14:10;null;null;null
2019-01-31T14:10;12.288705882352943;12.236;0.037470588235294124
2019-01-31T14:10;null;null;null
2019-01-31T14:10;null;null;null
2019-01-31T14:10;null;null;null
2019-01-31T14:10;null;null;null
2019-01-31T14:10;null;null;null
2019-01-31T14:10;null;null;null
2019-01-31T14:10;null;null;null
2019-01-31T14:10;null;null;null
2019-01-31T14:10;null;null;null
2019-01-31T14:10;12.262235294117646;12.199764705882355;0.029647058823529412
2019-01-31T14:10;null;null;null
2019-01-31T14:10;null;null;null
2019-01-31T14:10;null;null;null
2019-01-31T14:10;null;null;null
2019-01-31T14:10;null;null;null
2019-01-31T14:10;null;null;null
2019-01-31T14:10;null;null;null
2019-01-31T14:10;null;null;null
2019-01-31T14:10;null;null;null
2019-01-31T14:10;null;null;null
2019-01-31T14:10;null;null;null
2019-01-31T14:10;null;null;null
2019-01-31T14:10;null;null;null
2019-01-31T14:10;null;null;null
2019-01-31T14:10;null;null;null
2019-01-31T14:10;null;null;null
2019-01-31T14:10;null;null;null
2019-01-31T14:10;null;null;null
2019-01-31T14:10;null;null;null
2019-01-31T14:10;11.80635294117647;11.757882352941177;0.028117647058823535
2019-01-31T14:10;null;null;null
2019-01-31T14:10;null;null;null
2019-01-31T14:10;null;null;null
2019-01-31T14:10;null;null;null
2019-01-31T14:10;null;null;null
2019-01-31T14:10;null;null;null
2019-01-31T14:10;null;null;null
2019-01-31T14:10;null;null;null
2019-01-31T14:10;null;null;null
2019-01-31T14:10;11.578562500000002;11.520624999999999;0.030500000000000003
2019-01-31T14:10;null;null;null
2019-01-31T14:10;null;null;null
2019-01-31T14:10;null;null;null
2019-01-31T14:10;null;null;null
2019-01-31T14:10;null;null;null
2019-01-31T14:10;null;null;null
2019-01-31T14:10;null;null;null
2019-01-31T14:10;null;null;null
2019-01-31T14:10;null;null;null
2019-01-31T14:10;11.427764705882353;11.387176470588237;0.012705882352941176
2019-01-31T14:10;null;null;null
2019-01-31T14:10;null;null;null
2019-01-31T14:10;null;null;null
2019-01-31T14:10;null;null;null
2019-01-31T14:10;null;null;null
2019-01-31T14:10;null;null;null
2019-01-31T14:10;null;null;null
2019-01-31T14:10;null;null;null
2019-01-31T14:10;null;null;null
2019-01-31T14:10;11.322352941176472;11.27594117647059;0.02364705882352941
2019-01-31T14:10;null;null;null
2019-01-31T14:10;null;null;null
2019-01-31T14:10;null;null;null
2019-01-31T14:10;null;null;null
2019-01-31T14:10;null;null;null
2019-01-31T14:10;null;null;null
2019-01-31T14:10;null;null;null
2019-01-31T14:10;null;null;null
2019-01-31T14:10;null;null;null
2019-01-31T14:10;11.130882352941178;11.093823529411766;0.01925
2019-01-31T14:10;null;null;null
2019-01-31T14:10;null;null;null
2019-01-31T14:10;null;null;null
2019-01-31T14:10;null;null;null
2019-01-31T14:10;null;null;null
2019-01-31T14:10;null;null;null
2019-01-31T14:10;null;null;null
2019-01-31T14:10;null;null;null
2019-01-31T14:10;null;null;null
2019-01-31T14:10;10.980625000000002;10.924750000000001;0.028437499999999998
2019-01-31T14:10;null;null;null
2019-01-31T14:10;null;null;null
2019-01-31T14:10;null;null;null
2019-01-31T14:10;null;null;null
2019-01-31T14:10;null;null;null
2019-01-31T14:10;null;null;null
2019-01-31T14:10;null;null;null
2019-01-31T14:10;null;null;null
2019-01-31T14:10;null;null;null
2019-01-31T14:10;10.771647058823529;10.720588235294116;0.03182352941176471
2019-01-31T14:10;null;null;null
2019-01-31T14:10;null;null;null
2019-01-31T14:10;null;null;null
2019-01-31T14:10;null;null;null
2019-01-31T14:10;null;null;null
2019-01-31T14:10;null;null;null
2019-01-31T14:10;null;null;null
2019-01-31T14:10;null;null;null
2019-01-31T14:10;null;null;null
2019-01-31T14:10;10.456176470588234;10.408176470588232;0.02611764705882353
2019-01-31T14:10;null;null;null
2019-01-31T14:10;null;null;null
2019-01-31T14:10;null;null;null
2019-01-31T14:10;null;null;null
2019-01-31T14:10;null;null;null
2019-01-31T14:10;null;null;null
2019-01-31T14:10;null;null;null
2019-01-31T14:10;null;null;null
2019-01-31T14:10;null;null;null
2019-01-31T14:10;9.82464705882353;9.798312500000002;0.026062500000000002
2019-01-31T14:10;null;null;null
2019-01-31T14:10;null;null;null
2019-01-31T14:10;null;null;null
2019-01-31T14:10;null;null;null
2019-01-31T14:10;null;null;null
2019-01-31T14:10;null;null;null
2019-01-31T14:10;null;null;null
2019-01-31T14:10;null;null;null
2019-01-31T14:10;null;null;null
2019-01-31T14:10;9.694125;9.67329411764706;0.005117647058823529
2019-01-31T14:10;null;null;null
2019-01-31T14:10;null;null;null
2019-01-31T14:10;null;null;null
2019-01-31T14:10;null;null;null
2019-01-31T14:10;null;null;null
2019-01-31T14:10;null;null;null
2019-01-31T14:10;null;null;null
2019-01-31T14:10;null;null;null
2019-01-31T14:10;null;null;null
2019-01-31T14:10;10.366529411764708;10.34;0.015058823529411765
2019-01-31T14:10;null;null;null
2019-01-31T14:10;null;null;null
2019-01-31T14:10;null;null;null
2019-01-31T14:10;null;null;null
2019-01-31T14:10;null;null;null
2019-01-31T14:10;null;null;null
2019-01-31T14:10;null;null;null
2019-01-31T14:10;null;null;null
2019-01-31T14:10;null;null;null
2019-01-31T14:10;10.297625;10.2614375;0.024062500000000004
2019-01-31T14:10;null;null;null
2019-01-31T14:10;null;null;null
2019-01-31T14:10;null;null;null
2019-01-31T14:10;null;null;null
2019-01-31T14:10;null;null;null
2019-01-31T14:10;null;null;null
2019-01-31T14:10;null;null;null
2019-01-31T14:10;null;null;null
2019-01-31T14:10;null;null;null
2019-01-31T14:10;9.842941176470587;9.805117647058822;0.02835294117647059
2019-01-31T14:10;null;null;null
2019-01-31T14:10;null;null;null
2019-01-31T14:10;null;null;null
2019-01-31T14:10;null;null;null
2019-01-31T14:10;null;null;null
2019-01-31T14:10;null;null;null
2019-01-31T14:10;null;null;null
2019-01-31T14:10;null;null;null
2019-01-31T14:10;null;null;null
2019-01-31T14:10;9.712529411764706;9.665823529411766;0.019941176470588233
2019-01-31T14:10;null;null;null
2019-01-31T14:10;null;null;null
2019-01-31T14:10;null;null;null
2019-01-31T14:10;null;null;null
2019-01-31T14:10;null;null;null
2019-01-31T14:10;null;null;null
2019-01-31T14:10;null;null;null
2019-01-31T14:10;null;null;null
2019-01-31T14:10;null;null;null
2019-01-31T14:10;9.785117647058822;9.746764705882352;0.018941176470588236
2019-01-31T14:10;null;null;null
2019-01-31T14:10;null;null;null
2019-01-31T14:10;null;null;null
2019-01-31T14:10;null;null;null
2019-01-31T14:10;null;null;null
2019-01-31T14:10;null;null;null
2019-01-31T14:10;null;null;null
2019-01-31T14:10;null;null;null
2019-01-31T14:10;null;null;null
2019-01-31T14:10;9.69429411764706;9.660437499999999;0.017687500000000002
2019-01-31T14:10;null;null;null
2019-01-31T14:10;null;null;null
2019-01-31T14:10;null;null;null
2019-01-31T14:10;null;null;null
2019-01-31T14:10;null;null;null
2019-01-31T14:10;null;null;null
2019-01-31T14:10;null;null;null
2019-01-31T14:10;null;null;null
2019-01-31T14:10;null;null;null
2019-01-31T14:10;null;null;null
2019-01-31T14:10;null;null;null
2019-01-31T14:10;null;null;null
2019-01-31T14:10;null;null;null
2019-01-31T14:10;null;null;null
2019-01-31T14:10;null;null;null
2019-01-31T14:10;null;null;null
2019-01-31T14:10;null;null;null
2019-01-31T14:10;null;null;null
2019-01-31T14:10;null;null;null
2019-01-31T14:10;9.002705882352942;8.982529411764705;0.015705882352941174
2019-01-31T14:10;null;null;null
2019-01-31T14:10;null;null;null
2019-01-31T14:10;null;null;null
2019-01-31T14:10;null;null;null
2019-01-31T14:10;null;null;null
2019-01-31T14:10;null;null;null
2019-01-31T14:10;null;null;null
2019-01-31T14:10;null;null;null
2019-01-31T14:10;null;null;null
2019-01-31T14:10;null;null;null
2019-01-31T14:10;null;null;null
2019-01-31T14:10;null;null;null
2019-01-31T14:10;null;null;null
2019-01-31T14:10;null;null;null
2019-01-31T14:10;null;null;null
2019-01-31T14:10;null;null;null
2019-01-31T14:10;null;null;null
2019-01-31T14:10;null;null;null
2019-01-31T14:10;null;null;null
2019-01-31T14:10;7.918705882352943;7.899722222222223;0.022000000000000002
2019-01-31T14:10;null;null;null
2019-01-31T14:10;null;null;null
2019-01-31T14:10;null;null;null
2019-01-31T14:10;null;null;null
2019-01-31T14:10;null;null;null
2019-01-31T14:10;null;null;null
2019-01-31T14:10;null;null;null
2019-01-31T14:10;null;null;null
2019-01-31T14:10;null;null;null
2019-01-31T14:10;8.5826875;8.56225;0.0175
2019-01-31T14:10;null;null;null
2019-01-31T14:10;null;null;null
2019-01-31T14:10;null;null;null
2019-01-31T14:10;null;null;null
2019-01-31T14:10;null;null;null
2019-01-31T14:10;null;null;null
2019-01-31T14:10;null;null;null
2019-01-31T14:10;null;null;null
2019-01-31T14:10;null;null;null
2019-01-31T14:10;9.23370588235294;9.194823529411762;0.027882352941176476
2019-01-31T14:10;null;null;null
2019-01-31T14:10;null;null;null
2019-01-31T14:10;null;null;null
2019-01-31T14:10;null;null;null
2019-01-31T14:10;null;null;null
2019-01-31T14:10;null;null;null
2019-01-31T14:10;null;null;null
2019-01-31T14:10;null;null;null
2019-01-31T14:10;null;null;null
2019-01-31T14:10;8.389117647058823;8.360764705882353;0.012117647058823528
2019-01-31T14:10;null;null;null
2019-01-31T14:10;null;null;null
2019-01-31T14:10;null;null;null
2019-01-31T14:10;null;null;null
2019-01-31T14:10;null;null;null
2019-01-31T14:10;null;null;null
2019-01-31T14:10;null;null;null
2019-01-31T14:10;null;null;null
2019-01-31T14:10;null;null;null
2019-01-31T14:10;9.020588235294117;9.009058823529413;0.01311764705882353
2019-01-31T14:10;null;null;null
2019-01-31T14:10;null;null;null
2019-01-31T14:10;null;null;null
2019-01-31T14:10;null;null;null
2019-01-31T14:10;null;null;null
2019-01-31T14:10;null;null;null
2019-01-31T14:10;null;null;null
2019-01-31T14:10;null;null;null
2019-01-31T14:10;null;null;null
2019-01-31T14:10;9.492764705882353;9.4555;0.015875
2019-01-31T14:10;6.947875000000001;7.360124999999999;0.030562500000000006
2019-01-31T14:10;6.970235294117648;6.802722222222222;0.013222222222222222
2019-01-31T14:10;8.238999999999999;8.224176470588235;0.012294117647058825
2019-01-31T14:10;8.184941176470588;8.174941176470588;0.009176470588235296l
2019-01-31T14:10;8.107176470588236;8.074882352941177;0.00864705882352941
2019-01-31T14:10;8.316411764705881;8.324875;0.01629411764705882
2019-01-31T14:10;8.0055;7.998;0.0158125
