%!PS-Adobe-3.0 EPSF-3.0
%%Creator: cairo 1.14.8 (http://cairographics.org)
%%CreationDate: Thu Mar 21 09:07:39 2019
%%Pages: 1
%%DocumentData: Clean7Bit
%%LanguageLevel: 2
%%BoundingBox: 76 38 308 346
%%EndComments
%%BeginProlog
save
50 dict begin
/q { gsave } bind def
/Q { grestore } bind def
/cm { 6 array astore concat } bind def
/w { setlinewidth } bind def
/J { setlinecap } bind def
/j { setlinejoin } bind def
/M { setmiterlimit } bind def
/d { setdash } bind def
/m { moveto } bind def
/l { lineto } bind def
/c { curveto } bind def
/h { closepath } bind def
/re { exch dup neg 3 1 roll 5 3 roll moveto 0 rlineto
      0 exch rlineto 0 rlineto closepath } bind def
/S { stroke } bind def
/f { fill } bind def
/f* { eofill } bind def
/n { newpath } bind def
/W { clip } bind def
/W* { eoclip } bind def
/BT { } bind def
/ET { } bind def
/pdfmark where { pop globaldict /?pdfmark /exec load put }
    { globaldict begin /?pdfmark /pop load def /pdfmark
    /cleartomark load def end } ifelse
/BDC { mark 3 1 roll /BDC pdfmark } bind def
/EMC { mark /EMC pdfmark } bind def
/cairo_store_point { /cairo_point_y exch def /cairo_point_x exch def } def
/Tj { show currentpoint cairo_store_point } bind def
/TJ {
  {
    dup
    type /stringtype eq
    { show } { -0.001 mul 0 cairo_font_matrix dtransform rmoveto } ifelse
  } forall
  currentpoint cairo_store_point
} bind def
/cairo_selectfont { cairo_font_matrix aload pop pop pop 0 0 6 array astore
    cairo_font exch selectfont cairo_point_x cairo_point_y moveto } bind def
/Tf { pop /cairo_font exch def /cairo_font_matrix where
      { pop cairo_selectfont } if } bind def
/Td { matrix translate cairo_font_matrix matrix concatmatrix dup
      /cairo_font_matrix exch def dup 4 get exch 5 get cairo_store_point
      /cairo_font where { pop cairo_selectfont } if } bind def
/Tm { 2 copy 8 2 roll 6 array astore /cairo_font_matrix exch def
      cairo_store_point /cairo_font where { pop cairo_selectfont } if } bind def
/g { setgray } bind def
/rg { setrgbcolor } bind def
/d1 { setcachedevice } bind def
%%EndProlog
%%BeginSetup
%%EndSetup
%%Page: 1 1
%%BeginPageSetup
%%PageBoundingBox: 76 38 308 346
%%EndPageSetup
q 76 38 232 308 rectclip q
0 g
286.586 180.344 m 286.586 176.391 283.383 173.184 279.43 173.184 c 275.477
 173.184 272.27 176.391 272.27 180.344 c 272.27 184.297 275.477 187.5 279.43
 187.5 c 283.383 187.5 286.586 184.297 286.586 180.344 c h
286.586 180.344 m f
246.816 180.344 m 246.816 176.391 243.609 173.184 239.656 173.184 c 235.703
 173.184 232.5 176.391 232.5 180.344 c 232.5 184.297 235.703 187.5 239.656
 187.5 c 243.609 187.5 246.816 184.297 246.816 180.344 c h
246.816 180.344 m f
246.816 74.742 m 246.816 70.789 243.609 67.586 239.656 67.586 c 235.703
 67.586 232.5 70.789 232.5 74.742 c 232.5 78.695 235.703 81.898 239.656 
81.898 c 243.609 81.898 246.816 78.695 246.816 74.742 c h
246.816 74.742 m f
305.145 216.75 m 232.457 216.75 l 229.938 216.863 227.961 218.961 228 221.484
 c 228 240 l 113.25 240 l 113.25 221.484 l 113.25 219 111.516 216.75 109.027
 216.75 c 78.855 216.75 l 77.605 216.859 76.523 215.887 76.5 214.629 c 76.5
 146.059 l 76.5 144.758 77.559 144 78.855 144 c 305.145 144 l 306.441 144
 307.5 144.758 307.5 146.059 c 307.5 214.629 l 307.477 215.887 306.395 216.859
 305.145 216.75 c h
97.5 170.059 m 97.5 164.059 88.5 164.059 88.5 170.059 c 88.5 183.77 l 88.5
 189.77 97.5 189.77 97.5 183.77 c h
115.5 170.059 m 115.5 164.059 106.5 164.059 106.5 170.059 c 106.5 183.77
 l 106.5 189.77 115.5 189.77 115.5 183.77 c h
133.5 170.059 m 133.5 164.059 124.5 164.059 124.5 170.059 c 124.5 183.77
 l 124.5 189.77 133.5 189.77 133.5 183.77 c h
151.5 170.059 m 151.5 164.059 142.5 164.059 142.5 170.059 c 142.5 183.77
 l 142.5 189.77 151.5 189.77 151.5 183.77 c h
169.5 170.059 m 169.5 164.059 160.5 164.059 160.5 170.059 c 160.5 183.77
 l 160.5 189.77 169.5 189.77 169.5 183.77 c h
205.027 223.5 m 136.457 223.5 l 130.457 223.5 130.457 232.5 136.457 232.5
 c 205.027 232.5 l 211.027 232.5 211.027 223.5 205.027 223.5 c h
239.656 164.184 m 233.121 164.184 227.23 168.121 224.73 174.16 c 222.23
 180.195 223.613 187.148 228.23 191.77 c 232.852 196.387 239.805 197.77 
245.84 195.27 c 251.879 192.77 255.816 186.879 255.816 180.344 c 255.805
 171.422 248.578 164.195 239.656 164.184 c h
279.43 164.184 m 272.895 164.184 267 168.121 264.5 174.16 c 262 180.195
 263.383 187.148 268.004 191.77 c 272.625 196.387 279.574 197.77 285.613
 195.27 c 291.648 192.77 295.586 186.879 295.586 180.344 c 295.574 171.422
 288.348 164.195 279.43 164.184 c h
279.43 164.184 m f
305.145 111.75 m 232.457 111.75 l 229.973 111.75 228 113.398 228 115.887
 c 228 135 l 113.25 135 l 113.25 115.887 l 113.352 113.527 111.383 111.602
 109.027 111.75 c 78.855 111.75 l 77.559 111.75 76.5 110.324 76.5 109.027
 c 76.5 40.457 l 76.516 39.184 77.586 38.18 78.855 38.25 c 305.145 38.25
 l 306.414 38.18 307.484 39.184 307.5 40.457 c 307.5 109.027 l 307.5 110.324
 306.441 111.75 305.145 111.75 c h
97.5 64.457 m 97.5 58.457 88.5 58.457 88.5 64.457 c 88.5 78.172 l 88.5 
84.172 97.5 84.172 97.5 78.172 c h
115.5 64.457 m 115.5 58.457 106.5 58.457 106.5 64.457 c 106.5 78.172 l 
106.5 84.172 115.5 84.172 115.5 78.172 c h
133.5 64.457 m 133.5 58.457 124.5 58.457 124.5 64.457 c 124.5 78.172 l 
124.5 84.172 133.5 84.172 133.5 78.172 c h
151.5 64.457 m 151.5 58.457 142.5 58.457 142.5 64.457 c 142.5 78.172 l 
142.5 84.172 151.5 84.172 151.5 78.172 c h
169.5 64.457 m 169.5 58.457 160.5 58.457 160.5 64.457 c 160.5 78.172 l 
160.5 84.172 169.5 84.172 169.5 78.172 c h
205.027 118.5 m 136.457 118.5 l 130.457 118.5 130.457 127.5 136.457 127.5
 c 205.027 127.5 l 211.027 127.5 211.027 118.5 205.027 118.5 c h
239.656 58.586 m 233.121 58.586 227.23 62.523 224.73 68.559 c 222.23 74.598
 223.613 81.547 228.23 86.168 c 232.852 90.789 239.805 92.172 245.84 89.672
 c 251.879 87.168 255.816 81.277 255.816 74.742 c 255.805 65.824 248.578
 58.594 239.656 58.586 c h
279.43 58.586 m 272.895 58.586 267 62.523 264.5 68.559 c 262 74.598 263.383
 81.547 268.004 86.168 c 272.625 90.789 279.574 92.172 285.613 89.672 c 
291.648 87.168 295.586 81.277 295.586 74.742 c 295.574 65.824 288.348 58.594
 279.43 58.586 c h
279.43 58.586 m f
286.586 74.742 m 286.586 70.789 283.383 67.586 279.43 67.586 c 275.477 
67.586 272.27 70.789 272.27 74.742 c 272.27 78.695 275.477 81.898 279.43
 81.898 c 283.383 81.898 286.586 78.695 286.586 74.742 c h
286.586 74.742 m f
305.145 322.5 m 232.457 322.5 l 229.965 322.543 227.973 324.594 228 327.086
 c 228 345.75 l 113.25 345.75 l 113.25 327.086 l 113.25 324.602 111.516 
322.5 109.027 322.5 c 78.855 322.5 l 77.574 322.539 76.508 321.512 76.5 
320.23 c 76.5 251.656 l 76.48 250.297 77.504 249.145 78.855 249 c 305.145
 249 l 306.496 249.145 307.52 250.297 307.5 251.656 c 307.5 320.23 l 307.492
 321.512 306.426 322.539 305.145 322.5 c h
97.5 275.656 m 97.5 269.656 88.5 269.656 88.5 275.656 c 88.5 289.371 l 
88.5 295.371 97.5 295.371 97.5 289.371 c h
115.5 275.656 m 115.5 269.656 106.5 269.656 106.5 275.656 c 106.5 289.371
 l 106.5 295.371 115.5 295.371 115.5 289.371 c h
133.5 275.656 m 133.5 269.656 124.5 269.656 124.5 275.656 c 124.5 289.371
 l 124.5 295.371 133.5 295.371 133.5 289.371 c h
151.5 275.656 m 151.5 269.656 142.5 269.656 142.5 275.656 c 142.5 289.371
 l 142.5 295.371 151.5 295.371 151.5 289.371 c h
169.5 275.656 m 169.5 269.656 160.5 269.656 160.5 275.656 c 160.5 289.371
 l 160.5 295.371 169.5 295.371 169.5 289.371 c h
205.027 329.25 m 136.457 329.25 l 130.457 329.25 130.457 338.25 136.457
 338.25 c 205.027 338.25 l 211.027 338.25 211.027 329.25 205.027 329.25 
c h
239.656 269.785 m 233.121 269.785 227.23 273.723 224.73 279.758 c 222.23
 285.797 223.613 292.746 228.23 297.367 c 232.852 301.988 239.805 303.371
 245.84 300.871 c 251.879 298.371 255.816 292.477 255.816 285.941 c 255.805
 277.023 248.578 269.797 239.656 269.785 c h
279.43 269.785 m 272.895 269.785 267 273.723 264.5 279.758 c 262 285.797
 263.383 292.746 268.004 297.367 c 272.625 301.988 279.574 303.371 285.613
 300.871 c 291.648 298.371 295.586 292.477 295.586 285.941 c 295.574 277.023
 288.348 269.797 279.43 269.785 c h
279.43 269.785 m f
246.816 285.941 m 246.816 281.988 243.609 278.785 239.656 278.785 c 235.703
 278.785 232.5 281.988 232.5 285.941 c 232.5 289.895 235.703 293.102 239.656
 293.102 c 243.609 293.102 246.816 289.895 246.816 285.941 c h
246.816 285.941 m f
286.586 285.941 m 286.586 281.988 283.383 278.785 279.43 278.785 c 275.477
 278.785 272.27 281.988 272.27 285.941 c 272.27 289.895 275.477 293.102 
279.43 293.102 c 283.383 293.102 286.586 289.895 286.586 285.941 c h
286.586 285.941 m f
Q Q
showpage
%%Trailer
end restore
%%EOF
