%!PS-Adobe-3.0 EPSF-3.0
%%Creator: cairo 1.14.8 (http://cairographics.org)
%%CreationDate: Thu Mar 21 09:07:39 2019
%%Pages: 1
%%DocumentData: Clean7Bit
%%LanguageLevel: 2
%%BoundingBox: 69 47 315 337
%%EndComments
%%BeginProlog
save
50 dict begin
/q { gsave } bind def
/Q { grestore } bind def
/cm { 6 array astore concat } bind def
/w { setlinewidth } bind def
/J { setlinecap } bind def
/j { setlinejoin } bind def
/M { setmiterlimit } bind def
/d { setdash } bind def
/m { moveto } bind def
/l { lineto } bind def
/c { curveto } bind def
/h { closepath } bind def
/re { exch dup neg 3 1 roll 5 3 roll moveto 0 rlineto
      0 exch rlineto 0 rlineto closepath } bind def
/S { stroke } bind def
/f { fill } bind def
/f* { eofill } bind def
/n { newpath } bind def
/W { clip } bind def
/W* { eoclip } bind def
/BT { } bind def
/ET { } bind def
/pdfmark where { pop globaldict /?pdfmark /exec load put }
    { globaldict begin /?pdfmark /pop load def /pdfmark
    /cleartomark load def end } ifelse
/BDC { mark 3 1 roll /BDC pdfmark } bind def
/EMC { mark /EMC pdfmark } bind def
/cairo_store_point { /cairo_point_y exch def /cairo_point_x exch def } def
/Tj { show currentpoint cairo_store_point } bind def
/TJ {
  {
    dup
    type /stringtype eq
    { show } { -0.001 mul 0 cairo_font_matrix dtransform rmoveto } ifelse
  } forall
  currentpoint cairo_store_point
} bind def
/cairo_selectfont { cairo_font_matrix aload pop pop pop 0 0 6 array astore
    cairo_font exch selectfont cairo_point_x cairo_point_y moveto } bind def
/Tf { pop /cairo_font exch def /cairo_font_matrix where
      { pop cairo_selectfont } if } bind def
/Td { matrix translate cairo_font_matrix matrix concatmatrix dup
      /cairo_font_matrix exch def dup 4 get exch 5 get cairo_store_point
      /cairo_font where { pop cairo_selectfont } if } bind def
/Tm { 2 copy 8 2 roll 6 array astore /cairo_font_matrix exch def
      cairo_store_point /cairo_font where { pop cairo_selectfont } if } bind def
/g { setgray } bind def
/rg { setrgbcolor } bind def
/d1 { setcachedevice } bind def
%%EndProlog
%%BeginSetup
%%EndSetup
%%Page: 1 1
%%BeginPageSetup
%%PageBoundingBox: 69 47 315 337
%%EndPageSetup
q 69 47 246 290 rectclip q
0 g
176.949 62.211 m 176.949 56.125 180.617 50.637 186.242 48.309 c 191.863
 45.977 198.34 47.266 202.641 51.57 c 206.945 55.875 208.234 62.348 205.902
 67.973 c 203.574 73.594 198.086 77.262 192 77.262 c 183.691 77.25 176.961
 70.52 176.949 62.211 c h
176.949 62.211 m f
187.5 150 9 -68.25 re f
211.5 66.75 64.5 -9 re f
107.25 66.75 65.25 -9 re f
301.184 62.211 m 301.184 56.246 296.348 51.41 290.383 51.41 c 284.418 51.41
 279.582 56.246 279.582 62.211 c 279.582 68.176 284.418 73.012 290.383 73.012
 c 296.348 73.012 301.184 68.176 301.184 62.211 c h
301.184 62.211 m f
104.418 62.211 m 104.418 56.246 99.582 51.41 93.617 51.41 c 87.652 51.41
 82.816 56.246 82.816 62.211 c 82.816 68.176 87.652 73.012 93.617 73.012
 c 99.582 73.012 104.418 68.176 104.418 62.211 c h
104.418 62.211 m f
111 254.25 162 -18.75 re f
279.227 287.258 m 284.375 287.258 289.016 290.359 290.988 295.117 c 292.957
 299.875 291.867 305.348 288.227 308.988 c 284.586 312.633 279.109 313.719
 274.352 311.75 c 269.594 309.777 266.496 305.137 266.496 299.988 c 266.504
 292.961 272.199 287.266 279.227 287.258 c h
279.227 287.258 m f
105.852 263.25 m 278.148 263.25 l 298.445 263.25 314.898 279.703 314.898
 300 c 314.898 320.297 298.445 336.75 278.148 336.75 c 105.852 336.75 l 
85.555 336.75 69.102 320.297 69.102 300 c 69.102 279.703 85.555 263.25 105.852
 263.25 c h
279.227 321.719 m 288.016 321.719 295.938 316.422 299.301 308.305 c 302.664
 300.184 300.805 290.836 294.59 284.621 c 288.375 278.406 279.027 276.547
 270.91 279.91 c 262.789 283.273 257.496 291.199 257.496 299.988 c 257.508
 311.984 267.23 321.703 279.227 321.719 c h
184.5 310.324 m 184.5 316.324 193.5 316.324 193.5 310.324 c 193.5 289.648
 l 193.5 283.648 184.5 283.648 184.5 289.648 c h
164.25 310.324 m 164.25 316.324 173.25 316.324 173.25 310.324 c 173.25 
289.648 l 173.25 283.648 164.25 283.648 164.25 289.648 c h
144 310.324 m 144 316.324 153 316.324 153 310.324 c 153 289.648 l 153 283.648
 144 283.648 144 289.648 c h
123.75 310.324 m 123.75 316.324 132.75 316.324 132.75 310.324 c 132.75 
289.648 l 132.75 283.648 123.75 283.648 123.75 289.648 c h
103.5 310.324 m 103.5 316.324 112.5 316.324 112.5 310.324 c 112.5 289.648
 l 112.5 283.648 103.5 283.648 103.5 289.648 c h
103.5 310.324 m f
105.852 153 m 278.148 153 l 298.445 153 314.898 169.453 314.898 189.75 
c 314.898 210.047 298.445 226.5 278.148 226.5 c 105.852 226.5 l 85.555 226.5
 69.102 210.047 69.102 189.75 c 69.102 169.453 85.555 153 105.852 153 c 
h
279.227 211.445 m 288.016 211.445 295.938 206.152 299.301 198.031 c 302.664
 189.91 300.805 180.566 294.59 174.352 c 288.375 168.137 279.027 166.277
 270.906 169.641 c 262.789 173.004 257.496 180.93 257.496 189.719 c 257.508
 201.715 267.23 211.434 279.227 211.445 c h
184.5 200.055 m 184.5 206.055 193.5 206.055 193.5 200.055 c 193.5 179.379
 l 193.5 173.379 184.5 173.379 184.5 179.379 c h
164.25 200.055 m 164.25 206.055 173.25 206.055 173.25 200.055 c 173.25 
179.379 l 173.25 173.379 164.25 173.379 164.25 179.379 c h
144 200.055 m 144 206.055 153 206.055 153 200.055 c 153 179.379 l 153 173.379
 144 173.379 144 179.379 c h
123.75 200.055 m 123.75 206.055 132.75 206.055 132.75 200.055 c 132.75 
179.379 l 132.75 173.379 123.75 173.379 123.75 179.379 c h
103.5 200.055 m 103.5 206.055 112.5 206.055 112.5 200.055 c 112.5 179.379
 l 112.5 173.379 103.5 173.379 103.5 179.379 c h
103.5 200.055 m f
279.227 176.988 m 284.375 176.988 289.016 180.09 290.984 184.848 c 292.957
 189.602 291.867 195.078 288.227 198.719 c 284.586 202.359 279.109 203.449
 274.352 201.477 c 269.598 199.508 266.496 194.867 266.496 189.719 c 266.504
 182.691 272.199 176.996 279.227 176.988 c h
279.227 176.988 m f
Q Q
showpage
%%Trailer
end restore
%%EOF
