%!PS-Adobe-3.0 EPSF-3.0
%%Creator: cairo 1.14.8 (http://cairographics.org)
%%CreationDate: Thu Mar 21 09:07:39 2019
%%Pages: 1
%%DocumentData: Clean7Bit
%%LanguageLevel: 2
%%BoundingBox: 36 22 348 362
%%EndComments
%%BeginProlog
save
50 dict begin
/q { gsave } bind def
/Q { grestore } bind def
/cm { 6 array astore concat } bind def
/w { setlinewidth } bind def
/J { setlinecap } bind def
/j { setlinejoin } bind def
/M { setmiterlimit } bind def
/d { setdash } bind def
/m { moveto } bind def
/l { lineto } bind def
/c { curveto } bind def
/h { closepath } bind def
/re { exch dup neg 3 1 roll 5 3 roll moveto 0 rlineto
      0 exch rlineto 0 rlineto closepath } bind def
/S { stroke } bind def
/f { fill } bind def
/f* { eofill } bind def
/n { newpath } bind def
/W { clip } bind def
/W* { eoclip } bind def
/BT { } bind def
/ET { } bind def
/pdfmark where { pop globaldict /?pdfmark /exec load put }
    { globaldict begin /?pdfmark /pop load def /pdfmark
    /cleartomark load def end } ifelse
/BDC { mark 3 1 roll /BDC pdfmark } bind def
/EMC { mark /EMC pdfmark } bind def
/cairo_store_point { /cairo_point_y exch def /cairo_point_x exch def } def
/Tj { show currentpoint cairo_store_point } bind def
/TJ {
  {
    dup
    type /stringtype eq
    { show } { -0.001 mul 0 cairo_font_matrix dtransform rmoveto } ifelse
  } forall
  currentpoint cairo_store_point
} bind def
/cairo_selectfont { cairo_font_matrix aload pop pop pop 0 0 6 array astore
    cairo_font exch selectfont cairo_point_x cairo_point_y moveto } bind def
/Tf { pop /cairo_font exch def /cairo_font_matrix where
      { pop cairo_selectfont } if } bind def
/Td { matrix translate cairo_font_matrix matrix concatmatrix dup
      /cairo_font_matrix exch def dup 4 get exch 5 get cairo_store_point
      /cairo_font where { pop cairo_selectfont } if } bind def
/Tm { 2 copy 8 2 roll 6 array astore /cairo_font_matrix exch def
      cairo_store_point /cairo_font where { pop cairo_selectfont } if } bind def
/g { setgray } bind def
/rg { setrgbcolor } bind def
/d1 { setcachedevice } bind def
%%EndProlog
%%BeginSetup
%%EndSetup
%%Page: 1 1
%%BeginPageSetup
%%PageBoundingBox: 36 22 348 362
%%EndPageSetup
q 36 22 312 340 rectclip q
0 g
292.125 180.688 m 258.246 180.688 236.625 170.492 236.625 163.473 c 236.625
 156.453 258.246 146.258 292.125 146.258 c 326.004 146.258 347.625 156.453
 347.625 163.473 c 347.625 170.492 326.004 180.688 292.125 180.688 c h
292.125 180.688 m f
292.031 54.977 m 275.492 54.977 259.785 57.328 247.977 61.602 c 243.867
 63.023 239.93 64.91 236.25 67.23 c 236.25 39.758 l 236.25 32.742 257.965
 22.547 291.844 22.547 c 307.367 22.547 321.984 24.707 332.836 28.633 c 
343.602 32.527 347.25 36.934 347.25 39.758 c 347.25 67.23 l 345 65.273 340.73
 63.363 335.852 61.598 c 324.043 57.328 308.57 54.977 292.031 54.977 c h
292.031 54.977 m f
292.031 96.117 m 275.492 96.117 259.785 98.469 247.977 102.742 c 243.867
 104.164 239.93 106.055 236.25 108.375 c 236.25 81.188 l 236.25 74.168 257.965
 63.973 291.844 63.973 c 307.367 63.973 321.984 66.137 332.836 70.062 c 
343.602 73.957 347.25 78.363 347.25 81.188 c 347.25 108.375 l 345 106.418
 340.73 104.508 335.852 102.742 c 324.043 98.469 308.57 96.117 292.031 96.117
 c h
292.031 96.117 m f
292.031 137.258 m 275.496 137.258 259.789 139.613 247.98 143.887 c 243.867
 145.312 239.934 147.203 236.25 149.523 c 236.25 122.332 l 236.25 115.312
 257.965 105.117 291.844 105.117 c 307.367 105.117 321.984 107.277 332.836
 111.203 c 343.602 115.102 347.25 119.508 347.25 122.332 c 347.25 149.523
 l 345 147.562 340.727 145.652 335.852 143.887 c 324.039 139.613 308.566
 137.258 292.031 137.258 c h
292.031 137.258 m f
91.781 54.977 m 75.242 54.977 59.535 57.328 47.727 61.602 c 43.617 63.023
 39.68 64.91 36 67.23 c 36 39.758 l 36 32.742 57.715 22.547 91.594 22.547
 c 107.117 22.547 121.734 24.707 132.586 28.633 c 143.352 32.527 147 36.934
 147 39.758 c 147 67.23 l 144.75 65.273 140.48 63.363 135.602 61.598 c 123.793
 57.328 108.32 54.977 91.781 54.977 c h
91.781 54.977 m f
91.781 96.117 m 75.242 96.117 59.535 98.469 47.727 102.742 c 43.617 104.164
 39.68 106.055 36 108.375 c 36 81.188 l 36 74.168 57.715 63.973 91.594 63.973
 c 107.117 63.973 121.734 66.137 132.586 70.062 c 143.352 73.957 147 78.363
 147 81.188 c 147 108.375 l 144.75 106.418 140.48 104.508 135.602 102.742
 c 123.793 98.469 108.32 96.117 91.781 96.117 c h
91.781 96.117 m f
91.781 137.258 m 75.246 137.258 59.539 139.613 47.73 143.887 c 43.617 145.312
 39.684 147.203 36 149.523 c 36 122.332 l 36 115.312 57.715 105.117 91.594
 105.117 c 107.117 105.117 121.734 107.277 132.586 111.203 c 143.352 115.102
 147 119.508 147 122.332 c 147 149.523 l 144.75 147.562 140.477 145.652 
135.602 143.887 c 123.789 139.613 108.316 137.258 91.781 137.258 c h
91.781 137.258 m f
91.875 180.688 m 57.996 180.688 36.375 170.492 36.375 163.473 c 36.375 
156.453 57.996 146.258 91.875 146.258 c 125.754 146.258 147.375 156.453 
147.375 163.473 c 147.375 170.492 125.754 180.688 91.875 180.688 c h
91.875 180.688 m f
294 184.5 m 294 216.367 l 294 218.852 291.984 220.5 289.5 220.5 c 196.5
 220.5 l 196.5 257.25 l 187.5 257.25 l 187.5 220.5 l 94.5 220.5 l 92.016
 220.5 90 218.852 90 216.367 c 90 184.5 l 99 184.5 l 99 211.5 l 285 211.5
 l 285 184.5 l h
294 184.5 m f
134.309 321.531 m 134.309 320.895 134.324 320.258 134.355 319.629 c 134.441
 317.691 133.277 315.918 131.469 315.223 c 120.938 311.172 113.992 301.051
 114 289.766 c 114.016 274.727 126.191 262.535 141.23 262.5 c 242.77 262.5
 l 256.758 262.516 268.465 273.121 269.863 287.039 c 271.262 300.957 261.898
 313.676 248.195 316.477 c 246.156 316.891 244.668 318.641 244.586 320.719
 c 244.25 329.117 240.051 336.895 233.211 341.781 c 226.371 346.672 217.656
 348.125 209.598 345.723 c 207.875 345.203 206.008 345.766 204.852 347.148
 c 194.078 360.031 176.391 364.793 160.605 359.059 c 144.816 353.328 134.305
 338.328 134.309 321.535 c h
134.309 321.531 m f
Q Q
showpage
%%Trailer
end restore
%%EOF
