%!PS-Adobe-3.0 EPSF-3.0
%%Creator: cairo 1.14.8 (http://cairographics.org)
%%CreationDate: Thu Mar 21 09:07:39 2019
%%Pages: 1
%%DocumentData: Clean7Bit
%%LanguageLevel: 2
%%BoundingBox: 71 32 313 352
%%EndComments
%%BeginProlog
save
50 dict begin
/q { gsave } bind def
/Q { grestore } bind def
/cm { 6 array astore concat } bind def
/w { setlinewidth } bind def
/J { setlinecap } bind def
/j { setlinejoin } bind def
/M { setmiterlimit } bind def
/d { setdash } bind def
/m { moveto } bind def
/l { lineto } bind def
/c { curveto } bind def
/h { closepath } bind def
/re { exch dup neg 3 1 roll 5 3 roll moveto 0 rlineto
      0 exch rlineto 0 rlineto closepath } bind def
/S { stroke } bind def
/f { fill } bind def
/f* { eofill } bind def
/n { newpath } bind def
/W { clip } bind def
/W* { eoclip } bind def
/BT { } bind def
/ET { } bind def
/pdfmark where { pop globaldict /?pdfmark /exec load put }
    { globaldict begin /?pdfmark /pop load def /pdfmark
    /cleartomark load def end } ifelse
/BDC { mark 3 1 roll /BDC pdfmark } bind def
/EMC { mark /EMC pdfmark } bind def
/cairo_store_point { /cairo_point_y exch def /cairo_point_x exch def } def
/Tj { show currentpoint cairo_store_point } bind def
/TJ {
  {
    dup
    type /stringtype eq
    { show } { -0.001 mul 0 cairo_font_matrix dtransform rmoveto } ifelse
  } forall
  currentpoint cairo_store_point
} bind def
/cairo_selectfont { cairo_font_matrix aload pop pop pop 0 0 6 array astore
    cairo_font exch selectfont cairo_point_x cairo_point_y moveto } bind def
/Tf { pop /cairo_font exch def /cairo_font_matrix where
      { pop cairo_selectfont } if } bind def
/Td { matrix translate cairo_font_matrix matrix concatmatrix dup
      /cairo_font_matrix exch def dup 4 get exch 5 get cairo_store_point
      /cairo_font where { pop cairo_selectfont } if } bind def
/Tm { 2 copy 8 2 roll 6 array astore /cairo_font_matrix exch def
      cairo_store_point /cairo_font where { pop cairo_selectfont } if } bind def
/g { setgray } bind def
/rg { setrgbcolor } bind def
/d1 { setcachedevice } bind def
%%EndProlog
%%BeginSetup
%%EndSetup
%%Page: 1 1
%%BeginPageSetup
%%PageBoundingBox: 71 32 313 352
%%EndPageSetup
q 71 32 242 320 rectclip q
0 g
107.375 219 m 250.5 219 l 275.949 219.102 296.523 239.762 296.523 265.211
 c 296.523 290.66 275.949 311.32 250.5 311.422 c 250.113 311.422 249.727
 311.445 249.344 311.434 c 247.41 311.379 245.656 312.57 244.992 314.387
 c 237.27 335.277 218.047 349.723 195.836 351.324 c 173.621 352.93 152.523
 341.395 141.883 321.832 c 141.152 320.488 139.785 319.605 138.258 319.496
 c 118.121 317.941 102.559 301.176 102.5 280.977 c 102.5 279.457 102.59 
277.934 102.77 276.422 c 103.027 274.254 101.695 272.211 99.605 271.578 
c 86.922 267.668 78.988 255.086 80.926 241.957 c 82.867 228.824 94.102 219.078
 107.375 219.004 c h
107.375 219 m f
191.25 218.25 m 191.25 163.562 l 191.316 150.453 198.555 138.438 210.109
 132.25 c 218.754 127.633 224.18 118.656 224.25 108.855 c 224.25 66.75 l
 233.25 66.75 l 233.25 108.855 l 233.184 121.961 225.945 133.98 214.391 
140.168 c 205.746 144.785 200.32 153.762 200.25 163.562 c 200.25 218.25 
l h
191.25 218.25 m f
244.125 47.52 m 244.125 39.238 237.41 32.52 229.125 32.52 c 220.84 32.52
 214.125 39.238 214.125 47.52 c 214.125 55.805 220.84 62.52 229.125 62.52
 c 237.41 62.52 244.125 55.805 244.125 47.52 c h
244.125 47.52 m f
312.375 96.27 m 312.375 87.988 305.66 81.27 297.375 81.27 c 289.09 81.27
 282.375 87.988 282.375 96.27 c 282.375 104.555 289.09 111.27 297.375 111.27
 c 305.66 111.27 312.375 104.555 312.375 96.27 c h
312.375 96.27 m f
101.625 51.27 m 101.625 42.988 94.91 36.27 86.625 36.27 c 78.34 36.27 71.625
 42.988 71.625 51.27 c 71.625 59.555 78.34 66.27 86.625 66.27 c 94.91 66.27
 101.625 59.555 101.625 51.27 c h
101.625 51.27 m f
272.77 165.84 m 259.602 169.77 250.559 181.855 250.5 195.602 c 250.5 216.75
 l 241.5 216.75 l 241.5 195.602 l 241.57 177.867 253.238 162.273 270.23 
157.199 c 283.398 153.27 292.441 141.184 292.5 127.441 c 292.5 114.75 l 
301.5 114.75 l 301.5 127.441 l 301.426 145.172 289.758 160.766 272.77 165.84
 c h
272.77 165.84 m f
125.25 216.75 m 116.25 216.75 l 116.25 169.426 l 116.211 161.25 110.523
 154.191 102.543 152.422 c 90.438 149.73 81.805 139.02 81.75 126.617 c 81.75
 67.5 l 90.75 67.5 l 90.75 126.617 l 90.785 134.793 96.477 141.852 104.457
 143.625 c 116.562 146.312 125.195 157.023 125.25 169.426 c h
125.25 216.75 m f
148.875 97.77 m 148.875 89.488 142.16 82.77 133.875 82.77 c 125.59 82.77
 118.875 89.488 118.875 97.77 c 118.875 106.055 125.59 112.77 133.875 112.77
 c 142.16 112.77 148.875 106.055 148.875 97.77 c h
148.875 97.77 m f
174 196.02 m 174 216.75 l 165 216.75 l 165 196.02 l 165.02 186.023 159.004
 177.004 149.77 173.176 c 137.176 167.953 128.977 155.652 129 142.02 c 129
 114.75 l 138 114.75 l 138 142.02 l 137.984 152.02 143.996 161.039 153.23
 164.867 c 165.824 170.09 174.023 182.391 174 196.02 c h
174 196.02 m f
Q Q
showpage
%%Trailer
end restore
%%EOF
