%!PS-Adobe-3.0 EPSF-3.0
%%Creator: cairo 1.14.8 (http://cairographics.org)
%%CreationDate: Thu Mar 21 09:07:39 2019
%%Pages: 1
%%DocumentData: Clean7Bit
%%LanguageLevel: 2
%%BoundingBox: 22 15 362 370
%%EndComments
%%BeginProlog
save
50 dict begin
/q { gsave } bind def
/Q { grestore } bind def
/cm { 6 array astore concat } bind def
/w { setlinewidth } bind def
/J { setlinecap } bind def
/j { setlinejoin } bind def
/M { setmiterlimit } bind def
/d { setdash } bind def
/m { moveto } bind def
/l { lineto } bind def
/c { curveto } bind def
/h { closepath } bind def
/re { exch dup neg 3 1 roll 5 3 roll moveto 0 rlineto
      0 exch rlineto 0 rlineto closepath } bind def
/S { stroke } bind def
/f { fill } bind def
/f* { eofill } bind def
/n { newpath } bind def
/W { clip } bind def
/W* { eoclip } bind def
/BT { } bind def
/ET { } bind def
/pdfmark where { pop globaldict /?pdfmark /exec load put }
    { globaldict begin /?pdfmark /pop load def /pdfmark
    /cleartomark load def end } ifelse
/BDC { mark 3 1 roll /BDC pdfmark } bind def
/EMC { mark /EMC pdfmark } bind def
/cairo_store_point { /cairo_point_y exch def /cairo_point_x exch def } def
/Tj { show currentpoint cairo_store_point } bind def
/TJ {
  {
    dup
    type /stringtype eq
    { show } { -0.001 mul 0 cairo_font_matrix dtransform rmoveto } ifelse
  } forall
  currentpoint cairo_store_point
} bind def
/cairo_selectfont { cairo_font_matrix aload pop pop pop 0 0 6 array astore
    cairo_font exch selectfont cairo_point_x cairo_point_y moveto } bind def
/Tf { pop /cairo_font exch def /cairo_font_matrix where
      { pop cairo_selectfont } if } bind def
/Td { matrix translate cairo_font_matrix matrix concatmatrix dup
      /cairo_font_matrix exch def dup 4 get exch 5 get cairo_store_point
      /cairo_font where { pop cairo_selectfont } if } bind def
/Tm { 2 copy 8 2 roll 6 array astore /cairo_font_matrix exch def
      cairo_store_point /cairo_font where { pop cairo_selectfont } if } bind def
/g { setgray } bind def
/rg { setrgbcolor } bind def
/d1 { setcachedevice } bind def
%%EndProlog
%%BeginSetup
%%EndSetup
%%Page: 1 1
%%BeginPageSetup
%%PageBoundingBox: 22 15 362 370
%%EndPageSetup
q 22 15 340 355 rectclip q
0 g
121.5 19.5 m 121.5 21.984 119.484 24 117 24 c 97.5 24 l 97.5 45 l 88.5 
45 l 88.5 24 l 69 24 l 63 24 63 15 69 15 c 117 15 l 119.484 15 121.5 17.016
 121.5 19.5 c h
121.5 19.5 m f
163.5 142.316 m 163.508 148.148 158.832 152.906 153 153 c 33 153 l 27.168
 152.906 22.492 148.148 22.5 142.316 c 22.5 79.5 l 163.5 79.5 l h
163.5 142.316 m f
163.5 59.816 m 163.5 70.5 l 22.5 70.5 l 22.5 59.816 l 22.512 57.051 23.625
 54.406 25.598 52.469 c 27.57 50.531 30.234 49.461 33 49.5 c 153 49.5 l 
155.766 49.461 158.43 50.531 160.402 52.469 c 162.375 54.406 163.488 57.051
 163.5 59.816 c h
163.5 59.816 m f
220.5 59.816 m 220.512 57.051 221.625 54.406 223.598 52.469 c 225.57 50.531
 228.234 49.461 231 49.5 c 351 49.5 l 353.766 49.461 356.43 50.531 358.402
 52.469 c 360.375 54.406 361.488 57.051 361.5 59.816 c 361.5 70.5 l 220.5
 70.5 l h
220.5 59.816 m f
351 153 m 231 153 l 225.168 152.906 220.492 148.148 220.5 142.316 c 220.5
 79.5 l 361.5 79.5 l 361.5 142.316 l 361.508 148.148 356.832 152.906 351
 153 c h
351 153 m f
286.5 45 m 286.5 24 l 267 24 l 261 24 261 15 267 15 c 315 15 l 321 15 321
 24 315 24 c 295.5 24 l 295.5 45 l h
286.5 45 m f
145.848 279.75 m 238.152 279.75 l 250.676 279.809 261.129 289.312 262.379
 301.77 c 263.625 314.23 255.266 325.621 243.004 328.16 c 240.969 328.578
 239.477 330.332 239.398 332.41 c 239.094 339.922 235.34 346.871 229.227
 351.242 c 223.109 355.613 215.32 356.918 208.113 354.773 c 206.391 354.258
 204.523 354.816 203.371 356.199 c 193.684 367.777 177.789 372.059 163.598
 366.906 c 149.41 361.754 139.961 348.273 139.961 333.176 c 139.961 332.605
 139.977 332.031 140.004 331.465 c 140.09 329.527 138.93 327.754 137.117
 327.059 c 133.934 325.84 131.043 323.961 128.633 321.543 c 121.672 314.547
 119.586 304.055 123.348 294.926 c 127.105 285.797 135.973 279.816 145.848
 279.75 c h
145.848 279.75 m f
152.25 258.164 m 152.25 264.164 143.25 264.164 143.25 258.164 c 143.25 
253.508 l 143.25 247.508 152.25 247.508 152.25 253.508 c h
152.25 258.164 m f
147.75 243.496 m 145.266 243.496 143.25 241.484 143.25 238.996 c 143.25
 234.73 l 143.25 228.73 152.25 228.73 152.25 234.73 c 152.25 238.996 l 152.25
 241.484 150.234 243.496 147.75 243.496 c h
147.75 243.496 m f
145.035 172.289 m 146.77 170.68 149.453 170.68 151.188 172.289 c 174.797
 194.258 l 176.586 195.977 176.648 198.824 174.93 200.617 c 173.199 202.438
 170.332 202.535 168.48 200.844 c 152.25 185.918 l 152.25 219.559 l 152.25
 225.559 143.25 225.559 143.25 219.559 c 143.25 185.918 l 127.398 200.844
 l 125.613 202.535 122.789 202.434 121.133 200.617 c 119.449 198.785 119.574
 195.938 121.406 194.258 c h
145.035 172.289 m f
235.5 184.734 m 233.016 184.734 231 182.723 231 180.234 c 231 175.586 l
 231 169.586 240 169.586 240 175.586 c 240 180.234 l 240 182.723 237.984
 184.734 235.5 184.734 c h
235.5 184.734 m f
240 199.02 m 240 205.02 231 205.02 231 199.02 c 231 194.75 l 231 188.75
 240 188.75 240 194.75 c h
240 199.02 m f
232.801 261.457 m 209.199 239.488 l 207.379 237.793 207.277 234.945 208.973
 233.129 c 210.59 231.309 213.398 231.207 215.145 232.902 c 231 247.828 
l 231 214.188 l 231 208.188 240 208.188 240 214.188 c 240 247.828 l 256.227
 232.898 l 257.094 232.121 258.223 231.691 259.387 231.695 c 260.652 231.691
 261.859 232.211 262.73 233.129 c 264.43 234.941 264.336 237.789 262.523
 239.488 c 238.93 261.457 l 237.203 263.066 234.527 263.066 232.801 261.457
 c h
232.801 261.457 m f
Q Q
showpage
%%Trailer
end restore
%%EOF
