%!PS-Adobe-3.0 EPSF-3.0
%%Creator: cairo 1.14.8 (http://cairographics.org)
%%CreationDate: Thu Mar 21 09:07:39 2019
%%Pages: 1
%%DocumentData: Clean7Bit
%%LanguageLevel: 2
%%BoundingBox: 49 20 335 364
%%EndComments
%%BeginProlog
save
50 dict begin
/q { gsave } bind def
/Q { grestore } bind def
/cm { 6 array astore concat } bind def
/w { setlinewidth } bind def
/J { setlinecap } bind def
/j { setlinejoin } bind def
/M { setmiterlimit } bind def
/d { setdash } bind def
/m { moveto } bind def
/l { lineto } bind def
/c { curveto } bind def
/h { closepath } bind def
/re { exch dup neg 3 1 roll 5 3 roll moveto 0 rlineto
      0 exch rlineto 0 rlineto closepath } bind def
/S { stroke } bind def
/f { fill } bind def
/f* { eofill } bind def
/n { newpath } bind def
/W { clip } bind def
/W* { eoclip } bind def
/BT { } bind def
/ET { } bind def
/pdfmark where { pop globaldict /?pdfmark /exec load put }
    { globaldict begin /?pdfmark /pop load def /pdfmark
    /cleartomark load def end } ifelse
/BDC { mark 3 1 roll /BDC pdfmark } bind def
/EMC { mark /EMC pdfmark } bind def
/cairo_store_point { /cairo_point_y exch def /cairo_point_x exch def } def
/Tj { show currentpoint cairo_store_point } bind def
/TJ {
  {
    dup
    type /stringtype eq
    { show } { -0.001 mul 0 cairo_font_matrix dtransform rmoveto } ifelse
  } forall
  currentpoint cairo_store_point
} bind def
/cairo_selectfont { cairo_font_matrix aload pop pop pop 0 0 6 array astore
    cairo_font exch selectfont cairo_point_x cairo_point_y moveto } bind def
/Tf { pop /cairo_font exch def /cairo_font_matrix where
      { pop cairo_selectfont } if } bind def
/Td { matrix translate cairo_font_matrix matrix concatmatrix dup
      /cairo_font_matrix exch def dup 4 get exch 5 get cairo_store_point
      /cairo_font where { pop cairo_selectfont } if } bind def
/Tm { 2 copy 8 2 roll 6 array astore /cairo_font_matrix exch def
      cairo_store_point /cairo_font where { pop cairo_selectfont } if } bind def
/g { setgray } bind def
/rg { setrgbcolor } bind def
/d1 { setcachedevice } bind def
%%EndProlog
%%BeginSetup
%%EndSetup
%%Page: 1 1
%%BeginPageSetup
%%PageBoundingBox: 49 20 335 364
%%EndPageSetup
q 49 20 286 344 rectclip q
0 g
254.242 29.25 m 196.5 29.25 l 196.5 85.5 l 187.5 85.5 l 187.5 29.25 l 133.164
 29.25 l 127.164 29.25 127.164 20.25 133.164 20.25 c 254.242 20.25 l 260.242
 20.25 260.242 29.25 254.242 29.25 c h
254.242 29.25 m f
214.285 265.105 m 211.805 265.105 210.559 262.102 212.312 260.348 c 214.07
 258.594 217.07 259.836 217.07 262.316 c 217.07 263.855 215.824 265.102 
214.285 265.105 c h
214.285 265.105 m f
144.75 231.75 m 144.75 222.031 l 144.703 219.52 142.656 217.508 140.145
 217.5 c 114 217.5 l 114 174.75 l 270 174.75 l 270 217.5 l 217.285 217.5
 l 214.836 217.535 212.898 219.586 213 222.031 c 213 231.75 l h
134.25 189.891 m 134.25 183.891 125.25 183.891 125.25 189.891 c 125.25 
198.461 l 125.25 204.461 134.25 204.461 134.25 198.461 c h
153.75 189.891 m 153.75 183.891 144.75 183.891 144.75 189.891 c 144.75 
198.461 l 144.75 204.461 153.75 204.461 153.75 198.461 c h
172.5 189.891 m 172.5 183.891 163.5 183.891 163.5 189.891 c 163.5 198.461
 l 163.5 204.461 172.5 204.461 172.5 198.461 c h
246.645 208.105 m 251.41 208.105 255.707 205.234 257.531 200.828 c 259.355
 196.426 258.348 191.355 254.977 187.984 c 251.605 184.613 246.539 183.605
 242.133 185.43 c 237.73 187.254 234.855 191.551 234.855 196.316 c 234.863
 202.824 240.137 208.098 246.645 208.105 c h
214.285 208.105 m 219.051 208.105 223.352 205.234 225.176 200.828 c 227
 196.426 225.992 191.355 222.621 187.984 c 219.25 184.613 214.18 183.605
 209.777 185.43 c 205.371 187.254 202.5 191.551 202.5 196.316 c 202.508 
202.824 207.781 208.098 214.285 208.105 c h
214.285 208.105 m f
246.645 193.531 m 249.125 193.531 250.371 196.531 248.613 198.289 c 246.859
 200.043 243.855 198.801 243.855 196.316 c 243.859 194.781 245.105 193.535
 246.645 193.531 c h
246.645 193.531 m f
246.645 325.531 m 249.125 325.531 250.371 328.531 248.613 330.289 c 246.859
 332.043 243.855 330.801 243.855 328.316 c 243.859 326.781 245.105 325.535
 246.645 325.531 c h
246.645 325.531 m f
214.285 325.531 m 216.77 325.531 218.012 328.531 216.258 330.289 c 214.5
 332.043 211.5 330.801 211.5 328.316 c 211.5 326.781 212.746 325.535 214.285
 325.531 c h
214.285 325.531 m f
144.75 363.75 m 144.75 354.031 l 144.703 351.52 142.656 349.508 140.145
 349.5 c 114 349.5 l 114 306.75 l 270 306.75 l 270 349.5 l 217.285 349.5
 l 214.836 349.535 212.898 351.586 213 354.031 c 213 363.75 l h
134.25 321.891 m 134.25 315.891 125.25 315.891 125.25 321.891 c 125.25 
330.461 l 125.25 336.461 134.25 336.461 134.25 330.461 c h
153.75 321.891 m 153.75 315.891 144.75 315.891 144.75 321.891 c 144.75 
330.461 l 144.75 336.461 153.75 336.461 153.75 330.461 c h
172.5 321.891 m 172.5 315.891 163.5 315.891 163.5 321.891 c 163.5 330.461
 l 163.5 336.461 172.5 336.461 172.5 330.461 c h
246.645 340.105 m 251.41 340.105 255.707 337.234 257.531 332.828 c 259.355
 328.426 258.348 323.355 254.977 319.984 c 251.605 316.613 246.539 315.605
 242.133 317.43 c 237.73 319.254 234.855 323.551 234.855 328.316 c 234.863
 334.824 240.137 340.098 246.645 340.105 c h
214.285 340.105 m 219.051 340.105 223.352 337.234 225.176 332.828 c 227
 328.426 225.992 323.355 222.621 319.984 c 219.25 316.613 214.18 315.605
 209.777 317.43 c 205.371 319.254 202.5 323.551 202.5 328.316 c 202.508 
334.824 207.781 340.098 214.285 340.105 c h
214.285 340.105 m f
214.285 193.531 m 216.77 193.531 218.012 196.531 216.258 198.289 c 214.5
 200.043 211.5 198.801 211.5 196.316 c 211.5 194.781 212.746 193.535 214.285
 193.531 c h
214.285 193.531 m f
270 283.5 m 217.285 283.5 l 214.836 283.535 212.898 285.586 213 288.031
 c 213 297.75 l 144.75 297.75 l 144.75 288.031 l 144.703 285.52 142.656 
283.508 140.145 283.5 c 114 283.5 l 114 240.75 l 270 240.75 l h
134.25 255.891 m 134.25 249.891 125.25 249.891 125.25 255.891 c 125.25 
264.461 l 125.25 270.461 134.25 270.461 134.25 264.461 c h
153.75 255.891 m 153.75 249.891 144.75 249.891 144.75 255.891 c 144.75 
264.461 l 144.75 270.461 153.75 270.461 153.75 264.461 c h
172.5 255.891 m 172.5 249.891 163.5 249.891 163.5 255.891 c 163.5 264.461
 l 163.5 270.461 172.5 270.461 172.5 264.461 c h
214.285 250.531 m 209.52 250.531 205.219 253.402 203.395 257.809 c 201.57
 262.211 202.578 267.281 205.949 270.652 c 209.32 274.023 214.391 275.031
 218.797 273.207 c 223.199 271.383 226.07 267.086 226.07 262.316 c 226.062
 255.812 220.793 250.539 214.285 250.531 c h
246.645 250.531 m 241.875 250.531 237.578 253.402 235.754 257.809 c 233.93
 262.211 234.938 267.281 238.309 270.652 c 241.68 274.023 246.75 275.031
 251.152 273.207 c 255.559 271.383 258.43 267.086 258.43 262.316 c 258.422
 255.812 253.148 250.539 246.645 250.531 c h
246.645 250.531 m f
246.645 265.105 m 244.16 265.105 242.918 262.102 244.672 260.348 c 246.43
 258.594 249.43 259.836 249.43 262.316 c 249.43 263.855 248.18 265.102 246.645
 265.105 c h
246.645 265.105 m f
49.5 113.941 m 49.449 107.617 51.922 101.531 56.371 97.035 c 60.824 92.543
 66.887 90.008 73.211 90 c 310.789 90 l 317.113 90.008 323.176 92.543 327.629
 97.035 c 332.078 101.531 334.551 107.617 334.5 113.941 c 334.5 134.25 l
 49.5 134.25 l h
49.5 113.941 m f
310.789 312 m 279 312 l 279 306.891 l 279 302.047 275.059 297.75 270.215
 297.75 c 222 297.75 l 222 292.5 l 270.215 292.5 l 272.539 292.504 274.773
 291.586 276.422 289.941 c 278.07 288.301 278.996 286.07 279 283.746 c 279
 240.891 l 279 236.047 275.059 231.75 270.215 231.75 c 222 231.75 l 222 
226.5 l 270.215 226.5 l 272.539 226.504 274.773 225.586 276.422 223.941 
c 278.07 222.301 278.996 220.07 279 217.746 c 279 174.891 l 279 170.047 
275.059 165.75 270.215 165.75 c 113.785 165.75 l 108.941 165.75 105 170.047
 105 174.891 c 105 217.746 l 105.004 220.07 105.93 222.301 107.578 223.941
 c 109.227 225.586 111.461 226.504 113.785 226.5 c 135.75 226.5 l 135.75
 231.75 l 113.785 231.75 l 108.941 231.75 105 236.047 105 240.891 c 105 
283.746 l 105.004 286.07 105.93 288.301 107.578 289.941 c 109.227 291.586
 111.461 292.504 113.785 292.5 c 135.75 292.5 l 135.75 297.75 l 113.785 
297.75 l 108.941 297.75 105 302.047 105 306.891 c 105 312 l 73.211 312 l
 59.988 312 49.5 301.074 49.5 287.852 c 49.5 143.25 l 334.5 143.25 l 334.5
 287.852 l 334.5 301.074 324.012 312 310.789 312 c h
310.789 312 m f
Q Q
showpage
%%Trailer
end restore
%%EOF
