%!PS-Adobe-3.0 EPSF-3.0
%%Creator: cairo 1.14.8 (http://cairographics.org)
%%CreationDate: Thu Mar 21 09:07:39 2019
%%Pages: 1
%%DocumentData: Clean7Bit
%%LanguageLevel: 2
%%BoundingBox: 3 95 381 289
%%EndComments
%%BeginProlog
save
50 dict begin
/q { gsave } bind def
/Q { grestore } bind def
/cm { 6 array astore concat } bind def
/w { setlinewidth } bind def
/J { setlinecap } bind def
/j { setlinejoin } bind def
/M { setmiterlimit } bind def
/d { setdash } bind def
/m { moveto } bind def
/l { lineto } bind def
/c { curveto } bind def
/h { closepath } bind def
/re { exch dup neg 3 1 roll 5 3 roll moveto 0 rlineto
      0 exch rlineto 0 rlineto closepath } bind def
/S { stroke } bind def
/f { fill } bind def
/f* { eofill } bind def
/n { newpath } bind def
/W { clip } bind def
/W* { eoclip } bind def
/BT { } bind def
/ET { } bind def
/pdfmark where { pop globaldict /?pdfmark /exec load put }
    { globaldict begin /?pdfmark /pop load def /pdfmark
    /cleartomark load def end } ifelse
/BDC { mark 3 1 roll /BDC pdfmark } bind def
/EMC { mark /EMC pdfmark } bind def
/cairo_store_point { /cairo_point_y exch def /cairo_point_x exch def } def
/Tj { show currentpoint cairo_store_point } bind def
/TJ {
  {
    dup
    type /stringtype eq
    { show } { -0.001 mul 0 cairo_font_matrix dtransform rmoveto } ifelse
  } forall
  currentpoint cairo_store_point
} bind def
/cairo_selectfont { cairo_font_matrix aload pop pop pop 0 0 6 array astore
    cairo_font exch selectfont cairo_point_x cairo_point_y moveto } bind def
/Tf { pop /cairo_font exch def /cairo_font_matrix where
      { pop cairo_selectfont } if } bind def
/Td { matrix translate cairo_font_matrix matrix concatmatrix dup
      /cairo_font_matrix exch def dup 4 get exch 5 get cairo_store_point
      /cairo_font where { pop cairo_selectfont } if } bind def
/Tm { 2 copy 8 2 roll 6 array astore /cairo_font_matrix exch def
      cairo_store_point /cairo_font where { pop cairo_selectfont } if } bind def
/g { setgray } bind def
/rg { setrgbcolor } bind def
/d1 { setcachedevice } bind def
%%EndProlog
%%BeginSetup
%%EndSetup
%%Page: 1 1
%%BeginPageSetup
%%PageBoundingBox: 3 95 381 289
%%EndPageSetup
q 3 95 378 194 rectclip q
0 g
105.75 138.75 m 278.25 138.75 l 281.012 138.703 283.676 139.762 285.648
 141.691 c 287.621 143.625 288.738 146.266 288.75 149.023 c 288.75 170.25
 l 95.25 170.25 l 95.25 149.023 l 95.262 146.266 96.379 143.625 98.352 141.691
 c 100.324 139.762 102.988 138.703 105.75 138.75 c h
105.75 138.75 m f
288.75 278.398 m 288.742 281.168 287.629 283.82 285.656 285.762 c 283.684
 287.707 281.02 288.781 278.25 288.75 c 105.75 288.75 l 102.98 288.781 100.316
 287.707 98.344 285.762 c 96.371 283.82 95.258 281.168 95.25 278.398 c 95.25
 179.25 l 288.75 179.25 l h
288.75 278.398 m f
187.5 134.25 m 187.5 104.25 l 159.602 104.25 l 153.602 104.25 153.602 95.25
 159.602 95.25 c 224.398 95.25 l 230.398 95.25 230.398 104.25 224.398 104.25
 c 196.5 104.25 l 196.5 134.25 l h
187.5 134.25 m f
32.613 168.75 m 38.25 168.75 l 44.996 168.715 51.211 172.391 54.43 178.32
 c 56.07 181.344 59.238 183.223 62.68 183.211 c 92.445 183.09 l 92.477 192.082
 l 62.695 192.215 l 55.941 192.23 49.727 188.539 46.516 182.598 c 44.867
 179.582 41.688 177.715 38.25 177.75 c 32.488 177.75 l 30.598 182.25 25.785
 186.215 20.145 186.215 c 15.195 186.227 10.66 183.465 8.391 179.07 c 6.121
 174.672 6.504 169.375 9.379 165.348 c 12.25 161.32 17.137 159.238 22.035
 159.957 c 26.93 160.672 31.012 164.066 32.613 168.75 c h
32.613 168.75 m f
17.176 242.672 m 22.875 242.672 27.734 246.75 29.582 251.25 c 46.188 251.25
 l 48.629 251.328 50.793 249.676 51.352 247.293 c 52.828 240.789 58.641 
236.191 65.312 236.25 c 92.25 236.25 l 92.25 245.25 l 65.312 245.25 l 62.867
 245.172 60.707 246.824 60.145 249.207 c 58.672 255.711 52.859 260.309 46.188
 260.25 c 29.578 260.25 l 27.934 264.898 23.836 268.246 18.949 268.922 c
 14.066 269.598 9.211 267.488 6.371 263.461 c 3.527 259.43 3.168 254.152
 5.445 249.777 c 7.719 245.402 12.242 242.66 17.176 242.672 c h
17.176 242.672 m f
92.25 147.75 m 92.25 156.75 l 77.008 156.75 l 68.008 156.773 60.062 150.887
 57.465 142.27 c 56.008 137.473 51.566 134.211 46.555 134.25 c 40.383 134.25
 l 38.539 138.75 33.68 142.828 27.977 142.828 c 20.672 142.789 14.77 136.855
 14.766 129.547 c 14.801 123.137 19.441 117.68 25.766 116.617 c 32.09 115.555
 38.262 119.199 40.383 125.25 c 46.555 125.25 l 55.555 125.227 63.5 131.113
 66.098 139.73 c 67.555 144.527 71.996 147.789 77.008 147.75 c h
92.25 147.75 m f
69.285 215.48 m 66.59 222.082 60.199 226.426 53.07 226.5 c 50.355 226.5
 l 48.516 231.762 43.523 235.262 37.949 235.191 c 34.43 235.219 31.043 233.84
 28.543 231.359 c 26.047 228.879 24.641 225.504 24.641 221.98 c 24.641 218.461
 26.047 215.086 28.543 212.605 c 31.043 210.125 34.43 208.746 37.949 208.773
 c 43.531 208.719 48.52 212.23 50.355 217.5 c 53.07 217.5 l 56.562 217.418
 59.672 215.262 60.977 212.02 c 63.672 205.414 70.062 201.07 77.195 201 
c 92.25 201 l 92.25 210 l 77.195 210 l 73.699 210.082 70.59 212.234 69.285
 215.48 c h
69.285 215.48 m f
363.855 186.215 m 358.215 186.215 353.398 182.25 351.512 177.75 c 345.75
 177.75 l 342.312 177.719 339.137 179.582 337.488 182.598 c 334.273 188.539
 328.051 192.234 321.293 192.211 c 291.527 192.09 l 291.555 183.082 l 321.309
 183.176 l 324.746 183.207 327.922 181.344 329.57 178.324 c 332.785 172.395
 339.004 168.715 345.75 168.75 c 351.387 168.75 l 352.988 164.07 357.07 
160.68 361.965 159.965 c 366.855 159.25 371.738 161.328 374.613 165.355 
c 377.484 169.379 377.867 174.672 375.602 179.07 c 373.336 183.465 368.801
 186.223 363.855 186.215 c h
363.855 186.215 m f
356.023 142.828 m 350.324 142.828 345.465 138.75 343.617 134.25 c 337.449
 134.25 l 332.438 134.211 327.996 137.473 326.539 142.27 c 323.941 150.887
 315.992 156.777 306.992 156.75 c 291.75 156.75 l 291.75 147.75 l 306.992
 147.75 l 312.004 147.789 316.445 144.527 317.902 139.73 c 320.5 131.113
 328.445 125.227 337.445 125.25 c 343.617 125.25 l 345.258 120.602 349.355
 117.258 354.242 116.582 c 359.125 115.902 363.977 118.008 366.82 122.039
 c 369.664 126.066 370.023 131.344 367.75 135.719 c 365.48 140.094 360.957
 142.836 356.023 142.828 c h
356.023 142.828 m f
366.828 269.062 m 361.234 269.082 356.246 265.539 354.422 260.25 c 337.812
 260.25 l 331.141 260.309 325.328 255.711 323.855 249.207 c 323.293 246.824
 321.133 245.172 318.688 245.25 c 291.75 245.25 l 291.75 236.25 l 318.688
 236.25 l 325.359 236.191 331.172 240.789 332.648 247.293 c 333.207 249.676
 335.371 251.328 337.812 251.25 c 354.422 251.25 l 356.27 246.75 361.125
 242.672 366.828 242.672 c 374.137 242.711 380.039 248.645 380.043 255.953
 c 380.035 259.445 378.637 262.789 376.156 265.25 c 373.68 267.711 370.32
 269.082 366.828 269.062 c h
366.828 269.062 m f
323.023 212.02 m 324.328 215.262 327.438 217.418 330.93 217.5 c 333.645
 217.5 l 335.477 212.23 340.469 208.715 346.051 208.766 c 353.309 208.82
 359.168 214.723 359.168 221.98 c 359.168 229.242 353.309 235.141 346.051
 235.195 c 340.477 235.262 335.484 231.762 333.645 226.5 c 330.93 226.5 
l 323.801 226.426 317.41 222.082 314.715 215.48 c 313.41 212.234 310.301
 210.078 306.805 210 c 291.75 210 l 291.75 201 l 306.805 201 l 313.938 201.07
 320.328 205.414 323.023 212.02 c h
323.023 212.02 m f
Q Q
showpage
%%Trailer
end restore
%%EOF
