%!PS-Adobe-3.0 EPSF-3.0
%%Creator: cairo 1.14.8 (http://cairographics.org)
%%CreationDate: Thu Mar 21 09:07:39 2019
%%Pages: 1
%%DocumentData: Clean7Bit
%%LanguageLevel: 2
%%BoundingBox: 56 21 328 363
%%EndComments
%%BeginProlog
save
50 dict begin
/q { gsave } bind def
/Q { grestore } bind def
/cm { 6 array astore concat } bind def
/w { setlinewidth } bind def
/J { setlinecap } bind def
/j { setlinejoin } bind def
/M { setmiterlimit } bind def
/d { setdash } bind def
/m { moveto } bind def
/l { lineto } bind def
/c { curveto } bind def
/h { closepath } bind def
/re { exch dup neg 3 1 roll 5 3 roll moveto 0 rlineto
      0 exch rlineto 0 rlineto closepath } bind def
/S { stroke } bind def
/f { fill } bind def
/f* { eofill } bind def
/n { newpath } bind def
/W { clip } bind def
/W* { eoclip } bind def
/BT { } bind def
/ET { } bind def
/pdfmark where { pop globaldict /?pdfmark /exec load put }
    { globaldict begin /?pdfmark /pop load def /pdfmark
    /cleartomark load def end } ifelse
/BDC { mark 3 1 roll /BDC pdfmark } bind def
/EMC { mark /EMC pdfmark } bind def
/cairo_store_point { /cairo_point_y exch def /cairo_point_x exch def } def
/Tj { show currentpoint cairo_store_point } bind def
/TJ {
  {
    dup
    type /stringtype eq
    { show } { -0.001 mul 0 cairo_font_matrix dtransform rmoveto } ifelse
  } forall
  currentpoint cairo_store_point
} bind def
/cairo_selectfont { cairo_font_matrix aload pop pop pop 0 0 6 array astore
    cairo_font exch selectfont cairo_point_x cairo_point_y moveto } bind def
/Tf { pop /cairo_font exch def /cairo_font_matrix where
      { pop cairo_selectfont } if } bind def
/Td { matrix translate cairo_font_matrix matrix concatmatrix dup
      /cairo_font_matrix exch def dup 4 get exch 5 get cairo_store_point
      /cairo_font where { pop cairo_selectfont } if } bind def
/Tm { 2 copy 8 2 roll 6 array astore /cairo_font_matrix exch def
      cairo_store_point /cairo_font where { pop cairo_selectfont } if } bind def
/g { setgray } bind def
/rg { setrgbcolor } bind def
/d1 { setcachedevice } bind def
%%EndProlog
%%BeginSetup
%%EndSetup
%%Page: 1 1
%%BeginPageSetup
%%PageBoundingBox: 56 21 328 363
%%EndPageSetup
q 56 21 272 342 rectclip q
0 g
56.25 93.871 m 56.25 85.152 67.27 76.199 86.324 69.309 c 107.09 61.793 
134.891 57.656 164.441 57.656 c 178.684 57.617 192.91 58.656 207 60.762 
c 207 129.324 l 192.871 127.293 178.617 126.297 164.344 126.336 c 133.777
 126.336 105.074 130.664 83.352 138.523 c 71.594 142.777 63 147.895 56.25
 153.594 c h
120.402 97.898 m 120.742 100.359 123.008 102.082 125.473 101.746 c 138.449
 100.004 151.527 99.145 164.621 99.172 c 175.09 99.16 185.547 99.703 195.957
 100.797 c 201.926 101.43 202.875 92.48 196.91 91.848 c 186.184 90.719 175.406
 90.16 164.621 90.172 c 151.121 90.145 137.633 91.031 124.25 92.828 c 121.789
 93.168 120.066 95.434 120.402 97.898 c h
120.402 97.898 m f
252 163.5 39.75 -12.75 re f
234.34 255.613 m 234.34 253.16 232.352 251.172 229.898 251.172 c 227.445
 251.172 225.457 253.16 225.457 255.613 c 225.457 258.066 227.445 260.055
 229.898 260.055 c 232.352 260.055 234.34 258.066 234.34 255.613 c h
234.34 255.613 m f
229.898 175.172 m 233.855 175.172 235.836 179.957 233.039 182.754 c 230.238
 185.551 225.457 183.57 225.457 179.613 c 225.457 177.16 227.445 175.176
 229.898 175.172 c h
229.898 175.172 m f
327 35.641 m 327 138.93 l 327.066 142.48 325.684 145.906 323.172 148.422
 c 320.66 150.934 317.234 152.316 313.684 152.25 c 300.75 152.25 l 300.75
 146.398 l 300.75 143.914 299.023 141.75 296.543 141.75 c 247.207 141.75
 l 244.723 141.75 243 143.914 243 146.398 c 243 152.25 l 230.066 152.25 
l 222.516 152.25 216 146.477 216 138.93 c 216 35.641 l 216 28.094 222.516
 21.75 230.066 21.75 c 313.684 21.75 l 321.234 21.75 327 28.094 327 35.641
 c h
295.113 101.941 m 274.25 75.352 l 273.465 74.348 272.293 73.727 271.023
 73.641 c 270.918 73.633 270.816 73.629 270.711 73.629 c 269.547 73.629 
268.426 74.078 267.59 74.887 c 253.473 88.492 l 251.656 90.211 251.59 93.082
 253.328 94.883 c 255.062 96.684 257.934 96.723 259.719 94.973 c 270.246
 84.824 l 288.031 107.496 l 291.738 112.172 298.773 106.656 295.113 101.941
 c h
295.113 101.941 m f
164.625 289.621 m 194.164 289.621 221.875 293.762 242.645 301.277 c 261.691
 308.172 272.625 317.125 272.625 325.836 c 272.625 334.547 261.695 343.5
 242.645 350.391 c 221.875 357.91 194.164 362.051 164.625 362.051 c 135.086
 362.051 107.375 357.91 86.605 350.391 c 67.555 343.5 56.625 334.547 56.625
 325.836 c 56.625 317.121 67.555 308.176 86.605 301.273 c 107.375 293.762
 135.086 289.621 164.625 289.621 c h
164.625 289.621 m f
56.25 248.691 m 56.25 239.977 67.316 231.023 86.367 224.129 c 107.133 216.617
 134.98 212.477 164.531 212.477 c 194.082 212.477 221.695 216.617 242.457
 224.129 c 261.508 231.023 272.246 239.977 272.246 248.691 c 272.246 307.887
 l 266.246 302.188 257.227 297.07 245.473 292.812 c 223.746 284.949 195.09
 280.617 164.531 280.617 c 133.973 280.617 105.082 284.949 83.355 292.812
 c 71.598 297.07 63 302.188 56.25 307.887 c h
229.898 269.055 m 235.332 269.055 240.234 265.781 242.316 260.758 c 244.395
 255.734 243.246 249.953 239.402 246.109 c 235.559 242.266 229.777 241.117
 224.754 243.195 c 219.73 245.277 216.457 250.176 216.457 255.613 c 216.465
 263.035 222.477 269.047 229.898 269.055 c h
120.402 249.898 m 120.742 252.363 123.008 254.086 125.473 253.75 c 138.449
 252.008 151.527 251.148 164.621 251.176 c 175.09 251.164 185.547 251.707
 195.957 252.801 c 201.875 253.375 202.816 244.535 196.91 243.852 c 186.188
 242.723 175.41 242.164 164.625 242.176 c 151.121 242.148 137.633 243.035
 124.254 244.832 c 121.789 245.168 120.066 247.438 120.402 249.898 c h
120.402 249.898 m f
56.25 173.156 m 56.25 171.551 l 56.25 162.832 67.27 153.879 86.324 146.984
 c 107.09 139.473 134.891 135.336 164.441 135.336 c 178.684 135.297 192.91
 136.332 207 138.438 c 207 138.93 l 207 151.441 217.555 161.25 230.066 161.25
 c 243 161.25 l 243 167.844 l 243 170.328 244.727 172.5 247.207 172.5 c 
272.25 172.5 l 272.25 230.738 l 266.25 225.039 257.234 219.922 245.477 215.664
 c 223.754 207.801 195.098 203.473 164.531 203.473 c 133.965 203.473 105.074
 207.801 83.352 215.664 c 71.594 219.922 63 225.039 56.25 230.738 c h
229.898 193.055 m 235.332 193.055 240.234 189.781 242.316 184.758 c 244.395
 179.734 243.246 173.953 239.402 170.109 c 235.559 166.266 229.777 165.113
 224.754 167.195 c 219.73 169.273 216.457 174.176 216.457 179.613 c 216.465
 187.031 222.477 193.047 229.898 193.055 c h
120.402 173.898 m 120.742 176.359 123.008 178.082 125.473 177.746 c 138.449
 176.004 151.527 175.145 164.621 175.172 c 175.09 175.16 185.547 175.703
 195.957 176.797 c 201.871 177.367 202.809 168.535 196.91 167.848 c 186.184
 166.723 175.406 166.16 164.621 166.172 c 151.121 166.145 137.633 167.031
 124.25 168.828 c 121.789 169.168 120.066 171.438 120.402 173.898 c h
120.402 173.898 m f
Q Q
showpage
%%Trailer
end restore
%%EOF
