%!PS-Adobe-3.0 EPSF-3.0
%%Creator: cairo 1.14.8 (http://cairographics.org)
%%CreationDate: Thu Mar 21 09:07:39 2019
%%Pages: 1
%%DocumentData: Clean7Bit
%%LanguageLevel: 2
%%BoundingBox: 52 16 332 368
%%EndComments
%%BeginProlog
save
50 dict begin
/q { gsave } bind def
/Q { grestore } bind def
/cm { 6 array astore concat } bind def
/w { setlinewidth } bind def
/J { setlinecap } bind def
/j { setlinejoin } bind def
/M { setmiterlimit } bind def
/d { setdash } bind def
/m { moveto } bind def
/l { lineto } bind def
/c { curveto } bind def
/h { closepath } bind def
/re { exch dup neg 3 1 roll 5 3 roll moveto 0 rlineto
      0 exch rlineto 0 rlineto closepath } bind def
/S { stroke } bind def
/f { fill } bind def
/f* { eofill } bind def
/n { newpath } bind def
/W { clip } bind def
/W* { eoclip } bind def
/BT { } bind def
/ET { } bind def
/pdfmark where { pop globaldict /?pdfmark /exec load put }
    { globaldict begin /?pdfmark /pop load def /pdfmark
    /cleartomark load def end } ifelse
/BDC { mark 3 1 roll /BDC pdfmark } bind def
/EMC { mark /EMC pdfmark } bind def
/cairo_store_point { /cairo_point_y exch def /cairo_point_x exch def } def
/Tj { show currentpoint cairo_store_point } bind def
/TJ {
  {
    dup
    type /stringtype eq
    { show } { -0.001 mul 0 cairo_font_matrix dtransform rmoveto } ifelse
  } forall
  currentpoint cairo_store_point
} bind def
/cairo_selectfont { cairo_font_matrix aload pop pop pop 0 0 6 array astore
    cairo_font exch selectfont cairo_point_x cairo_point_y moveto } bind def
/Tf { pop /cairo_font exch def /cairo_font_matrix where
      { pop cairo_selectfont } if } bind def
/Td { matrix translate cairo_font_matrix matrix concatmatrix dup
      /cairo_font_matrix exch def dup 4 get exch 5 get cairo_store_point
      /cairo_font where { pop cairo_selectfont } if } bind def
/Tm { 2 copy 8 2 roll 6 array astore /cairo_font_matrix exch def
      cairo_store_point /cairo_font where { pop cairo_selectfont } if } bind def
/g { setgray } bind def
/rg { setrgbcolor } bind def
/d1 { setcachedevice } bind def
%%EndProlog
%%BeginSetup
%%EndSetup
%%Page: 1 1
%%BeginPageSetup
%%PageBoundingBox: 52 16 332 368
%%EndPageSetup
q 52 16 280 352 rectclip q
0 g
243.477 335.867 m 243.477 318.398 200.797 304.238 148.145 304.238 c 95.492
 304.238 52.809 318.398 52.809 335.867 c 52.809 353.34 95.492 367.5 148.145
 367.5 c 200.797 367.5 243.477 353.34 243.477 335.867 c h
243.477 335.867 m f
206.066 202.672 m 209.129 202.672 210.66 206.371 208.496 208.535 c 206.332
 210.699 202.633 209.168 202.633 206.109 c 202.637 204.211 204.172 202.676
 206.066 202.672 c h
206.066 202.672 m f
52.5 267.41 m 52.5 252.449 91.941 235.777 148.125 235.777 c 204.309 235.777
 243.75 252.449 243.75 267.41 c 243.75 318.805 l 237.75 314.004 230.332 
309.695 220.367 306.09 c 201.031 299.09 175.242 295.238 148.066 295.238 
c 120.891 295.238 95.199 299.09 75.863 306.09 c 65.898 309.695 58.5 314.008
 52.5 318.805 c h
206.066 285.988 m 211.098 285.988 215.633 282.957 217.555 278.312 c 219.48
 273.664 218.418 268.316 214.859 264.758 c 211.305 261.203 205.957 260.141
 201.309 262.066 c 196.66 263.988 193.633 268.523 193.633 273.555 c 193.641
 280.418 199.203 285.98 206.066 285.988 c h
108.398 268.551 m 108.734 271.012 111.004 272.734 113.465 272.398 c 124.961
 270.855 136.547 270.094 148.145 270.117 c 157.414 270.109 166.68 270.59
 175.898 271.559 c 181.82 272.141 182.766 263.289 176.852 262.609 c 167.316
 261.605 157.73 261.109 148.145 261.117 c 136.137 261.094 124.145 261.887
 112.246 263.48 c 109.785 263.82 108.062 266.086 108.398 268.551 c h
108.398 268.551 m f
206.066 270.117 m 209.129 270.117 210.66 273.82 208.496 275.98 c 206.332
 278.145 202.633 276.613 202.633 273.555 c 202.633 271.656 204.172 270.121
 206.066 270.117 c h
206.066 270.117 m f
52.5 200.379 m 52.5 198.953 l 52.5 183.992 91.84 167.32 148.023 167.32 
c 166.309 167.32 184.172 169.133 199.566 172.566 c 207.84 187.41 223.496
 196.613 240.488 196.625 c 241.539 196.625 242.25 196.578 243.75 196.508
 c 243.75 250.34 l 237.75 245.539 230.332 241.23 220.371 237.625 c 201.039
 230.633 175.25 226.777 148.07 226.777 c 120.891 226.777 95.195 230.633 
75.863 237.625 c 65.898 241.23 58.5 245.539 52.5 250.34 c h
206.066 218.543 m 211.098 218.543 215.633 215.512 217.555 210.867 c 219.48
 206.219 218.418 200.871 214.859 197.316 c 211.305 193.758 205.957 192.695
 201.309 194.617 c 196.664 196.543 193.633 201.078 193.633 206.109 c 193.641
 212.973 199.203 218.535 206.066 218.543 c h
108.398 201.105 m 108.738 203.566 111.004 205.289 113.465 204.953 c 124.961
 203.41 136.547 202.648 148.145 202.672 c 157.414 202.664 166.68 203.145
 175.898 204.113 c 178.367 204.375 180.586 202.586 180.848 200.113 c 181.113
 197.645 179.324 195.426 176.852 195.164 c 167.316 194.16 157.73 193.664
 148.145 193.672 c 136.137 193.648 124.145 194.438 112.246 196.035 c 109.785
 196.371 108.062 198.641 108.398 201.105 c h
108.398 201.105 m f
113.465 137.508 m 124.961 135.965 136.543 135.203 148.141 135.227 c 157.41
 135.219 166.672 135.699 175.891 136.668 c 176.773 136.762 177.664 136.594
 178.449 136.18 c 180.051 139.137 182.07 141.848 184.453 144.227 c 187.121
 146.906 190.211 149.129 193.602 150.805 c 193.672 154.77 194.246 158.707
 195.316 162.527 c 179.73 159.668 163.91 158.258 148.062 158.32 c 120.879
 158.32 95.188 162.172 75.855 169.168 c 65.898 172.773 58.5 177.082 52.5
 181.883 c 52.5 130.016 l 52.5 115.055 91.809 98.387 147.988 98.387 c 158.77
 98.371 169.539 99.02 180.238 100.336 c 176.363 106.055 174.297 112.809 
174.305 119.715 c 174.305 122.352 174.605 124.984 175.199 127.555 c 166.422
 126.676 157.328 126.227 148.141 126.227 c 136.137 126.203 124.145 126.992
 112.246 128.59 c 106.367 129.453 107.57 138.254 113.465 137.508 c h
113.465 137.508 m f
331.191 119.641 m 331.176 131.855 322.598 142.387 310.637 144.871 c 308.602
 145.281 307.109 147.031 307.031 149.105 c 306.711 157.023 302.754 164.352
 296.309 168.961 c 289.859 173.566 281.645 174.938 274.051 172.672 c 272.324
 172.156 270.457 172.715 269.305 174.098 c 259.117 186.273 242.398 190.773
 227.477 185.355 c 212.551 179.934 202.617 165.754 202.621 149.879 c 202.621
 149.277 202.637 148.664 202.664 148.07 c 202.754 146.129 201.59 144.348
 199.777 143.645 c 188.223 139.152 181.488 127.086 183.734 114.891 c 185.984
 102.699 196.578 93.824 208.977 93.75 c 305.523 93.75 l 319.723 93.895 331.168
 105.438 331.191 119.641 c h
331.191 119.641 m f
252.75 90 9 -51.75 re f
248.719 25.031 m 248.719 21.582 250.797 18.469 253.984 17.148 c 257.172
 15.828 260.844 16.559 263.281 19 c 265.723 21.438 266.453 25.105 265.133
 28.297 c 263.812 31.484 260.699 33.562 257.25 33.562 c 252.539 33.555 248.727
 29.738 248.719 25.031 c h
248.719 25.031 m f
276 90 m 276 68.969 l 276.098 66.453 278.184 64.469 280.703 64.5 c 295.5
 64.5 l 295.5 52.5 l 304.5 52.5 l 304.5 68.969 l 304.617 71.41 302.691 73.465
 300.25 73.5 c 285 73.5 l 285 90 l h
276 90 m f
308.781 39.617 m 308.781 34.906 304.961 31.086 300.25 31.086 c 295.539 
31.086 291.719 34.906 291.719 39.617 c 291.719 44.328 295.539 48.148 300.25
 48.148 c 304.961 48.148 308.781 44.328 308.781 39.617 c h
308.781 39.617 m f
238.5 68.969 m 238.5 90 l 229.5 90 l 229.5 73.5 l 214.25 73.5 l 211.809
 73.465 209.879 71.41 210 68.969 c 210 58.5 l 219 58.5 l 219 64.5 l 233.797
 64.5 l 236.316 64.473 238.398 66.453 238.5 68.969 c h
238.5 68.969 m f
205.719 45.516 m 205.719 42.066 207.797 38.953 210.984 37.633 c 214.172
 36.312 217.844 37.043 220.281 39.484 c 222.723 41.922 223.453 45.594 222.133
 48.781 c 220.812 51.969 217.699 54.047 214.25 54.047 c 209.543 54.039 205.727
 50.223 205.719 45.516 c h
205.719 45.516 m f
Q Q
showpage
%%Trailer
end restore
%%EOF
