%!PS-Adobe-3.0 EPSF-3.0
%%Creator: cairo 1.14.8 (http://cairographics.org)
%%CreationDate: Thu Mar 21 09:07:39 2019
%%Pages: 1
%%DocumentData: Clean7Bit
%%LanguageLevel: 2
%%BoundingBox: 25 20 359 364
%%EndComments
%%BeginProlog
save
50 dict begin
/q { gsave } bind def
/Q { grestore } bind def
/cm { 6 array astore concat } bind def
/w { setlinewidth } bind def
/J { setlinecap } bind def
/j { setlinejoin } bind def
/M { setmiterlimit } bind def
/d { setdash } bind def
/m { moveto } bind def
/l { lineto } bind def
/c { curveto } bind def
/h { closepath } bind def
/re { exch dup neg 3 1 roll 5 3 roll moveto 0 rlineto
      0 exch rlineto 0 rlineto closepath } bind def
/S { stroke } bind def
/f { fill } bind def
/f* { eofill } bind def
/n { newpath } bind def
/W { clip } bind def
/W* { eoclip } bind def
/BT { } bind def
/ET { } bind def
/pdfmark where { pop globaldict /?pdfmark /exec load put }
    { globaldict begin /?pdfmark /pop load def /pdfmark
    /cleartomark load def end } ifelse
/BDC { mark 3 1 roll /BDC pdfmark } bind def
/EMC { mark /EMC pdfmark } bind def
/cairo_store_point { /cairo_point_y exch def /cairo_point_x exch def } def
/Tj { show currentpoint cairo_store_point } bind def
/TJ {
  {
    dup
    type /stringtype eq
    { show } { -0.001 mul 0 cairo_font_matrix dtransform rmoveto } ifelse
  } forall
  currentpoint cairo_store_point
} bind def
/cairo_selectfont { cairo_font_matrix aload pop pop pop 0 0 6 array astore
    cairo_font exch selectfont cairo_point_x cairo_point_y moveto } bind def
/Tf { pop /cairo_font exch def /cairo_font_matrix where
      { pop cairo_selectfont } if } bind def
/Td { matrix translate cairo_font_matrix matrix concatmatrix dup
      /cairo_font_matrix exch def dup 4 get exch 5 get cairo_store_point
      /cairo_font where { pop cairo_selectfont } if } bind def
/Tm { 2 copy 8 2 roll 6 array astore /cairo_font_matrix exch def
      cairo_store_point /cairo_font where { pop cairo_selectfont } if } bind def
/g { setgray } bind def
/rg { setrgbcolor } bind def
/d1 { setcachedevice } bind def
%%EndProlog
%%BeginSetup
%%EndSetup
%%Page: 1 1
%%BeginPageSetup
%%PageBoundingBox: 25 20 359 364
%%EndPageSetup
q 25 20 334 344 rectclip q
0 g
330.668 62.387 m 321.988 62.363 314.441 56.43 312.375 48 c 280.289 48 l
 278.516 57.023 271.504 64.102 262.5 65.961 c 262.5 92.25 l 253.5 92.25 
l 253.5 65.961 l 244.453 64.113 237.379 57.047 235.527 48 c 203.441 48 l
 201.164 57.238 192.352 63.32 182.906 62.176 c 173.461 61.031 166.359 53.012
 166.359 43.5 c 166.359 33.988 173.461 25.969 182.906 24.824 c 192.352 23.68
 201.164 29.762 203.441 39 c 235.527 39 l 237.668 28.34 247.031 20.672 257.906
 20.672 c 268.781 20.672 278.145 28.34 280.285 39 c 312.375 39 l 314.109
 32.004 319.684 26.609 326.73 25.105 c 333.781 23.602 341.07 26.246 345.512
 31.922 c 349.953 37.598 350.77 45.309 347.613 51.789 c 344.457 58.27 337.883
 62.383 330.676 62.387 c h
330.668 62.387 m f
177.141 267.75 m 254.719 267.75 l 250.605 283.008 238.246 294.645 222.77
 297.832 c 220.73 298.25 219.242 300.004 219.164 302.082 c 218.648 314.934
 212.227 326.828 201.762 334.305 c 191.297 341.785 177.961 344.008 165.637
 340.332 c 163.914 339.812 162.047 340.375 160.891 341.758 c 144.664 361.156
 118.031 368.328 94.258 359.695 c 70.488 351.062 54.66 328.477 54.664 303.184
 c 54.664 302.281 54.688 301.348 54.734 300.32 c 54.82 298.383 53.66 296.605
 51.848 295.906 c 33.102 288.688 22.164 269.133 25.82 249.379 c 29.477 229.625
 46.691 215.281 66.777 215.25 c 134.859 215.25 l 134.207 218.27 133.879 
221.352 133.875 224.441 c 133.898 248.332 153.25 267.703 177.141 267.75 
c h
177.141 267.75 m f
324.609 258.75 m 260.895 258.75 l 260.867 258.746 260.84 258.742 260.812
 258.734 c 260.375 258.711 259.941 258.715 259.508 258.75 c 177.141 258.75
 l 158.297 258.75 143.016 243.473 143.016 224.625 c 143.016 205.777 158.297
 190.5 177.141 190.5 c 324.609 190.5 l 343.453 190.5 358.734 205.777 358.734
 224.625 c 358.734 243.473 343.453 258.75 324.609 258.75 c h
183.75 214.836 m 183.75 208.836 174.75 208.836 174.75 214.836 c 174.75 
234.219 l 174.75 240.219 183.75 240.219 183.75 234.219 c h
202.5 214.836 m 202.5 208.836 193.5 208.836 193.5 214.836 c 193.5 234.219
 l 193.5 240.219 202.5 240.219 202.5 234.219 c h
221.25 214.836 m 221.25 208.836 212.25 208.836 212.25 214.836 c 212.25 
234.219 l 212.25 240.219 221.25 240.219 221.25 234.219 c h
240.75 214.836 m 240.75 208.836 231.75 208.836 231.75 214.836 c 231.75 
234.219 l 231.75 240.219 240.75 240.219 240.75 234.219 c h
259.5 214.836 m 259.5 208.836 250.5 208.836 250.5 214.836 c 250.5 234.219
 l 250.5 240.219 259.5 240.219 259.5 234.219 c h
325.617 203.875 m 317.266 203.875 309.734 208.906 306.539 216.625 c 303.344
 224.344 305.113 233.227 311.02 239.133 c 316.926 245.035 325.809 246.805
 333.527 243.605 c 341.242 240.41 346.273 232.879 346.273 224.527 c 346.262
 213.125 337.02 203.883 325.617 203.875 c h
325.617 203.875 m f
182.25 181.5 137.25 -9 re f
324.609 163.5 m 177.141 163.5 l 158.297 163.5 143.016 148.223 143.016 129.375
 c 143.016 110.527 158.297 95.25 177.141 95.25 c 324.609 95.25 l 343.453
 95.25 358.734 110.527 358.734 129.375 c 358.734 148.223 343.453 163.5 324.609
 163.5 c h
183.75 119.895 m 183.75 113.895 174.75 113.895 174.75 119.895 c 174.75 
139.273 l 174.75 145.273 183.75 145.273 183.75 139.273 c h
202.5 119.895 m 202.5 113.895 193.5 113.895 193.5 119.895 c 193.5 139.273
 l 193.5 145.273 202.5 145.273 202.5 139.273 c h
221.25 119.895 m 221.25 113.895 212.25 113.895 212.25 119.895 c 212.25 
139.273 l 212.25 145.273 221.25 145.273 221.25 139.273 c h
240.75 119.895 m 240.75 113.895 231.75 113.895 231.75 119.895 c 231.75 
139.273 l 231.75 145.273 240.75 145.273 240.75 139.273 c h
259.5 119.895 m 259.5 113.895 250.5 113.895 250.5 119.895 c 250.5 139.273
 l 250.5 145.273 259.5 145.273 259.5 139.273 c h
325.617 108.934 m 317.266 108.934 309.734 113.965 306.539 121.684 c 303.344
 129.402 305.113 138.285 311.02 144.191 c 316.926 150.098 325.809 151.863
 333.527 148.664 c 341.242 145.469 346.273 137.938 346.273 129.586 c 346.262
 118.184 337.02 108.945 325.617 108.934 c h
325.617 108.934 m f
337.27 224.527 m 337.27 218.09 332.055 212.875 325.617 212.875 c 319.184
 212.875 313.965 218.09 313.965 224.527 c 313.965 230.961 319.184 236.18
 325.617 236.18 c 332.055 236.18 337.27 230.961 337.27 224.527 c h
337.27 224.527 m f
337.27 129.586 m 337.27 123.148 332.055 117.934 325.617 117.934 c 319.184
 117.934 313.965 123.148 313.965 129.586 c 313.965 136.02 319.184 141.238
 325.617 141.238 c 332.055 141.238 337.27 136.02 337.27 129.586 c h
337.27 129.586 m f
Q Q
showpage
%%Trailer
end restore
%%EOF
