%!PS-Adobe-3.0 EPSF-3.0
%%Creator: cairo 1.14.8 (http://cairographics.org)
%%CreationDate: Thu Mar 21 09:07:39 2019
%%Pages: 1
%%DocumentData: Clean7Bit
%%LanguageLevel: 2
%%BoundingBox: 49 15 335 370
%%EndComments
%%BeginProlog
save
50 dict begin
/q { gsave } bind def
/Q { grestore } bind def
/cm { 6 array astore concat } bind def
/w { setlinewidth } bind def
/J { setlinecap } bind def
/j { setlinejoin } bind def
/M { setmiterlimit } bind def
/d { setdash } bind def
/m { moveto } bind def
/l { lineto } bind def
/c { curveto } bind def
/h { closepath } bind def
/re { exch dup neg 3 1 roll 5 3 roll moveto 0 rlineto
      0 exch rlineto 0 rlineto closepath } bind def
/S { stroke } bind def
/f { fill } bind def
/f* { eofill } bind def
/n { newpath } bind def
/W { clip } bind def
/W* { eoclip } bind def
/BT { } bind def
/ET { } bind def
/pdfmark where { pop globaldict /?pdfmark /exec load put }
    { globaldict begin /?pdfmark /pop load def /pdfmark
    /cleartomark load def end } ifelse
/BDC { mark 3 1 roll /BDC pdfmark } bind def
/EMC { mark /EMC pdfmark } bind def
/cairo_store_point { /cairo_point_y exch def /cairo_point_x exch def } def
/Tj { show currentpoint cairo_store_point } bind def
/TJ {
  {
    dup
    type /stringtype eq
    { show } { -0.001 mul 0 cairo_font_matrix dtransform rmoveto } ifelse
  } forall
  currentpoint cairo_store_point
} bind def
/cairo_selectfont { cairo_font_matrix aload pop pop pop 0 0 6 array astore
    cairo_font exch selectfont cairo_point_x cairo_point_y moveto } bind def
/Tf { pop /cairo_font exch def /cairo_font_matrix where
      { pop cairo_selectfont } if } bind def
/Td { matrix translate cairo_font_matrix matrix concatmatrix dup
      /cairo_font_matrix exch def dup 4 get exch 5 get cairo_store_point
      /cairo_font where { pop cairo_selectfont } if } bind def
/Tm { 2 copy 8 2 roll 6 array astore /cairo_font_matrix exch def
      cairo_store_point /cairo_font where { pop cairo_selectfont } if } bind def
/g { setgray } bind def
/rg { setrgbcolor } bind def
/d1 { setcachedevice } bind def
%%EndProlog
%%BeginSetup
%%EndSetup
%%Page: 1 1
%%BeginPageSetup
%%PageBoundingBox: 49 15 335 370
%%EndPageSetup
q 49 15 286 355 rectclip q
0 g
262.5 244.625 m 262.5 279.742 l 248.32 269.004 219.543 263.34 192 263.34
 c 164.457 263.34 135.68 269.004 121.5 279.742 c 121.5 243.555 l 121.5 232.867
 151.648 220.91 192 220.91 c 211.531 220.91 229.82 223.637 243.504 228.59
 c 255.398 232.891 262.5 238.488 262.5 243.555 c h
262.5 244.625 m f
121.5 228.312 m 121.5 191.766 l 121.5 181.078 151.648 169.125 192 169.125
 c 211.531 169.125 229.82 171.852 243.504 176.805 c 255.398 181.105 262.5
 186.703 262.5 191.766 c 262.5 228.312 l 248.32 217.578 219.543 211.91 192
 211.91 c 164.457 211.91 135.68 217.574 121.5 228.312 c h
121.5 228.312 m f
192 369.055 m 172.477 369.055 154.188 366.324 140.5 361.371 c 128.602 357.066
 121.5 351.473 121.5 346.41 c 121.5 335.723 151.648 323.766 192 323.766 
c 211.523 323.766 229.812 326.496 243.5 331.449 c 255.398 335.754 262.5 
341.348 262.5 346.41 c 262.5 357.098 232.352 369.055 192 369.055 c h
192 369.055 m f
262.5 331.168 m 248.32 320.434 219.543 314.766 192 314.766 c 164.457 314.766
 135.68 320.434 121.5 331.168 c 121.5 294.984 l 121.5 284.293 151.648 272.34
 192 272.34 c 211.531 272.34 229.82 275.066 243.504 280.016 c 255.398 284.32
 262.5 289.914 262.5 294.984 c h
262.5 331.168 m f
49.5 108.887 m 49.5 95.66 59.988 84.75 73.211 84.75 c 310.789 84.75 l 324.012
 84.75 334.5 95.66 334.5 108.887 c 334.5 129.75 l 49.5 129.75 l h
49.5 108.887 m f
310.789 306.75 m 271.5 306.75 l 271.5 191.766 l 271.5 171.219 230.539 160.125
 192 160.125 c 153.461 160.125 112.5 171.215 112.5 191.766 c 112.5 306.75
 l 73.211 306.75 l 66.883 306.738 60.824 304.203 56.371 299.707 c 51.922
 295.207 49.445 289.121 49.5 282.797 c 49.5 138.75 l 334.5 138.75 l 334.5
 282.797 l 334.555 289.121 332.078 295.207 327.629 299.707 c 323.176 304.203
 317.117 306.738 310.789 306.75 c h
310.789 306.75 m f
254.242 24 m 196.5 24 l 196.5 80.25 l 187.5 80.25 l 187.5 24 l 133.164 
24 l 127.164 24 127.164 15 133.164 15 c 254.242 15 l 260.242 15 260.242 
24 254.242 24 c h
254.242 24 m f
Q Q
showpage
%%Trailer
end restore
%%EOF
