%!PS-Adobe-3.0 EPSF-3.0
%%Creator: cairo 1.14.8 (http://cairographics.org)
%%CreationDate: Thu Mar 21 09:07:39 2019
%%Pages: 1
%%DocumentData: Clean7Bit
%%LanguageLevel: 2
%%BoundingBox: 19 14 365 370
%%EndComments
%%BeginProlog
save
50 dict begin
/q { gsave } bind def
/Q { grestore } bind def
/cm { 6 array astore concat } bind def
/w { setlinewidth } bind def
/J { setlinecap } bind def
/j { setlinejoin } bind def
/M { setmiterlimit } bind def
/d { setdash } bind def
/m { moveto } bind def
/l { lineto } bind def
/c { curveto } bind def
/h { closepath } bind def
/re { exch dup neg 3 1 roll 5 3 roll moveto 0 rlineto
      0 exch rlineto 0 rlineto closepath } bind def
/S { stroke } bind def
/f { fill } bind def
/f* { eofill } bind def
/n { newpath } bind def
/W { clip } bind def
/W* { eoclip } bind def
/BT { } bind def
/ET { } bind def
/pdfmark where { pop globaldict /?pdfmark /exec load put }
    { globaldict begin /?pdfmark /pop load def /pdfmark
    /cleartomark load def end } ifelse
/BDC { mark 3 1 roll /BDC pdfmark } bind def
/EMC { mark /EMC pdfmark } bind def
/cairo_store_point { /cairo_point_y exch def /cairo_point_x exch def } def
/Tj { show currentpoint cairo_store_point } bind def
/TJ {
  {
    dup
    type /stringtype eq
    { show } { -0.001 mul 0 cairo_font_matrix dtransform rmoveto } ifelse
  } forall
  currentpoint cairo_store_point
} bind def
/cairo_selectfont { cairo_font_matrix aload pop pop pop 0 0 6 array astore
    cairo_font exch selectfont cairo_point_x cairo_point_y moveto } bind def
/Tf { pop /cairo_font exch def /cairo_font_matrix where
      { pop cairo_selectfont } if } bind def
/Td { matrix translate cairo_font_matrix matrix concatmatrix dup
      /cairo_font_matrix exch def dup 4 get exch 5 get cairo_store_point
      /cairo_font where { pop cairo_selectfont } if } bind def
/Tm { 2 copy 8 2 roll 6 array astore /cairo_font_matrix exch def
      cairo_store_point /cairo_font where { pop cairo_selectfont } if } bind def
/g { setgray } bind def
/rg { setrgbcolor } bind def
/d1 { setcachedevice } bind def
%%EndProlog
%%BeginSetup
%%EndSetup
%%Page: 1 1
%%BeginPageSetup
%%PageBoundingBox: 19 14 365 370
%%EndPageSetup
q 19 14 346 356 rectclip q
0 g
240.512 315.75 m 265.902 315.75 l 268.309 289.398 291.016 269.598 317.449
 270.801 c 343.883 272.004 364.695 293.789 364.695 320.25 c 364.695 346.711
 343.883 368.496 317.449 369.699 c 291.016 370.902 268.309 351.102 265.902
 324.75 c 240.672 324.75 l 238.539 334.652 229.281 341.352 219.207 340.285
 c 209.137 339.215 201.488 330.723 201.48 320.594 c 201.387 311.371 207.75
 303.336 216.75 301.316 c 216.75 215.832 l 207.02 213.934 199.453 206.258
 197.691 196.5 c 150.75 196.5 l 150.75 187.5 l 197.691 187.5 l 199.48 177.84
 207.078 170.305 216.75 168.59 c 216.75 83.105 l 207.75 81.086 201.383 73.051
 201.48 63.824 c 201.488 53.777 209.016 45.328 218.992 44.16 c 228.973 42.992
 238.246 49.477 240.57 59.25 c 262.152 59.25 l 264.559 32.898 287.266 13.098
 313.699 14.301 c 340.133 15.504 360.945 37.289 360.945 63.75 c 360.945 
90.211 340.133 111.996 313.699 113.199 c 287.266 114.402 264.559 94.602 
262.152 68.25 c 240.609 68.25 l 238.934 75.652 233.152 81.43 225.75 83.105
 c 225.75 168.59 l 235.402 170.379 242.984 177.871 244.895 187.5 c 262.152
 187.5 l 264.559 161.148 287.266 141.348 313.699 142.551 c 340.133 143.754
 360.945 165.539 360.945 192 c 360.945 218.461 340.133 240.246 313.699 241.449
 c 287.266 242.652 264.559 222.852 262.152 196.5 c 244.973 196.5 l 243.164
 206.289 235.531 213.969 225.75 215.832 c 225.75 301.316 l 233.023 302.91
 238.754 308.512 240.512 315.75 c h
293.293 324.75 m 310.5 324.75 l 310.5 342.301 l 310.5 348.301 319.5 348.301
 319.5 342.301 c 319.5 324.75 l 337.082 324.75 l 343.082 324.75 343.082 
315.75 337.082 315.75 c 319.5 315.75 l 319.5 298.195 l 319.5 292.195 310.5
 292.195 310.5 298.195 c 310.5 315.75 l 293.293 315.75 l 287.293 315.75 
287.293 324.75 293.293 324.75 c h
284.234 68.535 m 285.988 70.293 288.84 70.293 290.598 68.535 c 304.5 54.633
 l 332.277 82.414 l 336.523 86.656 342.887 80.289 338.645 76.047 c 307.68
 45.086 l 305.926 43.328 303.074 43.328 301.316 45.086 c 284.234 62.172 
l 282.477 63.93 282.477 66.777 284.234 68.535 c h
289.543 196.5 m 333.332 196.5 l 339.332 196.5 339.332 187.5 333.332 187.5
 c 289.543 187.5 l 283.543 187.5 283.543 196.5 289.543 196.5 c h
289.543 196.5 m f
65.25 199.5 82.5 -15 re f
51.016 207.75 m 143.234 207.75 l 160.84 207.75 175.109 222.02 175.109 239.625
 c 175.109 257.23 160.84 271.5 143.234 271.5 c 51.016 271.5 l 33.41 271.5
 19.141 257.23 19.141 239.625 c 19.141 222.02 33.41 207.75 51.016 207.75
 c h
144.184 259.43 m 152.137 259.43 159.305 254.641 162.352 247.293 c 165.395
 239.945 163.711 231.488 158.09 225.867 c 152.465 220.242 144.008 218.559
 136.66 221.602 c 129.312 224.648 124.523 231.816 124.523 239.77 c 124.535
 250.621 133.332 259.418 144.184 259.43 c h
84 248.867 m 84 254.867 93 254.867 93 248.867 c 93 230.672 l 93 224.672
 84 224.672 84 230.672 c h
66 248.867 m 66 254.867 75 254.867 75 248.867 c 75 230.672 l 75 224.672
 66 224.672 66 230.672 c h
48 248.867 m 48 254.867 57 254.867 57 248.867 c 57 230.672 l 57 224.672
 48 224.672 48 230.672 c h
48 248.867 m f
143.234 174.75 m 51.016 174.75 l 33.41 174.75 19.141 160.48 19.141 142.875
 c 19.141 125.27 33.41 111 51.016 111 c 143.234 111 l 160.84 111 175.109
 125.27 175.109 142.875 c 175.109 160.48 160.84 174.75 143.234 174.75 c 
h
57 133.633 m 57 127.633 48 127.633 48 133.633 c 48 151.828 l 48 157.828
 57 157.828 57 151.828 c h
75 133.633 m 75 127.633 66 127.633 66 133.633 c 66 151.828 l 66 157.828
 75 157.828 75 151.828 c h
93 133.633 m 93 127.633 84 127.633 84 133.633 c 84 151.828 l 84 157.828
 93 157.828 93 151.828 c h
144.184 123.07 m 136.23 123.07 129.062 127.859 126.02 135.207 c 122.977
 142.555 124.656 151.012 130.281 156.633 c 135.902 162.258 144.359 163.941
 151.707 160.898 c 159.055 157.852 163.848 150.684 163.848 142.73 c 163.836
 131.879 155.039 123.082 144.184 123.07 c h
144.184 123.07 m f
Q Q
showpage
%%Trailer
end restore
%%EOF
