%!PS-Adobe-3.0 EPSF-3.0
%%Creator: cairo 1.14.8 (http://cairographics.org)
%%CreationDate: Thu Mar 21 09:07:39 2019
%%Pages: 1
%%DocumentData: Clean7Bit
%%LanguageLevel: 2
%%BoundingBox: 35 61 349 323
%%EndComments
%%BeginProlog
save
50 dict begin
/q { gsave } bind def
/Q { grestore } bind def
/cm { 6 array astore concat } bind def
/w { setlinewidth } bind def
/J { setlinecap } bind def
/j { setlinejoin } bind def
/M { setmiterlimit } bind def
/d { setdash } bind def
/m { moveto } bind def
/l { lineto } bind def
/c { curveto } bind def
/h { closepath } bind def
/re { exch dup neg 3 1 roll 5 3 roll moveto 0 rlineto
      0 exch rlineto 0 rlineto closepath } bind def
/S { stroke } bind def
/f { fill } bind def
/f* { eofill } bind def
/n { newpath } bind def
/W { clip } bind def
/W* { eoclip } bind def
/BT { } bind def
/ET { } bind def
/pdfmark where { pop globaldict /?pdfmark /exec load put }
    { globaldict begin /?pdfmark /pop load def /pdfmark
    /cleartomark load def end } ifelse
/BDC { mark 3 1 roll /BDC pdfmark } bind def
/EMC { mark /EMC pdfmark } bind def
/cairo_store_point { /cairo_point_y exch def /cairo_point_x exch def } def
/Tj { show currentpoint cairo_store_point } bind def
/TJ {
  {
    dup
    type /stringtype eq
    { show } { -0.001 mul 0 cairo_font_matrix dtransform rmoveto } ifelse
  } forall
  currentpoint cairo_store_point
} bind def
/cairo_selectfont { cairo_font_matrix aload pop pop pop 0 0 6 array astore
    cairo_font exch selectfont cairo_point_x cairo_point_y moveto } bind def
/Tf { pop /cairo_font exch def /cairo_font_matrix where
      { pop cairo_selectfont } if } bind def
/Td { matrix translate cairo_font_matrix matrix concatmatrix dup
      /cairo_font_matrix exch def dup 4 get exch 5 get cairo_store_point
      /cairo_font where { pop cairo_selectfont } if } bind def
/Tm { 2 copy 8 2 roll 6 array astore /cairo_font_matrix exch def
      cairo_store_point /cairo_font where { pop cairo_selectfont } if } bind def
/g { setgray } bind def
/rg { setrgbcolor } bind def
/d1 { setcachedevice } bind def
%%EndProlog
%%BeginSetup
%%EndSetup
%%Page: 1 1
%%BeginPageSetup
%%PageBoundingBox: 35 61 349 323
%%EndPageSetup
q 35 61 314 262 rectclip q
0 g
35.25 90.891 m 35.25 76.969 71.902 61.461 124.5 61.461 c 177.098 61.461
 213.75 76.969 213.75 90.891 c 213.75 138.988 l 209.25 134.617 201.574 130.691
 192.465 127.395 c 174.285 120.816 150.34 117.195 124.781 117.195 c 99.223
 117.195 75.043 120.816 56.859 127.395 c 47.754 130.691 40.5 134.617 35.25
 138.988 c h
181.445 107.715 m 186.398 107.715 190.867 104.73 192.762 100.152 c 194.656
 95.574 193.609 90.305 190.105 86.801 c 186.602 83.301 181.332 82.25 176.758
 84.148 c 172.18 86.043 169.195 90.512 169.195 95.465 c 169.203 102.227 
174.684 107.707 181.445 107.715 c h
85.957 90.594 m 86.293 93.055 88.562 94.777 91.023 94.441 c 102.246 92.938
 113.555 92.191 124.875 92.215 c 133.926 92.207 142.969 92.676 151.969 93.621
 c 154.477 93.957 156.77 92.156 157.039 89.641 c 157.309 87.121 155.449 
84.879 152.926 84.676 c 143.605 83.695 134.242 83.211 124.875 83.219 c 113.145
 83.195 101.43 83.969 89.805 85.527 c 87.344 85.863 85.621 88.133 85.957
 90.594 c h
85.957 90.594 m f
181.445 158.082 m 184.34 158.082 185.789 161.582 183.742 163.629 c 181.695
 165.676 178.195 164.227 178.195 161.332 c 178.195 159.539 179.648 158.086
 181.445 158.082 c h
181.445 158.082 m f
181.445 92.215 m 184.34 92.215 185.789 95.715 183.742 97.762 c 181.695 
99.809 178.195 98.359 178.195 95.465 c 178.195 93.672 179.648 92.219 181.445
 92.215 c h
181.445 92.215 m f
35.25 156.961 m 35.25 155.621 l 35.25 141.703 71.902 126.191 124.5 126.191
 c 177.098 126.191 213.75 141.703 213.75 155.621 c 213.75 203.277 l 209.25
 198.902 201.574 194.977 192.465 191.68 c 174.285 185.102 150.34 181.48 
124.781 181.48 c 99.223 181.48 75.043 185.102 56.859 191.68 c 47.754 194.977
 40.5 198.898 35.25 203.277 c h
181.445 173.582 m 186.398 173.582 190.863 170.598 192.762 166.02 c 194.656
 161.441 193.609 156.176 190.105 152.672 c 186.602 149.168 181.332 148.121
 176.758 150.016 c 172.18 151.91 169.195 156.379 169.195 161.332 c 169.203
 168.094 174.684 173.574 181.445 173.582 c h
85.957 156.461 m 86.297 158.922 88.562 160.641 91.023 160.309 c 102.242
 158.805 113.555 158.062 124.875 158.082 c 133.926 158.074 142.969 158.543
 151.969 159.488 c 154.453 159.777 156.695 157.98 156.961 155.496 c 157.227
 153.008 155.41 150.781 152.922 150.539 c 143.605 149.559 134.242 149.074
 124.871 149.082 c 113.145 149.062 101.426 149.832 89.801 151.391 c 87.34
 151.73 85.617 154 85.957 156.461 c h
85.957 156.461 m f
214.125 284.191 m 214.125 267.938 174.168 254.762 124.875 254.762 c 75.582
 254.762 35.625 267.938 35.625 284.191 c 35.625 300.445 75.582 313.621 124.875
 313.621 c 174.168 313.621 214.125 300.445 214.125 284.191 c h
214.125 284.191 m f
35.25 219.906 m 35.25 205.988 71.902 190.477 124.5 190.477 c 177.098 190.477
 213.75 205.988 213.75 219.906 c 213.75 267.566 l 209.25 263.195 201.574
 259.266 192.461 255.969 c 174.277 249.387 150.332 245.766 124.781 245.766
 c 99.23 245.766 75.051 249.387 56.863 255.969 c 47.754 259.266 40.5 263.195
 35.25 267.566 c h
181.445 239.449 m 186.398 239.449 190.863 236.465 192.762 231.887 c 194.656
 227.312 193.609 222.043 190.105 218.539 c 186.602 215.035 181.332 213.988
 176.758 215.883 c 172.18 217.781 169.195 222.246 169.195 227.199 c 169.203
 233.961 174.684 239.441 181.445 239.449 c h
85.957 222.328 m 86.293 224.789 88.562 226.512 91.023 226.176 c 102.246
 224.672 113.555 223.926 124.875 223.949 c 133.926 223.941 142.969 224.41
 151.969 225.355 c 157.934 225.992 158.887 217.039 152.922 216.406 c 143.605
 215.426 134.242 214.941 124.871 214.949 c 113.145 214.926 101.426 215.699
 89.801 217.258 c 87.34 217.598 85.617 219.867 85.957 222.328 c h
85.957 222.328 m f
184.691 227.199 m 184.691 225.406 183.238 223.953 181.445 223.953 c 179.648
 223.953 178.195 225.406 178.195 227.199 c 178.195 228.996 179.648 230.449
 181.445 230.449 c 183.238 230.449 184.691 228.996 184.691 227.199 c h
184.691 227.199 m f
215.625 192 m 215.625 189.516 217.641 187.5 220.125 187.5 c 255 187.5 l
 255 72.039 l 255 69.555 257.391 67.5 259.875 67.5 c 321.375 67.5 l 327.375
 67.5 327.375 76.5 321.375 76.5 c 264 76.5 l 264 187.5 l 322.125 187.5 l
 328.125 187.5 328.125 196.5 322.125 196.5 c 264 196.5 l 264 307.5 l 321.375
 307.5 l 327.375 307.5 327.375 316.5 321.375 316.5 c 259.875 316.5 l 257.391
 316.5 255 314.527 255 312.039 c 255 196.5 l 220.125 196.5 l 217.641 196.5
 215.625 194.484 215.625 192 c h
215.625 192 m f
348.375 312.039 m 348.375 306.242 343.676 301.539 337.875 301.539 c 332.074
 301.539 327.375 306.242 327.375 312.039 c 327.375 317.84 332.074 322.539
 337.875 322.539 c 343.676 322.539 348.375 317.84 348.375 312.039 c h
348.375 312.039 m f
348.375 192.039 m 348.375 186.242 343.676 181.539 337.875 181.539 c 332.074
 181.539 327.375 186.242 327.375 192.039 c 327.375 197.84 332.074 202.539
 337.875 202.539 c 343.676 202.539 348.375 197.84 348.375 192.039 c h
348.375 192.039 m f
348.375 72.039 m 348.375 66.242 343.676 61.539 337.875 61.539 c 332.074
 61.539 327.375 66.242 327.375 72.039 c 327.375 77.84 332.074 82.539 337.875
 82.539 c 343.676 82.539 348.375 77.84 348.375 72.039 c h
348.375 72.039 m f
Q Q
showpage
%%Trailer
end restore
%%EOF
