%!PS-Adobe-3.0 EPSF-3.0
%%Creator: cairo 1.14.8 (http://cairographics.org)
%%CreationDate: Thu Mar 21 09:07:39 2019
%%Pages: 1
%%DocumentData: Clean7Bit
%%LanguageLevel: 2
%%BoundingBox: 114 19 270 365
%%EndComments
%%BeginProlog
save
50 dict begin
/q { gsave } bind def
/Q { grestore } bind def
/cm { 6 array astore concat } bind def
/w { setlinewidth } bind def
/J { setlinecap } bind def
/j { setlinejoin } bind def
/M { setmiterlimit } bind def
/d { setdash } bind def
/m { moveto } bind def
/l { lineto } bind def
/c { curveto } bind def
/h { closepath } bind def
/re { exch dup neg 3 1 roll 5 3 roll moveto 0 rlineto
      0 exch rlineto 0 rlineto closepath } bind def
/S { stroke } bind def
/f { fill } bind def
/f* { eofill } bind def
/n { newpath } bind def
/W { clip } bind def
/W* { eoclip } bind def
/BT { } bind def
/ET { } bind def
/pdfmark where { pop globaldict /?pdfmark /exec load put }
    { globaldict begin /?pdfmark /pop load def /pdfmark
    /cleartomark load def end } ifelse
/BDC { mark 3 1 roll /BDC pdfmark } bind def
/EMC { mark /EMC pdfmark } bind def
/cairo_store_point { /cairo_point_y exch def /cairo_point_x exch def } def
/Tj { show currentpoint cairo_store_point } bind def
/TJ {
  {
    dup
    type /stringtype eq
    { show } { -0.001 mul 0 cairo_font_matrix dtransform rmoveto } ifelse
  } forall
  currentpoint cairo_store_point
} bind def
/cairo_selectfont { cairo_font_matrix aload pop pop pop 0 0 6 array astore
    cairo_font exch selectfont cairo_point_x cairo_point_y moveto } bind def
/Tf { pop /cairo_font exch def /cairo_font_matrix where
      { pop cairo_selectfont } if } bind def
/Td { matrix translate cairo_font_matrix matrix concatmatrix dup
      /cairo_font_matrix exch def dup 4 get exch 5 get cairo_store_point
      /cairo_font where { pop cairo_selectfont } if } bind def
/Tm { 2 copy 8 2 roll 6 array astore /cairo_font_matrix exch def
      cairo_store_point /cairo_font where { pop cairo_selectfont } if } bind def
/g { setgray } bind def
/rg { setrgbcolor } bind def
/d1 { setcachedevice } bind def
%%EndProlog
%%BeginSetup
%%EndSetup
%%Page: 1 1
%%BeginPageSetup
%%PageBoundingBox: 114 19 270 365
%%EndPageSetup
q 114 19 156 346 rectclip q
0 g
270 169.434 m 270 210.621 l 265.52 207.02 259.43 203.785 251.871 201.051
 c 235.812 195.238 214.551 192.039 192 192.039 c 161.297 192.039 129.195
 198.422 114 210.504 c 114 169.434 l 114 163.66 121.922 157.352 135.191 
152.547 c 150.293 147.086 170.465 144.074 192 144.074 c 213.535 144.074 
233.707 147.082 248.809 152.547 c 262.078 157.352 270 163.66 270 169.434
 c h
215.805 166.754 m 207.898 165.926 199.953 165.512 192 165.52 c 182.043 
165.5 172.098 166.156 162.23 167.48 c 159.77 167.816 158.047 170.086 158.383
 172.547 c 158.719 175.012 160.988 176.734 163.449 176.398 c 172.914 175.129
 182.453 174.504 192 174.523 c 199.633 174.516 207.262 174.91 214.852 175.707
 c 220.82 176.344 221.773 167.391 215.805 166.758 c h
239.867 164.578 m 235.012 164.578 230.637 167.504 228.777 171.988 c 226.922
 176.473 227.949 181.633 231.379 185.066 c 234.812 188.496 239.973 189.523
 244.457 187.668 c 248.941 185.809 251.867 181.434 251.867 176.578 c 251.859
 169.953 246.492 164.586 239.867 164.578 c h
239.867 164.578 m f
242.867 176.578 m 242.867 174.922 241.523 173.578 239.867 173.578 c 238.207
 173.578 236.867 174.922 236.867 176.578 c 236.867 178.234 238.207 179.578
 239.867 179.578 c 241.523 179.578 242.867 178.234 242.867 176.578 c h
242.867 176.578 m f
242.867 232.312 m 242.867 230.652 241.523 229.312 239.867 229.312 c 238.207
 229.312 236.867 230.652 236.867 232.312 c 236.867 233.969 238.207 235.312
 239.867 235.312 c 241.523 235.312 242.867 233.969 242.867 232.312 c h
242.867 232.312 m f
270 227.578 m 270 267.191 l 265.52 263.59 259.43 260.355 251.871 257.621
 c 235.812 251.812 214.551 248.613 192 248.613 c 161.297 248.613 129.195
 254.996 114 267.078 c 114 226.398 l 114 220.625 121.922 214.312 135.191
 209.512 c 150.293 204.047 170.465 201.039 192 201.039 c 213.535 201.039
 233.707 204.047 248.809 209.512 c 262.078 214.312 270 220.625 270 226.398
 c h
215.805 222.488 m 207.898 221.656 199.953 221.242 192 221.25 c 182.043 
221.23 172.098 221.887 162.23 223.211 c 159.77 223.547 158.047 225.816 158.383
 228.277 c 158.719 230.742 160.988 232.465 163.449 232.129 c 172.914 230.859
 182.453 230.23 192 230.25 c 199.633 230.242 207.262 230.637 214.852 231.434
 c 220.766 232.004 221.707 223.176 215.805 222.484 c h
239.867 220.312 m 235.012 220.312 230.637 223.234 228.777 227.719 c 226.922
 232.203 227.949 237.363 231.379 240.797 c 234.812 244.227 239.973 245.254
 244.457 243.398 c 248.941 241.539 251.867 237.164 251.867 232.312 c 251.859
 225.688 246.488 220.32 239.867 220.312 c h
239.867 220.312 m f
248.805 356.422 m 233.699 361.887 213.523 364.898 192 364.898 c 170.477
 364.898 150.301 361.887 135.195 356.422 c 121.922 351.617 114 345.309 114
 339.539 c 114 333.773 121.922 327.465 135.195 322.66 c 150.297 317.191 
170.473 314.184 192 314.184 c 213.527 314.184 233.699 317.195 248.805 322.66
 c 262.078 327.461 270 333.773 270 339.539 c 270 345.309 262.078 351.617
 248.805 356.422 c h
248.805 356.422 m f
270 323.766 m 265.52 320.168 259.426 316.934 251.867 314.195 c 235.809 
308.383 214.547 305.184 192 305.184 c 161.297 305.184 129.195 311.566 114
 323.648 c 114 282.969 l 114 277.199 121.922 270.887 135.191 266.086 c 150.293
 260.621 170.465 257.609 192 257.609 c 213.535 257.609 233.707 260.617 248.809
 266.086 c 262.078 270.887 270 277.199 270 282.969 c h
215.805 278.223 m 207.898 277.395 199.953 276.98 192 276.988 c 182.043 
276.969 172.098 277.625 162.23 278.949 c 159.754 279.27 158.012 281.547 
158.348 284.02 c 158.688 286.496 160.977 288.223 163.449 287.863 c 172.914
 286.598 182.453 285.969 192 285.988 c 199.633 285.984 207.262 286.379 214.852
 287.176 c 220.766 287.746 221.707 278.914 215.805 278.227 c h
239.867 276.047 m 235.012 276.047 230.637 278.969 228.777 283.453 c 226.922
 287.938 227.949 293.098 231.379 296.531 c 234.812 299.961 239.973 300.988
 244.457 299.133 c 248.941 297.273 251.867 292.898 251.867 288.047 c 251.859
 281.422 246.488 276.055 239.867 276.047 c h
239.867 276.047 m f
242.867 288.047 m 242.867 286.387 241.523 285.047 239.867 285.047 c 238.207
 285.047 236.867 286.387 236.867 288.047 c 236.867 289.703 238.207 291.047
 239.867 291.047 c 241.523 291.047 242.867 289.703 242.867 288.047 c h
242.867 288.047 m f
187.5 142.5 9 -93 re f
204.941 32.043 m 204.941 24.898 199.148 19.102 192 19.102 c 184.852 19.102
 179.059 24.898 179.059 32.043 c 179.059 39.191 184.852 44.988 192 44.988
 c 199.148 44.988 204.941 39.191 204.941 32.043 c h
204.941 32.043 m f
219 142.5 m 219 109.949 l 218.977 107.543 220.992 105.617 223.395 105.75
 c 245.25 105.75 l 245.25 78.75 l 254.25 78.75 l 254.25 109.949 l 254.184
 112.531 252.137 114.625 249.559 114.75 c 228 114.75 l 228 142.5 l h
219 142.5 m f
262.5 61.113 m 262.5 53.969 256.707 48.172 249.559 48.172 c 242.41 48.172
 236.617 53.969 236.617 61.113 c 236.617 68.262 242.41 74.055 249.559 74.055
 c 256.707 74.055 262.5 68.262 262.5 61.113 c h
262.5 61.113 m f
165 109.949 m 165 142.5 l 156 142.5 l 156 114.75 l 134.441 114.75 l 131.863
 114.625 129.816 112.531 129.75 109.949 c 129.75 96 l 138.75 96 l 138.75
 105.75 l 160.605 105.75 l 163.008 105.617 165.023 107.543 165 109.949 c
 h
165 109.949 m f
147.383 78.555 m 147.383 71.41 141.59 65.613 134.441 65.613 c 127.293 65.613
 121.5 71.41 121.5 78.555 c 121.5 85.703 127.293 91.5 134.441 91.5 c 141.59
 91.5 147.383 85.703 147.383 78.555 c h
147.383 78.555 m f
Q Q
showpage
%%Trailer
end restore
%%EOF
