%!PS-Adobe-3.0 EPSF-3.0
%%Creator: cairo 1.14.8 (http://cairographics.org)
%%CreationDate: Thu Mar 21 09:07:39 2019
%%Pages: 1
%%DocumentData: Clean7Bit
%%LanguageLevel: 2
%%BoundingBox: 50 19 333 365
%%EndComments
%%BeginProlog
save
50 dict begin
/q { gsave } bind def
/Q { grestore } bind def
/cm { 6 array astore concat } bind def
/w { setlinewidth } bind def
/J { setlinecap } bind def
/j { setlinejoin } bind def
/M { setmiterlimit } bind def
/d { setdash } bind def
/m { moveto } bind def
/l { lineto } bind def
/c { curveto } bind def
/h { closepath } bind def
/re { exch dup neg 3 1 roll 5 3 roll moveto 0 rlineto
      0 exch rlineto 0 rlineto closepath } bind def
/S { stroke } bind def
/f { fill } bind def
/f* { eofill } bind def
/n { newpath } bind def
/W { clip } bind def
/W* { eoclip } bind def
/BT { } bind def
/ET { } bind def
/pdfmark where { pop globaldict /?pdfmark /exec load put }
    { globaldict begin /?pdfmark /pop load def /pdfmark
    /cleartomark load def end } ifelse
/BDC { mark 3 1 roll /BDC pdfmark } bind def
/EMC { mark /EMC pdfmark } bind def
/cairo_store_point { /cairo_point_y exch def /cairo_point_x exch def } def
/Tj { show currentpoint cairo_store_point } bind def
/TJ {
  {
    dup
    type /stringtype eq
    { show } { -0.001 mul 0 cairo_font_matrix dtransform rmoveto } ifelse
  } forall
  currentpoint cairo_store_point
} bind def
/cairo_selectfont { cairo_font_matrix aload pop pop pop 0 0 6 array astore
    cairo_font exch selectfont cairo_point_x cairo_point_y moveto } bind def
/Tf { pop /cairo_font exch def /cairo_font_matrix where
      { pop cairo_selectfont } if } bind def
/Td { matrix translate cairo_font_matrix matrix concatmatrix dup
      /cairo_font_matrix exch def dup 4 get exch 5 get cairo_store_point
      /cairo_font where { pop cairo_selectfont } if } bind def
/Tm { 2 copy 8 2 roll 6 array astore /cairo_font_matrix exch def
      cairo_store_point /cairo_font where { pop cairo_selectfont } if } bind def
/g { setgray } bind def
/rg { setrgbcolor } bind def
/d1 { setcachedevice } bind def
%%EndProlog
%%BeginSetup
%%EndSetup
%%Page: 1 1
%%BeginPageSetup
%%PageBoundingBox: 50 19 333 365
%%EndPageSetup
q 50 19 283 346 rectclip q
0 g
158.934 206.289 m 128.363 206.289 99.59 210.617 77.871 218.48 c 66.109 
222.734 57 227.852 51 233.551 c 51 174.363 l 51 165.645 61.852 156.691 80.902
 149.797 c 101.668 142.285 129.301 138.148 158.852 138.148 c 173.207 138.109
 187.551 139.156 201.75 141.285 c 201.75 144.188 l 201.793 145.848 202.723
 147.355 204.188 148.133 c 267 182.496 l 267 233.551 l 261 227.852 251.809
 222.734 240.051 218.477 c 218.328 210.617 189.5 206.289 158.934 206.289
 c h
191.199 170.66 m 180.473 169.535 169.695 168.973 158.91 168.984 c 145.406
 168.957 131.918 169.848 118.535 171.641 c 116.059 171.961 114.316 174.238
 114.656 176.715 c 114.992 179.191 117.285 180.914 119.758 180.559 c 132.734
 178.816 145.812 177.957 158.906 177.984 c 169.371 177.973 179.832 178.516
 190.242 179.609 c 192.727 179.898 194.969 178.102 195.234 175.617 c 195.5
 173.129 193.684 170.902 191.195 170.66 c h
224.18 168.984 m 218.742 168.984 213.844 172.258 211.762 177.281 c 209.68
 182.305 210.832 188.086 214.676 191.93 c 218.52 195.773 224.301 196.926
 229.324 194.844 c 234.348 192.762 237.621 187.863 237.621 182.426 c 237.613
 175.004 231.602 168.992 224.18 168.984 c h
224.18 168.984 m f
224.18 262.867 m 220.223 262.867 218.242 258.082 221.039 255.285 c 223.84
 252.488 228.621 254.469 228.621 258.426 c 228.617 260.879 226.633 262.863
 224.18 262.867 c h
224.18 262.867 m f
224.18 186.867 m 220.223 186.867 218.242 182.082 221.039 179.285 c 223.836
 176.488 228.621 178.469 228.621 182.426 c 228.621 184.879 226.633 186.863
 224.18 186.867 c h
224.18 186.867 m f
267 310.699 m 261 305 251.809 299.883 240.047 295.625 c 218.32 287.762 
189.492 283.43 158.934 283.43 c 128.371 283.43 99.602 287.762 77.875 295.625
 c 66.113 299.883 57 305 51 310.699 c 51 251.504 l 51 242.789 61.891 233.836
 80.945 226.941 c 101.707 219.426 129.383 215.289 158.934 215.289 c 188.48
 215.289 216.215 219.426 236.977 226.941 c 256.027 233.836 267 242.789 267
 251.504 c h
191.199 246.66 m 180.473 245.535 169.695 244.977 158.91 244.984 c 145.406
 244.961 131.918 245.848 118.535 247.645 c 116.059 247.965 114.316 250.242
 114.656 252.715 c 114.992 255.191 117.285 256.918 119.758 256.559 c 132.734
 254.82 145.812 253.961 158.906 253.984 c 169.371 253.977 179.832 254.516
 190.242 255.609 c 192.738 255.914 194.996 254.117 195.266 251.621 c 195.531
 249.121 193.699 246.887 191.195 246.66 c h
224.18 244.984 m 218.742 244.984 213.844 248.262 211.762 253.281 c 209.68
 258.305 210.832 264.086 214.676 267.93 c 218.52 271.777 224.301 272.926
 229.324 270.844 c 234.348 268.766 237.621 263.863 237.621 258.426 c 237.613
 251.008 231.602 244.992 224.18 244.984 c h
224.18 244.984 m f
80.891 304.09 m 101.66 296.574 129.367 292.434 158.91 292.434 c 188.449
 292.434 216.156 296.574 236.926 304.09 c 255.977 310.984 266.91 319.938
 266.91 328.648 c 266.91 337.359 255.98 346.309 236.926 353.203 c 216.156
 360.723 188.445 364.863 158.906 364.863 c 129.367 364.863 101.66 360.723
 80.887 353.203 c 61.836 346.309 50.91 337.359 50.91 328.648 c 50.91 319.941
 61.836 310.984 80.891 304.09 c h
80.891 304.09 m f
201.75 132.172 m 187.551 130.117 173.223 129.105 158.875 129.148 c 128.309
 129.148 99.59 133.477 77.871 141.336 c 66.109 145.59 57 150.711 51 156.406
 c 51 96.684 l 51 87.965 61.883 79.016 80.934 72.121 c 101.695 64.605 129.359
 60.469 158.91 60.469 c 175.953 60.406 192.965 61.906 209.738 64.941 c 204.488
 77.039 201.77 90.086 201.75 103.273 c h
191.199 94.66 m 180.473 93.531 169.695 92.973 158.91 92.984 c 145.406 92.957
 131.918 93.844 118.535 95.641 c 116.059 95.961 114.316 98.238 114.656 100.715
 c 114.992 103.188 117.285 104.914 119.758 104.559 c 132.734 102.816 145.812
 101.957 158.906 101.984 c 169.371 101.973 179.832 102.516 190.242 103.609
 c 192.727 103.895 194.969 102.102 195.234 99.613 c 195.5 97.129 193.684
 94.902 191.195 94.66 c h
191.199 94.66 m f
253.5 101.25 m 291 101.25 l 292.66 101.25 294 99.91 294 98.25 c 294 60.75
 l 294 59.09 292.66 57.75 291 57.75 c 253.5 57.75 l 251.84 57.75 250.5 59.09
 250.5 60.75 c 250.5 98.25 l 250.5 99.91 251.84 101.25 253.5 101.25 c h
253.5 101.25 m f
210.75 141.52 m 210.75 103.273 l 210.809 68.305 231.543 36.676 263.59 22.672
 c 270.824 19.543 l 279.148 23.145 l 279.16 23.148 279.148 23.152 279.156
 23.156 c 311.789 36.859 333.012 68.805 333 104.195 c 333 141.484 l 270.984
 174.523 l h
294 123.387 m 294 109.93 l 299.27 108.57 302.965 103.832 303 98.391 c 303
 60.891 l 302.875 54.184 297.434 48.801 290.727 48.75 c 253.227 48.75 l 
246.609 48.75 241.5 54.273 241.5 60.891 c 241.5 98.391 l 241.516 103.598
 244.824 108.227 249.75 109.93 c 249.75 123.387 l 249.75 135.609 259.656
 145.512 271.875 145.512 c 284.094 145.512 294 135.609 294 123.387 c h
294 123.387 m f
285 123.387 m 285 130.637 279.125 136.512 271.875 136.512 c 264.625 136.512
 258.75 130.637 258.75 123.387 c 258.75 110.25 l 285 110.25 l h
285 123.387 m f
Q Q
showpage
%%Trailer
end restore
%%EOF
