%!PS-Adobe-3.0 EPSF-3.0
%%Creator: cairo 1.14.8 (http://cairographics.org)
%%CreationDate: Thu Mar 21 09:07:39 2019
%%Pages: 1
%%DocumentData: Clean7Bit
%%LanguageLevel: 2
%%BoundingBox: 14 23 369 361
%%EndComments
%%BeginProlog
save
50 dict begin
/q { gsave } bind def
/Q { grestore } bind def
/cm { 6 array astore concat } bind def
/w { setlinewidth } bind def
/J { setlinecap } bind def
/j { setlinejoin } bind def
/M { setmiterlimit } bind def
/d { setdash } bind def
/m { moveto } bind def
/l { lineto } bind def
/c { curveto } bind def
/h { closepath } bind def
/re { exch dup neg 3 1 roll 5 3 roll moveto 0 rlineto
      0 exch rlineto 0 rlineto closepath } bind def
/S { stroke } bind def
/f { fill } bind def
/f* { eofill } bind def
/n { newpath } bind def
/W { clip } bind def
/W* { eoclip } bind def
/BT { } bind def
/ET { } bind def
/pdfmark where { pop globaldict /?pdfmark /exec load put }
    { globaldict begin /?pdfmark /pop load def /pdfmark
    /cleartomark load def end } ifelse
/BDC { mark 3 1 roll /BDC pdfmark } bind def
/EMC { mark /EMC pdfmark } bind def
/cairo_store_point { /cairo_point_y exch def /cairo_point_x exch def } def
/Tj { show currentpoint cairo_store_point } bind def
/TJ {
  {
    dup
    type /stringtype eq
    { show } { -0.001 mul 0 cairo_font_matrix dtransform rmoveto } ifelse
  } forall
  currentpoint cairo_store_point
} bind def
/cairo_selectfont { cairo_font_matrix aload pop pop pop 0 0 6 array astore
    cairo_font exch selectfont cairo_point_x cairo_point_y moveto } bind def
/Tf { pop /cairo_font exch def /cairo_font_matrix where
      { pop cairo_selectfont } if } bind def
/Td { matrix translate cairo_font_matrix matrix concatmatrix dup
      /cairo_font_matrix exch def dup 4 get exch 5 get cairo_store_point
      /cairo_font where { pop cairo_selectfont } if } bind def
/Tm { 2 copy 8 2 roll 6 array astore /cairo_font_matrix exch def
      cairo_store_point /cairo_font where { pop cairo_selectfont } if } bind def
/g { setgray } bind def
/rg { setrgbcolor } bind def
/d1 { setcachedevice } bind def
%%EndProlog
%%BeginSetup
%%EndSetup
%%Page: 1 1
%%BeginPageSetup
%%PageBoundingBox: 14 23 369 361
%%EndPageSetup
q 14 23 355 338 rectclip q
0 g
46.703 205.5 m 138.922 205.5 l 156.527 205.5 170.797 219.77 170.797 237.375
 c 170.797 254.98 156.527 269.25 138.922 269.25 c 46.703 269.25 l 29.098
 269.25 14.828 254.98 14.828 237.375 c 14.828 219.77 29.098 205.5 46.703
 205.5 c h
139.875 257.18 m 147.828 257.18 154.996 252.391 158.039 245.043 c 161.082
 237.695 159.402 229.238 153.777 223.617 c 148.156 217.992 139.699 216.309
 132.352 219.352 c 125.004 222.398 120.215 229.566 120.215 237.52 c 120.227
 248.371 129.02 257.168 139.875 257.18 c h
79.5 246.617 m 79.5 252.617 88.5 252.617 88.5 246.617 c 88.5 228.422 l 
88.5 222.422 79.5 222.422 79.5 228.422 c h
61.5 246.617 m 61.5 252.617 70.5 252.617 70.5 246.617 c 70.5 228.422 l 
70.5 222.422 61.5 222.422 61.5 228.422 c h
43.5 246.617 m 43.5 252.617 52.5 252.617 52.5 246.617 c 52.5 228.422 l 
52.5 222.422 43.5 222.422 43.5 228.422 c h
43.5 246.617 m f
51 196.5 83.25 -15 re f
139.875 226.855 m 144.188 226.855 148.074 229.453 149.727 233.438 c 151.375
 237.422 150.465 242.008 147.414 245.059 c 144.363 248.109 139.777 249.02
 135.793 247.371 c 131.809 245.719 129.211 241.832 129.215 237.52 c 129.219
 231.633 133.988 226.863 139.875 226.855 c h
139.875 226.855 m f
138.922 172.5 m 46.703 172.5 l 29.098 172.5 14.828 158.23 14.828 140.625
 c 14.828 123.02 29.098 108.75 46.703 108.75 c 138.922 108.75 l 156.527 
108.75 170.797 123.02 170.797 140.625 c 170.797 158.23 156.527 172.5 138.922
 172.5 c h
52.5 131.383 m 52.5 125.383 43.5 125.383 43.5 131.383 c 43.5 149.578 l 
43.5 155.578 52.5 155.578 52.5 149.578 c h
70.5 131.383 m 70.5 125.383 61.5 125.383 61.5 131.383 c 61.5 149.578 l 
61.5 155.578 70.5 155.578 70.5 149.578 c h
88.5 131.383 m 88.5 125.383 79.5 125.383 79.5 131.383 c 79.5 149.578 l 
79.5 155.578 88.5 155.578 88.5 149.578 c h
139.875 120.82 m 131.922 120.82 124.754 125.609 121.711 132.957 c 118.668
 140.305 120.348 148.762 125.973 154.383 c 131.594 160.008 140.051 161.691
 147.398 158.648 c 154.746 155.602 159.535 148.434 159.535 140.48 c 159.523
 129.629 150.73 120.832 139.875 120.82 c h
139.875 120.82 m f
139.875 151.145 m 135.562 151.145 131.676 148.547 130.023 144.562 c 128.375
 140.578 129.285 135.992 132.336 132.941 c 135.387 129.891 139.973 128.98
 143.957 130.629 c 147.941 132.281 150.539 136.168 150.535 140.48 c 150.531
 146.367 145.762 151.137 139.875 151.145 c h
139.875 151.145 m f
359.25 327.82 m 359.25 336 l 359.25 349.461 348.336 360.375 334.875 360.375
 c 321.414 360.375 310.5 349.461 310.5 336 c 310.5 327.82 l 304.5 326.863
 300 321.934 300 316 c 300 306.75 l 257.172 306.75 l 255.039 316.652 245.781
 323.352 235.707 322.285 c 225.637 321.215 217.988 312.723 217.98 302.594
 c 217.887 293.371 224.25 285.336 233.25 283.316 c 233.25 212.832 l 223.5
 210.957 215.91 203.273 214.152 193.5 c 137.25 193.5 l 137.25 184.5 l 214.227
 184.5 l 216.086 174.887 223.629 167.391 233.25 165.59 c 233.25 80.105 l
 224.25 78.086 217.883 70.051 217.98 60.824 c 217.988 50.777 225.516 42.328
 235.492 41.16 c 245.473 39.992 254.746 46.477 257.07 56.25 c 300 56.25 
l 300 35.5 l 300 28.883 305.945 23.25 312.562 23.25 c 357.562 23.25 l 364.18
 23.25 369 28.883 369 35.5 c 369 80.5 l 369 86.434 365.25 91.363 359.25 
92.32 c 359.25 100.5 l 359.25 113.961 348.336 124.875 334.875 124.875 c 
321.414 124.875 310.5 113.961 310.5 100.5 c 310.5 92.32 l 304.5 91.363 300
 86.434 300 80.5 c 300 65.25 l 257.109 65.25 l 255.434 72.652 249.652 78.43
 242.25 80.105 c 242.25 165.59 l 251.902 167.379 259.484 174.871 261.395
 184.5 c 300 184.5 l 300 153.25 l 300 146.633 305.945 141 312.562 141 c 
357.562 141 l 364.18 141 369 146.633 369 153.25 c 369 198.25 l 369 204.184
 365.25 209.113 359.25 210.07 c 359.25 218.25 l 359.25 231.711 348.336 242.625
 334.875 242.625 c 321.414 242.625 310.5 231.711 310.5 218.25 c 310.5 210.07
 l 304.5 209.113 300 204.184 300 198.25 c 300 193.5 l 261.473 193.5 l 259.664
 203.289 252.031 210.969 242.25 212.832 c 242.25 283.316 l 249 284.996 255.207
 290.602 257.012 297.75 c 300 297.75 l 300 271 l 300 264.383 305.945 258.75
 312.562 258.75 c 357.562 258.75 l 364.18 258.75 369 264.383 369 271 c 369
 316 l 369 321.934 365.25 326.863 359.25 327.82 c h
319.5 100.5 m 319.5 108.992 326.383 115.875 334.875 115.875 c 343.367 115.875
 350.25 108.992 350.25 100.5 c 350.25 92.25 l 319.5 92.25 l h
319.5 218.25 m 319.5 226.742 326.383 233.625 334.875 233.625 c 343.367 
233.625 350.25 226.742 350.25 218.25 c 350.25 210 l 319.5 210 l h
350.25 327.75 m 319.5 327.75 l 319.5 336 l 319.5 344.492 326.383 351.375
 334.875 351.375 c 343.367 351.375 350.25 344.492 350.25 336 c h
350.25 327.75 m f
Q Q
showpage
%%Trailer
end restore
%%EOF
