%!PS-Adobe-3.0 EPSF-3.0
%%Creator: cairo 1.14.8 (http://cairographics.org)
%%CreationDate: Thu Mar 21 09:07:39 2019
%%Pages: 1
%%DocumentData: Clean7Bit
%%LanguageLevel: 2
%%BoundingBox: 34 30 350 354
%%EndComments
%%BeginProlog
save
50 dict begin
/q { gsave } bind def
/Q { grestore } bind def
/cm { 6 array astore concat } bind def
/w { setlinewidth } bind def
/J { setlinecap } bind def
/j { setlinejoin } bind def
/M { setmiterlimit } bind def
/d { setdash } bind def
/m { moveto } bind def
/l { lineto } bind def
/c { curveto } bind def
/h { closepath } bind def
/re { exch dup neg 3 1 roll 5 3 roll moveto 0 rlineto
      0 exch rlineto 0 rlineto closepath } bind def
/S { stroke } bind def
/f { fill } bind def
/f* { eofill } bind def
/n { newpath } bind def
/W { clip } bind def
/W* { eoclip } bind def
/BT { } bind def
/ET { } bind def
/pdfmark where { pop globaldict /?pdfmark /exec load put }
    { globaldict begin /?pdfmark /pop load def /pdfmark
    /cleartomark load def end } ifelse
/BDC { mark 3 1 roll /BDC pdfmark } bind def
/EMC { mark /EMC pdfmark } bind def
/cairo_store_point { /cairo_point_y exch def /cairo_point_x exch def } def
/Tj { show currentpoint cairo_store_point } bind def
/TJ {
  {
    dup
    type /stringtype eq
    { show } { -0.001 mul 0 cairo_font_matrix dtransform rmoveto } ifelse
  } forall
  currentpoint cairo_store_point
} bind def
/cairo_selectfont { cairo_font_matrix aload pop pop pop 0 0 6 array astore
    cairo_font exch selectfont cairo_point_x cairo_point_y moveto } bind def
/Tf { pop /cairo_font exch def /cairo_font_matrix where
      { pop cairo_selectfont } if } bind def
/Td { matrix translate cairo_font_matrix matrix concatmatrix dup
      /cairo_font_matrix exch def dup 4 get exch 5 get cairo_store_point
      /cairo_font where { pop cairo_selectfont } if } bind def
/Tm { 2 copy 8 2 roll 6 array astore /cairo_font_matrix exch def
      cairo_store_point /cairo_font where { pop cairo_selectfont } if } bind def
/g { setgray } bind def
/rg { setrgbcolor } bind def
/d1 { setcachedevice } bind def
%%EndProlog
%%BeginSetup
%%EndSetup
%%Page: 1 1
%%BeginPageSetup
%%PageBoundingBox: 34 30 350 354
%%EndPageSetup
q 34 30 316 324 rectclip q
0 g
207.586 166.922 m 211.543 166.922 213.523 171.707 210.727 174.504 c 207.926
 177.301 203.145 175.32 203.145 171.363 c 203.145 168.91 205.133 166.926
 207.586 166.922 c h
207.586 166.922 m f
212.027 247.363 m 212.027 244.91 210.039 242.922 207.586 242.922 c 205.133
 242.922 203.145 244.91 203.145 247.363 c 203.145 249.816 205.133 251.805
 207.586 251.805 c 210.039 251.805 212.027 249.816 212.027 247.363 c h
212.027 247.363 m f
207.727 54.922 m 207.984 54.672 208.211 54.391 208.402 54.086 c 225.273
 33.391 253.078 25.109 278.527 33.199 c 303.973 41.293 321.887 64.109 323.711
 90.75 c 258.777 90.75 l 256.277 90.766 254.258 92.793 254.25 95.289 c 254.25
 160.227 l 238.566 159.203 223.793 152.488 212.707 141.344 c 208.195 136.758
 204.363 131.551 201.336 125.875 c 201.285 125.762 201.23 125.648 201.168
 125.543 c 190.281 104.855 191.34 79.914 203.941 60.223 c 205.125 58.383
 206.383 56.613 207.727 54.922 c h
207.727 54.922 m f
142.359 204.227 m 171.91 204.227 199.664 208.363 220.43 215.875 c 239.48
 222.77 250.504 231.723 250.504 240.438 c 250.504 299.637 l 244.504 293.938
 235.273 288.82 223.516 284.562 c 201.789 276.699 172.922 272.367 142.363
 272.367 c 111.805 272.367 83.059 276.699 61.332 284.562 c 49.566 288.82
 40.5 293.938 34.5 299.637 c 34.5 240.441 l 34.5 231.727 45.355 222.773 
64.406 215.879 c 85.172 208.367 112.809 204.227 142.359 204.227 c h
207.586 260.805 m 213.02 260.805 217.922 257.527 220.004 252.504 c 222.082
 247.48 220.934 241.699 217.09 237.855 c 213.246 234.012 207.465 232.863
 202.441 234.941 c 197.418 237.023 194.145 241.926 194.145 247.359 c 194.148
 254.781 200.164 260.797 207.586 260.805 c h
98.09 241.648 m 98.43 244.113 100.695 245.836 103.16 245.5 c 116.137 243.758
 129.215 242.898 142.309 242.926 c 152.777 242.914 163.234 243.457 173.645
 244.551 c 179.562 245.125 180.504 236.285 174.598 235.602 c 163.875 234.473
 153.098 233.914 142.312 233.926 c 128.809 233.898 115.32 234.785 101.941
 236.582 c 99.477 236.918 97.754 239.188 98.09 241.648 c h
98.09 241.648 m f
34.5 85.621 m 34.5 76.902 45.332 67.949 64.383 61.059 c 85.148 53.543 112.762
 49.406 142.312 49.406 c 160.629 49.316 178.906 51.055 196.875 54.602 c 
196.707 54.855 196.535 55.109 196.367 55.367 c 183.691 75.18 181.184 99.832
 189.609 121.789 c 173.984 119.289 158.18 118.051 142.355 118.086 c 111.789
 118.086 83.039 122.418 61.32 130.277 c 49.562 134.527 40.5 139.645 34.5
 145.344 c h
98.09 89.648 m 98.43 92.109 100.695 93.832 103.16 93.496 c 116.137 91.754
 129.215 90.895 142.309 90.922 c 152.777 90.91 163.234 91.453 173.645 92.547
 c 179.613 93.18 180.562 84.23 174.598 83.598 c 163.871 82.469 153.094 81.91
 142.309 81.922 c 128.809 81.895 115.32 82.781 101.938 84.578 c 99.477 84.918
 97.754 87.184 98.09 89.648 c h
98.09 89.648 m f
34.5 164.906 m 34.5 163.301 l 34.5 154.582 45.332 145.629 64.383 138.734
 c 85.148 131.223 112.762 127.086 142.312 127.086 c 159.75 127.02 177.16
 128.586 194.305 131.766 c 197.637 137.578 201.711 142.926 206.422 147.68
 c 218.289 159.539 233.828 167.02 250.5 168.898 c 250.5 222.488 l 244.5 
216.789 235.273 211.672 223.516 207.414 c 201.793 199.551 172.926 195.223
 142.359 195.223 c 111.793 195.223 83.043 199.551 61.32 207.414 c 49.562
 211.672 40.5 216.789 34.5 222.488 c h
207.586 184.805 m 213.02 184.805 217.922 181.531 220.004 176.508 c 222.082
 171.484 220.934 165.703 217.09 161.859 c 213.246 158.016 207.465 156.863
 202.441 158.945 c 197.418 161.023 194.145 165.926 194.145 171.363 c 194.152
 178.781 200.164 184.797 207.586 184.805 c h
98.09 165.648 m 98.43 168.109 100.695 169.832 103.16 169.496 c 116.137 
167.754 129.215 166.895 142.309 166.922 c 152.777 166.91 163.234 167.453
 173.645 168.547 c 179.488 169.031 180.414 160.359 174.602 159.602 c 163.875
 158.473 153.098 157.914 142.312 157.922 c 128.809 157.898 115.32 158.785
 101.938 160.582 c 99.477 160.918 97.758 163.188 98.09 165.648 c h
98.09 165.648 m f
64.293 293.023 m 85.062 285.508 112.773 281.367 142.312 281.367 c 171.852
 281.367 199.562 285.508 220.332 293.023 c 239.379 299.922 250.312 308.871
 250.312 317.582 c 250.312 326.293 239.383 335.25 220.332 342.141 c 199.562
 349.66 171.852 353.801 142.312 353.801 c 112.773 353.801 85.062 349.66 
64.293 342.141 c 45.242 335.25 34.312 326.297 34.312 317.586 c 34.312 308.871
 45.242 299.926 64.293 293.023 c h
64.293 293.023 m f
330.48 166.766 m 319.289 177.863 304.473 184.551 288.75 185.609 c 288.75
 125.25 l 349.531 125.25 l 348.461 141 341.68 155.359 330.48 166.766 c h
330.48 166.766 m f
Q Q
showpage
%%Trailer
end restore
%%EOF
