%!PS-Adobe-3.0 EPSF-3.0
%%Creator: cairo 1.14.8 (http://cairographics.org)
%%CreationDate: Thu Mar 21 09:07:39 2019
%%Pages: 1
%%DocumentData: Clean7Bit
%%LanguageLevel: 2
%%BoundingBox: 47 23 337 361
%%EndComments
%%BeginProlog
save
50 dict begin
/q { gsave } bind def
/Q { grestore } bind def
/cm { 6 array astore concat } bind def
/w { setlinewidth } bind def
/J { setlinecap } bind def
/j { setlinejoin } bind def
/M { setmiterlimit } bind def
/d { setdash } bind def
/m { moveto } bind def
/l { lineto } bind def
/c { curveto } bind def
/h { closepath } bind def
/re { exch dup neg 3 1 roll 5 3 roll moveto 0 rlineto
      0 exch rlineto 0 rlineto closepath } bind def
/S { stroke } bind def
/f { fill } bind def
/f* { eofill } bind def
/n { newpath } bind def
/W { clip } bind def
/W* { eoclip } bind def
/BT { } bind def
/ET { } bind def
/pdfmark where { pop globaldict /?pdfmark /exec load put }
    { globaldict begin /?pdfmark /pop load def /pdfmark
    /cleartomark load def end } ifelse
/BDC { mark 3 1 roll /BDC pdfmark } bind def
/EMC { mark /EMC pdfmark } bind def
/cairo_store_point { /cairo_point_y exch def /cairo_point_x exch def } def
/Tj { show currentpoint cairo_store_point } bind def
/TJ {
  {
    dup
    type /stringtype eq
    { show } { -0.001 mul 0 cairo_font_matrix dtransform rmoveto } ifelse
  } forall
  currentpoint cairo_store_point
} bind def
/cairo_selectfont { cairo_font_matrix aload pop pop pop 0 0 6 array astore
    cairo_font exch selectfont cairo_point_x cairo_point_y moveto } bind def
/Tf { pop /cairo_font exch def /cairo_font_matrix where
      { pop cairo_selectfont } if } bind def
/Td { matrix translate cairo_font_matrix matrix concatmatrix dup
      /cairo_font_matrix exch def dup 4 get exch 5 get cairo_store_point
      /cairo_font where { pop cairo_selectfont } if } bind def
/Tm { 2 copy 8 2 roll 6 array astore /cairo_font_matrix exch def
      cairo_store_point /cairo_font where { pop cairo_selectfont } if } bind def
/g { setgray } bind def
/rg { setrgbcolor } bind def
/d1 { setcachedevice } bind def
%%EndProlog
%%BeginSetup
%%EndSetup
%%Page: 1 1
%%BeginPageSetup
%%PageBoundingBox: 47 23 337 361
%%EndPageSetup
q 47 23 290 338 rectclip q
0 g
263.25 306.773 m 257.25 301.074 248.129 295.957 236.367 291.699 c 214.641
 283.832 185.93 279.504 155.367 279.504 c 124.809 279.504 96 283.836 74.273
 291.699 c 62.512 295.957 54 301.074 47.25 306.773 c 47.25 247.574 l 47.25
 238.859 58.215 229.906 77.266 223.012 c 98.031 215.5 125.82 211.359 155.371
 211.359 c 184.922 211.359 212.609 215.5 233.371 223.012 c 252.426 229.906
 263.25 238.859 263.25 247.574 c h
187.699 242.734 m 176.977 241.609 166.199 241.047 155.414 241.059 c 141.91
 241.031 128.422 241.918 115.039 243.715 c 109.094 244.527 110.316 253.445
 116.262 252.633 c 129.238 250.891 142.316 250.031 155.41 250.059 c 165.879
 250.047 176.34 250.59 186.75 251.684 c 192.672 252.266 193.617 243.414 
187.703 242.734 c h
220.684 241.059 m 215.246 241.059 210.344 244.332 208.266 249.355 c 206.184
 254.379 207.336 260.16 211.18 264.004 c 215.023 267.848 220.805 269 225.828
 266.918 c 230.848 264.836 234.125 259.938 234.125 254.5 c 234.117 247.078
 228.102 241.066 220.684 241.059 c h
220.684 241.059 m f
220.684 182.938 m 216.727 182.938 214.742 178.152 217.543 175.355 c 220.344
 172.559 225.125 174.543 225.125 178.5 c 225.121 180.949 223.133 182.938
 220.684 182.938 c h
220.684 182.938 m f
233.43 349.273 m 212.66 356.793 184.949 360.934 155.414 360.934 c 125.875
 360.934 98.164 356.793 77.395 349.273 c 58.34 342.383 47.414 333.43 47.414
 324.719 c 47.414 316.008 58.34 307.059 77.395 300.16 c 98.164 292.645 125.871
 288.504 155.414 288.504 c 184.953 288.504 212.66 292.645 233.43 300.16 
c 252.484 307.062 263.414 316.008 263.414 324.719 c 263.414 333.43 252.484
 342.383 233.43 349.273 c h
233.43 349.273 m f
225.125 254.5 m 225.125 252.047 223.137 250.059 220.684 250.059 c 218.23
 250.059 216.242 252.047 216.242 254.5 c 216.242 256.953 218.23 258.941 
220.684 258.941 c 223.137 258.941 225.125 256.953 225.125 254.5 c h
225.125 254.5 m f
190.355 76.855 m 190.414 76.898 190.473 76.941 190.535 76.984 c 206.828
 88.074 l 206.09 92.73 206.09 97.477 206.828 102.133 c 191.273 113.191 l
 191.242 113.215 191.203 113.234 191.176 113.258 c 188.43 115.266 187.652
 119.027 189.375 121.957 c 192.559 127.473 l 180.203 125.957 167.77 125.203
 155.324 125.223 c 124.754 125.223 95.965 129.551 74.242 137.41 c 62.488
 141.664 54 146.781 47.25 152.48 c 47.25 92.754 l 47.25 84.039 58.258 75.086
 77.309 68.191 c 98.074 60.68 125.91 56.543 155.457 56.543 c 168.348 56.516
 181.227 57.352 194.004 59.043 c 188.621 68.285 l 186.965 71.172 187.707
 74.84 190.355 76.855 c h
155.414 89.055 m 141.91 89.031 128.422 89.918 115.039 91.715 c 109.133 
92.555 110.344 101.406 116.262 100.629 c 129.238 98.891 142.316 98.031 155.41
 98.055 c 165.879 98.047 176.34 98.586 186.75 99.68 c 192.672 100.266 193.617
 91.41 187.703 90.73 c 176.977 89.605 166.199 89.047 155.414 89.055 c h
155.414 89.055 m f
155.371 202.363 m 124.805 202.363 95.992 206.691 74.27 214.551 c 62.512
 218.805 54 223.926 47.25 229.621 c 47.25 170.434 l 47.25 161.719 58.258
 152.766 77.309 145.871 c 98.074 138.359 125.91 134.223 155.457 134.223 
c 169.82 134.184 184.164 135.23 198.367 137.352 c 205.539 149.715 l 206.969
 152.312 210.562 153.508 213.523 152.324 c 213.594 152.297 213.664 152.273
 213.73 152.242 c 231.039 144.285 l 234.816 147.074 238.895 149.426 243.199
 151.293 c 244.93 170.48 l 245.234 173.758 247.988 176.262 251.281 176.25
 c 263.25 176.25 l 263.25 229.621 l 257.25 223.922 248.129 218.805 236.371
 214.547 c 214.648 206.691 185.938 202.363 155.371 202.363 c h
187.699 166.734 m 176.977 165.605 166.199 165.047 155.414 165.059 c 141.91
 165.031 128.422 165.918 115.039 167.715 c 109.094 168.527 110.316 177.445
 116.262 176.633 c 129.238 174.891 142.316 174.031 155.41 174.059 c 165.879
 174.047 176.34 174.59 186.75 175.684 c 192.672 176.266 193.617 167.41 187.703
 166.734 c h
220.684 165.059 m 215.246 165.059 210.344 168.332 208.266 173.355 c 206.184
 178.375 207.332 184.156 211.18 188.004 c 215.023 191.848 220.805 192.996
 225.824 190.918 c 230.848 188.836 234.125 183.938 234.125 178.5 c 234.117
 171.078 228.105 165.066 220.684 165.059 c h
220.684 165.059 m f
320.926 107.883 m 336.934 119.266 l 322.766 143.09 l 305.082 134.957 l 
303.578 134.266 301.82 134.457 300.496 135.449 c 299.598 136.129 l 295.609
 139.148 291.262 141.668 286.66 143.629 c 285.625 144.094 l 284.102 144.758
 283.062 146.203 282.914 147.859 c 281.156 167.25 l 253.668 167.25 l 251.918
 147.859 l 251.773 146.195 250.734 144.738 249.207 144.055 c 248.168 143.613
 l 243.605 141.773 239.324 139.309 235.441 136.285 c 234.531 135.535 l 233.199
 134.445 231.363 134.207 229.797 134.93 c 212.082 143.078 l 198.254 119.273
 l 214.281 107.879 l 215.652 106.902 216.367 105.242 216.129 103.578 c 215.965
 102.434 l 215.047 97.59 215.047 92.617 215.957 87.773 c 216.125 86.602 
l 216.363 84.949 215.66 83.301 214.309 82.32 c 213.34 81.621 l 213.234 81.547
 l 197.523 70.852 l 211.332 47.086 l 229 55.215 l 230.5 55.906 232.258 55.719
 233.578 54.73 c 234.48 54.059 l 238.473 51.047 242.816 48.535 247.418 46.578
 c 248.453 46.156 l 249.969 45.527 251.012 44.109 251.164 42.477 c 252.922
 23.25 l 280.41 23.25 l 282.16 42.477 l 282.312 44.102 283.359 45.504 284.871
 46.117 c 285.906 46.559 l 290.469 48.398 294.754 50.863 298.633 53.887 
c 299.547 54.637 l 300.879 55.727 302.719 55.961 304.281 55.242 c 321.996
 47.09 l 335.859 70.957 l 320.809 82.422 l 319.512 83.41 318.852 85.023 
319.086 86.641 c 319.242 87.742 l 319.652 90.172 319.879 92.625 319.926 
95.086 c 319.879 97.551 319.648 100.008 319.242 102.438 c 319.078 103.582
 l 318.84 105.25 319.555 106.906 320.926 107.883 c h
267.227 51.062 m 242.539 51.062 223.199 70.398 223.199 95.09 c 223.199 
119.777 242.535 139.113 267.227 139.113 c 291.914 139.113 311.25 119.777
 311.25 95.09 c 311.25 70.398 291.91 51.062 267.227 51.062 c h
267.227 51.062 m f
267.227 130.109 m 253.059 130.109 240.289 121.574 234.867 108.488 c 229.445
 95.398 232.441 80.336 242.457 70.316 c 252.477 60.301 267.539 57.305 280.629
 62.727 c 293.715 68.145 302.25 80.918 302.25 95.082 c 302.352 104.402 298.695
 113.371 292.102 119.961 c 285.512 126.551 276.547 130.211 267.227 130.109
 c h
267.227 72.785 m 258.207 72.785 250.074 78.219 246.621 86.551 c 243.172
 94.887 245.078 104.477 251.457 110.855 c 257.836 117.234 267.426 119.141
 275.758 115.688 c 284.094 112.238 289.527 104.105 289.527 95.086 c 289.59
 89.152 287.262 83.441 283.066 79.246 c 278.867 75.051 273.16 72.723 267.227
 72.785 c h
267.227 72.785 m f
267.227 108.387 m 261.844 108.387 256.996 105.145 254.938 100.176 c 252.879
 95.203 254.016 89.484 257.82 85.68 c 261.625 81.875 267.344 80.738 272.316
 82.797 c 277.285 84.855 280.527 89.707 280.527 95.086 c 280.562 98.625 
279.176 102.031 276.672 104.531 c 274.168 107.035 270.766 108.426 267.227
 108.387 c h
267.227 108.387 m f
Q Q
showpage
%%Trailer
end restore
%%EOF
