%!PS-Adobe-3.0 EPSF-3.0
%%Creator: cairo 1.14.8 (http://cairographics.org)
%%CreationDate: Thu Mar 21 09:07:39 2019
%%Pages: 1
%%DocumentData: Clean7Bit
%%LanguageLevel: 2
%%BoundingBox: 121 18 263 366
%%EndComments
%%BeginProlog
save
50 dict begin
/q { gsave } bind def
/Q { grestore } bind def
/cm { 6 array astore concat } bind def
/w { setlinewidth } bind def
/J { setlinecap } bind def
/j { setlinejoin } bind def
/M { setmiterlimit } bind def
/d { setdash } bind def
/m { moveto } bind def
/l { lineto } bind def
/c { curveto } bind def
/h { closepath } bind def
/re { exch dup neg 3 1 roll 5 3 roll moveto 0 rlineto
      0 exch rlineto 0 rlineto closepath } bind def
/S { stroke } bind def
/f { fill } bind def
/f* { eofill } bind def
/n { newpath } bind def
/W { clip } bind def
/W* { eoclip } bind def
/BT { } bind def
/ET { } bind def
/pdfmark where { pop globaldict /?pdfmark /exec load put }
    { globaldict begin /?pdfmark /pop load def /pdfmark
    /cleartomark load def end } ifelse
/BDC { mark 3 1 roll /BDC pdfmark } bind def
/EMC { mark /EMC pdfmark } bind def
/cairo_store_point { /cairo_point_y exch def /cairo_point_x exch def } def
/Tj { show currentpoint cairo_store_point } bind def
/TJ {
  {
    dup
    type /stringtype eq
    { show } { -0.001 mul 0 cairo_font_matrix dtransform rmoveto } ifelse
  } forall
  currentpoint cairo_store_point
} bind def
/cairo_selectfont { cairo_font_matrix aload pop pop pop 0 0 6 array astore
    cairo_font exch selectfont cairo_point_x cairo_point_y moveto } bind def
/Tf { pop /cairo_font exch def /cairo_font_matrix where
      { pop cairo_selectfont } if } bind def
/Td { matrix translate cairo_font_matrix matrix concatmatrix dup
      /cairo_font_matrix exch def dup 4 get exch 5 get cairo_store_point
      /cairo_font where { pop cairo_selectfont } if } bind def
/Tm { 2 copy 8 2 roll 6 array astore /cairo_font_matrix exch def
      cairo_store_point /cairo_font where { pop cairo_selectfont } if } bind def
/g { setgray } bind def
/rg { setrgbcolor } bind def
/d1 { setcachedevice } bind def
%%EndProlog
%%BeginSetup
%%EndSetup
%%Page: 1 1
%%BeginPageSetup
%%PageBoundingBox: 121 18 263 366
%%EndPageSetup
q 121 18 142 348 rectclip q
0 g
191.859 81.316 m 177.324 81.316 163.641 83.387 153.25 87.145 c 150 88.238
 146.895 89.723 144 91.566 c 144 68.816 l 144 66.641 147.18 62.922 156.336
 59.609 c 165.77 56.195 178.34 54.316 191.859 54.316 c 205.379 54.316 218.066
 56.195 227.5 59.609 c 236.656 62.926 240 66.641 240 68.816 c 240 91.566
 l 236.973 89.871 233.824 88.395 230.586 87.145 c 220.195 83.387 206.395
 81.316 191.859 81.316 c h
191.859 81.316 m f
191.859 45.316 m 177.324 45.316 163.641 47.387 153.25 51.145 c 150 52.238
 146.895 53.723 144 55.566 c 144 32.566 l 144 30.391 147.18 26.672 156.336
 23.359 c 165.77 19.945 178.34 18.066 191.859 18.066 c 205.379 18.066 218.066
 19.945 227.5 23.359 c 236.656 26.672 240 30.391 240 32.566 c 240 55.566
 l 236.973 53.871 233.824 52.395 230.586 51.145 c 220.195 47.387 206.395
 45.316 191.859 45.316 c h
191.859 45.316 m f
156.219 131.609 m 165.656 128.195 178.297 126.316 191.812 126.316 c 205.328
 126.316 217.969 128.195 227.406 131.609 c 236.562 134.926 239.812 138.641
 239.812 140.816 c 239.812 142.988 236.562 146.703 227.406 150.02 c 217.969
 153.434 205.328 155.316 191.812 155.316 c 178.297 155.316 165.656 153.434
 156.219 150.02 c 147.062 146.703 143.812 142.988 143.812 140.816 c 143.812
 138.641 147.062 134.926 156.219 131.609 c h
156.219 131.609 m f
191.859 117.316 m 177.328 117.316 163.645 119.387 153.254 123.148 c 150
 124.246 146.895 125.73 144 127.574 c 144 104.82 l 144 102.645 147.18 98.926
 156.336 95.613 c 165.77 92.199 178.34 90.32 191.859 90.32 c 205.379 90.32
 218.066 92.199 227.5 95.613 c 236.656 98.926 240 102.641 240 104.816 c 
240 127.57 l 236.969 125.875 233.824 124.395 230.582 123.145 c 220.191 119.387
 206.391 117.316 191.859 117.316 c h
191.859 117.316 m f
243.004 325.062 m 240.969 325.473 239.48 327.223 239.398 329.297 c 239.094
 336.809 235.34 343.758 229.227 348.129 c 223.109 352.496 215.316 353.797
 208.113 351.648 c 206.391 351.133 204.523 351.691 203.371 353.074 c 193.684
 364.652 177.785 368.934 163.598 363.781 c 149.406 358.629 139.961 345.145
 139.961 330.047 c 139.961 329.477 139.977 328.902 140.004 328.336 c 140.09
 326.398 138.93 324.625 137.117 323.93 c 127.699 320.305 121.488 311.246
 121.5 301.152 c 121.512 287.699 132.395 276.789 145.848 276.75 c 238.152
 276.75 l 250.668 276.781 261.129 286.266 262.379 298.719 c 263.629 311.168
 255.262 322.547 243.004 325.062 c h
243.004 325.062 m f
167.25 242.91 m 169.734 242.91 171.75 244.926 171.75 247.41 c 171.75 251.398
 l 171.75 257.398 162.75 257.398 162.75 251.398 c 162.75 247.41 l 162.75
 244.926 164.766 242.91 167.25 242.91 c h
167.25 242.91 m f
162.75 231.309 m 162.75 225.309 171.75 225.309 171.75 231.309 c 171.75 
234.965 l 171.75 240.965 162.75 240.965 162.75 234.965 c h
162.75 231.309 m f
162.75 190.926 m 150.07 202.727 l 148.25 204.418 145.402 204.316 143.711
 202.5 c 142.016 200.68 142.117 197.832 143.934 196.137 c 164.176 177.301
 l 165.902 175.691 168.578 175.691 170.305 177.301 c 190.547 196.137 l 192.492
 197.801 192.66 200.746 190.918 202.621 c 189.176 204.496 186.227 204.543
 184.426 202.727 c 171.75 190.926 l 171.75 218.301 l 171.75 224.301 162.75
 224.301 162.75 218.301 c h
162.75 190.926 m f
212.25 180.59 m 212.25 174.59 221.25 174.59 221.25 180.59 c 221.25 184.582
 l 221.25 190.582 212.25 190.582 212.25 184.582 c h
212.25 180.59 m f
216.75 192.523 m 219.234 192.523 221.25 194.539 221.25 197.023 c 221.25
 200.688 l 221.25 206.688 212.25 206.688 212.25 200.688 c 212.25 197.023
 l 212.25 194.539 214.266 192.523 216.75 192.523 c h
216.75 192.523 m f
219.824 254.695 m 218.098 256.305 215.422 256.305 213.691 254.695 c 193.453
 235.859 l 189.27 231.766 195.195 225.395 199.578 229.27 c 212.25 241.066
 l 212.25 213.691 l 212.25 207.691 221.25 207.691 221.25 213.691 c 221.25
 241.066 l 233.93 229.27 l 238.32 225.18 244.457 231.766 240.066 235.859
 c h
219.824 254.695 m f
Q Q
showpage
%%Trailer
end restore
%%EOF
