%!PS-Adobe-3.0 EPSF-3.0
%%Creator: cairo 1.14.8 (http://cairographics.org)
%%CreationDate: Thu Mar 21 09:07:39 2019
%%Pages: 1
%%DocumentData: Clean7Bit
%%LanguageLevel: 2
%%BoundingBox: 39 17 345 367
%%EndComments
%%BeginProlog
save
50 dict begin
/q { gsave } bind def
/Q { grestore } bind def
/cm { 6 array astore concat } bind def
/w { setlinewidth } bind def
/J { setlinecap } bind def
/j { setlinejoin } bind def
/M { setmiterlimit } bind def
/d { setdash } bind def
/m { moveto } bind def
/l { lineto } bind def
/c { curveto } bind def
/h { closepath } bind def
/re { exch dup neg 3 1 roll 5 3 roll moveto 0 rlineto
      0 exch rlineto 0 rlineto closepath } bind def
/S { stroke } bind def
/f { fill } bind def
/f* { eofill } bind def
/n { newpath } bind def
/W { clip } bind def
/W* { eoclip } bind def
/BT { } bind def
/ET { } bind def
/pdfmark where { pop globaldict /?pdfmark /exec load put }
    { globaldict begin /?pdfmark /pop load def /pdfmark
    /cleartomark load def end } ifelse
/BDC { mark 3 1 roll /BDC pdfmark } bind def
/EMC { mark /EMC pdfmark } bind def
/cairo_store_point { /cairo_point_y exch def /cairo_point_x exch def } def
/Tj { show currentpoint cairo_store_point } bind def
/TJ {
  {
    dup
    type /stringtype eq
    { show } { -0.001 mul 0 cairo_font_matrix dtransform rmoveto } ifelse
  } forall
  currentpoint cairo_store_point
} bind def
/cairo_selectfont { cairo_font_matrix aload pop pop pop 0 0 6 array astore
    cairo_font exch selectfont cairo_point_x cairo_point_y moveto } bind def
/Tf { pop /cairo_font exch def /cairo_font_matrix where
      { pop cairo_selectfont } if } bind def
/Td { matrix translate cairo_font_matrix matrix concatmatrix dup
      /cairo_font_matrix exch def dup 4 get exch 5 get cairo_store_point
      /cairo_font where { pop cairo_selectfont } if } bind def
/Tm { 2 copy 8 2 roll 6 array astore /cairo_font_matrix exch def
      cairo_store_point /cairo_font where { pop cairo_selectfont } if } bind def
/g { setgray } bind def
/rg { setrgbcolor } bind def
/d1 { setcachedevice } bind def
%%EndProlog
%%BeginSetup
%%EndSetup
%%Page: 1 1
%%BeginPageSetup
%%PageBoundingBox: 39 17 345 367
%%EndPageSetup
q 39 17 306 350 rectclip q
0 g
192.07 257.641 m 177.66 257.641 164.121 259.695 153.82 263.422 c 150.633
 264.504 147.59 265.961 144.75 267.766 c 144.75 245.047 l 144.75 242.902
 147.789 239.238 156.844 235.961 c 166.191 232.582 178.539 230.719 191.93
 230.719 c 205.32 230.719 217.773 232.582 227.121 235.961 c 236.176 239.238
 239.25 242.902 239.25 245.047 c 239.25 267.766 l 236.422 265.961 233.391
 264.504 230.219 263.422 c 219.914 259.695 206.477 257.641 192.07 257.641
 c h
200.293 239.25 m 183.383 239.25 l 177.383 239.25 177.383 248.25 183.383
 248.25 c 200.293 248.25 l 206.293 248.25 206.293 239.25 200.293 239.25 
c h
200.293 239.25 m f
239.25 339.117 m 236.422 337.312 233.391 335.855 230.215 334.773 c 219.91
 331.043 206.473 328.988 192.07 328.988 c 177.664 328.988 164.125 331.043
 153.82 334.773 c 150.633 335.855 147.59 337.316 144.75 339.117 c 144.75
 316.645 l 144.75 314.5 147.789 310.836 156.844 307.559 c 166.191 304.176
 178.539 302.316 191.93 302.316 c 205.32 302.316 217.773 304.176 227.121
 307.559 c 236.176 310.836 239.25 314.5 239.25 316.645 c h
200.453 310.5 m 183.547 310.5 l 177.547 310.5 177.547 319.5 183.547 319.5
 c 200.453 319.5 l 206.453 319.5 206.453 310.5 200.453 310.5 c h
200.453 310.5 m f
86.523 44.277 m 72.117 44.277 58.508 46.328 48.203 50.055 c 44.992 51.176
 41.906 52.633 39 54.402 c 39 31.684 l 39 29.539 42.238 25.875 51.293 22.598
 c 60.637 19.215 73.184 17.352 86.574 17.352 c 99.969 17.352 112.539 19.215
 121.883 22.598 c 130.938 25.875 134.25 29.539 134.25 31.684 c 134.25 54.402
 l 131.324 52.602 128.203 51.145 124.945 50.055 c 114.645 46.328 100.934
 44.277 86.523 44.277 c h
94.816 26.25 m 77.91 26.25 l 71.91 26.25 71.91 35.25 77.91 35.25 c 94.816
 35.25 l 100.816 35.25 100.816 26.25 94.816 26.25 c h
94.816 26.25 m f
86.523 79.949 m 72.117 79.949 58.508 82.004 48.203 85.73 c 44.992 86.852
 41.906 88.305 39 90.074 c 39 67.605 l 39 65.461 42.238 61.797 51.293 58.52
 c 60.637 55.137 73.184 53.277 86.574 53.277 c 99.969 53.277 112.539 55.137
 121.883 58.52 c 130.938 61.797 134.25 65.461 134.25 67.605 c 134.25 90.074
 l 131.324 88.277 128.203 86.82 124.945 85.73 c 114.645 82.004 100.934 79.949
 86.523 79.949 c h
94.816 60.75 m 77.91 60.75 l 71.91 60.75 71.91 69.75 77.91 69.75 c 94.816
 69.75 l 100.816 69.75 100.816 60.75 94.816 60.75 c h
94.816 60.75 m f
39 138.953 m 39 136.641 42.793 132.938 51.27 129.871 c 60.617 126.488 73.137
 124.625 86.523 124.625 c 99.914 124.625 112.434 126.488 121.781 129.871
 c 130.258 132.938 134.051 136.641 134.051 138.953 c 134.051 141.266 130.258
 144.969 121.781 148.035 c 112.434 151.418 99.914 153.285 86.523 153.285
 c 73.137 153.285 60.617 151.422 51.27 148.035 c 42.793 144.969 39 141.262
 39 138.953 c h
39 138.953 m f
239.25 281.711 m 239.25 303.441 l 236.422 301.637 233.391 300.18 230.219
 299.098 c 219.914 295.367 206.477 293.316 192.07 293.316 c 177.66 293.316
 164.121 295.367 153.82 299.098 c 150.633 300.18 147.59 301.637 144.75 303.441
 c 144.75 280.969 l 144.75 278.824 147.789 275.16 156.844 271.883 c 166.191
 268.504 178.539 266.641 191.93 266.641 c 205.32 266.641 217.773 268.504
 227.121 271.883 c 236.176 275.16 239.25 278.824 239.25 280.969 c h
200.293 274.5 m 183.383 274.5 l 177.383 274.5 177.383 283.5 183.383 283.5
 c 200.293 283.5 l 206.293 283.5 206.293 274.5 200.293 274.5 c h
200.293 274.5 m f
332.73 148.035 m 323.383 151.418 310.863 153.285 297.477 153.285 c 284.086
 153.285 271.566 151.422 262.219 148.035 c 253.742 144.969 249.949 141.262
 249.949 138.953 c 249.949 136.645 253.742 132.938 262.219 129.871 c 271.566
 126.488 284.086 124.625 297.477 124.625 c 310.863 124.625 323.383 126.488
 332.73 129.871 c 341.207 132.938 345 136.641 345 138.953 c 345 141.266 
341.207 144.969 332.73 148.035 c h
332.73 148.035 m f
227.258 361.398 m 217.91 364.781 205.387 366.648 192 366.648 c 178.613 
366.648 166.09 364.781 156.742 361.398 c 148.27 358.332 144.477 354.629 
144.477 352.316 c 144.477 350.008 148.27 346.305 156.742 343.234 c 166.09
 339.852 178.613 337.984 192 337.984 c 205.387 337.984 217.91 339.848 227.258
 343.234 c 235.73 346.305 239.523 350.008 239.523 352.316 c 239.523 354.629
 235.73 358.332 227.258 361.398 c h
227.258 361.398 m f
297.426 79.949 m 283.016 79.949 269.355 82.004 259.055 85.73 c 255.797 
86.82 252.676 88.277 249.75 90.074 c 249.75 67.605 l 249.75 65.461 253.062
 61.797 262.117 58.52 c 271.461 55.141 284.082 53.277 297.477 53.277 c 310.867
 53.277 323.387 55.141 332.734 58.52 c 341.789 61.797 345 65.461 345 67.605
 c 345 90.074 l 342.086 88.305 338.992 86.852 335.77 85.73 c 325.469 82.004
 311.836 79.949 297.426 79.949 c h
305.766 60.75 m 288.859 60.75 l 282.859 60.75 282.859 69.75 288.859 69.75
 c 305.766 69.75 l 311.766 69.75 311.766 60.75 305.766 60.75 c h
305.766 60.75 m f
297.426 115.625 m 283.02 115.625 269.359 117.68 259.055 121.406 c 255.797
 122.496 252.676 123.953 249.75 125.754 c 249.75 103.273 l 249.75 101.133
 253.062 97.465 262.117 94.191 c 271.461 90.809 284.082 88.945 297.477 88.945
 c 310.867 88.945 323.387 90.809 332.734 94.191 c 341.789 97.469 345 101.137
 345 103.273 c 345 125.754 l 342.082 123.984 338.988 122.527 335.77 121.406
 c 325.465 117.676 311.828 115.625 297.426 115.625 c h
305.93 97.5 m 289.02 97.5 l 283.02 97.5 283.02 106.5 289.02 106.5 c 305.93
 106.5 l 311.93 106.5 311.93 97.5 305.93 97.5 c h
305.93 97.5 m f
286.383 161.863 m 221.297 224.859 l 202 220.672 182.031 220.672 162.734
 224.859 c 97.672 161.863 l 107.871 161.09 117.336 159.25 124.945 156.496
 c 139.992 151.051 143.25 143.953 143.25 138.953 c 143.25 90 l 240.75 90
 l 240.75 138.953 l 240.75 143.953 244.012 151.051 259.059 156.496 c 266.668
 159.25 276.18 161.09 286.383 161.863 c h
286.383 161.863 m f
297.426 44.277 m 283.016 44.277 269.355 46.328 259.055 50.055 c 255.797
 51.145 252.676 52.602 249.75 54.402 c 249.75 31.684 l 249.75 29.539 253.062
 25.875 262.117 22.598 c 271.461 19.215 284.082 17.352 297.477 17.352 c 
310.867 17.352 323.387 19.215 332.734 22.598 c 341.789 25.875 345 29.539
 345 31.684 c 345 54.402 l 342.086 52.633 338.992 51.176 335.77 50.055 c
 325.469 46.328 311.832 44.277 297.426 44.277 c h
305.766 26.25 m 288.859 26.25 l 282.859 26.25 282.859 35.25 288.859 35.25
 c 305.766 35.25 l 311.766 35.25 311.766 26.25 305.766 26.25 c h
305.766 26.25 m f
86.523 115.625 m 72.121 115.625 58.512 117.68 48.207 121.406 c 44.992 122.527
 41.906 123.984 39 125.754 c 39 103.273 l 39 101.133 42.238 97.465 51.293
 94.191 c 60.637 90.809 73.184 88.945 86.574 88.945 c 99.969 88.945 112.539
 90.809 121.883 94.191 c 130.938 97.469 134.25 101.137 134.25 103.273 c 
134.25 125.754 l 131.324 123.953 128.203 122.496 124.945 121.406 c 114.641
 117.676 100.93 115.625 86.523 115.625 c h
94.98 97.5 m 78.074 97.5 l 72.074 97.5 72.074 106.5 78.074 106.5 c 94.984
 106.5 l 100.984 106.5 100.984 97.5 94.984 97.5 c h
94.98 97.5 m f
Q Q
showpage
%%Trailer
end restore
%%EOF
