%!PS-Adobe-3.0 EPSF-3.0
%%Creator: cairo 1.14.8 (http://cairographics.org)
%%CreationDate: Thu Mar 21 09:07:39 2019
%%Pages: 1
%%DocumentData: Clean7Bit
%%LanguageLevel: 2
%%BoundingBox: 23 22 361 362
%%EndComments
%%BeginProlog
save
50 dict begin
/q { gsave } bind def
/Q { grestore } bind def
/cm { 6 array astore concat } bind def
/w { setlinewidth } bind def
/J { setlinecap } bind def
/j { setlinejoin } bind def
/M { setmiterlimit } bind def
/d { setdash } bind def
/m { moveto } bind def
/l { lineto } bind def
/c { curveto } bind def
/h { closepath } bind def
/re { exch dup neg 3 1 roll 5 3 roll moveto 0 rlineto
      0 exch rlineto 0 rlineto closepath } bind def
/S { stroke } bind def
/f { fill } bind def
/f* { eofill } bind def
/n { newpath } bind def
/W { clip } bind def
/W* { eoclip } bind def
/BT { } bind def
/ET { } bind def
/pdfmark where { pop globaldict /?pdfmark /exec load put }
    { globaldict begin /?pdfmark /pop load def /pdfmark
    /cleartomark load def end } ifelse
/BDC { mark 3 1 roll /BDC pdfmark } bind def
/EMC { mark /EMC pdfmark } bind def
/cairo_store_point { /cairo_point_y exch def /cairo_point_x exch def } def
/Tj { show currentpoint cairo_store_point } bind def
/TJ {
  {
    dup
    type /stringtype eq
    { show } { -0.001 mul 0 cairo_font_matrix dtransform rmoveto } ifelse
  } forall
  currentpoint cairo_store_point
} bind def
/cairo_selectfont { cairo_font_matrix aload pop pop pop 0 0 6 array astore
    cairo_font exch selectfont cairo_point_x cairo_point_y moveto } bind def
/Tf { pop /cairo_font exch def /cairo_font_matrix where
      { pop cairo_selectfont } if } bind def
/Td { matrix translate cairo_font_matrix matrix concatmatrix dup
      /cairo_font_matrix exch def dup 4 get exch 5 get cairo_store_point
      /cairo_font where { pop cairo_selectfont } if } bind def
/Tm { 2 copy 8 2 roll 6 array astore /cairo_font_matrix exch def
      cairo_store_point /cairo_font where { pop cairo_selectfont } if } bind def
/g { setgray } bind def
/rg { setrgbcolor } bind def
/d1 { setcachedevice } bind def
%%EndProlog
%%BeginSetup
%%EndSetup
%%Page: 1 1
%%BeginPageSetup
%%PageBoundingBox: 23 22 361 362
%%EndPageSetup
q 23 22 338 340 rectclip q
0 g
162.48 227.961 m 166.766 227.961 168.914 233.141 165.883 236.172 c 162.852
 239.203 157.668 237.059 157.668 232.773 c 157.672 230.117 159.824 227.965
 162.48 227.961 c h
162.48 227.961 m f
161.508 200.25 m 179.527 200.25 194.133 214.855 194.133 232.875 c 194.133
 250.895 179.527 265.5 161.508 265.5 c 55.992 265.5 l 37.973 265.5 23.367
 250.895 23.367 232.875 c 23.367 214.855 37.973 200.25 55.992 200.25 c h
162.48 246.582 m 168.066 246.582 173.102 243.219 175.238 238.055 c 177.375
 232.895 176.195 226.957 172.246 223.004 c 168.297 219.055 162.355 217.875
 157.195 220.012 c 152.035 222.148 148.668 227.184 148.668 232.773 c 148.68
 240.395 154.855 246.574 162.48 246.582 c h
125.238 246.582 m 130.824 246.582 135.859 243.215 137.996 238.055 c 140.137
 232.895 138.953 226.953 135.004 223.004 c 131.055 219.055 125.113 217.875
 119.953 220.012 c 114.793 222.148 111.426 227.188 111.426 232.773 c 111.438
 240.395 117.613 246.574 125.238 246.582 c h
82.68 252.75 m 90.75 252.75 l 96.75 252.75 96.75 243.75 90.75 243.75 c 
82.68 243.75 l 76.68 243.75 76.68 252.75 82.68 252.75 c h
82.68 237 m 90.75 237 l 96.75 237 96.75 228 90.75 228 c 82.68 228 l 76.68
 228 76.68 237 82.68 237 c h
82.68 222 m 90.75 222 l 96.75 222 96.75 213 90.75 213 c 82.68 213 l 76.68
 213 76.68 222 82.68 222 c h
55.992 252.75 m 64.059 252.75 l 70.059 252.75 70.059 243.75 64.059 243.75
 c 55.992 243.75 l 49.992 243.75 49.992 252.75 55.992 252.75 c h
55.992 237 m 64.059 237 l 70.059 237 70.059 228 64.059 228 c 55.992 228
 l 49.992 228 49.992 237 55.992 237 c h
51.492 217.5 m 51.492 219.984 53.508 222 55.992 222 c 64.059 222 l 70.059
 222 70.059 213 64.059 213 c 55.992 213 l 53.508 213 51.492 215.016 51.492
 217.5 c h
51.492 217.5 m f
125.238 227.961 m 129.523 227.961 131.672 233.145 128.641 236.172 c 125.609
 239.203 120.426 237.059 120.426 232.773 c 120.43 230.117 122.582 227.965
 125.238 227.961 c h
125.238 227.961 m f
60.75 287.25 96 -12.75 re f
125.238 324.168 m 129.523 324.168 131.672 329.352 128.641 332.383 c 125.609
 335.41 120.426 333.266 120.426 328.977 c 120.43 326.324 122.582 324.172
 125.238 324.168 c h
125.238 324.168 m f
162.48 324.168 m 166.766 324.168 168.914 329.352 165.883 332.379 c 162.852
 335.41 157.668 333.266 157.668 328.977 c 157.672 326.324 159.824 324.172
 162.48 324.168 c h
162.48 324.168 m f
55.992 296.25 m 161.508 296.25 l 179.527 296.25 194.133 310.855 194.133
 328.875 c 194.133 346.895 179.527 361.5 161.508 361.5 c 55.992 361.5 l 
37.973 361.5 23.367 346.895 23.367 328.875 c 23.367 310.855 37.973 296.25
 55.992 296.25 c h
162.48 342.789 m 168.066 342.789 173.102 339.426 175.238 334.266 c 177.375
 329.102 176.195 323.164 172.246 319.215 c 168.297 315.262 162.355 314.082
 157.195 316.219 c 152.035 318.355 148.668 323.395 148.668 328.977 c 148.68
 336.602 154.855 342.781 162.48 342.789 c h
125.238 342.789 m 130.824 342.789 135.859 339.426 137.996 334.262 c 140.137
 329.102 138.953 323.164 135.004 319.215 c 131.055 315.262 125.113 314.082
 119.953 316.219 c 114.793 318.355 111.426 323.395 111.426 328.977 c 111.438
 336.602 117.613 342.781 125.238 342.789 c h
82.68 348.75 m 90.75 348.75 l 96.75 348.75 96.75 339.75 90.75 339.75 c 
82.68 339.75 l 76.68 339.75 76.68 348.75 82.68 348.75 c h
82.68 333.75 m 90.75 333.75 l 96.75 333.75 96.75 324.75 90.75 324.75 c 
82.68 324.75 l 76.68 324.75 76.68 333.75 82.68 333.75 c h
82.68 318 m 90.75 318 l 96.75 318 96.75 309 90.75 309 c 82.68 309 l 76.68
 309 76.68 318 82.68 318 c h
55.992 348.75 m 64.059 348.75 l 70.059 348.75 70.059 339.75 64.059 339.75
 c 55.992 339.75 l 49.992 339.75 49.992 348.75 55.992 348.75 c h
55.992 333.75 m 64.059 333.75 l 70.059 333.75 70.059 324.75 64.059 324.75
 c 55.992 324.75 l 49.992 324.75 49.992 333.75 55.992 333.75 c h
55.992 318 m 64.059 318 l 70.059 318 70.059 309 64.059 309 c 55.992 309
 l 49.992 309 49.992 318 55.992 318 c h
55.992 318 m f
227.25 109.5 96 -12.75 re f
291.738 156.039 m 287.453 156.039 285.305 150.855 288.336 147.828 c 291.367
 144.797 296.547 146.941 296.547 151.227 c 296.547 153.883 294.395 156.035
 291.738 156.039 c h
291.738 156.039 m f
328.008 87.75 m 222.492 87.75 l 204.473 87.75 189.867 73.145 189.867 55.125
 c 189.867 37.105 204.473 22.5 222.492 22.5 c 328.008 22.5 l 346.027 22.5
 360.633 37.105 360.633 55.125 c 360.633 73.145 346.027 87.75 328.008 87.75
 c h
230.559 35.25 m 222.492 35.25 l 216.492 35.25 216.492 44.25 222.492 44.25
 c 230.559 44.25 l 236.559 44.25 236.559 35.25 230.559 35.25 c h
230.559 50.25 m 222.492 50.25 l 216.492 50.25 216.492 59.25 222.492 59.25
 c 230.559 59.25 l 236.559 59.25 236.559 50.25 230.559 50.25 c h
230.559 66 m 222.492 66 l 216.492 66 216.492 75 222.492 75 c 230.559 75
 l 236.559 75 236.559 66 230.559 66 c h
257.25 35.25 m 249.18 35.25 l 243.18 35.25 243.18 44.25 249.18 44.25 c 
257.25 44.25 l 263.25 44.25 263.25 35.25 257.25 35.25 c h
257.25 50.25 m 249.18 50.25 l 243.18 50.25 243.18 59.25 249.18 59.25 c 
257.25 59.25 l 263.25 59.25 263.25 50.25 257.25 50.25 c h
257.25 66 m 249.18 66 l 243.18 66 243.18 75 249.18 75 c 257.25 75 l 263.25
 75 263.25 66 257.25 66 c h
291.738 41.211 m 286.152 41.211 281.117 44.578 278.98 49.738 c 276.844 
54.898 278.023 60.84 281.973 64.789 c 285.926 68.738 291.863 69.918 297.023
 67.781 c 302.184 65.645 305.551 60.605 305.551 55.023 c 305.539 47.398 
299.363 41.219 291.738 41.211 c h
328.98 41.211 m 323.395 41.211 318.359 44.574 316.219 49.738 c 314.082 
54.898 315.266 60.836 319.215 64.785 c 323.164 68.738 329.105 69.918 334.266
 67.781 c 339.426 65.645 342.789 60.605 342.789 55.023 c 342.781 47.398 
336.602 41.219 328.98 41.211 c h
328.98 41.211 m f
328.98 59.832 m 324.695 59.832 322.547 54.648 325.578 51.617 c 328.609 
48.59 333.789 50.734 333.789 55.023 c 333.785 57.676 331.633 59.828 328.98
 59.832 c h
328.98 59.832 m f
328.008 183.75 m 222.492 183.75 l 204.473 183.75 189.867 169.145 189.867
 151.125 c 189.867 133.105 204.473 118.5 222.492 118.5 c 328.008 118.5 l
 346.027 118.5 360.633 133.105 360.633 151.125 c 360.633 169.145 346.027
 183.75 328.008 183.75 c h
230.559 131.25 m 222.492 131.25 l 216.492 131.25 216.492 140.25 222.492
 140.25 c 230.559 140.25 l 236.559 140.25 236.559 131.25 230.559 131.25 
c h
230.559 147 m 222.492 147 l 216.492 147 216.492 156 222.492 156 c 230.559
 156 l 236.559 156 236.559 147 230.559 147 c h
230.559 162 m 222.492 162 l 216.492 162 216.492 171 222.492 171 c 230.559
 171 l 236.559 171 236.559 162 230.559 162 c h
257.25 131.25 m 249.18 131.25 l 243.18 131.25 243.18 140.25 249.18 140.25
 c 257.25 140.25 l 263.25 140.25 263.25 131.25 257.25 131.25 c h
257.25 147 m 249.18 147 l 243.18 147 243.18 156 249.18 156 c 257.25 156
 l 263.25 156 263.25 147 257.25 147 c h
257.25 162 m 249.18 162 l 243.18 162 243.18 171 249.18 171 c 257.25 171
 l 263.25 171 263.25 162 257.25 162 c h
291.738 137.418 m 286.152 137.418 281.117 140.785 278.98 145.945 c 276.844
 151.105 278.023 157.047 281.977 160.996 c 285.926 164.945 291.863 166.125
 297.027 163.988 c 302.188 161.852 305.551 156.812 305.551 151.227 c 305.543
 143.605 299.363 137.426 291.738 137.418 c h
328.98 137.418 m 323.395 137.418 318.359 140.785 316.219 145.945 c 314.082
 151.105 315.266 157.047 319.215 160.996 c 323.164 164.945 329.105 166.125
 334.266 163.988 c 339.426 161.852 342.789 156.812 342.789 151.227 c 342.781
 143.605 336.602 137.426 328.98 137.418 c h
328.98 137.418 m f
328.98 156.039 m 324.695 156.039 322.547 150.855 325.578 147.828 c 328.609
 144.797 333.789 146.941 333.789 151.227 c 333.785 153.883 331.637 156.035
 328.98 156.039 c h
328.98 156.039 m f
291.738 59.832 m 287.453 59.832 285.305 54.648 288.336 51.617 c 291.367
 48.59 296.551 50.734 296.547 55.023 c 296.547 57.676 294.395 59.828 291.738
 59.832 c h
291.738 59.832 m f
294.75 281.25 m 294.75 283.734 292.734 285.75 290.25 285.75 c 207.75 285.75
 l 201.75 285.75 201.75 276.75 207.75 276.75 c 285.75 276.75 l 285.75 217.543
 l 261.613 241.68 l 259.863 243.48 256.98 243.5 255.207 241.727 c 253.43
 239.953 253.449 237.07 255.25 235.32 c 287.066 203.5 l 288.824 201.742 
291.676 201.742 293.434 203.5 c 325.25 235.32 l 327.051 237.07 327.07 239.953
 325.293 241.727 c 323.52 243.5 320.637 243.48 318.887 241.68 c 294.75 217.543
 l h
294.75 281.25 m f
87.75 103.5 m 87.75 101.016 89.766 99 92.25 99 c 174.75 99 l 180.75 99 
180.75 108 174.75 108 c 96.75 108 l 96.75 167.207 l 120.887 143.07 l 125.129
 138.941 131.379 145.188 127.25 149.43 c 95.434 181.25 l 93.676 183.008 
90.824 183.008 89.066 181.25 c 57.25 149.43 l 55.449 147.68 55.43 144.797
 57.207 143.023 c 58.98 141.25 61.863 141.27 63.613 143.07 c 87.75 167.207
 l h
87.75 103.5 m f
Q Q
showpage
%%Trailer
end restore
%%EOF
