%!PS-Adobe-3.0 EPSF-3.0
%%Creator: cairo 1.14.8 (http://cairographics.org)
%%CreationDate: Thu Mar 21 09:07:39 2019
%%Pages: 1
%%DocumentData: Clean7Bit
%%LanguageLevel: 2
%%BoundingBox: 39 25 346 359
%%EndComments
%%BeginProlog
save
50 dict begin
/q { gsave } bind def
/Q { grestore } bind def
/cm { 6 array astore concat } bind def
/w { setlinewidth } bind def
/J { setlinecap } bind def
/j { setlinejoin } bind def
/M { setmiterlimit } bind def
/d { setdash } bind def
/m { moveto } bind def
/l { lineto } bind def
/c { curveto } bind def
/h { closepath } bind def
/re { exch dup neg 3 1 roll 5 3 roll moveto 0 rlineto
      0 exch rlineto 0 rlineto closepath } bind def
/S { stroke } bind def
/f { fill } bind def
/f* { eofill } bind def
/n { newpath } bind def
/W { clip } bind def
/W* { eoclip } bind def
/BT { } bind def
/ET { } bind def
/pdfmark where { pop globaldict /?pdfmark /exec load put }
    { globaldict begin /?pdfmark /pop load def /pdfmark
    /cleartomark load def end } ifelse
/BDC { mark 3 1 roll /BDC pdfmark } bind def
/EMC { mark /EMC pdfmark } bind def
/cairo_store_point { /cairo_point_y exch def /cairo_point_x exch def } def
/Tj { show currentpoint cairo_store_point } bind def
/TJ {
  {
    dup
    type /stringtype eq
    { show } { -0.001 mul 0 cairo_font_matrix dtransform rmoveto } ifelse
  } forall
  currentpoint cairo_store_point
} bind def
/cairo_selectfont { cairo_font_matrix aload pop pop pop 0 0 6 array astore
    cairo_font exch selectfont cairo_point_x cairo_point_y moveto } bind def
/Tf { pop /cairo_font exch def /cairo_font_matrix where
      { pop cairo_selectfont } if } bind def
/Td { matrix translate cairo_font_matrix matrix concatmatrix dup
      /cairo_font_matrix exch def dup 4 get exch 5 get cairo_store_point
      /cairo_font where { pop cairo_selectfont } if } bind def
/Tm { 2 copy 8 2 roll 6 array astore /cairo_font_matrix exch def
      cairo_store_point /cairo_font where { pop cairo_selectfont } if } bind def
/g { setgray } bind def
/rg { setrgbcolor } bind def
/d1 { setcachedevice } bind def
%%EndProlog
%%BeginSetup
%%EndSetup
%%Page: 1 1
%%BeginPageSetup
%%PageBoundingBox: 39 25 346 359
%%EndPageSetup
q 39 25 307 334 rectclip q
0 g
216.715 175.66 m 216.715 173.211 214.727 171.219 212.273 171.219 c 209.82
 171.219 207.832 173.211 207.832 175.66 c 207.832 178.113 209.82 180.102
 212.273 180.102 c 214.727 180.102 216.715 178.113 216.715 175.66 c h
216.715 175.66 m f
212.273 247.223 m 216.23 247.223 218.211 252.008 215.414 254.805 c 212.613
 257.602 207.832 255.621 207.832 251.664 c 207.832 249.211 209.82 247.227
 212.273 247.223 c h
212.273 247.223 m f
68.977 143.035 m 89.742 135.523 117.449 131.383 147 131.383 c 168.305 131.383
 188.879 133.566 206.645 137.691 c 217.457 155.496 234.816 168.348 255 173.492
 c 255 226.785 l 248.914 221.086 239.844 215.969 228.086 211.711 c 206.363
 203.852 177.566 199.523 147 199.523 c 116.434 199.523 87.637 203.852 65.914
 211.711 c 54.156 215.969 45.086 221.09 39 226.785 c 39 167.598 l 39 158.883
 49.926 149.926 68.977 143.035 c h
212.273 189.102 m 217.707 189.102 222.609 185.828 224.691 180.805 c 226.77
 175.781 225.621 170 221.777 166.156 c 217.934 162.312 212.152 161.164 207.129
 163.242 c 202.105 165.324 198.832 170.227 198.832 175.66 c 198.84 183.082
 204.852 189.094 212.273 189.102 c h
102.777 169.949 m 103.117 172.414 105.383 174.137 107.848 173.801 c 120.824
 172.059 133.902 171.199 146.996 171.223 c 157.465 171.215 167.922 171.754
 178.332 172.848 c 184.246 173.418 185.184 164.586 179.285 163.898 c 168.562
 162.773 157.785 162.211 147 162.219 c 133.496 162.195 120.008 163.082 106.629
 164.879 c 104.164 165.215 102.441 167.488 102.777 169.949 c h
102.777 169.949 m f
68.98 297.328 m 89.75 289.809 117.461 285.668 147 285.668 c 176.539 285.668
 204.25 289.809 225.02 297.328 c 244.07 304.223 255 313.172 255 321.883 
c 255 330.598 244.07 339.547 225.02 346.441 c 204.25 353.957 176.539 358.098
 147 358.098 c 117.461 358.098 89.75 353.957 68.98 346.441 c 49.93 339.547
 39 330.594 39 321.883 c 39 313.172 49.93 304.223 68.98 297.328 c h
68.98 297.328 m f
68.977 220.176 m 89.742 212.664 117.449 208.527 147 208.527 c 176.551 208.527
 204.258 212.664 225.023 220.176 c 244.074 227.07 255 236.023 255 244.742
 c 255 303.938 l 248.914 298.234 239.84 293.121 228.082 288.859 c 206.355
 281 177.559 276.668 147 276.668 c 116.441 276.668 87.645 281 65.918 288.863
 c 54.16 293.121 45.086 298.238 39 303.938 c 39 244.742 l 39 236.023 49.926
 227.07 68.977 220.176 c h
212.273 265.102 m 217.707 265.102 222.609 261.828 224.691 256.805 c 226.77
 251.781 225.621 246 221.777 242.156 c 217.934 238.312 212.152 237.164 207.129
 239.242 c 202.105 241.324 198.832 246.223 198.832 251.66 c 198.836 259.082
 204.852 265.098 212.273 265.105 c h
102.777 245.945 m 103.117 248.406 105.387 250.129 107.848 249.793 c 120.824
 248.055 133.902 247.195 146.996 247.219 c 157.465 247.211 167.922 247.75
 178.332 248.844 c 184.246 249.414 185.184 240.582 179.285 239.895 c 168.559
 238.77 157.785 238.211 147 238.223 c 133.496 238.195 120.008 239.082 106.629
 240.879 c 104.164 241.215 102.441 243.484 102.777 245.949 c h
102.777 245.945 m f
68.977 65.355 m 89.742 57.844 117.449 53.707 147 53.707 c 167.309 53.707
 186.93 55.688 204.109 59.441 c 193.027 80.512 192.008 105.449 201.332 127.355
 c 183.422 123.973 165.227 122.309 147 122.383 c 116.434 122.383 87.637 
126.711 65.914 134.574 c 54.156 138.824 45.086 143.945 39 149.645 c 39 89.918
 l 39 81.203 49.926 72.25 68.977 65.355 c h
102.777 93.945 m 103.117 96.406 105.383 98.133 107.848 97.793 c 120.824
 96.055 133.902 95.191 146.996 95.219 c 157.465 95.207 167.922 95.75 178.332
 96.844 c 184.301 97.48 185.254 88.531 179.285 87.895 c 168.562 86.77 157.785
 86.211 147 86.219 c 133.496 86.195 120.008 87.082 106.629 88.879 c 104.164
 89.215 102.441 91.484 102.777 93.945 c h
102.777 93.945 m f
274.5 166.902 m 255.797 166.922 237.852 159.504 224.625 146.277 c 211.398
 133.051 203.98 115.105 204 96.402 c 204 67.887 221.176 42.18 247.52 31.27
 c 273.863 20.355 304.188 26.387 324.352 46.551 c 344.516 66.715 350.547
 97.039 339.633 123.383 c 328.723 149.727 303.016 166.902 274.5 166.902 
c h
301.398 99.906 m 299.707 98.09 296.859 97.988 295.039 99.684 c 279 114.605
 l 279 67.859 l 279 61.859 270 61.859 270 67.859 c 270 114.605 l 253.961
 99.684 l 252.145 97.961 249.273 98.055 247.57 99.883 c 245.867 101.715 
245.984 104.582 247.828 106.27 c 271.434 128.238 l 273.16 129.848 275.84
 129.848 277.566 128.238 c 301.172 106.27 l 302.992 104.578 303.094 101.727
 301.398 99.906 c h
301.398 99.906 m f
Q Q
showpage
%%Trailer
end restore
%%EOF
