%!PS-Adobe-3.0 EPSF-3.0
%%Creator: cairo 1.14.8 (http://cairographics.org)
%%CreationDate: Thu Mar 21 09:07:39 2019
%%Pages: 1
%%DocumentData: Clean7Bit
%%LanguageLevel: 2
%%BoundingBox: 84 39 300 345
%%EndComments
%%BeginProlog
save
50 dict begin
/q { gsave } bind def
/Q { grestore } bind def
/cm { 6 array astore concat } bind def
/w { setlinewidth } bind def
/J { setlinecap } bind def
/j { setlinejoin } bind def
/M { setmiterlimit } bind def
/d { setdash } bind def
/m { moveto } bind def
/l { lineto } bind def
/c { curveto } bind def
/h { closepath } bind def
/re { exch dup neg 3 1 roll 5 3 roll moveto 0 rlineto
      0 exch rlineto 0 rlineto closepath } bind def
/S { stroke } bind def
/f { fill } bind def
/f* { eofill } bind def
/n { newpath } bind def
/W { clip } bind def
/W* { eoclip } bind def
/BT { } bind def
/ET { } bind def
/pdfmark where { pop globaldict /?pdfmark /exec load put }
    { globaldict begin /?pdfmark /pop load def /pdfmark
    /cleartomark load def end } ifelse
/BDC { mark 3 1 roll /BDC pdfmark } bind def
/EMC { mark /EMC pdfmark } bind def
/cairo_store_point { /cairo_point_y exch def /cairo_point_x exch def } def
/Tj { show currentpoint cairo_store_point } bind def
/TJ {
  {
    dup
    type /stringtype eq
    { show } { -0.001 mul 0 cairo_font_matrix dtransform rmoveto } ifelse
  } forall
  currentpoint cairo_store_point
} bind def
/cairo_selectfont { cairo_font_matrix aload pop pop pop 0 0 6 array astore
    cairo_font exch selectfont cairo_point_x cairo_point_y moveto } bind def
/Tf { pop /cairo_font exch def /cairo_font_matrix where
      { pop cairo_selectfont } if } bind def
/Td { matrix translate cairo_font_matrix matrix concatmatrix dup
      /cairo_font_matrix exch def dup 4 get exch 5 get cairo_store_point
      /cairo_font where { pop cairo_selectfont } if } bind def
/Tm { 2 copy 8 2 roll 6 array astore /cairo_font_matrix exch def
      cairo_store_point /cairo_font where { pop cairo_selectfont } if } bind def
/g { setgray } bind def
/rg { setrgbcolor } bind def
/d1 { setcachedevice } bind def
%%EndProlog
%%BeginSetup
%%EndSetup
%%Page: 1 1
%%BeginPageSetup
%%PageBoundingBox: 84 39 300 345
%%EndPageSetup
q 84 39 216 306 rectclip q
0 g
257.273 157.32 m 261.23 157.32 263.211 162.102 260.414 164.902 c 257.613
 167.699 252.832 165.719 252.832 161.762 c 252.832 159.309 254.82 157.32
 257.273 157.32 c h
257.273 157.32 m f
84 76.02 m 84 67.301 94.926 58.348 113.977 51.453 c 134.742 43.941 162.449
 39.805 192 39.805 c 221.551 39.805 249.258 43.941 270.023 51.453 c 289.074
 58.348 300 67.301 300 76.02 c 300 135.742 l 293.914 130.043 284.844 124.926
 273.086 120.668 c 251.363 112.812 222.566 108.48 192 108.48 c 161.434 108.48
 132.637 112.812 110.914 120.672 c 99.156 124.926 90.086 130.047 84 135.746
 c h
257.273 99.199 m 262.707 99.199 267.609 95.926 269.691 90.902 c 271.77 
85.879 270.621 80.098 266.777 76.254 c 262.934 72.41 257.152 71.262 252.129
 73.34 c 247.105 75.422 243.832 80.324 243.832 85.758 c 243.84 93.18 249.852
 99.191 257.273 99.199 c h
147.777 80.043 m 148.117 82.508 150.383 84.23 152.848 83.895 c 165.824 
82.152 178.902 81.293 191.996 81.316 c 202.465 81.309 212.922 81.852 223.332
 82.941 c 229.301 83.578 230.25 74.629 224.285 73.992 c 213.559 72.867 202.785
 72.309 192 72.316 c 178.496 72.293 165.008 73.18 151.629 74.977 c 149.164
 75.312 147.441 77.582 147.777 80.043 c h
147.777 80.043 m f
261.715 85.758 m 261.715 83.305 259.727 81.316 257.273 81.316 c 254.82 
81.316 252.832 83.305 252.832 85.758 c 252.832 88.211 254.82 90.199 257.273
 90.199 c 259.727 90.199 261.715 88.211 261.715 85.758 c h
261.715 85.758 m f
192 271.77 m 221.539 271.77 249.25 275.906 270.02 283.426 c 289.066 290.32
 300 299.27 300 307.98 c 300 316.695 289.07 325.645 270.02 332.539 c 249.25
 340.059 221.539 344.195 192 344.195 c 162.461 344.195 134.75 340.059 113.98
 332.539 c 94.93 325.645 84 316.695 84 307.98 c 84 299.27 94.93 290.32 113.98
 283.426 c 134.75 275.906 162.461 271.77 192 271.77 c h
192 271.77 m f
84 230.84 m 84 222.121 94.926 213.168 113.977 206.277 c 134.742 198.762
 162.449 194.625 192 194.625 c 221.551 194.625 249.258 198.762 270.023 206.277
 c 289.074 213.168 300 222.121 300 230.84 c 300 290.035 l 293.914 284.336
 284.84 279.219 273.082 274.961 c 251.355 267.098 222.559 262.77 192 262.77
 c 161.441 262.77 132.645 267.098 110.918 274.961 c 99.16 279.219 90.086
 284.336 84 290.035 c h
257.273 251.203 m 262.707 251.203 267.609 247.93 269.691 242.906 c 271.77
 237.883 270.621 232.102 266.777 228.258 c 262.934 224.414 257.152 223.262
 252.129 225.344 c 247.105 227.422 243.832 232.324 243.832 237.762 c 243.84
 245.18 249.852 251.195 257.273 251.203 c h
147.777 232.047 m 148.117 234.508 150.387 236.23 152.848 235.895 c 165.824
 234.156 178.902 233.293 191.996 233.32 c 202.465 233.309 212.922 233.852
 223.332 234.945 c 229.301 235.582 230.25 226.633 224.285 225.996 c 213.559
 224.871 202.785 224.309 192 224.32 c 178.496 224.293 165.008 225.184 151.629
 226.977 c 149.164 227.316 147.441 229.582 147.777 232.047 c h
147.777 232.047 m f
257.273 233.32 m 261.23 233.32 263.211 238.105 260.41 240.902 c 257.613
 243.699 252.828 241.719 252.832 237.762 c 252.832 235.309 254.82 233.324
 257.273 233.32 c h
257.273 233.32 m f
84 155.305 m 84 153.695 l 84 144.98 94.926 136.027 113.977 129.133 c 134.742
 121.621 162.449 117.48 192 117.48 c 221.551 117.48 249.258 121.621 270.023
 129.133 c 289.074 136.027 300 144.98 300 153.695 c 300 212.887 l 293.914
 207.184 284.844 202.066 273.086 197.809 c 251.363 189.953 222.566 185.625
 192 185.625 c 161.434 185.625 132.637 189.953 110.914 197.812 c 99.156 
202.066 90.086 207.188 84 212.887 c h
257.273 175.199 m 262.707 175.199 267.609 171.926 269.691 166.902 c 271.77
 161.879 270.621 156.098 266.777 152.254 c 262.934 148.41 257.148 147.258
 252.129 149.34 c 247.105 151.422 243.828 156.324 243.832 161.758 c 243.84
 169.18 249.852 175.191 257.273 175.199 c h
147.777 156.047 m 148.117 158.508 150.383 160.23 152.848 159.895 c 165.824
 158.152 178.902 157.293 191.996 157.32 c 202.465 157.309 212.922 157.852
 223.332 158.945 c 229.301 159.578 230.25 150.629 224.285 149.996 c 213.559
 148.867 202.785 148.309 192 148.32 c 178.496 148.293 165.008 149.18 151.629
 150.977 c 149.164 151.312 147.441 153.582 147.777 156.047 c h
147.777 156.047 m f
Q Q
showpage
%%Trailer
end restore
%%EOF
