%!PS-Adobe-3.0 EPSF-3.0
%%Creator: cairo 1.14.8 (http://cairographics.org)
%%CreationDate: Thu Mar 21 09:07:39 2019
%%Pages: 1
%%DocumentData: Clean7Bit
%%LanguageLevel: 2
%%BoundingBox: 87 26 297 358
%%EndComments
%%BeginProlog
save
50 dict begin
/q { gsave } bind def
/Q { grestore } bind def
/cm { 6 array astore concat } bind def
/w { setlinewidth } bind def
/J { setlinecap } bind def
/j { setlinejoin } bind def
/M { setmiterlimit } bind def
/d { setdash } bind def
/m { moveto } bind def
/l { lineto } bind def
/c { curveto } bind def
/h { closepath } bind def
/re { exch dup neg 3 1 roll 5 3 roll moveto 0 rlineto
      0 exch rlineto 0 rlineto closepath } bind def
/S { stroke } bind def
/f { fill } bind def
/f* { eofill } bind def
/n { newpath } bind def
/W { clip } bind def
/W* { eoclip } bind def
/BT { } bind def
/ET { } bind def
/pdfmark where { pop globaldict /?pdfmark /exec load put }
    { globaldict begin /?pdfmark /pop load def /pdfmark
    /cleartomark load def end } ifelse
/BDC { mark 3 1 roll /BDC pdfmark } bind def
/EMC { mark /EMC pdfmark } bind def
/cairo_store_point { /cairo_point_y exch def /cairo_point_x exch def } def
/Tj { show currentpoint cairo_store_point } bind def
/TJ {
  {
    dup
    type /stringtype eq
    { show } { -0.001 mul 0 cairo_font_matrix dtransform rmoveto } ifelse
  } forall
  currentpoint cairo_store_point
} bind def
/cairo_selectfont { cairo_font_matrix aload pop pop pop 0 0 6 array astore
    cairo_font exch selectfont cairo_point_x cairo_point_y moveto } bind def
/Tf { pop /cairo_font exch def /cairo_font_matrix where
      { pop cairo_selectfont } if } bind def
/Td { matrix translate cairo_font_matrix matrix concatmatrix dup
      /cairo_font_matrix exch def dup 4 get exch 5 get cairo_store_point
      /cairo_font where { pop cairo_selectfont } if } bind def
/Tm { 2 copy 8 2 roll 6 array astore /cairo_font_matrix exch def
      cairo_store_point /cairo_font where { pop cairo_selectfont } if } bind def
/g { setgray } bind def
/rg { setrgbcolor } bind def
/d1 { setcachedevice } bind def
%%EndProlog
%%BeginSetup
%%EndSetup
%%Page: 1 1
%%BeginPageSetup
%%PageBoundingBox: 87 26 297 358
%%EndPageSetup
q 87 26 210 332 rectclip q
0 g
192 169.16 m 167.445 169.16 144.301 172.645 126.824 178.965 c 118.234 182.074
 111.402 185.77 106.5 189.883 c 106.5 144.09 l 106.5 130.816 141.613 116.02
 192 116.02 c 242.387 116.02 277.5 130.812 277.5 144.09 c 277.5 189.883 
l 272.598 185.77 265.766 182.074 257.176 178.965 c 239.699 172.645 216.555
 169.16 192 169.16 c h
218.945 137.941 m 209.992 137.004 201 136.535 192 136.543 c 180.73 136.523
 169.477 137.262 158.309 138.762 c 152.363 139.574 153.582 148.492 159.527
 147.68 c 170.293 146.234 181.141 145.523 192.004 145.543 c 200.684 145.535
 209.359 145.988 217.992 146.895 c 223.918 147.477 224.859 138.625 218.949
 137.945 c h
246.305 136.543 m 241.477 136.543 237.125 139.453 235.277 143.914 c 233.426
 148.375 234.449 153.512 237.863 156.926 c 241.277 160.34 246.414 161.363
 250.875 159.516 c 255.336 157.664 258.246 153.312 258.246 148.484 c 258.238
 141.895 252.898 136.551 246.305 136.543 c h
246.305 136.543 m f
277.5 329.66 m 277.5 314.156 239.219 301.59 192 301.59 c 144.781 301.59
 106.5 314.156 106.5 329.66 c 106.5 345.164 144.781 357.734 192 357.734 
c 239.219 357.734 277.5 345.164 277.5 329.66 c h
277.5 329.66 m f
277.5 207.52 m 277.5 251.598 l 272.598 247.484 265.766 243.789 257.176 
240.68 c 239.699 234.359 216.559 230.875 192 230.875 c 167.441 230.875 144.301
 234.359 126.824 240.68 c 118.234 243.789 111.402 247.484 106.5 251.598 
c 106.5 206.234 l 106.5 192.957 141.613 178.16 192 178.16 c 242.387 178.16
 277.5 192.957 277.5 206.234 c h
218.945 201.176 m 209.992 200.234 201 199.77 192 199.777 c 180.73 199.754
 169.477 200.496 158.309 201.996 c 155.832 202.316 154.09 204.594 154.426
 207.066 c 154.766 209.543 157.055 211.27 159.527 210.91 c 170.293 209.469
 181.141 208.754 192 208.777 c 200.68 208.77 209.355 209.219 217.992 210.129
 c 223.957 210.762 224.91 201.812 218.945 201.18 c h
246.305 199.777 m 241.477 199.777 237.125 202.688 235.277 207.148 c 233.426
 211.609 234.449 216.746 237.863 220.16 c 241.277 223.574 246.414 224.594
 250.875 222.746 c 255.336 220.898 258.246 216.547 258.246 211.715 c 258.238
 205.125 252.898 199.785 246.305 199.777 c h
246.305 199.777 m f
246.305 151.426 m 243.688 151.426 242.375 148.258 244.227 146.406 c 246.078
 144.555 249.246 145.867 249.246 148.488 c 249.242 150.109 247.93 151.422
 246.305 151.426 c h
246.305 151.426 m f
246.305 214.656 m 243.688 214.656 242.375 211.488 244.227 209.637 c 246.078
 207.785 249.246 209.098 249.246 211.715 c 249.242 213.34 247.93 214.652
 246.305 214.656 c h
246.305 214.656 m f
277.5 313.32 m 272.594 309.203 265.766 305.508 257.172 302.398 c 239.695
 296.074 216.547 292.59 192 292.59 c 167.453 292.59 144.305 296.074 126.824
 302.398 c 118.234 305.508 111.402 309.203 106.5 313.32 c 106.5 267.945 
l 106.5 254.672 141.613 239.875 192 239.875 c 242.387 239.875 277.5 254.672
 277.5 267.945 c h
218.945 264.41 m 209.992 263.469 201 263 192 263.012 c 180.73 262.988 169.477
 263.73 158.309 265.227 c 152.363 266.039 153.582 274.957 159.527 274.145
 c 170.293 272.703 181.141 271.988 192 272.012 c 200.68 272 209.355 272.453
 217.992 273.359 c 223.957 273.996 224.91 265.047 218.945 264.41 c h
246.305 263.012 m 241.477 263.012 237.125 265.918 235.277 270.379 c 233.426
 274.84 234.449 279.977 237.863 283.391 c 241.277 286.805 246.414 287.828
 250.875 285.98 c 255.336 284.133 258.246 279.777 258.246 274.949 c 258.238
 268.359 252.898 263.016 246.305 263.012 c h
246.305 263.012 m f
246.305 277.887 m 243.688 277.887 242.375 274.723 244.227 272.871 c 246.078
 271.02 249.246 272.332 249.246 274.949 c 249.242 276.57 247.93 277.887 
246.305 277.887 c h
246.305 277.887 m f
296.809 48.016 m 296.797 57.953 288.742 66 278.809 66.008 c 270.637 65.895
 263.523 60.387 261.375 52.5 c 213.277 52.5 l 211.438 60.891 204.891 67.449
 196.5 69.297 c 196.5 113.25 l 187.5 113.25 l 187.5 69.297 l 179.109 67.449
 172.562 60.891 170.723 52.5 c 122.953 52.5 l 121.41 61.133 113.961 67.461
 105.191 67.586 c 95.25 67.586 87.191 59.527 87.191 49.586 c 87.191 39.645
 95.25 31.586 105.191 31.586 c 112.758 31.672 119.492 36.406 122.133 43.5
 c 170.723 43.5 l 172.848 33.445 181.723 26.25 192 26.25 c 202.277 26.25
 211.152 33.445 213.277 43.5 c 261.375 43.5 l 263.527 35.617 270.637 30.117
 278.805 30.008 c 288.746 30.023 296.797 38.078 296.809 48.016 c h
296.809 48.016 m f
Q Q
showpage
%%Trailer
end restore
%%EOF
