%!PS-Adobe-3.0 EPSF-3.0
%%Creator: cairo 1.14.8 (http://cairographics.org)
%%CreationDate: Thu Mar 21 09:07:39 2019
%%Pages: 1
%%DocumentData: Clean7Bit
%%LanguageLevel: 2
%%BoundingBox: 42 30 342 353
%%EndComments
%%BeginProlog
save
50 dict begin
/q { gsave } bind def
/Q { grestore } bind def
/cm { 6 array astore concat } bind def
/w { setlinewidth } bind def
/J { setlinecap } bind def
/j { setlinejoin } bind def
/M { setmiterlimit } bind def
/d { setdash } bind def
/m { moveto } bind def
/l { lineto } bind def
/c { curveto } bind def
/h { closepath } bind def
/re { exch dup neg 3 1 roll 5 3 roll moveto 0 rlineto
      0 exch rlineto 0 rlineto closepath } bind def
/S { stroke } bind def
/f { fill } bind def
/f* { eofill } bind def
/n { newpath } bind def
/W { clip } bind def
/W* { eoclip } bind def
/BT { } bind def
/ET { } bind def
/pdfmark where { pop globaldict /?pdfmark /exec load put }
    { globaldict begin /?pdfmark /pop load def /pdfmark
    /cleartomark load def end } ifelse
/BDC { mark 3 1 roll /BDC pdfmark } bind def
/EMC { mark /EMC pdfmark } bind def
/cairo_store_point { /cairo_point_y exch def /cairo_point_x exch def } def
/Tj { show currentpoint cairo_store_point } bind def
/TJ {
  {
    dup
    type /stringtype eq
    { show } { -0.001 mul 0 cairo_font_matrix dtransform rmoveto } ifelse
  } forall
  currentpoint cairo_store_point
} bind def
/cairo_selectfont { cairo_font_matrix aload pop pop pop 0 0 6 array astore
    cairo_font exch selectfont cairo_point_x cairo_point_y moveto } bind def
/Tf { pop /cairo_font exch def /cairo_font_matrix where
      { pop cairo_selectfont } if } bind def
/Td { matrix translate cairo_font_matrix matrix concatmatrix dup
      /cairo_font_matrix exch def dup 4 get exch 5 get cairo_store_point
      /cairo_font where { pop cairo_selectfont } if } bind def
/Tm { 2 copy 8 2 roll 6 array astore /cairo_font_matrix exch def
      cairo_store_point /cairo_font where { pop cairo_selectfont } if } bind def
/g { setgray } bind def
/rg { setrgbcolor } bind def
/d1 { setcachedevice } bind def
%%EndProlog
%%BeginSetup
%%EndSetup
%%Page: 1 1
%%BeginPageSetup
%%PageBoundingBox: 42 30 342 353
%%EndPageSetup
q 42 30 300 323 rectclip q
0 g
273 71.625 m 273 67.07 269.305 63.375 264.75 63.375 c 260.195 63.375 256.5
 67.07 256.5 71.625 c 256.5 76.18 260.195 79.875 264.75 79.875 c 269.305
 79.875 273 76.18 273 71.625 c h
273 71.625 m f
45.375 30.75 m 292.875 30.75 l 294.531 30.75 295.5 32.469 295.5 34.125 
c 295.5 109.125 l 295.648 110.633 294.383 111.898 292.875 111.75 c 266.77
 111.75 l 265.988 111 264.539 109.5 262.875 109.5 c 75.375 109.5 l 73.711
 109.5 72.262 111 71.48 111.75 c 45.375 111.75 l 43.719 111.75 42 110.781
 42 109.125 c 42 34.125 l 42.145 32.324 43.574 30.895 45.375 30.75 c h
264.75 88.875 m 271.727 88.875 278.016 84.672 280.688 78.227 c 283.355 
71.781 281.883 64.359 276.949 59.426 c 272.016 54.492 264.594 53.02 258.148
 55.688 c 251.703 58.359 247.5 64.648 247.5 71.625 c 247.512 81.148 255.227
 88.863 264.75 88.875 c h
221.25 88.875 m 228.227 88.875 234.516 84.672 237.188 78.227 c 239.855 
71.781 238.383 64.359 233.449 59.426 c 228.516 54.492 221.094 53.02 214.648
 55.688 c 208.203 58.359 204 64.648 204 71.625 c 204.012 81.148 211.727 
88.863 221.25 88.875 c h
135.75 82.875 m 135.75 88.875 144.75 88.875 144.75 82.875 c 144.75 60.375
 l 144.75 54.375 135.75 54.375 135.75 60.375 c h
115.5 82.875 m 115.5 88.875 124.5 88.875 124.5 82.875 c 124.5 60.375 l 
124.5 54.375 115.5 54.375 115.5 60.375 c h
96 82.875 m 96 88.875 105 88.875 105 82.875 c 105 60.375 l 105 54.375 96
 54.375 96 60.375 c h
75.75 82.875 m 75.75 88.875 84.75 88.875 84.75 82.875 c 84.75 60.375 l 
84.75 54.375 75.75 54.375 75.75 60.375 c h
56.25 82.875 m 56.25 88.875 65.25 88.875 65.25 82.875 c 65.25 60.375 l 
65.25 54.375 56.25 54.375 56.25 60.375 c h
56.25 82.875 m f
79.5 129.75 178.5 -11.25 re f
229.5 71.625 m 229.5 67.07 225.805 63.375 221.25 63.375 c 216.695 63.375
 213 67.07 213 71.625 c 213 76.18 216.695 79.875 221.25 79.875 c 225.805
 79.875 229.5 76.18 229.5 71.625 c h
229.5 71.625 m f
45.375 240.75 m 71.137 240.75 l 71.754 243 73.418 243.75 75.375 243.75 
c 201.449 243.75 l 195.191 255.75 191.625 268.145 191.625 282 c 191.625 
296.469 195.516 310.5 202.297 321.75 c 45.375 321.75 l 43.719 321.75 42 
320.781 42 319.125 c 42 244.125 l 42.145 242.324 43.574 240.895 45.375 240.75
 c h
135.75 292.875 m 135.75 298.875 144.75 298.875 144.75 292.875 c 144.75 
270.375 l 144.75 264.375 135.75 264.375 135.75 270.375 c h
115.5 292.875 m 115.5 298.875 124.5 298.875 124.5 292.875 c 124.5 270.375
 l 124.5 264.375 115.5 264.375 115.5 270.375 c h
96 292.875 m 96 298.875 105 298.875 105 292.875 c 105 270.375 l 105 264.375
 96 264.375 96 270.375 c h
75.75 292.875 m 75.75 298.875 84.75 298.875 84.75 292.875 c 84.75 270.375
 l 84.75 264.375 75.75 264.375 75.75 270.375 c h
56.25 292.875 m 56.25 298.875 65.25 298.875 65.25 292.875 c 65.25 270.375
 l 65.25 264.375 56.25 264.375 56.25 270.375 c h
56.25 292.875 m f
79.5 223.5 m 217.352 223.5 l 213.781 227.07 210.402 230.828 207.227 234.75
 c 79.5 234.75 l h
79.5 223.5 m f
45.375 135.75 m 71.137 135.75 l 71.754 138 73.414 138.75 75.375 138.75 
c 262.875 138.75 l 264.836 138.75 266.496 138 267.113 135.75 c 292.875 135.75
 l 294.531 135.75 295.5 137.469 295.5 139.125 c 295.5 206.824 l 287.594 
204.117 279.297 202.719 270.938 202.688 c 256.188 202.656 241.723 206.746
 229.172 214.5 c 75.375 214.5 l 73.711 214.5 72.262 216 71.48 216.75 c 45.375
 216.75 l 43.719 216.75 42 215.781 42 214.125 c 42 139.125 l 42.145 137.324
 43.574 135.895 45.375 135.75 c h
264.75 193.875 m 271.727 193.875 278.016 189.672 280.688 183.227 c 283.355
 176.781 281.883 169.359 276.949 164.426 c 272.016 159.492 264.594 158.02
 258.148 160.688 c 251.703 163.359 247.5 169.648 247.5 176.625 c 247.512
 186.148 255.227 193.863 264.75 193.875 c h
221.25 193.875 m 228.227 193.875 234.516 189.672 237.188 183.227 c 239.855
 176.781 238.383 169.359 233.449 164.426 c 228.516 159.492 221.094 158.02
 214.648 160.688 c 208.203 163.359 204 169.648 204 176.625 c 204.012 186.148
 211.727 193.863 221.25 193.875 c h
135.75 187.875 m 135.75 193.875 144.75 193.875 144.75 187.875 c 144.75 
165.375 l 144.75 159.375 135.75 159.375 135.75 165.375 c h
115.5 187.875 m 115.5 193.875 124.5 193.875 124.5 187.875 c 124.5 165.375
 l 124.5 159.375 115.5 159.375 115.5 165.375 c h
96 187.875 m 96 193.875 105 193.875 105 187.875 c 105 165.375 l 105 159.375
 96 159.375 96 165.375 c h
75.75 187.875 m 75.75 193.875 84.75 193.875 84.75 187.875 c 84.75 165.375
 l 84.75 159.375 75.75 159.375 75.75 165.375 c h
56.25 187.875 m 56.25 193.875 65.25 193.875 65.25 187.875 c 65.25 165.375
 l 65.25 159.375 56.25 159.375 56.25 165.375 c h
56.25 187.875 m f
273 176.625 m 273 172.07 269.305 168.375 264.75 168.375 c 260.195 168.375
 256.5 172.07 256.5 176.625 c 256.5 181.18 260.195 184.875 264.75 184.875
 c 269.305 184.875 273 181.18 273 176.625 c h
273 176.625 m f
229.5 176.625 m 229.5 172.07 225.805 168.375 221.25 168.375 c 216.695 168.375
 213 172.07 213 176.625 c 213 181.18 216.695 184.875 221.25 184.875 c 225.805
 184.875 229.5 181.18 229.5 176.625 c h
229.5 176.625 m f
271.125 211.875 m 299.641 211.875 325.348 229.051 336.258 255.395 c 347.172
 281.738 341.141 312.062 320.977 332.227 c 300.812 352.391 270.488 358.422
 244.145 347.508 c 217.801 336.598 200.625 310.891 200.625 282.375 c 200.668
 243.457 232.207 211.918 271.125 211.875 c h
244.133 278.871 m 245.789 280.688 248.613 280.789 250.398 279.094 c 266.25
 264.168 l 266.25 310.914 l 266.25 316.914 275.25 316.914 275.25 310.914
 c 275.25 264.168 l 291.477 279.094 l 293.332 280.785 296.195 280.688 297.93
 278.871 c 299.645 277.074 299.586 274.23 297.793 272.508 c 274.184 250.539
 l 272.449 248.934 269.77 248.934 268.035 250.539 c 244.406 272.512 l 242.574
 274.191 242.449 277.039 244.133 278.871 c h
244.133 278.871 m f
Q Q
showpage
%%Trailer
end restore
%%EOF
