%!PS-Adobe-3.0 EPSF-3.0
%%Creator: cairo 1.14.8 (http://cairographics.org)
%%CreationDate: Thu Mar 21 09:07:39 2019
%%Pages: 1
%%DocumentData: Clean7Bit
%%LanguageLevel: 2
%%BoundingBox: 69 30 315 354
%%EndComments
%%BeginProlog
save
50 dict begin
/q { gsave } bind def
/Q { grestore } bind def
/cm { 6 array astore concat } bind def
/w { setlinewidth } bind def
/J { setlinecap } bind def
/j { setlinejoin } bind def
/M { setmiterlimit } bind def
/d { setdash } bind def
/m { moveto } bind def
/l { lineto } bind def
/c { curveto } bind def
/h { closepath } bind def
/re { exch dup neg 3 1 roll 5 3 roll moveto 0 rlineto
      0 exch rlineto 0 rlineto closepath } bind def
/S { stroke } bind def
/f { fill } bind def
/f* { eofill } bind def
/n { newpath } bind def
/W { clip } bind def
/W* { eoclip } bind def
/BT { } bind def
/ET { } bind def
/pdfmark where { pop globaldict /?pdfmark /exec load put }
    { globaldict begin /?pdfmark /pop load def /pdfmark
    /cleartomark load def end } ifelse
/BDC { mark 3 1 roll /BDC pdfmark } bind def
/EMC { mark /EMC pdfmark } bind def
/cairo_store_point { /cairo_point_y exch def /cairo_point_x exch def } def
/Tj { show currentpoint cairo_store_point } bind def
/TJ {
  {
    dup
    type /stringtype eq
    { show } { -0.001 mul 0 cairo_font_matrix dtransform rmoveto } ifelse
  } forall
  currentpoint cairo_store_point
} bind def
/cairo_selectfont { cairo_font_matrix aload pop pop pop 0 0 6 array astore
    cairo_font exch selectfont cairo_point_x cairo_point_y moveto } bind def
/Tf { pop /cairo_font exch def /cairo_font_matrix where
      { pop cairo_selectfont } if } bind def
/Td { matrix translate cairo_font_matrix matrix concatmatrix dup
      /cairo_font_matrix exch def dup 4 get exch 5 get cairo_store_point
      /cairo_font where { pop cairo_selectfont } if } bind def
/Tm { 2 copy 8 2 roll 6 array astore /cairo_font_matrix exch def
      cairo_store_point /cairo_font where { pop cairo_selectfont } if } bind def
/g { setgray } bind def
/rg { setrgbcolor } bind def
/d1 { setcachedevice } bind def
%%EndProlog
%%BeginSetup
%%EndSetup
%%Page: 1 1
%%BeginPageSetup
%%PageBoundingBox: 69 30 315 354
%%EndPageSetup
q 69 30 246 324 rectclip q
0 g
155.164 352.457 m 134.355 347.98 115.34 337.449 100.5 322.191 c 106.449
 316.105 113.113 310.758 120.344 306.27 c 128.223 325.094 140.043 340.879
 155.164 352.457 c h
155.164 352.457 m f
152.156 141.918 m 152.102 142.52 152.07 143.129 152.055 143.738 c 138.445
 155.047 127.742 170.004 120.422 187.484 c 113.145 182.977 106.441 177.602
 100.461 171.477 c 114.59 156.984 132.5 146.742 152.156 141.918 c h
152.156 141.918 m f
128.207 301.812 m 142.211 294.727 157.57 290.727 173.25 290.09 c 173.25
 353.469 l 153 342.648 137.539 324.633 128.207 301.812 c h
128.207 301.812 m f
117.176 196.004 m 112.18 210.922 109.473 226.516 109.156 242.25 c 69.898
 242.25 l 70.922 218.77 79.535 196.258 94.449 178.098 c 101.242 184.996 
108.879 191.012 117.176 196.004 c h
117.176 196.004 m f
117.105 297.617 m 108.848 302.59 101.242 308.582 94.473 315.449 c 79.414
 297.352 70.773 274.777 69.898 251.25 c 109.156 251.25 l 109.461 267.016
 112.141 282.648 117.105 297.617 c h
117.105 297.617 m f
230.367 293.445 m 215.418 285.879 198.996 281.66 182.25 281.086 c 182.25
 251.25 l 237.445 251.25 l 237.137 265.582 234.75 279.797 230.367 293.445
 c h
230.367 293.445 m f
236.41 228.02 m 236.953 232.699 237.309 237.75 237.438 242.25 c 182.25 
242.25 l 182.25 212.625 l 188.914 212.387 195.543 211.582 202.066 210.215
 c 210.559 220.648 222.992 227.094 236.41 228.02 c h
236.41 228.02 m f
173.25 242.25 m 118.164 242.25 l 118.453 228.023 120.812 213.918 125.164
 200.371 c 140.129 207.852 156.527 212.031 173.25 212.625 c h
173.25 242.25 m f
173.25 281.082 m 156.52 281.645 140.105 285.793 125.121 293.254 c 120.789
 279.66 118.445 265.516 118.156 251.25 c 173.25 251.25 l h
173.25 281.082 m f
182.25 203.613 m 182.25 198.262 l 184.926 200.125 187.797 201.691 190.809
 202.934 c 187.973 203.273 185.25 203.496 182.25 203.613 c h
182.25 203.613 m f
235.156 306.52 m 242.324 311.035 248.926 316.395 254.82 322.477 c 240.023
 337.582 221.113 348.008 200.438 352.457 c 215.488 340.93 227.277 325.234
 235.156 306.52 c h
235.156 306.52 m f
245.457 227.773 m 258.742 226.219 270.809 219.289 278.844 208.598 c 282.898
 219.379 285.215 230.738 285.699 242.25 c 246.441 242.25 l 246.316 237.75
 245.988 232.531 245.457 227.773 c h
245.457 227.773 m f
173.25 203.617 m 157.602 202.98 142.27 198.996 128.297 191.926 c 134.352
 177.109 143 164.25 153.867 154.125 c 156.406 160.695 161.402 166.023 167.797
 168.984 c 167.793 169.203 167.777 169.422 167.777 169.641 c 167.777 176.555
 169.504 183.051 173.254 188.559 c h
173.25 203.617 m f
161.074 145.637 m 161.051 145.262 161.035 144.98 161.035 144.594 c 161.051
 139.836 162.957 135.277 166.34 131.926 c 169.723 128.578 174.301 126.715
 179.059 126.75 c 282.215 126.75 l 290.676 126.707 298.809 130.043 304.809
 136.016 c 310.809 141.984 314.184 150.102 314.184 158.566 c 314.184 167.031
 310.809 175.145 304.809 181.117 c 298.809 187.09 290.676 190.422 282.215
 190.379 c 281.949 190.379 281.68 190.371 281.422 190.363 c 279.488 190.297
 277.73 191.48 277.062 193.297 c 271.668 207.891 258.238 217.977 242.719
 219.094 c 227.203 220.215 212.465 212.156 205.035 198.488 c 204.301 197.145
 202.938 196.266 201.41 196.152 c 194.18 195.613 187.484 192.148 182.875
 186.555 c 178.266 180.961 176.137 173.727 176.988 166.527 c 177.246 164.363
 175.91 162.328 173.824 161.703 c 166.645 159.523 161.566 153.125 161.074
 145.637 c h
161.074 145.637 m f
182.25 353.469 m 182.25 290.094 l 197.926 290.746 213.273 294.812 227.219
 302 c 217.883 324.734 202.5 342.676 182.25 353.469 c h
182.25 353.469 m f
246.441 251.25 m 285.699 251.25 l 284.793 274.906 276.059 297.59 260.867
 315.742 c 254.156 308.879 246.613 302.879 238.414 297.879 c 243.27 283.691
 246.023 268.5 246.441 251.25 c h
246.441 251.25 m f
237.75 123 m 237.75 98.938 l 237.727 90.43 242.379 82.598 249.859 78.551
 c 254.434 76.07 257.273 71.281 257.25 66.078 c 257.25 53.25 l 266.25 53.25
 l 266.25 66.078 l 266.273 74.586 261.621 82.418 254.141 86.465 c 249.566
 88.945 246.727 93.734 246.75 98.938 c 246.75 123 l h
237.75 123 m f
269.559 41.742 m 269.559 44.66 267.801 47.289 265.109 48.406 c 262.414 
49.52 259.312 48.902 257.25 46.84 c 255.184 44.777 254.57 41.676 255.684
 38.98 c 256.801 36.289 259.43 34.531 262.348 34.531 c 266.328 34.535 269.555
 37.762 269.559 41.742 c h
269.559 41.742 m f
303.34 45.059 m 306.258 45.059 308.887 46.816 310.004 49.512 c 311.117 
52.207 310.5 55.309 308.438 57.371 c 306.375 59.434 303.273 60.051 300.578
 58.934 c 297.883 57.816 296.129 55.188 296.129 52.27 c 296.133 48.289 299.359
 45.062 303.34 45.059 c h
303.34 45.059 m f
176.762 30.531 m 179.68 30.531 182.309 32.289 183.426 34.984 c 184.543 
37.68 183.926 40.781 181.863 42.844 c 179.801 44.906 176.695 45.523 174.004
 44.406 c 171.309 43.293 169.551 40.66 169.551 37.746 c 169.555 33.762 172.781
 30.535 176.762 30.531 c h
176.762 30.531 m f
286.73 93.395 m 293.809 91.223 298.602 84.645 298.5 77.242 c 298.5 63.75
 l 307.5 63.75 l 307.5 77.242 l 307.586 88.633 300.168 98.719 289.27 102.027
 c 282.191 104.195 277.398 110.777 277.5 118.18 c 277.5 122.25 l 268.5 122.25
 l 268.5 118.18 l 268.414 106.789 275.832 96.703 286.73 93.395 c h
286.73 93.395 m f
201.75 102.457 m 201.75 124.5 l 192.75 124.5 l 192.75 102.457 l 192.836
 98.438 190.086 94.906 186.168 94 c 178.125 92.176 172.438 84.996 172.5 
76.75 c 172.5 48 l 181.5 48 l 181.5 76.746 l 181.414 80.77 184.16 84.297
 188.082 85.207 c 196.125 87.027 201.816 94.207 201.75 102.457 c h
201.75 102.457 m f
197.926 65.672 m 197.926 62.754 199.684 60.125 202.375 59.008 c 205.07 
57.891 208.172 58.508 210.238 60.57 c 212.301 62.633 212.918 65.734 211.801
 68.43 c 210.684 71.125 208.055 72.883 205.137 72.883 c 201.156 72.879 197.93
 69.652 197.926 65.672 c h
197.926 65.672 m f
210 86 m 209.863 91.223 212.926 96.004 217.73 98.062 c 225.98 101.5 231
 109.492 231 118.43 c 231 122.25 l 222 122.25 l 222 118.43 l 222.137 113.207
 219.074 108.426 214.27 106.367 c 206.02 102.93 201 94.938 201 86 c 201 
75.75 l 210 75.75 l h
210 86 m f
Q Q
showpage
%%Trailer
end restore
%%EOF
