%!PS-Adobe-3.0 EPSF-3.0
%%Creator: cairo 1.14.8 (http://cairographics.org)
%%CreationDate: Thu Mar 21 09:07:39 2019
%%Pages: 1
%%DocumentData: Clean7Bit
%%LanguageLevel: 2
%%BoundingBox: 11 103 373 281
%%EndComments
%%BeginProlog
save
50 dict begin
/q { gsave } bind def
/Q { grestore } bind def
/cm { 6 array astore concat } bind def
/w { setlinewidth } bind def
/J { setlinecap } bind def
/j { setlinejoin } bind def
/M { setmiterlimit } bind def
/d { setdash } bind def
/m { moveto } bind def
/l { lineto } bind def
/c { curveto } bind def
/h { closepath } bind def
/re { exch dup neg 3 1 roll 5 3 roll moveto 0 rlineto
      0 exch rlineto 0 rlineto closepath } bind def
/S { stroke } bind def
/f { fill } bind def
/f* { eofill } bind def
/n { newpath } bind def
/W { clip } bind def
/W* { eoclip } bind def
/BT { } bind def
/ET { } bind def
/pdfmark where { pop globaldict /?pdfmark /exec load put }
    { globaldict begin /?pdfmark /pop load def /pdfmark
    /cleartomark load def end } ifelse
/BDC { mark 3 1 roll /BDC pdfmark } bind def
/EMC { mark /EMC pdfmark } bind def
/cairo_store_point { /cairo_point_y exch def /cairo_point_x exch def } def
/Tj { show currentpoint cairo_store_point } bind def
/TJ {
  {
    dup
    type /stringtype eq
    { show } { -0.001 mul 0 cairo_font_matrix dtransform rmoveto } ifelse
  } forall
  currentpoint cairo_store_point
} bind def
/cairo_selectfont { cairo_font_matrix aload pop pop pop 0 0 6 array astore
    cairo_font exch selectfont cairo_point_x cairo_point_y moveto } bind def
/Tf { pop /cairo_font exch def /cairo_font_matrix where
      { pop cairo_selectfont } if } bind def
/Td { matrix translate cairo_font_matrix matrix concatmatrix dup
      /cairo_font_matrix exch def dup 4 get exch 5 get cairo_store_point
      /cairo_font where { pop cairo_selectfont } if } bind def
/Tm { 2 copy 8 2 roll 6 array astore /cairo_font_matrix exch def
      cairo_store_point /cairo_font where { pop cairo_selectfont } if } bind def
/g { setgray } bind def
/rg { setrgbcolor } bind def
/d1 { setcachedevice } bind def
%%EndProlog
%%BeginSetup
%%EndSetup
%%Page: 1 1
%%BeginPageSetup
%%PageBoundingBox: 11 103 373 281
%%EndPageSetup
q 11 103 362 178 rectclip q
0 g
43.812 165 m 50.84 165 l 58.387 164.941 65.348 169.043 68.957 175.668 c
 70.98 179.395 74.891 181.707 79.133 181.684 c 103.195 181.531 l 103.238
 190.516 l 79.156 190.621 l 71.609 190.68 64.645 186.578 61.039 179.949 
c 59 176.234 55.078 173.945 50.84 174 c 43.672 174 l 41.711 179.25 36.273
 183.762 29.875 183.762 c 24.359 183.773 19.316 180.668 16.836 175.746 c
 14.355 170.824 14.863 164.922 18.152 160.496 c 21.438 156.07 26.941 153.879
 32.371 154.832 c 37.801 155.785 42.23 159.719 43.812 165 c h
43.812 165 m f
26.426 250.801 m 32.785 250.793 38.41 254.926 40.301 261 c 60.035 261 l
 63.258 260.953 66.027 258.691 66.715 255.543 c 68.32 248.27 74.738 243.066
 82.188 243 c 120.75 243 l 120.75 252 l 82.188 252 l 78.965 252.047 76.199
 254.305 75.508 257.457 c 73.902 264.73 67.484 269.934 60.035 270 c 40.301
 270 l 38.383 276.027 32.746 280.082 26.426 279.984 c 18.406 279.93 11.938
 273.41 11.938 265.395 c 11.938 257.375 18.406 250.859 26.426 250.801 c 
h
26.426 250.801 m f
73.781 132.895 m 72.016 127.016 66.598 122.996 60.461 123 c 52.816 123 
l 50.664 129.855 43.828 134.117 36.723 133.035 c 29.617 131.949 24.367 125.848
 24.352 118.66 c 24.352 110.59 30.871 104.035 38.941 103.988 c 45.27 103.902
 50.906 107.969 52.816 114 c 60.461 114 l 70.586 114.012 79.508 120.656 
82.414 130.355 c 84.184 136.234 89.598 140.258 95.738 140.25 c 114.75 140.25
 l 114.75 149.25 l 95.738 149.25 l 85.613 149.238 76.691 142.594 73.781 
132.895 c h
73.781 132.895 m f
86.133 218.105 m 83.102 225.445 75.949 230.238 68.008 230.25 c 64.363 230.25
 l 62.176 237.09 55.328 241.312 48.234 240.207 c 41.137 239.102 35.902 232.992
 35.898 225.812 c 35.902 217.75 42.43 211.211 50.492 211.188 c 56.828 211.121
 62.457 215.207 64.363 221.25 c 68.008 221.25 l 72.312 221.234 76.188 218.625
 77.828 214.645 c 80.859 207.305 88.012 202.512 95.953 202.5 c 103.5 202.5
 l 103.5 211.5 l 95.953 211.5 l 91.648 211.516 87.773 214.121 86.133 218.105
 c h
86.133 218.105 m f
195.75 227.527 m 207.562 228.137 219.113 231.207 229.668 236.543 c 222.457
 253.676 210.75 267.289 195.75 275.762 c h
195.75 227.527 m f
195.75 165.477 m 208.652 164.934 221.301 161.691 232.875 155.961 c 236.082
 166.18 237.875 176.793 238.199 187.5 c 195.75 187.5 l h
195.75 165.477 m f
106.035 196.5 m 135.629 196.5 l 135.938 208.664 138.012 220.719 141.785
 232.285 c 135.637 236.035 129.945 240.492 124.828 245.559 c 113.543 231.598
 106.969 214.426 106.035 196.5 c h
106.035 196.5 m f
169.656 274.691 m 154.953 270.801 141.555 263.066 130.84 252.277 c 135.145
 247.965 139.906 244.137 145.043 240.859 c 150.844 254.324 159.168 265.824
 169.656 274.691 c h
169.656 274.691 m f
232.875 228.039 m 221.301 222.309 208.652 219.066 195.75 218.523 c 195.75
 196.5 l 238.199 196.5 l 237.875 207.207 236.082 217.82 232.875 228.039 
c h
232.875 228.039 m f
213.18 274.691 m 223.613 265.867 231.906 254.441 237.703 241.062 c 242.793
 244.359 247.508 248.195 251.77 252.504 c 241.09 263.176 227.777 270.832
 213.18 274.691 c h
213.18 274.691 m f
152.77 236.398 m 163.367 231.141 174.934 228.121 186.75 227.527 c 186.75
 275.758 l 171.75 267.262 159.977 253.598 152.77 236.398 c h
152.77 236.398 m f
276.797 196.5 m 275.863 214.535 269.211 231.809 257.805 245.812 c 252.73
 240.738 247.086 236.266 240.984 232.484 c 244.801 220.855 246.895 208.734
 247.207 196.5 c h
276.797 196.5 m f
213.18 109.309 m 227.773 113.168 241.09 120.824 251.77 131.496 c 247.504
 135.805 242.789 139.641 237.703 142.938 c 231.906 129.559 223.613 118.133
 213.18 109.309 c h
213.18 109.309 m f
247.207 187.5 m 246.895 175.266 244.801 163.145 240.984 151.516 c 247.086
 147.734 252.73 143.262 257.805 138.188 c 269.211 152.191 275.863 169.465
 276.797 187.5 c h
247.207 187.5 m f
186.75 108.242 m 186.75 156.473 l 174.934 155.879 163.367 152.859 152.77
 147.602 c 159.977 130.402 171.75 116.738 186.75 108.242 c h
186.75 108.242 m f
135.629 187.5 m 106.035 187.5 l 106.965 169.574 113.543 152.398 124.828
 138.438 c 129.945 143.508 135.637 147.961 141.785 151.715 c 138.012 163.281
 135.938 175.336 135.629 187.5 c h
135.629 187.5 m f
145.043 143.141 m 139.906 139.863 135.145 136.035 130.84 131.723 c 141.555
 120.934 154.953 113.199 169.656 109.309 c 159.168 118.176 150.844 129.676
 145.043 143.141 c h
145.043 143.141 m f
195.75 156.473 m 195.75 108.238 l 210.75 116.715 222.457 130.324 229.668
 147.457 c 219.113 152.793 207.562 155.863 195.75 156.473 c h
195.75 156.473 m f
149.746 156.113 m 161.332 161.676 173.914 164.859 186.75 165.48 c 186.75
 187.5 l 144.637 187.5 l 144.906 176.855 146.625 166.293 149.746 156.113
 c h
149.746 156.113 m f
144.637 196.5 m 186.75 196.5 l 186.75 218.52 l 173.914 219.141 161.332 
222.324 149.746 227.887 c 146.625 217.707 144.906 207.145 144.637 196.5 
c h
144.637 196.5 m f
354.129 183.762 m 347.727 183.762 342.289 179.25 340.332 174 c 333.16 174
 l 328.922 173.941 325 176.23 322.961 179.945 c 319.355 186.594 312.387 
190.719 304.824 190.684 c 280.762 190.531 l 280.805 181.516 l 304.848 181.621
 l 309.086 181.68 313.008 179.391 315.047 175.672 c 318.652 169.047 325.613
 164.945 333.16 165 c 340.188 165 l 341.77 159.719 346.199 155.785 351.629
 154.832 c 357.055 153.879 362.559 156.07 365.844 160.496 c 369.133 164.918
 369.645 170.82 367.164 175.742 c 364.688 180.668 359.641 183.77 354.129
 183.762 c h
354.129 183.762 m f
345.059 133.199 m 338.695 133.207 333.074 129.07 331.184 123 c 323.539 
123 l 317.402 122.996 311.984 127.016 310.219 132.895 c 307.309 142.594 
298.387 149.238 288.262 149.25 c 269.25 149.25 l 269.25 140.25 l 288.262
 140.25 l 294.402 140.258 299.816 136.234 301.586 130.355 c 304.492 120.656
 313.414 114.012 323.539 114 c 331.184 114 l 333.098 107.977 338.734 103.918
 345.059 104.016 c 353.074 104.07 359.547 110.59 359.547 118.605 c 359.547
 126.625 353.074 133.141 345.059 133.199 c h
345.059 133.199 m f
357.574 280.012 m 351.25 280.098 345.613 276.031 343.699 270 c 323.965 
270 l 316.516 269.934 310.098 264.73 308.492 257.457 c 307.801 254.305 305.035
 252.047 301.812 252 c 263.25 252 l 263.25 243 l 301.812 243 l 309.262 243.066
 315.68 248.27 317.285 255.543 c 317.973 258.691 320.738 260.953 323.961
 261 c 343.695 261 l 345.852 254.145 352.688 249.887 359.789 250.969 c 366.895
 252.051 372.148 258.152 372.164 265.34 c 372.16 273.41 365.645 279.965 
357.574 280.012 c h
357.574 280.012 m f
306.172 214.645 m 307.812 218.625 311.688 221.234 315.992 221.25 c 319.637
 221.25 l 321.543 215.211 327.176 211.129 333.512 211.199 c 337.379 211.199
 341.09 212.738 343.828 215.473 c 346.566 218.211 348.102 221.922 348.102
 225.793 c 348.102 229.66 346.566 233.375 343.828 236.109 c 341.09 238.848
 337.379 240.383 333.512 240.383 c 327.16 240.418 321.535 236.309 319.637
 230.25 c 315.992 230.25 l 308.051 230.238 300.898 225.445 297.867 218.105
 c 296.227 214.121 292.352 211.516 288.047 211.5 c 280.5 211.5 l 280.5 202.5
 l 288.047 202.5 l 295.988 202.512 303.141 207.305 306.172 214.645 c h
306.172 214.645 m f
Q Q
showpage
%%Trailer
end restore
%%EOF
