%!PS-Adobe-3.0 EPSF-3.0
%%Creator: cairo 1.14.8 (http://cairographics.org)
%%CreationDate: Thu Mar 21 09:07:39 2019
%%Pages: 1
%%DocumentData: Clean7Bit
%%LanguageLevel: 2
%%BoundingBox: 76 46 308 338
%%EndComments
%%BeginProlog
save
50 dict begin
/q { gsave } bind def
/Q { grestore } bind def
/cm { 6 array astore concat } bind def
/w { setlinewidth } bind def
/J { setlinecap } bind def
/j { setlinejoin } bind def
/M { setmiterlimit } bind def
/d { setdash } bind def
/m { moveto } bind def
/l { lineto } bind def
/c { curveto } bind def
/h { closepath } bind def
/re { exch dup neg 3 1 roll 5 3 roll moveto 0 rlineto
      0 exch rlineto 0 rlineto closepath } bind def
/S { stroke } bind def
/f { fill } bind def
/f* { eofill } bind def
/n { newpath } bind def
/W { clip } bind def
/W* { eoclip } bind def
/BT { } bind def
/ET { } bind def
/pdfmark where { pop globaldict /?pdfmark /exec load put }
    { globaldict begin /?pdfmark /pop load def /pdfmark
    /cleartomark load def end } ifelse
/BDC { mark 3 1 roll /BDC pdfmark } bind def
/EMC { mark /EMC pdfmark } bind def
/cairo_store_point { /cairo_point_y exch def /cairo_point_x exch def } def
/Tj { show currentpoint cairo_store_point } bind def
/TJ {
  {
    dup
    type /stringtype eq
    { show } { -0.001 mul 0 cairo_font_matrix dtransform rmoveto } ifelse
  } forall
  currentpoint cairo_store_point
} bind def
/cairo_selectfont { cairo_font_matrix aload pop pop pop 0 0 6 array astore
    cairo_font exch selectfont cairo_point_x cairo_point_y moveto } bind def
/Tf { pop /cairo_font exch def /cairo_font_matrix where
      { pop cairo_selectfont } if } bind def
/Td { matrix translate cairo_font_matrix matrix concatmatrix dup
      /cairo_font_matrix exch def dup 4 get exch 5 get cairo_store_point
      /cairo_font where { pop cairo_selectfont } if } bind def
/Tm { 2 copy 8 2 roll 6 array astore /cairo_font_matrix exch def
      cairo_store_point /cairo_font where { pop cairo_selectfont } if } bind def
/g { setgray } bind def
/rg { setrgbcolor } bind def
/d1 { setcachedevice } bind def
%%EndProlog
%%BeginSetup
%%EndSetup
%%Page: 1 1
%%BeginPageSetup
%%PageBoundingBox: 76 46 308 338
%%EndPageSetup
q 76 46 232 292 rectclip q
0 g
246.215 277.727 m 245.949 277.727 245.68 277.727 245.422 277.715 c 243.484
 277.648 241.727 278.836 241.062 280.652 c 235.668 295.246 222.238 305.332
 206.723 306.453 c 191.203 307.57 176.465 299.512 169.035 285.844 c 168.301
 284.5 166.938 283.621 165.41 283.508 c 158.18 282.965 151.484 279.496 146.871
 273.898 c 142.262 268.301 140.137 261.066 140.988 253.863 c 141.246 251.695
 139.914 249.656 137.824 249.023 c 130.641 246.824 125.566 240.414 125.074
 232.922 c 125.051 232.547 125.039 232.16 125.039 231.773 c 125.047 221.824
 133.109 213.762 143.059 213.75 c 246.215 213.75 l 254.695 213.75 262.832
 217.121 268.832 223.117 c 274.832 229.117 278.199 237.254 278.199 245.738
 c 278.199 254.223 274.832 262.355 268.832 268.355 c 262.832 274.355 254.695
 277.727 246.215 277.727 c h
246.215 277.727 m f
211.555 337.512 m 210.621 337.547 209.684 337.566 208.742 337.578 c 150.445
 338.246 101.965 292.883 98.766 234.672 c 98.68 233.23 98.617 219.605 98.598
 211.352 c 98.594 210.805 98.496 210.266 98.301 209.758 c 76.539 152.758
 l 76.516 152.691 76.438 152.605 76.602 152.371 c 76.762 152.137 76.977 
152.25 77.047 152.25 c 110.477 152.25 l 112.961 152.25 114.75 150.008 114.75
 147.523 c 114.75 110.301 l 114.781 104.695 117.082 99.34 121.129 95.461
 c 125.176 91.578 130.617 89.5 136.223 89.699 c 137.648 89.746 148.895 90
 169.543 90 c 169.629 90 l 179.156 89.965 187.434 83.445 189.695 74.191 
c 189.758 73.793 189.777 73.391 189.75 72.992 c 189.75 46.5 l 281.828 46.5
 l 280.992 61.5 278.785 110.164 282.117 145.98 c 283.344 159.156 295.238
 188.625 295.746 189.875 c 295.797 190.004 295.859 190.133 295.926 190.258
 c 312.105 221.074 311.234 258.055 293.625 288.074 c 276.641 317.621 245.613
 336.312 211.555 337.512 c h
246.215 204.75 m 143.059 204.75 l 128.141 204.766 116.055 216.855 116.035
 231.773 c 116.035 232.336 116.055 232.906 116.09 233.477 c 116.742 243.402
 122.773 252.176 131.809 256.344 c 131.805 256.559 131.805 256.777 131.805
 256.996 c 131.859 274.676 144.84 289.648 162.328 292.219 c 171.742 307.668
 188.953 316.617 207.008 315.449 c 225.062 314.285 240.977 303.199 248.328
 286.668 c 270.531 285.527 287.773 266.898 287.199 244.68 c 286.625 222.457
 268.441 204.742 246.215 204.75 c h
246.215 204.75 m f
Q Q
showpage
%%Trailer
end restore
%%EOF
