%!PS-Adobe-3.0 EPSF-3.0
%%Creator: cairo 1.14.8 (http://cairographics.org)
%%CreationDate: Thu Mar 21 09:07:39 2019
%%Pages: 1
%%DocumentData: Clean7Bit
%%LanguageLevel: 2
%%BoundingBox: 42 36 342 348
%%EndComments
%%BeginProlog
save
50 dict begin
/q { gsave } bind def
/Q { grestore } bind def
/cm { 6 array astore concat } bind def
/w { setlinewidth } bind def
/J { setlinecap } bind def
/j { setlinejoin } bind def
/M { setmiterlimit } bind def
/d { setdash } bind def
/m { moveto } bind def
/l { lineto } bind def
/c { curveto } bind def
/h { closepath } bind def
/re { exch dup neg 3 1 roll 5 3 roll moveto 0 rlineto
      0 exch rlineto 0 rlineto closepath } bind def
/S { stroke } bind def
/f { fill } bind def
/f* { eofill } bind def
/n { newpath } bind def
/W { clip } bind def
/W* { eoclip } bind def
/BT { } bind def
/ET { } bind def
/pdfmark where { pop globaldict /?pdfmark /exec load put }
    { globaldict begin /?pdfmark /pop load def /pdfmark
    /cleartomark load def end } ifelse
/BDC { mark 3 1 roll /BDC pdfmark } bind def
/EMC { mark /EMC pdfmark } bind def
/cairo_store_point { /cairo_point_y exch def /cairo_point_x exch def } def
/Tj { show currentpoint cairo_store_point } bind def
/TJ {
  {
    dup
    type /stringtype eq
    { show } { -0.001 mul 0 cairo_font_matrix dtransform rmoveto } ifelse
  } forall
  currentpoint cairo_store_point
} bind def
/cairo_selectfont { cairo_font_matrix aload pop pop pop 0 0 6 array astore
    cairo_font exch selectfont cairo_point_x cairo_point_y moveto } bind def
/Tf { pop /cairo_font exch def /cairo_font_matrix where
      { pop cairo_selectfont } if } bind def
/Td { matrix translate cairo_font_matrix matrix concatmatrix dup
      /cairo_font_matrix exch def dup 4 get exch 5 get cairo_store_point
      /cairo_font where { pop cairo_selectfont } if } bind def
/Tm { 2 copy 8 2 roll 6 array astore /cairo_font_matrix exch def
      cairo_store_point /cairo_font where { pop cairo_selectfont } if } bind def
/g { setgray } bind def
/rg { setrgbcolor } bind def
/d1 { setcachedevice } bind def
%%EndProlog
%%BeginSetup
%%EndSetup
%%Page: 1 1
%%BeginPageSetup
%%PageBoundingBox: 42 36 342 348
%%EndPageSetup
q 42 36 300 312 rectclip q
0 g
285.062 70.941 m 285.062 67.391 282.184 64.512 278.633 64.512 c 275.086
 64.512 272.207 67.391 272.207 70.941 c 272.207 74.492 275.086 77.371 278.633
 77.371 c 282.184 77.371 285.062 74.492 285.062 70.941 c h
285.062 70.941 m f
315.922 77.371 m 313.32 77.371 310.977 75.805 309.98 73.402 c 308.988 71
 309.535 68.234 311.375 66.395 c 313.215 64.559 315.98 64.008 318.383 65.004
 c 320.781 65.996 322.348 68.34 322.348 70.941 c 322.344 74.492 319.469 
77.367 315.922 77.371 c h
315.922 77.371 m f
285.062 160.941 m 285.062 157.391 282.184 154.512 278.633 154.512 c 275.086
 154.512 272.207 157.391 272.207 160.941 c 272.207 164.492 275.086 167.371
 278.633 167.371 c 282.184 167.371 285.062 164.492 285.062 160.941 c h
285.062 160.941 m f
158.25 120.75 151.5 -8.25 re f
57 209.082 m 57 269.871 l 56.992 271.512 57.883 273.023 59.316 273.816 
c 155.43 326.5 l 156.762 327.23 158.375 327.242 159.715 326.523 c 258.594
 273.84 l 260.066 273.062 260.992 271.531 261 269.867 c 261 210.449 l 261
 208.312 260.902 206.25 260.805 204 c 275.625 204 l 275.785 207 276 210.027
 276 213.02 c 276 284.312 l 157.324 347.504 l 42 284.352 l 42 211.316 l 
42.047 155.324 70.227 103.105 117 72.324 c 117 93.289 l 79.422 119.887 57.059
 163.043 57 209.082 c h
57 209.082 m f
315.922 167.371 m 313.32 167.371 310.977 165.805 309.98 163.402 c 308.988
 161 309.535 158.234 311.375 156.395 c 313.215 154.559 315.98 154.008 318.383
 155.004 c 320.781 155.996 322.348 158.34 322.348 160.941 c 322.344 164.492
 319.469 167.367 315.922 167.371 c h
315.922 167.371 m f
340.027 195 m 127.883 195 l 126.832 195 125.98 194.137 126 193.086 c 126
 128.797 l 125.973 127.719 126.805 126.812 127.883 126.75 c 149.539 126.75
 l 149.98 128.605 151.695 129.871 153.598 129.75 c 314.312 129.75 l 316.215
 129.871 317.93 128.605 318.375 126.75 c 340.027 126.75 l 341.125 126.805
 341.988 127.703 342 128.797 c 342 193.086 l 341.977 194.156 341.098 195.008
 340.027 195 c h
145.5 151.297 m 145.5 145.297 136.5 145.297 136.5 151.297 c 136.5 170.586
 l 136.5 176.586 145.5 176.586 145.5 170.586 c h
162.75 151.297 m 162.75 145.297 153.75 145.297 153.75 151.297 c 153.75 
170.586 l 153.75 176.586 162.75 176.586 162.75 170.586 c h
179.25 151.297 m 179.25 145.297 170.25 145.297 170.25 151.297 c 170.25 
170.586 l 170.25 176.586 179.25 176.586 179.25 170.586 c h
196.5 151.297 m 196.5 145.297 187.5 145.297 187.5 151.297 c 187.5 170.586
 l 187.5 176.586 196.5 176.586 196.5 170.586 c h
213.75 151.297 m 213.75 145.297 204.75 145.297 204.75 151.297 c 204.75 
170.586 l 204.75 176.586 213.75 176.586 213.75 170.586 c h
278.633 145.512 m 272.395 145.512 266.77 149.273 264.383 155.039 c 261.992
 160.805 263.312 167.438 267.727 171.852 c 272.137 176.262 278.773 177.582
 284.539 175.195 c 290.305 172.809 294.062 167.184 294.062 160.941 c 294.055
 152.426 287.152 145.523 278.633 145.512 c h
315.922 145.512 m 309.68 145.516 304.055 149.273 301.668 155.039 c 299.281
 160.805 300.602 167.438 305.012 171.852 c 309.426 176.266 316.062 177.582
 321.824 175.195 c 327.59 172.809 331.352 167.184 331.352 160.941 c 331.34
 152.426 324.438 145.523 315.922 145.512 c h
315.922 145.512 m f
340.027 105 m 318 105 l 316.992 104.066 315.68 103.535 314.309 103.5 c 
153.602 103.5 l 152.227 103.535 150.918 104.066 149.91 105 c 127.883 105
 l 126.832 105 125.98 104.137 126 103.086 c 126 38.797 l 125.973 37.719 
126.805 36.812 127.883 36.75 c 340.027 36.75 l 341.125 36.805 341.988 37.703
 342 38.797 c 342 103.086 l 341.977 104.156 341.098 105.008 340.027 105 
c h
145.5 61.297 m 145.5 55.297 136.5 55.297 136.5 61.297 c 136.5 80.586 l 
136.5 86.586 145.5 86.586 145.5 80.586 c h
162.75 61.297 m 162.75 55.297 153.75 55.297 153.75 61.297 c 153.75 80.586
 l 153.75 86.586 162.75 86.586 162.75 80.586 c h
179.25 61.297 m 179.25 55.297 170.25 55.297 170.25 61.297 c 170.25 80.586
 l 170.25 86.586 179.25 86.586 179.25 80.586 c h
196.5 61.297 m 196.5 55.297 187.5 55.297 187.5 61.297 c 187.5 80.586 l 
187.5 86.586 196.5 86.586 196.5 80.586 c h
213.75 61.297 m 213.75 55.297 204.75 55.297 204.75 61.297 c 204.75 80.586
 l 204.75 86.586 213.75 86.586 213.75 80.586 c h
278.633 55.512 m 272.395 55.512 266.77 59.273 264.383 65.039 c 261.992 
70.805 263.312 77.438 267.727 81.852 c 272.137 86.262 278.773 87.582 284.539
 85.195 c 290.305 82.809 294.062 77.184 294.062 70.941 c 294.055 62.426 
287.152 55.523 278.633 55.512 c h
315.922 55.512 m 309.68 55.516 304.055 59.273 301.668 65.039 c 299.281 
70.805 300.602 77.438 305.012 81.852 c 309.426 86.266 316.062 87.582 321.824
 85.195 c 327.59 82.809 331.352 77.184 331.352 70.941 c 331.34 62.426 324.438
 55.523 315.922 55.512 c h
315.922 55.512 m f
149.25 114 m 149.25 117.75 l 127.883 117.75 l 121.836 117.816 116.977 122.75
 117 128.797 c 117 193.086 l 116.992 195.977 118.137 198.75 120.18 200.797
 c 122.223 202.848 124.992 203.996 127.883 204 c 251.797 204 l 251.898 206.25
 252 208.309 252 210.449 c 252 267.168 l 157.66 317.438 l 66 267.203 l 66
 209.078 l 66 168.188 84.836 129.578 117.07 104.414 c 117.738 109.883 122.375
 113.992 127.883 114 c h
149.25 114 m f
Q Q
showpage
%%Trailer
end restore
%%EOF
