%!PS-Adobe-3.0 EPSF-3.0
%%Creator: cairo 1.14.8 (http://cairographics.org)
%%CreationDate: Thu Mar 21 09:07:39 2019
%%Pages: 1
%%DocumentData: Clean7Bit
%%LanguageLevel: 2
%%BoundingBox: 30 14 354 370
%%EndComments
%%BeginProlog
save
50 dict begin
/q { gsave } bind def
/Q { grestore } bind def
/cm { 6 array astore concat } bind def
/w { setlinewidth } bind def
/J { setlinecap } bind def
/j { setlinejoin } bind def
/M { setmiterlimit } bind def
/d { setdash } bind def
/m { moveto } bind def
/l { lineto } bind def
/c { curveto } bind def
/h { closepath } bind def
/re { exch dup neg 3 1 roll 5 3 roll moveto 0 rlineto
      0 exch rlineto 0 rlineto closepath } bind def
/S { stroke } bind def
/f { fill } bind def
/f* { eofill } bind def
/n { newpath } bind def
/W { clip } bind def
/W* { eoclip } bind def
/BT { } bind def
/ET { } bind def
/pdfmark where { pop globaldict /?pdfmark /exec load put }
    { globaldict begin /?pdfmark /pop load def /pdfmark
    /cleartomark load def end } ifelse
/BDC { mark 3 1 roll /BDC pdfmark } bind def
/EMC { mark /EMC pdfmark } bind def
/cairo_store_point { /cairo_point_y exch def /cairo_point_x exch def } def
/Tj { show currentpoint cairo_store_point } bind def
/TJ {
  {
    dup
    type /stringtype eq
    { show } { -0.001 mul 0 cairo_font_matrix dtransform rmoveto } ifelse
  } forall
  currentpoint cairo_store_point
} bind def
/cairo_selectfont { cairo_font_matrix aload pop pop pop 0 0 6 array astore
    cairo_font exch selectfont cairo_point_x cairo_point_y moveto } bind def
/Tf { pop /cairo_font exch def /cairo_font_matrix where
      { pop cairo_selectfont } if } bind def
/Td { matrix translate cairo_font_matrix matrix concatmatrix dup
      /cairo_font_matrix exch def dup 4 get exch 5 get cairo_store_point
      /cairo_font where { pop cairo_selectfont } if } bind def
/Tm { 2 copy 8 2 roll 6 array astore /cairo_font_matrix exch def
      cairo_store_point /cairo_font where { pop cairo_selectfont } if } bind def
/g { setgray } bind def
/rg { setrgbcolor } bind def
/d1 { setcachedevice } bind def
%%EndProlog
%%BeginSetup
%%EndSetup
%%Page: 1 1
%%BeginPageSetup
%%PageBoundingBox: 30 14 354 370
%%EndPageSetup
q 30 14 324 356 rectclip q
0 g
267.375 335.949 m 269.188 334.227 272.059 334.309 273.766 336.137 c 275.473
 337.965 275.363 340.836 273.52 342.527 c 253.047 361.676 225.531 371.441
 197.57 369.484 c 169.609 367.531 143.719 354.027 126.117 332.215 c 108.508
 343.668 l 105.148 345.855 100.82 342.887 101.652 338.965 c 108.953 304.461
 l 109.469 302.031 111.859 300.477 114.289 300.992 c 148.793 308.293 l 152.715
 309.125 153.676 314.281 150.316 316.469 c 133.703 327.277 l 149.836 346.859
 173.348 358.898 198.664 360.539 c 223.98 362.18 248.848 353.281 267.375
 335.949 c h
267.375 335.949 m f
267.547 79.539 m 267.031 81.969 264.641 83.523 262.211 83.008 c 227.711
 75.707 l 223.789 74.875 222.828 69.719 226.188 67.531 c 242.801 56.723 
l 226.668 37.141 203.156 25.102 177.84 23.457 c 152.52 21.816 127.652 30.719
 109.125 48.051 c 107.312 49.773 104.441 49.691 102.734 47.863 c 101.027
 46.035 101.137 43.164 102.98 41.473 c 123.453 22.324 150.969 12.559 178.93
 14.516 c 206.891 16.469 232.777 29.973 250.383 51.785 c 267.988 40.332 
l 271.352 38.145 275.676 41.113 274.848 45.035 c h
267.547 79.539 m f
297.75 267.32 m 263.871 267.32 242.25 257.125 242.25 250.109 c 242.25 243.09
 263.871 232.891 297.75 232.891 c 331.629 232.891 353.25 243.09 353.25 250.109
 c 353.25 257.129 331.629 267.32 297.75 267.32 c h
297.75 267.32 m f
297.75 223.891 m 281.215 223.891 265.602 226.246 253.793 230.52 c 249.73
 231.918 245.852 233.812 242.25 236.156 c 242.25 208.965 l 242.25 201.945
 263.871 191.75 297.75 191.75 c 313.273 191.75 327.797 193.914 338.648 197.84
 c 349.414 201.734 353.25 206.141 353.25 208.965 c 353.25 236.156 l 349.648
 233.812 345.77 231.918 341.707 230.52 c 329.898 226.246 314.285 223.891
 297.75 223.891 c h
297.75 223.891 m f
297.75 141.609 m 281.211 141.609 265.598 143.961 253.789 148.234 c 249.727
 149.629 245.852 151.523 242.25 153.867 c 242.25 126.391 l 242.25 119.375
 263.871 109.18 297.75 109.18 c 313.273 109.18 327.797 111.34 338.648 115.266
 c 349.414 119.164 353.25 123.57 353.25 126.391 c 353.25 153.867 l 349.648
 151.523 345.773 149.629 341.711 148.234 c 329.902 143.961 314.289 141.609
 297.75 141.609 c h
297.75 141.609 m f
297.75 182.75 m 281.211 182.75 265.598 185.105 253.789 189.375 c 249.727
 190.773 245.852 192.664 242.25 195.008 c 242.25 167.82 l 242.25 160.801
 263.871 150.609 297.75 150.609 c 313.273 150.609 327.797 152.77 338.648
 156.695 c 349.414 160.59 353.25 165 353.25 167.82 c 353.25 195.008 l 349.648
 192.664 345.773 190.773 341.711 189.375 c 329.902 185.102 314.289 182.75
 297.75 182.75 c h
297.75 182.75 m f
105.75 170.613 m 116.039 170.035 126.113 167.453 135.414 163.016 c 137.801
 170.973 139.16 179.199 139.453 187.5 c 105.75 187.5 l h
105.75 170.613 m f
105.75 123.484 m 117.457 130.387 126.516 141.133 132.293 154.527 c 123.996
 158.609 114.977 161.012 105.75 161.594 c h
105.75 123.484 m f
140.152 150.008 m 135.988 140.465 129.938 131.867 122.359 124.73 c 132.926
 128.066 142.559 133.84 150.477 141.59 c 147.312 144.719 143.855 147.539
 140.152 150.008 c h
140.152 150.008 m f
171.602 187.5 m 148.457 187.5 l 148.145 177.676 146.461 167.945 143.453
 158.59 c 148.16 155.625 152.539 152.168 156.516 148.273 c 165.434 159.5
 170.699 173.191 171.602 187.5 c h
171.602 187.5 m f
105.75 196.5 m 139.453 196.5 l 139.16 204.801 137.801 213.027 135.414 220.984
 c 126.113 216.547 116.039 213.965 105.75 213.387 c h
105.75 196.5 m f
105.75 260.516 m 105.75 222.406 l 114.977 222.988 123.996 225.391 132.293
 229.473 c 126.516 242.867 117.457 253.609 105.75 260.516 c h
105.75 260.516 m f
150.477 242.414 m 142.559 250.16 132.926 255.938 122.359 259.27 c 129.938
 252.133 135.988 243.535 140.152 233.996 c 143.855 236.465 147.312 239.281
 150.477 242.414 c h
150.477 242.414 m f
70.152 229.352 m 78.484 225.328 87.516 222.969 96.75 222.402 c 96.75 260.516
 l 85.008 253.59 75.934 242.805 70.152 229.352 c h
70.152 229.352 m f
67.051 163.133 m 76.379 167.512 86.461 170.055 96.75 170.617 c 96.75 187.5
 l 63.047 187.5 l 63.34 179.242 64.684 171.051 67.051 163.133 c h
67.051 163.133 m f
156.516 235.723 m 152.539 231.832 148.16 228.375 143.453 225.41 c 146.461
 216.055 148.145 206.324 148.457 196.5 c 171.602 196.5 l 170.699 210.809
 165.434 224.496 156.516 235.723 c h
156.516 235.723 m f
62.273 150.18 m 58.527 147.723 55.031 144.906 51.832 141.773 c 59.785 133.934
 69.488 128.09 80.141 124.73 c 72.52 131.91 66.438 140.57 62.273 150.18 
c h
62.273 150.18 m f
63.047 196.5 m 96.75 196.5 l 96.75 213.383 l 86.461 213.945 76.379 216.488
 67.051 220.867 c 64.684 212.949 63.34 204.758 63.047 196.5 c h
63.047 196.5 m f
96.75 123.484 m 96.75 161.598 l 87.516 161.031 78.484 158.672 70.152 154.648
 c 75.934 141.195 85.008 130.41 96.75 123.484 c h
96.75 123.484 m f
80.141 259.27 m 69.488 255.91 59.785 250.066 51.832 242.227 c 55.031 239.094
 58.527 236.277 62.273 233.82 c 66.438 243.43 72.52 252.09 80.141 259.27
 c h
80.141 259.27 m f
58.992 225.238 m 54.246 228.184 49.832 231.633 45.824 235.52 c 37.004 224.332
 31.797 210.719 30.898 196.5 c 54.043 196.5 l 54.352 206.262 56.02 215.934
 58.992 225.238 c h
58.992 225.238 m f
54.043 187.5 m 30.898 187.5 l 31.797 173.281 37.004 159.668 45.824 148.48
 c 49.836 152.367 54.25 155.816 58.996 158.762 c 56.02 168.066 54.355 177.738
 54.043 187.5 c h
54.043 187.5 m f
Q Q
showpage
%%Trailer
end restore
%%EOF
