%!PS-Adobe-3.0 EPSF-3.0
%%Creator: cairo 1.14.8 (http://cairographics.org)
%%CreationDate: Thu Mar 21 09:07:39 2019
%%Pages: 1
%%DocumentData: Clean7Bit
%%LanguageLevel: 2
%%BoundingBox: 19 14 365 370
%%EndComments
%%BeginProlog
save
50 dict begin
/q { gsave } bind def
/Q { grestore } bind def
/cm { 6 array astore concat } bind def
/w { setlinewidth } bind def
/J { setlinecap } bind def
/j { setlinejoin } bind def
/M { setmiterlimit } bind def
/d { setdash } bind def
/m { moveto } bind def
/l { lineto } bind def
/c { curveto } bind def
/h { closepath } bind def
/re { exch dup neg 3 1 roll 5 3 roll moveto 0 rlineto
      0 exch rlineto 0 rlineto closepath } bind def
/S { stroke } bind def
/f { fill } bind def
/f* { eofill } bind def
/n { newpath } bind def
/W { clip } bind def
/W* { eoclip } bind def
/BT { } bind def
/ET { } bind def
/pdfmark where { pop globaldict /?pdfmark /exec load put }
    { globaldict begin /?pdfmark /pop load def /pdfmark
    /cleartomark load def end } ifelse
/BDC { mark 3 1 roll /BDC pdfmark } bind def
/EMC { mark /EMC pdfmark } bind def
/cairo_store_point { /cairo_point_y exch def /cairo_point_x exch def } def
/Tj { show currentpoint cairo_store_point } bind def
/TJ {
  {
    dup
    type /stringtype eq
    { show } { -0.001 mul 0 cairo_font_matrix dtransform rmoveto } ifelse
  } forall
  currentpoint cairo_store_point
} bind def
/cairo_selectfont { cairo_font_matrix aload pop pop pop 0 0 6 array astore
    cairo_font exch selectfont cairo_point_x cairo_point_y moveto } bind def
/Tf { pop /cairo_font exch def /cairo_font_matrix where
      { pop cairo_selectfont } if } bind def
/Td { matrix translate cairo_font_matrix matrix concatmatrix dup
      /cairo_font_matrix exch def dup 4 get exch 5 get cairo_store_point
      /cairo_font where { pop cairo_selectfont } if } bind def
/Tm { 2 copy 8 2 roll 6 array astore /cairo_font_matrix exch def
      cairo_store_point /cairo_font where { pop cairo_selectfont } if } bind def
/g { setgray } bind def
/rg { setrgbcolor } bind def
/d1 { setcachedevice } bind def
%%EndProlog
%%BeginSetup
%%EndSetup
%%Page: 1 1
%%BeginPageSetup
%%PageBoundingBox: 19 14 365 370
%%EndPageSetup
q 19 14 346 356 rectclip q
0 g
189.328 358.738 m 218.68 364.93 249.203 356.422 271.125 335.949 c 272.938
 334.227 275.809 334.309 277.516 336.137 c 279.223 337.965 279.113 340.836
 277.27 342.527 c 256.797 361.676 229.281 371.441 201.32 369.484 c 173.359
 367.531 147.469 354.027 129.867 332.215 c 112.258 343.668 l 108.898 345.855
 104.57 342.887 105.402 338.965 c 112.703 304.461 l 113.219 302.031 115.609
 300.477 118.039 300.992 c 152.543 308.293 l 156.465 309.125 157.426 314.281
 154.066 316.469 c 137.453 327.277 l 150.676 343.344 168.969 354.441 189.328
 358.738 c h
189.328 358.738 m f
271.297 79.539 m 270.781 81.969 268.391 83.523 265.961 83.008 c 231.461
 75.707 l 227.539 74.875 226.578 69.719 229.938 67.531 c 246.551 56.723 
l 230.418 37.141 206.906 25.102 181.59 23.457 c 156.27 21.816 131.402 30.719
 112.875 48.051 c 111.062 49.773 108.191 49.691 106.484 47.863 c 104.777
 46.035 104.887 43.164 106.73 41.473 c 127.203 22.324 154.719 12.559 182.68
 14.516 c 210.641 16.469 236.527 29.973 254.133 51.785 c 271.738 40.332 
l 275.102 38.145 279.426 41.113 278.598 45.035 c h
271.297 79.539 m f
238.5 196.992 m 238.5 165.266 l 238.5 156.941 262.469 145.336 301.5 145.336
 c 340.531 145.336 364.5 156.945 364.5 165.266 c 364.5 196.992 l 351.383
 187.586 325.906 182.625 301.5 182.625 c 277.094 182.625 251.617 187.586
 238.5 196.992 c h
238.5 196.992 m f
301.5 277.77 m 262.469 277.77 238.5 266.16 238.5 257.84 c 238.5 249.516
 262.469 237.91 301.5 237.91 c 340.531 237.91 364.5 249.516 364.5 257.84
 c 364.5 266.16 340.531 277.77 301.5 277.77 c h
301.5 277.77 m f
238.5 243.277 m 238.5 211.551 l 238.5 203.227 262.469 191.621 301.5 191.621
 c 340.531 191.621 364.5 203.23 364.5 211.551 c 364.5 243.277 l 351.383 
233.871 325.906 228.91 301.5 228.91 c 277.094 228.91 251.617 233.871 238.5
 243.277 c h
238.5 243.277 m f
238.5 150.703 m 238.5 118.66 l 238.5 110.336 262.469 98.73 301.5 98.73 
c 340.531 98.73 364.5 110.34 364.5 118.66 c 364.5 150.703 l 351.383 141.297
 325.906 136.34 301.5 136.34 c 277.094 136.34 251.617 141.301 238.5 150.703
 c h
238.5 150.703 m f
190.168 136.816 m 198.465 145.105 201.527 157.281 198.148 168.508 c 194.77
 179.738 185.492 188.195 174 190.527 c 171.965 190.941 170.473 192.691 170.395
 194.766 c 170 204.59 165.086 213.68 157.086 219.398 c 149.086 225.113 138.895
 226.812 129.473 224.004 c 127.746 223.484 125.883 224.047 124.727 225.43
 c 112.207 240.398 91.656 245.934 73.312 239.273 c 54.973 232.613 42.758
 215.184 42.762 195.668 c 42.762 194.98 42.777 194.258 42.816 193.457 c 
42.902 191.52 41.738 189.746 39.93 189.055 c 25.602 183.559 17.234 168.617
 20.035 153.527 c 22.832 138.438 36 127.492 51.348 127.5 c 167.652 127.5
 l 176.102 127.473 184.211 130.828 190.168 136.816 c h
190.168 136.816 m f
Q Q
showpage
%%Trailer
end restore
%%EOF
