%!PS-Adobe-3.0 EPSF-3.0
%%Creator: cairo 1.14.8 (http://cairographics.org)
%%CreationDate: Thu Mar 21 09:07:39 2019
%%Pages: 1
%%DocumentData: Clean7Bit
%%LanguageLevel: 2
%%BoundingBox: 34 29 349 355
%%EndComments
%%BeginProlog
save
50 dict begin
/q { gsave } bind def
/Q { grestore } bind def
/cm { 6 array astore concat } bind def
/w { setlinewidth } bind def
/J { setlinecap } bind def
/j { setlinejoin } bind def
/M { setmiterlimit } bind def
/d { setdash } bind def
/m { moveto } bind def
/l { lineto } bind def
/c { curveto } bind def
/h { closepath } bind def
/re { exch dup neg 3 1 roll 5 3 roll moveto 0 rlineto
      0 exch rlineto 0 rlineto closepath } bind def
/S { stroke } bind def
/f { fill } bind def
/f* { eofill } bind def
/n { newpath } bind def
/W { clip } bind def
/W* { eoclip } bind def
/BT { } bind def
/ET { } bind def
/pdfmark where { pop globaldict /?pdfmark /exec load put }
    { globaldict begin /?pdfmark /pop load def /pdfmark
    /cleartomark load def end } ifelse
/BDC { mark 3 1 roll /BDC pdfmark } bind def
/EMC { mark /EMC pdfmark } bind def
/cairo_store_point { /cairo_point_y exch def /cairo_point_x exch def } def
/Tj { show currentpoint cairo_store_point } bind def
/TJ {
  {
    dup
    type /stringtype eq
    { show } { -0.001 mul 0 cairo_font_matrix dtransform rmoveto } ifelse
  } forall
  currentpoint cairo_store_point
} bind def
/cairo_selectfont { cairo_font_matrix aload pop pop pop 0 0 6 array astore
    cairo_font exch selectfont cairo_point_x cairo_point_y moveto } bind def
/Tf { pop /cairo_font exch def /cairo_font_matrix where
      { pop cairo_selectfont } if } bind def
/Td { matrix translate cairo_font_matrix matrix concatmatrix dup
      /cairo_font_matrix exch def dup 4 get exch 5 get cairo_store_point
      /cairo_font where { pop cairo_selectfont } if } bind def
/Tm { 2 copy 8 2 roll 6 array astore /cairo_font_matrix exch def
      cairo_store_point /cairo_font where { pop cairo_selectfont } if } bind def
/g { setgray } bind def
/rg { setrgbcolor } bind def
/d1 { setcachedevice } bind def
%%EndProlog
%%BeginSetup
%%EndSetup
%%Page: 1 1
%%BeginPageSetup
%%PageBoundingBox: 34 29 349 355
%%EndPageSetup
q 34 29 315 326 rectclip q
0 g
132.75 267.75 178.5 -11.25 re f
141.75 217.141 m 141.75 210.75 l 162.184 210.75 l 164.402 210.801 166.617
 210.516 168.75 209.906 c 168.75 220.5 l 168.75 226.5 177.75 226.5 177.75
 220.5 c 177.75 204.574 l 182.25 200.441 184.5 194.645 184.5 188.23 c 184.5
 171.75 l 316.125 171.75 l 318.031 171.75 319.727 170.547 320.363 168.75
 c 346.125 168.75 l 347.781 168.75 348.75 170.094 348.75 171.75 c 348.75
 246.75 l 348.75 248.406 347.781 249.75 346.125 249.75 c 320.02 249.75 l
 319.215 248.359 317.73 247.5 316.125 247.5 c 128.625 247.5 l 127.02 247.5
 125.535 248.359 124.73 249.75 c 98.625 249.75 l 96.969 249.75 95.25 248.406
 95.25 246.75 c 95.25 222 l 137.543 222 l 140.023 222 141.75 219.629 141.75
 217.141 c h
318 226.5 m 324.977 226.5 331.266 222.297 333.938 215.852 c 336.605 209.406
 335.133 201.984 330.199 197.051 c 325.266 192.117 317.844 190.645 311.398
 193.312 c 304.953 195.984 300.75 202.273 300.75 209.25 c 300.762 218.773
 308.477 226.488 318 226.5 c h
274.5 226.5 m 281.477 226.5 287.766 222.297 290.438 215.852 c 293.105 209.406
 291.633 201.984 286.699 197.051 c 281.766 192.117 274.344 190.645 267.898
 193.312 c 261.453 195.984 257.25 202.273 257.25 209.25 c 257.262 218.773
 264.977 226.488 274.5 226.5 c h
189 220.5 m 189 226.5 198 226.5 198 220.5 c 198 198 l 198 192 189 192 189
 198 c h
189 220.5 m f
348.75 66.75 m 348.75 141.75 l 348.75 143.406 347.781 144.75 346.125 144.75
 c 320.016 144.75 l 319.215 143.359 317.73 142.5 316.125 142.5 c 184.5 142.5
 l 184.5 63.75 l 346.125 63.75 l 347.781 63.75 348.75 65.094 348.75 66.75
 c h
198 93 m 198 87 189 87 189 93 c 189 115.5 l 189 121.5 198 121.5 198 115.5
 c h
274.5 87 m 267.523 87 261.234 91.203 258.562 97.648 c 255.895 104.094 257.367
 111.516 262.301 116.449 c 267.234 121.383 274.656 122.855 281.102 120.188
 c 287.547 117.516 291.75 111.227 291.75 104.25 c 291.738 94.727 284.023
 87.012 274.5 87 c h
318 87 m 311.023 87 304.734 91.203 302.062 97.648 c 299.395 104.094 300.867
 111.516 305.801 116.449 c 310.734 121.383 318.156 122.855 324.602 120.188
 c 331.047 117.516 335.25 111.227 335.25 104.25 c 335.238 94.727 327.523
 87.012 318 87 c h
318 87 m f
326.25 209.25 m 326.25 204.695 322.555 201 318 201 c 313.445 201 309.75
 204.695 309.75 209.25 c 309.75 213.805 313.445 217.5 318 217.5 c 322.555
 217.5 326.25 213.805 326.25 209.25 c h
326.25 209.25 m f
282.75 209.25 m 282.75 204.695 279.055 201 274.5 201 c 269.945 201 266.25
 204.695 266.25 209.25 c 266.25 213.805 269.945 217.5 274.5 217.5 c 279.055
 217.5 282.75 213.805 282.75 209.25 c h
282.75 209.25 m f
184.5 162.75 126.75 -11.25 re f
48.566 29.25 m 162.184 29.25 l 169.734 29.25 175.5 35.391 175.5 42.941 
c 175.5 188.23 l 175.566 192.242 173.836 196.078 170.773 198.676 c 170.57
 198.809 170.566 198.914 170.387 199.078 c 168.016 200.84 165.137 201.777
 162.184 201.75 c 141.75 201.75 l 141.75 195.699 l 141.883 193.281 139.961
 191.25 137.543 191.25 c 73.207 191.25 l 70.789 191.25 68.867 193.281 69
 195.699 c 69 201.75 l 48.566 201.75 l 41.016 201.75 34.5 195.777 34.5 188.23
 c 34.5 42.941 l 34.5 35.391 41.016 29.25 48.566 29.25 c h
71.875 109.672 m 73.613 111.449 76.461 111.484 78.238 109.746 c 96.711 
91.711 l 132.512 126.664 l 136.805 130.801 143.039 124.414 138.801 120.223
 c 99.855 82.199 l 98.105 80.492 95.316 80.492 93.566 82.199 c 71.953 103.305
 l 70.168 105.039 70.137 107.895 71.875 109.672 c h
71.875 109.672 m f
78 213 54.75 -12.75 re f
282.75 104.25 m 282.75 99.695 279.055 96 274.5 96 c 269.945 96 266.25 99.695
 266.25 104.25 c 266.25 108.805 269.945 112.5 274.5 112.5 c 279.055 112.5
 282.75 108.805 282.75 104.25 c h
282.75 104.25 m f
326.25 104.25 m 326.25 99.695 322.555 96 318 96 c 313.445 96 309.75 99.695
 309.75 104.25 c 309.75 108.805 313.445 112.5 318 112.5 c 322.555 112.5 
326.25 108.805 326.25 104.25 c h
326.25 104.25 m f
282.75 314.25 m 282.75 309.695 279.055 306 274.5 306 c 269.945 306 266.25
 309.695 266.25 314.25 c 266.25 318.805 269.945 322.5 274.5 322.5 c 279.055
 322.5 282.75 318.805 282.75 314.25 c h
282.75 314.25 m f
326.25 314.25 m 326.25 309.695 322.555 306 318 306 c 313.445 306 309.75
 309.695 309.75 314.25 c 309.75 318.805 313.445 322.5 318 322.5 c 322.555
 322.5 326.25 318.805 326.25 314.25 c h
326.25 314.25 m f
98.625 273.75 m 124.387 273.75 l 125.023 275.547 126.719 276.75 128.625
 276.75 c 316.125 276.75 l 318.031 276.75 319.727 275.547 320.363 273.75
 c 346.125 273.75 l 347.781 273.75 348.75 275.094 348.75 276.75 c 348.75
 351.75 l 348.75 353.406 347.781 354.75 346.125 354.75 c 98.625 354.75 l
 96.969 354.75 95.25 353.406 95.25 351.75 c 95.25 276.75 l 95.25 275.094
 96.969 273.75 98.625 273.75 c h
318 331.5 m 324.977 331.5 331.266 327.297 333.938 320.852 c 336.605 314.406
 335.133 306.984 330.199 302.051 c 325.266 297.117 317.844 295.645 311.398
 298.312 c 304.953 300.984 300.75 307.273 300.75 314.25 c 300.762 323.773
 308.477 331.488 318 331.5 c h
274.5 331.5 m 281.477 331.5 287.766 327.297 290.438 320.852 c 293.105 314.406
 291.633 306.984 286.699 302.051 c 281.766 297.117 274.344 295.645 267.898
 298.312 c 261.453 300.984 257.25 307.273 257.25 314.25 c 257.262 323.773
 264.977 331.488 274.5 331.5 c h
189 325.5 m 189 331.5 198 331.5 198 325.5 c 198 303 l 198 297 189 297 189
 303 c h
168.75 325.5 m 168.75 331.5 177.75 331.5 177.75 325.5 c 177.75 303 l 177.75
 297 168.75 297 168.75 303 c h
149.25 325.5 m 149.25 331.5 158.25 331.5 158.25 325.5 c 158.25 303 l 158.25
 297 149.25 297 149.25 303 c h
129 325.5 m 129 331.5 138 331.5 138 325.5 c 138 303 l 138 297 129 297 129
 303 c h
109.5 325.5 m 109.5 331.5 118.5 331.5 118.5 325.5 c 118.5 303 l 118.5 297
 109.5 297 109.5 303 c h
109.5 325.5 m f
Q Q
showpage
%%Trailer
end restore
%%EOF
