%!PS-Adobe-3.0 EPSF-3.0
%%Creator: cairo 1.14.8 (http://cairographics.org)
%%CreationDate: Thu Mar 21 09:07:39 2019
%%Pages: 1
%%DocumentData: Clean7Bit
%%LanguageLevel: 2
%%BoundingBox: 22 30 362 354
%%EndComments
%%BeginProlog
save
50 dict begin
/q { gsave } bind def
/Q { grestore } bind def
/cm { 6 array astore concat } bind def
/w { setlinewidth } bind def
/J { setlinecap } bind def
/j { setlinejoin } bind def
/M { setmiterlimit } bind def
/d { setdash } bind def
/m { moveto } bind def
/l { lineto } bind def
/c { curveto } bind def
/h { closepath } bind def
/re { exch dup neg 3 1 roll 5 3 roll moveto 0 rlineto
      0 exch rlineto 0 rlineto closepath } bind def
/S { stroke } bind def
/f { fill } bind def
/f* { eofill } bind def
/n { newpath } bind def
/W { clip } bind def
/W* { eoclip } bind def
/BT { } bind def
/ET { } bind def
/pdfmark where { pop globaldict /?pdfmark /exec load put }
    { globaldict begin /?pdfmark /pop load def /pdfmark
    /cleartomark load def end } ifelse
/BDC { mark 3 1 roll /BDC pdfmark } bind def
/EMC { mark /EMC pdfmark } bind def
/cairo_store_point { /cairo_point_y exch def /cairo_point_x exch def } def
/Tj { show currentpoint cairo_store_point } bind def
/TJ {
  {
    dup
    type /stringtype eq
    { show } { -0.001 mul 0 cairo_font_matrix dtransform rmoveto } ifelse
  } forall
  currentpoint cairo_store_point
} bind def
/cairo_selectfont { cairo_font_matrix aload pop pop pop 0 0 6 array astore
    cairo_font exch selectfont cairo_point_x cairo_point_y moveto } bind def
/Tf { pop /cairo_font exch def /cairo_font_matrix where
      { pop cairo_selectfont } if } bind def
/Td { matrix translate cairo_font_matrix matrix concatmatrix dup
      /cairo_font_matrix exch def dup 4 get exch 5 get cairo_store_point
      /cairo_font where { pop cairo_selectfont } if } bind def
/Tm { 2 copy 8 2 roll 6 array astore /cairo_font_matrix exch def
      cairo_store_point /cairo_font where { pop cairo_selectfont } if } bind def
/g { setgray } bind def
/rg { setrgbcolor } bind def
/d1 { setcachedevice } bind def
%%EndProlog
%%BeginSetup
%%EndSetup
%%Page: 1 1
%%BeginPageSetup
%%PageBoundingBox: 22 30 362 354
%%EndPageSetup
q 22 30 340 324 rectclip q
0 g
200.84 111.547 m 200.84 107.934 203.309 104.789 206.816 103.934 c 210.324
 103.074 213.965 104.727 215.633 107.93 c 212.176 111.125 209.398 114.988
 207.477 119.281 c 203.66 118.688 200.848 115.406 200.84 111.547 c h
200.84 111.547 m f
166.582 205.32 m 169.75 205.32 172.609 207.23 173.824 210.16 c 175.039 
213.09 174.367 216.461 172.125 218.703 c 169.883 220.945 166.512 221.617
 163.582 220.402 c 160.652 219.188 158.742 216.328 158.742 213.16 c 158.75
 208.832 162.254 205.324 166.582 205.32 c h
166.582 205.32 m f
25.414 174 m 50.238 174 l 50.953 175.719 52.582 176.879 54.441 177 c 206.863
 177 l 208.723 176.879 210.352 175.719 211.066 174 c 224.977 174 l 227.051
 183.066 231.754 191.316 238.5 197.719 c 238.5 249.449 l 238.555 250.902
 237.348 252.086 235.895 252 c 210.711 252 l 209.926 251.25 208.496 249.75
 206.863 249.75 c 54.445 249.75 l 52.809 249.75 51.383 251.25 50.598 252
 c 25.414 252 l 23.902 252.105 22.594 250.961 22.5 249.449 c 22.5 176.867
 l 22.566 175.297 23.836 174.039 25.414 174 c h
208.68 229.996 m 215.488 230 221.629 225.895 224.234 219.605 c 226.844 
213.312 225.402 206.07 220.586 201.254 c 215.77 196.438 208.527 194.996 
202.234 197.602 c 195.941 200.207 191.84 206.348 191.84 213.16 c 191.852
 222.453 199.383 229.988 208.68 229.996 c h
166.582 229.996 m 173.391 230 179.531 225.895 182.141 219.605 c 184.746
 213.312 183.305 206.07 178.488 201.254 c 173.672 196.438 166.43 194.996
 160.137 197.602 c 153.844 200.207 149.742 206.348 149.742 213.16 c 149.754
 222.453 157.285 229.988 166.582 229.996 c h
112.5 224.047 m 112.5 230.047 121.5 230.047 121.5 224.047 c 121.5 202.273
 l 121.5 196.273 112.5 196.273 112.5 202.273 c h
93 224.047 m 93 230.047 102 230.047 102 224.047 c 102 202.273 l 102 196.273
 93 196.273 93 202.273 c h
74.25 224.047 m 74.25 230.047 83.25 230.047 83.25 224.047 c 83.25 202.273
 l 83.25 196.273 74.25 196.273 74.25 202.273 c h
54.75 224.047 m 54.75 230.047 63.75 230.047 63.75 224.047 c 63.75 202.273
 l 63.75 196.273 54.75 196.273 54.75 202.273 c h
36 224.047 m 36 230.047 45 230.047 45 224.047 c 45 202.273 l 45 196.273
 36 196.273 36 202.273 c h
36 224.047 m f
223.777 164.504 m 223.785 164.715 223.801 165 223.809 165 c 211.5 165 l
 211.5 159.75 l 216.438 159.75 l 218.676 161.25 221.129 163.199 223.777 
164.504 c h
223.777 164.504 m f
208.68 205.32 m 211.848 205.32 214.707 207.23 215.922 210.16 c 217.133 
213.09 216.465 216.461 214.223 218.703 c 211.98 220.945 208.609 221.617 
205.68 220.402 c 202.75 219.188 200.84 216.328 200.84 213.16 c 200.844 208.832
 204.352 205.324 208.68 205.32 c h
208.68 205.32 m f
166.582 306.934 m 169.75 306.934 172.609 308.844 173.824 311.773 c 175.039
 314.699 174.367 318.074 172.125 320.316 c 169.883 322.559 166.512 323.227
 163.582 322.016 c 160.652 320.805 158.742 317.945 158.742 314.773 c 158.746
 310.445 162.254 306.938 166.582 306.934 c h
166.582 306.934 m f
208.68 306.934 m 211.848 306.934 214.707 308.844 215.922 311.773 c 217.133
 314.699 216.465 318.074 214.223 320.316 c 211.98 322.559 208.609 323.227
 205.68 322.016 c 202.75 320.805 200.84 317.945 200.84 314.773 c 200.844
 310.445 204.352 306.938 208.68 306.934 c h
208.68 306.934 m f
59.25 270 143.25 -11.25 re f
25.414 276 m 50.238 276 l 50.953 277.719 52.582 278.879 54.441 279 c 206.863
 279 l 208.719 278.879 210.348 277.719 211.062 276 c 235.887 276 l 237.328
 275.879 238.547 277.039 238.5 278.48 c 238.5 351.062 l 238.582 352.59 237.422
 353.898 235.895 354 c 25.414 354 l 23.824 353.926 22.559 352.648 22.5 351.062
 c 22.5 278.48 l 22.5 276.961 23.891 276 25.414 276 c h
208.68 331.609 m 215.488 331.609 221.629 327.508 224.234 321.215 c 226.844
 314.922 225.402 307.68 220.586 302.863 c 215.77 298.047 208.523 296.609
 202.234 299.215 c 195.941 301.824 191.84 307.965 191.84 314.773 c 191.852
 324.07 199.383 331.602 208.68 331.609 c h
166.582 331.609 m 173.391 331.609 179.531 327.508 182.141 321.215 c 184.746
 314.922 183.305 307.68 178.488 302.863 c 173.672 298.047 166.43 296.609
 160.137 299.215 c 153.844 301.824 149.742 307.965 149.742 314.773 c 149.754
 324.07 157.285 331.602 166.582 331.609 c h
112.5 325.66 m 112.5 331.66 121.5 331.66 121.5 325.66 c 121.5 303.887 l
 121.5 297.887 112.5 297.887 112.5 303.887 c h
93 325.66 m 93 331.66 102 331.66 102 325.66 c 102 303.887 l 102 297.887
 93 297.887 93 303.887 c h
74.25 325.66 m 74.25 331.66 83.25 331.66 83.25 325.66 c 83.25 303.887 l
 83.25 297.887 74.25 297.887 74.25 303.887 c h
54.75 325.66 m 54.75 331.66 63.75 331.66 63.75 325.66 c 63.75 303.887 l
 63.75 297.887 54.75 297.887 54.75 303.887 c h
36 325.66 m 36 331.66 45 331.66 45 325.66 c 45 303.887 l 45 297.887 36 
297.887 36 303.887 c h
36 325.66 m f
25.414 72.75 m 234.797 72.75 l 236.145 72.75 237.418 72.137 238.254 71.082
 c 237.918 72.098 237.957 73.199 238.363 74.188 c 238.48 74.531 238.527 
74.895 238.5 75.254 c 238.5 99.012 l 233.086 99.078 227.758 100.391 222.938
 102.852 c 220.004 98.055 214.863 95.043 209.246 94.836 c 203.625 94.625
 198.273 97.242 194.992 101.809 c 191.711 106.375 190.938 112.281 192.926
 117.543 c 194.918 122.801 199.41 126.711 204.891 127.961 c 203.777 134.988
 204.84 142.191 207.941 148.594 c 207.59 148.52 207.227 148.488 206.863 
148.5 c 54.445 148.5 l 52.836 148.445 51.336 149.32 50.598 150.75 c 25.414
 150.75 l 23.828 150.688 22.562 149.418 22.5 147.836 c 22.5 75.254 l 22.5
 73.734 23.891 72.75 25.414 72.75 c h
166.582 128.387 m 173.391 128.387 179.531 124.281 182.141 117.992 c 184.746
 111.699 183.305 104.453 178.488 99.641 c 173.672 94.824 166.43 93.383 160.137
 95.988 c 153.844 98.594 149.742 104.734 149.742 111.547 c 149.754 120.84
 157.285 128.375 166.582 128.387 c h
112.5 122.434 m 112.5 128.434 121.5 128.434 121.5 122.434 c 121.5 100.66
 l 121.5 94.66 112.5 94.66 112.5 100.66 c h
93 122.434 m 93 128.434 102 128.434 102 122.434 c 102 100.66 l 102 94.66
 93 94.66 93 100.66 c h
74.25 122.434 m 74.25 128.434 83.25 128.434 83.25 122.434 c 83.25 100.66
 l 83.25 94.66 74.25 94.66 74.25 100.66 c h
54.75 122.434 m 54.75 128.434 63.75 128.434 63.75 122.434 c 63.75 100.66
 l 63.75 94.66 54.75 94.66 54.75 100.66 c h
36 122.434 m 36 128.434 45 128.434 45 122.434 c 45 100.66 l 45 94.66 36
 94.66 36 100.66 c h
36 122.434 m f
166.582 103.707 m 169.75 103.707 172.609 105.617 173.824 108.547 c 175.039
 111.477 174.367 114.848 172.125 117.09 c 169.883 119.332 166.512 120.004
 163.582 118.789 c 160.652 117.574 158.742 114.719 158.742 111.547 c 158.746
 107.219 162.254 103.715 166.582 103.707 c h
166.582 103.707 m f
59.25 168 143.25 -10.5 re f
232.812 161.781 m 232.902 159.848 231.738 158.078 229.93 157.395 c 218.383
 153.012 211.629 140.992 213.891 128.852 c 216.156 116.711 226.781 107.93
 239.133 108 c 335.676 108 l 342.469 107.941 349 110.598 353.824 115.379
 c 358.645 120.16 361.355 126.672 361.352 133.465 c 361.324 145.648 352.73
 156.133 340.789 158.551 c 338.754 158.961 337.266 160.711 337.184 162.785
 c 336.867 170.703 332.906 178.035 326.461 182.641 c 320.012 187.25 311.797
 188.621 304.199 186.355 c 302.477 185.836 300.609 186.398 299.453 187.777
 c 289.27 199.957 272.555 204.461 257.629 199.043 c 242.707 193.625 232.77
 179.449 232.77 163.574 c 232.77 162.973 232.789 162.375 232.812 161.781
 c h
232.812 161.781 m f
282.75 104.25 9 -52.5 re f
278.875 38.711 m 278.875 35.258 280.953 32.148 284.141 30.828 c 287.328
 29.508 290.996 30.238 293.438 32.68 c 295.875 35.117 296.605 38.785 295.285
 41.973 c 293.965 45.16 290.855 47.242 287.402 47.242 c 282.695 47.234 278.879
 43.418 278.875 38.711 c h
278.875 38.711 m f
306 104.25 m 306 82.648 l 306.156 80.07 308.273 78.043 310.859 78 c 326.25
 78 l 326.25 66 l 335.25 66 l 335.25 82.648 l 335.25 85.137 332.891 87 330.402
 87 c 315 87 l 315 104.25 l h
306 104.25 m f
338.934 53.297 m 338.934 56.746 336.855 59.855 333.668 61.176 c 330.48 
62.496 326.812 61.766 324.371 59.328 c 321.934 56.887 321.203 53.219 322.523
 50.031 c 323.844 46.844 326.953 44.766 330.402 44.766 c 335.113 44.77 338.93
 48.586 338.934 53.297 c h
338.934 53.297 m f
249 78 m 263.949 78 l 266.473 78.066 268.488 80.125 268.5 82.648 c 268.5
 104.25 l 259.5 104.25 l 259.5 87 l 244.402 87 l 241.969 87.062 239.969 
85.086 240 82.648 c 240 72 l 249 72 l h
249 78 m f
235.875 59.195 m 235.875 55.746 237.953 52.633 241.141 51.312 c 244.328
 49.992 247.996 50.723 250.438 53.164 c 252.879 55.602 253.605 59.273 252.285
 62.461 c 250.965 65.648 247.855 67.727 244.402 67.727 c 239.695 67.719 
235.879 63.902 235.875 59.195 c h
235.875 59.195 m f
Q Q
showpage
%%Trailer
end restore
%%EOF
