%!PS-Adobe-3.0 EPSF-3.0
%%Creator: cairo 1.14.8 (http://cairographics.org)
%%CreationDate: Thu Mar 21 09:07:39 2019
%%Pages: 1
%%DocumentData: Clean7Bit
%%LanguageLevel: 2
%%BoundingBox: 15 14 369 370
%%EndComments
%%BeginProlog
save
50 dict begin
/q { gsave } bind def
/Q { grestore } bind def
/cm { 6 array astore concat } bind def
/w { setlinewidth } bind def
/J { setlinecap } bind def
/j { setlinejoin } bind def
/M { setmiterlimit } bind def
/d { setdash } bind def
/m { moveto } bind def
/l { lineto } bind def
/c { curveto } bind def
/h { closepath } bind def
/re { exch dup neg 3 1 roll 5 3 roll moveto 0 rlineto
      0 exch rlineto 0 rlineto closepath } bind def
/S { stroke } bind def
/f { fill } bind def
/f* { eofill } bind def
/n { newpath } bind def
/W { clip } bind def
/W* { eoclip } bind def
/BT { } bind def
/ET { } bind def
/pdfmark where { pop globaldict /?pdfmark /exec load put }
    { globaldict begin /?pdfmark /pop load def /pdfmark
    /cleartomark load def end } ifelse
/BDC { mark 3 1 roll /BDC pdfmark } bind def
/EMC { mark /EMC pdfmark } bind def
/cairo_store_point { /cairo_point_y exch def /cairo_point_x exch def } def
/Tj { show currentpoint cairo_store_point } bind def
/TJ {
  {
    dup
    type /stringtype eq
    { show } { -0.001 mul 0 cairo_font_matrix dtransform rmoveto } ifelse
  } forall
  currentpoint cairo_store_point
} bind def
/cairo_selectfont { cairo_font_matrix aload pop pop pop 0 0 6 array astore
    cairo_font exch selectfont cairo_point_x cairo_point_y moveto } bind def
/Tf { pop /cairo_font exch def /cairo_font_matrix where
      { pop cairo_selectfont } if } bind def
/Td { matrix translate cairo_font_matrix matrix concatmatrix dup
      /cairo_font_matrix exch def dup 4 get exch 5 get cairo_store_point
      /cairo_font where { pop cairo_selectfont } if } bind def
/Tm { 2 copy 8 2 roll 6 array astore /cairo_font_matrix exch def
      cairo_store_point /cairo_font where { pop cairo_selectfont } if } bind def
/g { setgray } bind def
/rg { setrgbcolor } bind def
/d1 { setcachedevice } bind def
%%EndProlog
%%BeginSetup
%%EndSetup
%%Page: 1 1
%%BeginPageSetup
%%PageBoundingBox: 15 14 369 370
%%EndPageSetup
q 15 14 354 356 rectclip q
0 g
265.109 135.965 m 265.191 130.527 l 280.906 130.625 l 292.871 130.746 302.473
 140.535 302.363 152.496 c 302.305 159.254 l 289.285 161.801 279.824 173.109
 279.621 186.375 c 279.602 189.312 l 279.492 196.766 282.379 203.957 287.613
 209.266 c 291.734 213.543 297.137 216.363 303 217.297 c 303 289.195 l 302.25
 289.203 302.188 289.211 301.82 289.215 c 301.539 289.219 301.188 289.215
 300.906 289.215 c 261.863 289.301 229.609 258.766 227.559 219.777 c 227.504
 218.828 227.457 210.828 227.441 203.789 c 227.441 203.227 227.34 202.668
 227.148 202.141 c 212.723 164.25 l 234.203 164.25 l 236.605 164.336 238.578
 162.367 238.5 159.965 c 238.5 140.25 l 260.609 140.25 l 263.039 140.32 
265.059 138.395 265.109 135.965 c h
265.109 135.965 m f
225.168 129.531 m 224.043 128.418 223.418 126.895 223.445 125.312 c 223.492
 121.977 226.191 119.285 229.527 119.25 c 229.594 119.25 l 256.348 119.574
 l 256.176 131.25 l 229.406 131.25 l 227.82 131.277 226.289 130.656 225.168
 129.531 c h
225.168 129.531 m f
307.785 168 m 312.809 167.977 317.633 169.973 321.172 173.535 c 324.711
 177.102 326.672 181.938 326.617 186.957 c 326.578 189.844 l 326.406 200.211
 317.945 208.523 307.574 208.5 c 307.395 208.5 l 302.367 208.512 297.543
 206.508 294.004 202.938 c 290.469 199.367 288.508 194.523 288.566 189.496
 c 288.605 186.625 l 288.777 176.262 297.246 167.965 307.609 168 c h
307.785 168 m f
312 288.371 m 312 217.367 l 324.75 215.316 335.465 203.898 335.652 190.066
 c 335.617 187.129 l 335.809 172.945 325.363 160.855 311.301 158.988 c 311.359
 152.574 l 311.516 135.633 297.918 121.77 280.977 121.594 c 276.461 121.531
 l 283.039 120.844 288.488 116.109 290.086 109.688 c 295.754 87 l 359.113
 87 l 357.949 92.25 356.238 99.684 354.625 108.676 c 350.914 129.328 349.637
 146.355 350.816 159.008 c 351.664 168.113 359.41 187.422 360.289 189.594
 c 360.352 189.73 360.418 189.863 360.492 189.988 c 371.398 210.746 370.828
 235.66 358.977 255.891 c 348.992 273.227 331.742 285.152 312 288.371 c 
h
312 288.371 m f
185.578 358.738 m 214.93 364.926 245.453 356.422 267.375 335.949 c 269.188
 334.227 272.059 334.309 273.766 336.137 c 275.473 337.965 275.363 340.836
 273.52 342.527 c 253.047 361.676 225.531 371.441 197.57 369.488 c 169.605
 367.531 143.719 354.027 126.113 332.215 c 108.508 343.668 l 105.148 345.855
 100.82 342.887 101.652 338.965 c 108.953 304.461 l 109.469 302.031 111.859
 300.477 114.289 300.992 c 148.793 308.293 l 152.715 309.125 153.676 314.285
 150.316 316.469 c 133.703 327.277 l 146.926 343.344 165.219 354.438 185.578
 358.738 c h
185.578 358.738 m f
267.547 79.539 m 267.031 81.969 264.641 83.523 262.211 83.008 c 227.711
 75.707 l 223.789 74.875 222.828 69.719 226.188 67.531 c 242.801 56.723 
l 226.668 37.141 203.156 25.102 177.84 23.457 c 152.52 21.816 127.652 30.719
 109.125 48.051 c 107.312 49.773 104.441 49.691 102.734 47.863 c 101.027
 46.035 101.137 43.164 102.98 41.473 c 123.453 22.324 150.969 12.559 178.93
 14.516 c 206.891 16.469 232.777 29.973 250.383 51.785 c 267.988 40.332 
l 271.352 38.145 275.676 41.113 274.848 45.035 c h
267.547 79.539 m f
78.75 145.34 m 117.781 145.34 141.75 156.945 141.75 165.27 c 141.75 196.992
 l 128.633 187.586 103.156 182.629 78.75 182.629 c 54.344 182.629 28.867
 187.586 15.75 196.992 c 15.75 165.27 l 15.75 156.945 39.719 145.34 78.75
 145.34 c h
78.75 145.34 m f
141.75 118.66 m 141.75 150.703 l 128.633 141.297 103.156 136.34 78.75 136.34
 c 54.344 136.34 28.867 141.301 15.75 150.703 c 15.75 118.66 l 15.75 110.336
 39.719 98.73 78.75 98.73 c 117.781 98.73 141.75 110.34 141.75 118.66 c 
h
141.75 118.66 m f
78.75 237.91 m 117.781 237.91 141.75 249.516 141.75 257.84 c 141.75 266.16
 117.781 277.77 78.75 277.77 c 39.719 277.77 15.75 266.16 15.75 257.84 c
 15.75 249.516 39.719 237.91 78.75 237.91 c h
78.75 237.91 m f
78.75 191.625 m 117.781 191.625 141.75 203.23 141.75 211.555 c 141.75 243.277
 l 128.633 233.871 103.156 228.914 78.75 228.914 c 54.344 228.914 28.867
 233.871 15.75 243.277 c 15.75 211.555 l 15.75 203.23 39.719 191.625 78.75
 191.625 c h
78.75 191.625 m f
Q Q
showpage
%%Trailer
end restore
%%EOF
