%!PS-Adobe-3.0 EPSF-3.0
%%Creator: cairo 1.14.8 (http://cairographics.org)
%%CreationDate: Thu Mar 21 09:07:39 2019
%%Pages: 1
%%DocumentData: Clean7Bit
%%LanguageLevel: 2
%%BoundingBox: 26 46 358 338
%%EndComments
%%BeginProlog
save
50 dict begin
/q { gsave } bind def
/Q { grestore } bind def
/cm { 6 array astore concat } bind def
/w { setlinewidth } bind def
/J { setlinecap } bind def
/j { setlinejoin } bind def
/M { setmiterlimit } bind def
/d { setdash } bind def
/m { moveto } bind def
/l { lineto } bind def
/c { curveto } bind def
/h { closepath } bind def
/re { exch dup neg 3 1 roll 5 3 roll moveto 0 rlineto
      0 exch rlineto 0 rlineto closepath } bind def
/S { stroke } bind def
/f { fill } bind def
/f* { eofill } bind def
/n { newpath } bind def
/W { clip } bind def
/W* { eoclip } bind def
/BT { } bind def
/ET { } bind def
/pdfmark where { pop globaldict /?pdfmark /exec load put }
    { globaldict begin /?pdfmark /pop load def /pdfmark
    /cleartomark load def end } ifelse
/BDC { mark 3 1 roll /BDC pdfmark } bind def
/EMC { mark /EMC pdfmark } bind def
/cairo_store_point { /cairo_point_y exch def /cairo_point_x exch def } def
/Tj { show currentpoint cairo_store_point } bind def
/TJ {
  {
    dup
    type /stringtype eq
    { show } { -0.001 mul 0 cairo_font_matrix dtransform rmoveto } ifelse
  } forall
  currentpoint cairo_store_point
} bind def
/cairo_selectfont { cairo_font_matrix aload pop pop pop 0 0 6 array astore
    cairo_font exch selectfont cairo_point_x cairo_point_y moveto } bind def
/Tf { pop /cairo_font exch def /cairo_font_matrix where
      { pop cairo_selectfont } if } bind def
/Td { matrix translate cairo_font_matrix matrix concatmatrix dup
      /cairo_font_matrix exch def dup 4 get exch 5 get cairo_store_point
      /cairo_font where { pop cairo_selectfont } if } bind def
/Tm { 2 copy 8 2 roll 6 array astore /cairo_font_matrix exch def
      cairo_store_point /cairo_font where { pop cairo_selectfont } if } bind def
/g { setgray } bind def
/rg { setrgbcolor } bind def
/d1 { setcachedevice } bind def
%%EndProlog
%%BeginSetup
%%EndSetup
%%Page: 1 1
%%BeginPageSetup
%%PageBoundingBox: 26 46 358 338
%%EndPageSetup
q 26 46 332 292 rectclip q
0 g
29.25 151.5 m 55.012 151.5 l 55.73 153.234 57.379 154.398 59.25 154.5 c
 216.75 154.5 l 218.621 154.398 220.27 153.234 220.988 151.5 c 246.75 151.5
 l 248.402 151.492 249.746 152.828 249.75 154.48 c 249.75 229.48 l 249.75
 231.141 248.41 232.488 246.75 232.5 c 220.641 232.5 l 219.891 231.059 218.375
 230.184 216.75 230.25 c 59.25 230.25 l 57.625 230.184 56.109 231.059 55.359
 232.5 c 29.25 232.5 l 27.59 232.488 26.25 231.141 26.25 229.48 c 26.25 
154.48 l 26.254 152.828 27.598 151.492 29.25 151.5 c h
218.625 209.23 m 225.602 209.23 231.891 205.027 234.562 198.582 c 237.23
 192.137 235.758 184.715 230.824 179.781 c 225.891 174.848 218.469 173.371
 212.023 176.043 c 205.578 178.711 201.375 185.004 201.375 191.98 c 201.387
 201.504 209.102 209.219 218.625 209.23 c h
175.125 209.23 m 182.102 209.23 188.391 205.027 191.062 198.582 c 193.73
 192.137 192.258 184.715 187.324 179.781 c 182.391 174.848 174.969 173.371
 168.523 176.043 c 162.078 178.711 157.875 185.004 157.875 191.98 c 157.887
 201.504 165.602 209.219 175.125 209.23 c h
119.25 203.23 m 119.25 209.23 128.25 209.23 128.25 203.23 c 128.25 180.73
 l 128.25 174.73 119.25 174.73 119.25 180.73 c h
99.75 203.23 m 99.75 209.23 108.75 209.23 108.75 203.23 c 108.75 180.73
 l 108.75 174.73 99.75 174.73 99.75 180.73 c h
79.5 203.23 m 79.5 209.23 88.5 209.23 88.5 203.23 c 88.5 180.73 l 88.5 
174.73 79.5 174.73 79.5 180.73 c h
60 203.23 m 60 209.23 69 209.23 69 203.23 c 69 180.73 l 69 174.73 60 174.73
 60 180.73 c h
39.75 203.23 m 39.75 209.23 48.75 209.23 48.75 203.23 c 48.75 180.73 l 
48.75 174.73 39.75 174.73 39.75 180.73 c h
39.75 203.23 m f
63.75 250.5 148.5 -11.25 re f
226.875 191.98 m 226.875 187.422 223.18 183.73 218.625 183.73 c 214.07 
183.73 210.375 187.422 210.375 191.98 c 210.375 196.535 214.07 200.23 218.625
 200.23 c 223.18 200.23 226.875 196.535 226.875 191.98 c h
226.875 191.98 m f
226.875 86.98 m 226.875 82.422 223.18 78.73 218.625 78.73 c 214.07 78.73
 210.375 82.422 210.375 86.98 c 210.375 91.535 214.07 95.23 218.625 95.23
 c 223.18 95.23 226.875 91.535 226.875 86.98 c h
226.875 86.98 m f
29.25 46.5 m 246.75 46.5 l 248.402 46.492 249.746 47.828 249.75 49.48 c
 249.75 124.48 l 249.75 126.141 248.41 127.488 246.75 127.5 c 220.641 127.5
 l 219.891 126.059 218.375 125.184 216.75 125.25 c 59.25 125.25 l 57.625
 125.184 56.109 126.059 55.359 127.5 c 29.25 127.5 l 27.59 127.488 26.25
 126.141 26.25 124.48 c 26.25 49.48 l 26.254 47.828 27.598 46.492 29.25 
46.5 c h
218.625 104.23 m 225.602 104.23 231.891 100.027 234.562 93.582 c 237.23
 87.137 235.758 79.715 230.824 74.781 c 225.891 69.848 218.469 68.371 212.023
 71.043 c 205.578 73.711 201.375 80.004 201.375 86.98 c 201.387 96.504 209.102
 104.219 218.625 104.23 c h
175.125 104.23 m 182.102 104.23 188.391 100.027 191.062 93.582 c 193.73
 87.137 192.258 79.715 187.324 74.781 c 182.391 69.848 174.969 68.371 168.523
 71.043 c 162.078 73.711 157.875 80.004 157.875 86.98 c 157.887 96.504 165.602
 104.219 175.125 104.23 c h
119.25 98.23 m 119.25 104.23 128.25 104.23 128.25 98.23 c 128.25 75.73 
l 128.25 69.73 119.25 69.73 119.25 75.73 c h
99.75 98.23 m 99.75 104.23 108.75 104.23 108.75 98.23 c 108.75 75.73 l 
108.75 69.73 99.75 69.73 99.75 75.73 c h
79.5 98.23 m 79.5 104.23 88.5 104.23 88.5 98.23 c 88.5 75.73 l 88.5 69.73
 79.5 69.73 79.5 75.73 c h
60 98.23 m 60 104.23 69 104.23 69 98.23 c 69 75.73 l 69 69.73 60 69.73 
60 75.73 c h
39.75 98.23 m 39.75 104.23 48.75 104.23 48.75 98.23 c 48.75 75.73 l 48.75
 69.73 39.75 69.73 39.75 75.73 c h
39.75 98.23 m f
183.375 191.98 m 183.375 187.422 179.68 183.73 175.125 183.73 c 170.57 
183.73 166.875 187.422 166.875 191.98 c 166.875 196.535 170.57 200.23 175.125
 200.23 c 179.68 200.23 183.375 196.535 183.375 191.98 c h
183.375 191.98 m f
183.375 86.98 m 183.375 82.422 179.68 78.73 175.125 78.73 c 170.57 78.73
 166.875 82.422 166.875 86.98 c 166.875 91.535 170.57 95.23 175.125 95.23
 c 179.68 95.23 183.375 91.535 183.375 86.98 c h
183.375 86.98 m f
63.75 145.5 148.5 -11.25 re f
29.25 256.5 m 55.012 256.5 l 55.73 258.234 57.379 259.398 59.25 259.5 c
 216.75 259.5 l 218.621 259.398 220.27 258.234 220.988 256.5 c 246.75 256.5
 l 248.402 256.492 249.746 257.828 249.75 259.48 c 249.75 334.48 l 249.75
 336.141 248.41 337.488 246.75 337.5 c 29.25 337.5 l 27.59 337.488 26.25
 336.141 26.25 334.48 c 26.25 259.48 l 26.254 257.828 27.598 256.492 29.25
 256.5 c h
218.625 314.23 m 225.602 314.23 231.891 310.027 234.562 303.582 c 237.23
 297.137 235.758 289.715 230.824 284.781 c 225.891 279.848 218.469 278.371
 212.023 281.043 c 205.578 283.711 201.375 290.004 201.375 296.98 c 201.387
 306.504 209.102 314.219 218.625 314.23 c h
175.125 314.23 m 182.102 314.23 188.391 310.027 191.062 303.582 c 193.73
 297.137 192.258 289.715 187.324 284.781 c 182.391 279.848 174.969 278.371
 168.523 281.043 c 162.078 283.711 157.875 290.004 157.875 296.98 c 157.887
 306.504 165.602 314.219 175.125 314.23 c h
119.25 308.23 m 119.25 314.23 128.25 314.23 128.25 308.23 c 128.25 285.73
 l 128.25 279.73 119.25 279.73 119.25 285.73 c h
99.75 308.23 m 99.75 314.23 108.75 314.23 108.75 308.23 c 108.75 285.73
 l 108.75 279.73 99.75 279.73 99.75 285.73 c h
79.5 308.23 m 79.5 314.23 88.5 314.23 88.5 308.23 c 88.5 285.73 l 88.5 
279.73 79.5 279.73 79.5 285.73 c h
60 308.23 m 60 314.23 69 314.23 69 308.23 c 69 285.73 l 69 279.73 60 279.73
 60 285.73 c h
39.75 308.23 m 39.75 314.23 48.75 314.23 48.75 308.23 c 48.75 285.73 l 
48.75 279.73 39.75 279.73 39.75 285.73 c h
39.75 308.23 m f
226.875 296.98 m 226.875 292.422 223.18 288.73 218.625 288.73 c 214.07 
288.73 210.375 292.422 210.375 296.98 c 210.375 301.535 214.07 305.23 218.625
 305.23 c 223.18 305.23 226.875 301.535 226.875 296.98 c h
226.875 296.98 m f
183.375 296.98 m 183.375 292.422 179.68 288.73 175.125 288.73 c 170.57 
288.73 166.875 292.422 166.875 296.98 c 166.875 301.535 170.57 305.23 175.125
 305.23 c 179.68 305.23 183.375 301.535 183.375 296.98 c h
183.375 296.98 m f
286.5 57.02 m 286.5 54.531 288.512 52.508 291 52.5 c 332.25 52.5 l 332.25
 61.5 l 295.5 61.5 l 295.5 187.5 l 332.25 187.5 l 332.25 196.5 l 295.5 196.5
 l 295.5 322.5 l 332.25 322.5 l 332.25 331.5 l 291 331.5 l 288.52 331.508
 286.504 329.5 286.5 327.02 c 286.5 196.5 l 258 196.5 l 258 187.5 l 286.5
 187.5 l h
286.5 57.02 m f
357.75 327.02 m 357.75 321.223 353.051 316.52 347.25 316.52 c 341.449 316.52
 336.75 321.223 336.75 327.02 c 336.75 332.82 341.449 337.52 347.25 337.52
 c 353.051 337.52 357.75 332.82 357.75 327.02 c h
357.75 327.02 m f
357.75 192.02 m 357.75 186.223 353.051 181.52 347.25 181.52 c 341.449 181.52
 336.75 186.223 336.75 192.02 c 336.75 197.82 341.449 202.52 347.25 202.52
 c 353.051 202.52 357.75 197.82 357.75 192.02 c h
357.75 192.02 m f
357.75 57.02 m 357.75 51.223 353.051 46.52 347.25 46.52 c 341.449 46.52
 336.75 51.223 336.75 57.02 c 336.75 62.82 341.449 67.52 347.25 67.52 c 
353.051 67.52 357.75 62.82 357.75 57.02 c h
357.75 57.02 m f
Q Q
showpage
%%Trailer
end restore
%%EOF
