%!PS-Adobe-3.0 EPSF-3.0
%%Creator: cairo 1.14.8 (http://cairographics.org)
%%CreationDate: Thu Mar 21 09:07:39 2019
%%Pages: 1
%%DocumentData: Clean7Bit
%%LanguageLevel: 2
%%BoundingBox: 65 45 319 339
%%EndComments
%%BeginProlog
save
50 dict begin
/q { gsave } bind def
/Q { grestore } bind def
/cm { 6 array astore concat } bind def
/w { setlinewidth } bind def
/J { setlinecap } bind def
/j { setlinejoin } bind def
/M { setmiterlimit } bind def
/d { setdash } bind def
/m { moveto } bind def
/l { lineto } bind def
/c { curveto } bind def
/h { closepath } bind def
/re { exch dup neg 3 1 roll 5 3 roll moveto 0 rlineto
      0 exch rlineto 0 rlineto closepath } bind def
/S { stroke } bind def
/f { fill } bind def
/f* { eofill } bind def
/n { newpath } bind def
/W { clip } bind def
/W* { eoclip } bind def
/BT { } bind def
/ET { } bind def
/pdfmark where { pop globaldict /?pdfmark /exec load put }
    { globaldict begin /?pdfmark /pop load def /pdfmark
    /cleartomark load def end } ifelse
/BDC { mark 3 1 roll /BDC pdfmark } bind def
/EMC { mark /EMC pdfmark } bind def
/cairo_store_point { /cairo_point_y exch def /cairo_point_x exch def } def
/Tj { show currentpoint cairo_store_point } bind def
/TJ {
  {
    dup
    type /stringtype eq
    { show } { -0.001 mul 0 cairo_font_matrix dtransform rmoveto } ifelse
  } forall
  currentpoint cairo_store_point
} bind def
/cairo_selectfont { cairo_font_matrix aload pop pop pop 0 0 6 array astore
    cairo_font exch selectfont cairo_point_x cairo_point_y moveto } bind def
/Tf { pop /cairo_font exch def /cairo_font_matrix where
      { pop cairo_selectfont } if } bind def
/Td { matrix translate cairo_font_matrix matrix concatmatrix dup
      /cairo_font_matrix exch def dup 4 get exch 5 get cairo_store_point
      /cairo_font where { pop cairo_selectfont } if } bind def
/Tm { 2 copy 8 2 roll 6 array astore /cairo_font_matrix exch def
      cairo_store_point /cairo_font where { pop cairo_selectfont } if } bind def
/g { setgray } bind def
/rg { setrgbcolor } bind def
/d1 { setcachedevice } bind def
%%EndProlog
%%BeginSetup
%%EndSetup
%%Page: 1 1
%%BeginPageSetup
%%PageBoundingBox: 65 45 319 339
%%EndPageSetup
q 65 45 254 294 rectclip q
0 g
252.375 305.566 m 252.375 301.012 248.68 297.316 244.125 297.316 c 239.57
 297.316 235.875 301.012 235.875 305.566 c 235.875 310.121 239.57 313.816
 244.125 313.816 c 248.68 313.816 252.375 310.121 252.375 305.566 c h
252.375 305.566 m f
252.375 215.566 m 252.375 211.012 248.68 207.316 244.125 207.316 c 239.57
 207.316 235.875 211.012 235.875 215.566 c 235.875 220.121 239.57 223.816
 244.125 223.816 c 248.68 223.816 252.375 220.121 252.375 215.566 c h
252.375 215.566 m f
295.875 215.566 m 295.875 211.012 292.18 207.316 287.625 207.316 c 283.07
 207.316 279.375 211.012 279.375 215.566 c 279.375 220.121 283.07 223.816
 287.625 223.816 c 292.18 223.816 295.875 220.121 295.875 215.566 c h
295.875 215.566 m f
295.875 305.566 m 295.875 301.012 292.18 297.316 287.625 297.316 c 283.07
 297.316 279.375 301.012 279.375 305.566 c 279.375 310.121 283.07 313.816
 287.625 313.816 c 292.18 313.816 295.875 310.121 295.875 305.566 c h
295.875 305.566 m f
68.25 272.25 m 94.012 272.25 l 94.629 274.5 96.293 275.25 98.25 275.25 
c 285.75 275.25 l 287.707 275.25 289.371 274.5 289.988 272.25 c 315.75 272.25
 l 317.406 272.25 318.75 273.914 318.75 275.566 c 318.75 335.566 l 318.75
 337.223 317.406 338.25 315.75 338.25 c 68.25 338.25 l 66.594 338.25 65.25
 337.223 65.25 335.566 c 65.25 275.566 l 65.25 273.914 66.594 272.25 68.25
 272.25 c h
287.625 322.816 m 294.602 322.816 300.891 318.613 303.562 312.168 c 306.23
 305.723 304.758 298.301 299.824 293.367 c 294.891 288.434 287.469 286.961
 281.023 289.629 c 274.578 292.301 270.375 298.59 270.375 305.566 c 270.387
 315.09 278.102 322.805 287.625 322.816 c h
244.125 322.816 m 251.102 322.816 257.391 318.613 260.062 312.168 c 262.73
 305.723 261.258 298.301 256.324 293.367 c 251.391 288.434 243.969 286.961
 237.523 289.629 c 231.078 292.301 226.875 298.59 226.875 305.566 c 226.887
 315.09 234.602 322.805 244.125 322.816 c h
158.25 309.316 m 158.25 315.316 167.25 315.316 167.25 309.316 c 167.25 
294.316 l 167.25 288.316 158.25 288.316 158.25 294.316 c h
138.75 309.316 m 138.75 315.316 147.75 315.316 147.75 309.316 c 147.75 
294.316 l 147.75 288.316 138.75 288.316 138.75 294.316 c h
118.5 309.316 m 118.5 315.316 127.5 315.316 127.5 309.316 c 127.5 294.316
 l 127.5 288.316 118.5 288.316 118.5 294.316 c h
99 309.316 m 99 315.316 108 315.316 108 309.316 c 108 294.316 l 108 288.316
 99 288.316 99 294.316 c h
78.75 309.316 m 78.75 315.316 87.75 315.316 87.75 309.316 c 87.75 294.316
 l 87.75 288.316 78.75 288.316 78.75 294.316 c h
78.75 309.316 m f
102.75 266.25 178.5 -11.25 re f
68.25 182.25 m 315.75 182.25 l 317.406 182.25 318.75 183.914 318.75 185.566
 c 318.75 245.566 l 318.75 247.223 317.406 248.25 315.75 248.25 c 289.645
 248.25 l 288.863 247.5 287.414 246 285.75 246 c 98.25 246 l 96.586 246 
95.137 247.5 94.355 248.25 c 68.25 248.25 l 66.594 248.25 65.25 247.223 
65.25 245.566 c 65.25 185.566 l 65.25 183.914 66.594 182.25 68.25 182.25
 c h
287.625 232.816 m 294.602 232.816 300.891 228.613 303.562 222.168 c 306.23
 215.723 304.758 208.301 299.824 203.367 c 294.891 198.434 287.469 196.961
 281.023 199.629 c 274.578 202.301 270.375 208.59 270.375 215.566 c 270.387
 225.09 278.102 232.805 287.625 232.816 c h
244.125 232.816 m 251.102 232.816 257.391 228.613 260.062 222.168 c 262.73
 215.723 261.258 208.301 256.324 203.367 c 251.391 198.434 243.969 196.961
 237.523 199.629 c 231.078 202.301 226.875 208.59 226.875 215.566 c 226.887
 225.09 234.602 232.805 244.125 232.816 c h
158.25 219.316 m 158.25 225.316 167.25 225.316 167.25 219.316 c 167.25 
204.316 l 167.25 198.316 158.25 198.316 158.25 204.316 c h
138.75 219.316 m 138.75 225.316 147.75 225.316 147.75 219.316 c 147.75 
204.316 l 147.75 198.316 138.75 198.316 138.75 204.316 c h
118.5 219.316 m 118.5 225.316 127.5 225.316 127.5 219.316 c 127.5 204.316
 l 127.5 198.316 118.5 198.316 118.5 204.316 c h
99 219.316 m 99 225.316 108 225.316 108 219.316 c 108 204.316 l 108 198.316
 99 198.316 99 204.316 c h
78.75 219.316 m 78.75 225.316 87.75 225.316 87.75 219.316 c 87.75 204.316
 l 87.75 198.316 78.75 198.316 78.75 204.316 c h
78.75 219.316 m f
187.5 177.75 9 -102 re f
204.941 58.375 m 204.941 51.227 199.148 45.434 192 45.434 c 184.852 45.434
 179.059 51.227 179.059 58.375 c 179.059 65.523 184.852 71.316 192 71.316
 c 199.148 71.316 204.941 65.523 204.941 58.375 c h
204.941 58.375 m f
219 177.75 m 219 136.281 l 218.969 133.859 220.973 131.906 223.395 132 
c 245.25 132 l 245.25 105 l 254.25 105 l 254.25 136.281 l 254.18 138.848
 252.121 140.914 249.559 141 c 228 141 l 228 177.75 l h
219 177.75 m f
236.617 87.445 m 236.617 82.211 239.77 77.492 244.605 75.488 c 249.441 
73.484 255.008 74.594 258.711 78.293 c 262.41 81.996 263.52 87.562 261.516
 92.398 c 259.512 97.234 254.793 100.387 249.559 100.387 c 242.414 100.379
 236.625 94.59 236.617 87.445 c h
236.617 87.445 m f
138.75 132 m 160.605 132 l 163.027 131.906 165.031 133.859 165 136.281 
c 165 177.75 l 156 177.75 l 156 141 l 134.441 141 l 131.879 140.914 129.82
 138.848 129.75 136.281 c 129.75 122.25 l 138.75 122.25 l h
138.75 132 m f
121.5 104.887 m 121.5 99.652 124.652 94.93 129.488 92.926 c 134.324 90.922
 139.891 92.027 143.594 95.73 c 147.293 99.43 148.402 105 146.398 109.836
 c 144.395 114.672 139.676 117.824 134.441 117.824 c 127.301 117.816 121.512
 112.031 121.5 104.887 c h
121.5 104.887 m f
Q Q
showpage
%%Trailer
end restore
%%EOF
