%!PS-Adobe-3.0 EPSF-3.0
%%Creator: cairo 1.14.8 (http://cairographics.org)
%%CreationDate: Thu Mar 21 09:07:39 2019
%%Pages: 1
%%DocumentData: Clean7Bit
%%LanguageLevel: 2
%%BoundingBox: 47 27 337 357
%%EndComments
%%BeginProlog
save
50 dict begin
/q { gsave } bind def
/Q { grestore } bind def
/cm { 6 array astore concat } bind def
/w { setlinewidth } bind def
/J { setlinecap } bind def
/j { setlinejoin } bind def
/M { setmiterlimit } bind def
/d { setdash } bind def
/m { moveto } bind def
/l { lineto } bind def
/c { curveto } bind def
/h { closepath } bind def
/re { exch dup neg 3 1 roll 5 3 roll moveto 0 rlineto
      0 exch rlineto 0 rlineto closepath } bind def
/S { stroke } bind def
/f { fill } bind def
/f* { eofill } bind def
/n { newpath } bind def
/W { clip } bind def
/W* { eoclip } bind def
/BT { } bind def
/ET { } bind def
/pdfmark where { pop globaldict /?pdfmark /exec load put }
    { globaldict begin /?pdfmark /pop load def /pdfmark
    /cleartomark load def end } ifelse
/BDC { mark 3 1 roll /BDC pdfmark } bind def
/EMC { mark /EMC pdfmark } bind def
/cairo_store_point { /cairo_point_y exch def /cairo_point_x exch def } def
/Tj { show currentpoint cairo_store_point } bind def
/TJ {
  {
    dup
    type /stringtype eq
    { show } { -0.001 mul 0 cairo_font_matrix dtransform rmoveto } ifelse
  } forall
  currentpoint cairo_store_point
} bind def
/cairo_selectfont { cairo_font_matrix aload pop pop pop 0 0 6 array astore
    cairo_font exch selectfont cairo_point_x cairo_point_y moveto } bind def
/Tf { pop /cairo_font exch def /cairo_font_matrix where
      { pop cairo_selectfont } if } bind def
/Td { matrix translate cairo_font_matrix matrix concatmatrix dup
      /cairo_font_matrix exch def dup 4 get exch 5 get cairo_store_point
      /cairo_font where { pop cairo_selectfont } if } bind def
/Tm { 2 copy 8 2 roll 6 array astore /cairo_font_matrix exch def
      cairo_store_point /cairo_font where { pop cairo_selectfont } if } bind def
/g { setgray } bind def
/rg { setrgbcolor } bind def
/d1 { setcachedevice } bind def
%%EndProlog
%%BeginSetup
%%EndSetup
%%Page: 1 1
%%BeginPageSetup
%%PageBoundingBox: 47 27 337 357
%%EndPageSetup
q 47 27 290 330 rectclip q
0 g
84.75 126.75 178.5 -11.25 re f
234.191 173.371 m 234.191 168.812 230.5 165.121 225.941 165.121 c 221.387
 165.121 217.691 168.812 217.691 173.371 c 217.691 177.926 221.387 181.621
 225.941 181.621 c 230.5 181.621 234.191 177.926 234.191 173.371 c h
234.191 173.371 m f
277.691 68.371 m 277.691 63.812 274 60.121 269.441 60.121 c 264.887 60.121
 261.191 63.812 261.191 68.371 c 261.191 72.926 264.887 76.621 269.441 76.621
 c 274 76.621 277.691 72.926 277.691 68.371 c h
277.691 68.371 m f
297.566 108.75 m 271.461 108.75 l 270.684 108 269.234 106.5 267.566 106.5
 c 80.066 106.5 l 78.402 106.5 76.953 108 76.176 108.75 c 50.066 108.75 
l 48.469 108.789 47.176 107.465 47.25 105.871 c 47.25 30.871 l 47.16 29.227
 48.426 27.824 50.066 27.75 c 297.566 27.75 l 299.281 27.793 300.672 29.156
 300.75 30.871 c 300.75 105.871 l 300.652 107.535 299.234 108.816 297.566
 108.75 c h
69.75 57.121 m 69.75 51.121 60.75 51.121 60.75 57.121 c 60.75 79.621 l 
60.75 85.621 69.75 85.621 69.75 79.621 c h
90 57.121 m 90 51.121 81 51.121 81 57.121 c 81 79.621 l 81 85.621 90 85.621
 90 79.621 c h
109.5 57.121 m 109.5 51.121 100.5 51.121 100.5 57.121 c 100.5 79.621 l 
100.5 85.621 109.5 85.621 109.5 79.621 c h
129 57.121 m 129 51.121 120 51.121 120 57.121 c 120 79.621 l 120 85.621
 129 85.621 129 79.621 c h
149.25 57.121 m 149.25 51.121 140.25 51.121 140.25 57.121 c 140.25 79.621
 l 140.25 85.621 149.25 85.621 149.25 79.621 c h
225.941 51.121 m 218.965 51.121 212.676 55.324 210.004 61.77 c 207.336 
68.215 208.812 75.633 213.746 80.566 c 218.68 85.5 226.098 86.977 232.543
 84.309 c 238.988 81.637 243.191 75.348 243.191 68.371 c 243.184 58.848 
235.465 51.129 225.941 51.121 c h
269.441 51.121 m 262.465 51.121 256.176 55.324 253.504 61.77 c 250.836 
68.215 252.312 75.633 257.246 80.566 c 262.18 85.5 269.598 86.977 276.043
 84.309 c 282.488 81.637 286.691 75.348 286.691 68.371 c 286.684 58.848 
278.965 51.129 269.441 51.121 c h
269.441 51.121 m f
234.191 68.371 m 234.191 63.812 230.5 60.121 225.941 60.121 c 221.387 60.121
 217.691 63.812 217.691 68.371 c 217.691 72.926 221.387 76.621 225.941 76.621
 c 230.5 76.621 234.191 72.926 234.191 68.371 c h
234.191 68.371 m f
50.066 318.75 m 48.469 318.789 47.176 317.465 47.25 315.871 c 47.25 240.871
 l 47.16 239.227 48.426 237.824 50.066 237.75 c 75.828 237.75 l 76.449 240
 78.109 240.75 80.066 240.75 c 216.492 240.75 l 209.34 254.5 205.57 269.758
 205.5 285.258 c 205.5 318.75 l h
69.75 267.121 m 69.75 261.121 60.75 261.121 60.75 267.121 c 60.75 289.621
 l 60.75 295.621 69.75 295.621 69.75 289.621 c h
90 267.121 m 90 261.121 81 261.121 81 267.121 c 81 289.621 l 81 295.621
 90 295.621 90 289.621 c h
109.5 267.121 m 109.5 261.121 100.5 261.121 100.5 267.121 c 100.5 289.621
 l 100.5 295.621 109.5 295.621 109.5 289.621 c h
129 267.121 m 129 261.121 120 261.121 120 267.121 c 120 289.621 l 120 295.621
 129 295.621 129 289.621 c h
149.25 267.121 m 149.25 261.121 140.25 261.121 140.25 267.121 c 140.25 
289.621 l 140.25 295.621 149.25 295.621 149.25 289.621 c h
149.25 267.121 m f
230.461 220.5 m 227.293 224.25 224.395 228 221.773 231.75 c 84.75 231.75
 l 84.75 220.5 l h
230.461 220.5 m f
277.691 173.371 m 277.691 168.812 274 165.121 269.441 165.121 c 264.887
 165.121 261.191 168.812 261.191 173.371 c 261.191 177.926 264.887 181.621
 269.441 181.621 c 274 181.621 277.691 177.926 277.691 173.371 c h
277.691 173.371 m f
214.5 323.5 m 214.5 285.258 l 214.574 250.277 235.324 218.652 267.383 204.656
 c 274.648 201.523 l 282.965 205.125 l 282.977 205.129 282.941 205.133 282.949
 205.137 c 315.57 218.848 336.781 250.793 336.75 286.176 c 336.75 323.465
 l 274.734 356.504 l h
295.5 301.621 m 295.5 290.238 l 300.059 288.438 303.039 284.02 303 279.121
 c 303 249.121 l 302.918 242.438 297.5 237.051 290.816 237 c 260.816 237
 l 257.645 237.039 254.613 238.336 252.398 240.609 c 250.18 242.883 248.957
 245.945 249 249.121 c 249 279.121 l 248.961 284.02 251.941 288.438 256.5
 290.238 c 256.5 301.621 l 256.5 312.391 265.23 321.121 276 321.121 c 286.77
 321.121 295.5 312.391 295.5 301.621 c h
295.5 301.621 m f
286.5 301.621 m 286.5 307.418 281.801 312.121 276 312.121 c 270.199 312.121
 265.5 307.418 265.5 301.621 c 265.5 291 l 286.5 291 l h
286.5 301.621 m f
261 282 m 291 282 l 292.66 282 294 280.66 294 279 c 294 249 l 294 247.34
 292.66 246 291 246 c 261 246 l 259.34 246 258 247.34 258 249 c 258 279 
l 258 280.66 259.34 282 261 282 c h
261 282 m f
276.449 192.465 m 275.887 192.215 275.281 192.082 274.664 192.074 c 274.051
 192.059 273.438 192.168 272.867 192.402 c 263.891 196.352 l 255.137 200.227
 246.977 205.328 239.656 211.5 c 80.066 211.5 l 78.402 211.5 76.953 213 
76.176 213.75 c 50.066 213.75 l 48.469 213.789 47.176 212.465 47.25 210.871
 c 47.25 135.871 l 47.16 134.227 48.426 132.824 50.066 132.75 c 75.828 132.75
 l 76.449 135 78.109 135.75 80.066 135.75 c 267.566 135.75 l 269.527 135.75
 271.188 135 271.809 132.75 c 297.566 132.75 l 299.281 132.793 300.672 134.156
 300.75 135.871 c 300.75 204.172 l 296.246 201.375 291.535 198.926 286.656
 196.844 c h
69.75 162.121 m 69.75 156.121 60.75 156.121 60.75 162.121 c 60.75 184.621
 l 60.75 190.621 69.75 190.621 69.75 184.621 c h
90 162.121 m 90 156.121 81 156.121 81 162.121 c 81 184.621 l 81 190.621
 90 190.621 90 184.621 c h
109.5 162.121 m 109.5 156.121 100.5 156.121 100.5 162.121 c 100.5 184.621
 l 100.5 190.621 109.5 190.621 109.5 184.621 c h
129 162.121 m 129 156.121 120 156.121 120 162.121 c 120 184.621 l 120 190.621
 129 190.621 129 184.621 c h
149.25 162.121 m 149.25 156.121 140.25 156.121 140.25 162.121 c 140.25 
184.621 l 140.25 190.621 149.25 190.621 149.25 184.621 c h
225.941 156.121 m 218.965 156.121 212.676 160.324 210.004 166.77 c 207.336
 173.215 208.812 180.633 213.746 185.566 c 218.68 190.5 226.098 191.977 
232.543 189.309 c 238.988 186.637 243.191 180.348 243.191 173.371 c 243.184
 163.848 235.465 156.129 225.941 156.121 c h
269.441 156.121 m 262.465 156.121 256.176 160.324 253.504 166.77 c 250.836
 173.215 252.312 180.633 257.246 185.566 c 262.18 190.5 269.598 191.977 
276.043 189.309 c 282.488 186.637 286.691 180.348 286.691 173.371 c 286.684
 163.848 278.965 156.129 269.441 156.121 c h
269.441 156.121 m f
Q Q
showpage
%%Trailer
end restore
%%EOF
