%!PS-Adobe-3.0 EPSF-3.0
%%Creator: cairo 1.14.8 (http://cairographics.org)
%%CreationDate: Thu Mar 21 09:07:39 2019
%%Pages: 1
%%DocumentData: Clean7Bit
%%LanguageLevel: 2
%%BoundingBox: 34 26 349 358
%%EndComments
%%BeginProlog
save
50 dict begin
/q { gsave } bind def
/Q { grestore } bind def
/cm { 6 array astore concat } bind def
/w { setlinewidth } bind def
/J { setlinecap } bind def
/j { setlinejoin } bind def
/M { setmiterlimit } bind def
/d { setdash } bind def
/m { moveto } bind def
/l { lineto } bind def
/c { curveto } bind def
/h { closepath } bind def
/re { exch dup neg 3 1 roll 5 3 roll moveto 0 rlineto
      0 exch rlineto 0 rlineto closepath } bind def
/S { stroke } bind def
/f { fill } bind def
/f* { eofill } bind def
/n { newpath } bind def
/W { clip } bind def
/W* { eoclip } bind def
/BT { } bind def
/ET { } bind def
/pdfmark where { pop globaldict /?pdfmark /exec load put }
    { globaldict begin /?pdfmark /pop load def /pdfmark
    /cleartomark load def end } ifelse
/BDC { mark 3 1 roll /BDC pdfmark } bind def
/EMC { mark /EMC pdfmark } bind def
/cairo_store_point { /cairo_point_y exch def /cairo_point_x exch def } def
/Tj { show currentpoint cairo_store_point } bind def
/TJ {
  {
    dup
    type /stringtype eq
    { show } { -0.001 mul 0 cairo_font_matrix dtransform rmoveto } ifelse
  } forall
  currentpoint cairo_store_point
} bind def
/cairo_selectfont { cairo_font_matrix aload pop pop pop 0 0 6 array astore
    cairo_font exch selectfont cairo_point_x cairo_point_y moveto } bind def
/Tf { pop /cairo_font exch def /cairo_font_matrix where
      { pop cairo_selectfont } if } bind def
/Td { matrix translate cairo_font_matrix matrix concatmatrix dup
      /cairo_font_matrix exch def dup 4 get exch 5 get cairo_store_point
      /cairo_font where { pop cairo_selectfont } if } bind def
/Tm { 2 copy 8 2 roll 6 array astore /cairo_font_matrix exch def
      cairo_store_point /cairo_font where { pop cairo_selectfont } if } bind def
/g { setgray } bind def
/rg { setrgbcolor } bind def
/d1 { setcachedevice } bind def
%%EndProlog
%%BeginSetup
%%EndSetup
%%Page: 1 1
%%BeginPageSetup
%%PageBoundingBox: 34 26 349 358
%%EndPageSetup
q 34 26 315 332 rectclip q
0 g
72 125.25 178.5 -11.25 re f
37.875 26.25 m 285.375 26.25 l 287.031 26.25 288 27.703 288 29.359 c 288
 104.359 l 288 106.016 287.031 107.25 285.375 107.25 c 259.27 107.25 l 258.516
 105.809 257 104.934 255.375 105 c 67.875 105 l 66.25 104.934 64.734 105.809
 63.98 107.25 c 37.875 107.25 l 36.219 107.25 34.5 106.016 34.5 104.359 
c 34.5 29.359 l 34.5 27.703 36.219 26.25 37.875 26.25 c h
257.25 84.109 m 264.227 84.109 270.516 79.906 273.188 73.461 c 275.855 
67.016 274.383 59.594 269.449 54.66 c 264.516 49.727 257.094 48.254 250.648
 50.922 c 244.203 53.594 240 59.883 240 66.859 c 240.012 76.383 247.727 
84.098 257.25 84.109 c h
213.75 84.109 m 220.727 84.109 227.016 79.906 229.688 73.461 c 232.355 
67.016 230.883 59.594 225.949 54.66 c 221.016 49.727 213.594 48.254 207.148
 50.922 c 200.703 53.594 196.5 59.883 196.5 66.859 c 196.512 76.383 204.227
 84.098 213.75 84.109 c h
128.25 78.109 m 128.25 84.109 137.25 84.109 137.25 78.109 c 137.25 55.609
 l 137.25 49.609 128.25 49.609 128.25 55.609 c h
108 78.109 m 108 84.109 117 84.109 117 78.109 c 117 55.609 l 117 49.609
 108 49.609 108 55.609 c h
88.5 78.109 m 88.5 84.109 97.5 84.109 97.5 78.109 c 97.5 55.609 l 97.5 
49.609 88.5 49.609 88.5 55.609 c h
88.5 78.109 m f
265.5 66.859 m 265.5 62.305 261.805 58.609 257.25 58.609 c 252.695 58.609
 249 62.305 249 66.859 c 249 71.414 252.695 75.109 257.25 75.109 c 261.805
 75.109 265.5 71.414 265.5 66.859 c h
265.5 66.859 m f
222 66.859 m 222 62.305 218.305 58.609 213.75 58.609 c 209.195 58.609 205.5
 62.305 205.5 66.859 c 205.5 71.414 209.195 75.109 213.75 75.109 c 218.305
 75.109 222 71.414 222 66.859 c h
222 66.859 m f
72 230.25 m 72 219 l 201.836 219 l 199.664 222 197.645 224.262 195.805 
227.133 c 195.145 228.156 194.527 229.5 193.922 230.25 c h
72 230.25 m f
203.379 232.09 m 218.453 208.391 247.043 197.047 274.266 203.961 c 301.488
 210.871 321.203 234.48 323.148 262.5 c 258.215 262.5 l 255.652 262.562 
253.586 264.609 253.5 267.168 c 253.5 332.105 l 237.844 331.078 223.098 
324.363 212.051 313.219 c 190.555 291.527 186.953 257.836 203.379 232.09
 c h
203.379 232.09 m f
37.875 236.25 m 63.637 236.25 l 64.355 237.984 66.004 239.148 67.875 239.25
 c 189.535 239.25 l 185.977 248.09 184.141 257.527 184.125 267.059 c 184.066
 285.66 191.059 303.598 203.695 317.25 c 37.875 317.25 l 36.219 317.25 34.5
 316.016 34.5 314.359 c 34.5 239.359 l 34.5 237.703 36.219 236.25 37.875
 236.25 c h
128.25 288.109 m 128.25 294.109 137.25 294.109 137.25 288.109 c 137.25 
265.609 l 137.25 259.609 128.25 259.609 128.25 265.609 c h
108 288.109 m 108 294.109 117 294.109 117 288.109 c 117 265.609 l 117 259.609
 108 259.609 108 265.609 c h
88.5 288.109 m 88.5 294.109 97.5 294.109 97.5 288.109 c 97.5 265.609 l 
97.5 259.609 88.5 259.609 88.5 265.609 c h
88.5 288.109 m f
37.875 131.25 m 63.637 131.25 l 64.355 132.984 66.004 134.148 67.875 134.25
 c 255.375 134.25 l 257.246 134.148 258.895 132.984 259.613 131.25 c 285.375
 131.25 l 287.031 131.25 288 132.703 288 134.359 c 288 199.434 l 278.582
 195.18 268.359 192.992 258.027 193.023 c 240.449 193.023 224.039 199.5 
210.934 210 c 67.875 210 l 66.25 209.934 64.734 210.809 63.984 212.25 c 
37.875 212.25 l 36.219 212.25 34.5 211.016 34.5 209.359 c 34.5 134.359 l
 34.5 132.703 36.219 131.25 37.875 131.25 c h
257.25 189.109 m 264.227 189.109 270.516 184.906 273.188 178.461 c 275.855
 172.016 274.383 164.594 269.449 159.66 c 264.516 154.727 257.094 153.254
 250.648 155.922 c 244.203 158.594 240 164.883 240 171.859 c 240.012 181.383
 247.727 189.098 257.25 189.109 c h
213.75 189.109 m 220.727 189.109 227.016 184.906 229.688 178.461 c 232.355
 172.016 230.883 164.594 225.949 159.66 c 221.016 154.727 213.594 153.254
 207.148 155.922 c 200.703 158.594 196.5 164.883 196.5 171.859 c 196.512
 181.383 204.227 189.098 213.75 189.109 c h
128.25 183.109 m 128.25 189.109 137.25 189.109 137.25 183.109 c 137.25 
160.609 l 137.25 154.609 128.25 154.609 128.25 160.609 c h
108 183.109 m 108 189.109 117 189.109 117 183.109 c 117 160.609 l 117 154.609
 108 154.609 108 160.609 c h
88.5 183.109 m 88.5 189.109 97.5 189.109 97.5 183.109 c 97.5 160.609 l 
97.5 154.609 88.5 154.609 88.5 160.609 c h
88.5 183.109 m f
265.5 171.859 m 265.5 167.305 261.805 163.609 257.25 163.609 c 252.695 
163.609 249 167.305 249 171.859 c 249 176.414 252.695 180.109 257.25 180.109
 c 261.805 180.109 265.5 176.414 265.5 171.859 c h
265.5 171.859 m f
222 171.859 m 222 167.305 218.305 163.609 213.75 163.609 c 209.195 163.609
 205.5 167.305 205.5 171.859 c 205.5 176.414 209.195 180.109 213.75 180.109
 c 218.305 180.109 222 176.414 222 171.859 c h
222 171.859 m f
330.199 338.582 m 319.031 349.559 304.359 356.25 288.75 357.484 c 288.75
 297 l 348.969 297 l 347.938 312.672 341.27 327.441 330.199 338.582 c h
330.199 338.582 m f
Q Q
showpage
%%Trailer
end restore
%%EOF
