%!PS-Adobe-3.0 EPSF-3.0
%%Creator: cairo 1.14.8 (http://cairographics.org)
%%CreationDate: Thu Mar 21 09:07:39 2019
%%Pages: 1
%%DocumentData: Clean7Bit
%%LanguageLevel: 2
%%BoundingBox: 47 27 337 357
%%EndComments
%%BeginProlog
save
50 dict begin
/q { gsave } bind def
/Q { grestore } bind def
/cm { 6 array astore concat } bind def
/w { setlinewidth } bind def
/J { setlinecap } bind def
/j { setlinejoin } bind def
/M { setmiterlimit } bind def
/d { setdash } bind def
/m { moveto } bind def
/l { lineto } bind def
/c { curveto } bind def
/h { closepath } bind def
/re { exch dup neg 3 1 roll 5 3 roll moveto 0 rlineto
      0 exch rlineto 0 rlineto closepath } bind def
/S { stroke } bind def
/f { fill } bind def
/f* { eofill } bind def
/n { newpath } bind def
/W { clip } bind def
/W* { eoclip } bind def
/BT { } bind def
/ET { } bind def
/pdfmark where { pop globaldict /?pdfmark /exec load put }
    { globaldict begin /?pdfmark /pop load def /pdfmark
    /cleartomark load def end } ifelse
/BDC { mark 3 1 roll /BDC pdfmark } bind def
/EMC { mark /EMC pdfmark } bind def
/cairo_store_point { /cairo_point_y exch def /cairo_point_x exch def } def
/Tj { show currentpoint cairo_store_point } bind def
/TJ {
  {
    dup
    type /stringtype eq
    { show } { -0.001 mul 0 cairo_font_matrix dtransform rmoveto } ifelse
  } forall
  currentpoint cairo_store_point
} bind def
/cairo_selectfont { cairo_font_matrix aload pop pop pop 0 0 6 array astore
    cairo_font exch selectfont cairo_point_x cairo_point_y moveto } bind def
/Tf { pop /cairo_font exch def /cairo_font_matrix where
      { pop cairo_selectfont } if } bind def
/Td { matrix translate cairo_font_matrix matrix concatmatrix dup
      /cairo_font_matrix exch def dup 4 get exch 5 get cairo_store_point
      /cairo_font where { pop cairo_selectfont } if } bind def
/Tm { 2 copy 8 2 roll 6 array astore /cairo_font_matrix exch def
      cairo_store_point /cairo_font where { pop cairo_selectfont } if } bind def
/g { setgray } bind def
/rg { setrgbcolor } bind def
/d1 { setcachedevice } bind def
%%EndProlog
%%BeginSetup
%%EndSetup
%%Page: 1 1
%%BeginPageSetup
%%PageBoundingBox: 47 27 337 357
%%EndPageSetup
q 47 27 290 330 rectclip q
0 g
277.691 68.371 m 277.691 63.812 274 60.121 269.441 60.121 c 264.887 60.121
 261.191 63.812 261.191 68.371 c 261.191 72.926 264.887 76.621 269.441 76.621
 c 274 76.621 277.691 72.926 277.691 68.371 c h
277.691 68.371 m f
234.191 68.371 m 234.191 63.812 230.5 60.121 225.941 60.121 c 221.387 60.121
 217.691 63.812 217.691 68.371 c 217.691 72.926 221.387 76.621 225.941 76.621
 c 230.5 76.621 234.191 72.926 234.191 68.371 c h
234.191 68.371 m f
50.066 27.75 m 297.566 27.75 l 299.281 27.793 300.672 29.156 300.75 30.871
 c 300.75 105.871 l 300.652 107.535 299.234 108.816 297.566 108.75 c 271.461
 108.75 l 270.684 108 269.234 106.5 267.566 106.5 c 80.066 106.5 l 78.402
 106.5 76.953 108 76.176 108.75 c 50.066 108.75 l 48.469 108.789 47.176 
107.465 47.25 105.871 c 47.25 30.871 l 47.16 29.227 48.426 27.824 50.066
 27.75 c h
269.441 85.621 m 276.418 85.621 282.711 81.418 285.379 74.973 c 288.051
 68.527 286.574 61.105 281.641 56.172 c 276.707 51.238 269.289 49.762 262.84
 52.434 c 256.395 55.102 252.191 61.395 252.191 68.371 c 252.203 77.891 
259.922 85.609 269.441 85.621 c h
225.941 85.621 m 232.918 85.621 239.211 81.418 241.879 74.973 c 244.551
 68.527 243.074 61.105 238.141 56.172 c 233.207 51.238 225.789 49.762 219.34
 52.434 c 212.895 55.102 208.691 61.395 208.691 68.371 c 208.703 77.891 
216.422 85.609 225.941 85.621 c h
140.25 79.621 m 140.25 85.621 149.25 85.621 149.25 79.621 c 149.25 57.121
 l 149.25 51.121 140.25 51.121 140.25 57.121 c h
120 79.621 m 120 85.621 129 85.621 129 79.621 c 129 57.121 l 129 51.121
 120 51.121 120 57.121 c h
100.5 79.621 m 100.5 85.621 109.5 85.621 109.5 79.621 c 109.5 57.121 l 
109.5 51.121 100.5 51.121 100.5 57.121 c h
81 79.621 m 81 85.621 90 85.621 90 79.621 c 90 57.121 l 90 51.121 81 51.121
 81 57.121 c h
81 79.621 m f
84.75 126.75 178.5 -11.25 re f
267.383 204.656 m 274.656 201.523 l 282.969 205.125 l 282.98 205.129 282.945
 205.133 282.957 205.137 c 315.574 218.848 336.781 250.793 336.75 286.176
 c 336.75 323.465 l 274.734 356.504 l 214.5 323.5 l 214.5 285.258 l 214.574
 250.277 235.324 218.652 267.383 204.656 c h
245.039 288.676 m 246.93 290.289 249.77 290.066 251.383 288.176 c 266.023
 271.031 l 303.367 301.41 l 305.297 302.977 308.129 302.688 309.699 300.758
 c 311.266 298.832 310.977 295.996 309.047 294.43 c 268.297 261.277 l 266.402
 259.734 263.621 259.988 262.035 261.848 c 244.539 282.336 l 242.93 284.227
 243.152 287.062 245.039 288.676 c h
245.039 288.676 m f
50.066 237.75 m 75.828 237.75 l 76.449 240 78.109 240.75 80.066 240.75 
c 216.492 240.75 l 209.34 254.5 205.57 269.758 205.5 285.258 c 205.5 318.75
 l 50.066 318.75 l 48.469 318.789 47.176 317.465 47.25 315.871 c 47.25 240.871
 l 47.16 239.227 48.426 237.824 50.066 237.75 c h
140.25 289.621 m 140.25 295.621 149.25 295.621 149.25 289.621 c 149.25 
267.121 l 149.25 261.121 140.25 261.121 140.25 267.121 c h
120 289.621 m 120 295.621 129 295.621 129 289.621 c 129 267.121 l 129 261.121
 120 261.121 120 267.121 c h
100.5 289.621 m 100.5 295.621 109.5 295.621 109.5 289.621 c 109.5 267.121
 l 109.5 261.121 100.5 261.121 100.5 267.121 c h
81 289.621 m 81 295.621 90 295.621 90 289.621 c 90 267.121 l 90 261.121
 81 261.121 81 267.121 c h
81 289.621 m f
84.75 220.5 m 230.461 220.5 l 227.293 224.25 224.395 228 221.773 231.75
 c 84.75 231.75 l h
84.75 220.5 m f
277.691 173.371 m 277.691 168.812 274 165.121 269.441 165.121 c 264.887
 165.121 261.191 168.812 261.191 173.371 c 261.191 177.926 264.887 181.621
 269.441 181.621 c 274 181.621 277.691 177.926 277.691 173.371 c h
277.691 173.371 m f
50.066 132.75 m 75.828 132.75 l 76.449 135 78.109 135.75 80.066 135.75 
c 267.566 135.75 l 269.527 135.75 271.188 135 271.809 132.75 c 297.566 132.75
 l 299.281 132.793 300.672 134.156 300.75 135.871 c 300.75 204.172 l 296.246
 201.375 291.535 198.926 286.656 196.844 c 276.449 192.465 l 275.887 192.215
 275.281 192.082 274.664 192.074 c 274.051 192.055 273.438 192.168 272.867
 192.402 c 263.891 196.352 l 255.137 200.23 246.977 205.328 239.656 211.5
 c 80.066 211.5 l 78.402 211.5 76.953 213 76.176 213.75 c 50.066 213.75 
l 48.469 213.789 47.176 212.465 47.25 210.871 c 47.25 135.871 l 47.16 134.227
 48.426 132.824 50.066 132.75 c h
269.441 190.621 m 276.418 190.621 282.711 186.418 285.379 179.973 c 288.051
 173.527 286.574 166.105 281.641 161.172 c 276.707 156.238 269.289 154.762
 262.84 157.434 c 256.395 160.102 252.191 166.395 252.191 173.371 c 252.203
 182.891 259.922 190.609 269.441 190.621 c h
225.941 190.621 m 232.918 190.621 239.211 186.418 241.879 179.973 c 244.551
 173.527 243.074 166.105 238.141 161.172 c 233.207 156.238 225.789 154.762
 219.34 157.434 c 212.895 160.102 208.691 166.395 208.691 173.371 c 208.703
 182.891 216.422 190.609 225.941 190.621 c h
140.25 184.621 m 140.25 190.621 149.25 190.621 149.25 184.621 c 149.25 
162.121 l 149.25 156.121 140.25 156.121 140.25 162.121 c h
120 184.621 m 120 190.621 129 190.621 129 184.621 c 129 162.121 l 129 156.121
 120 156.121 120 162.121 c h
100.5 184.621 m 100.5 190.621 109.5 190.621 109.5 184.621 c 109.5 162.121
 l 109.5 156.121 100.5 156.121 100.5 162.121 c h
81 184.621 m 81 190.621 90 190.621 90 184.621 c 90 162.121 l 90 156.121
 81 156.121 81 162.121 c h
81 184.621 m f
234.191 173.371 m 234.191 168.812 230.5 165.121 225.941 165.121 c 221.387
 165.121 217.691 168.812 217.691 173.371 c 217.691 177.926 221.387 181.621
 225.941 181.621 c 230.5 181.621 234.191 177.926 234.191 173.371 c h
234.191 173.371 m f
Q Q
showpage
%%Trailer
end restore
%%EOF
