%!PS-Adobe-3.0 EPSF-3.0
%%Creator: cairo 1.14.8 (http://cairographics.org)
%%CreationDate: Thu Mar 21 09:07:39 2019
%%Pages: 1
%%DocumentData: Clean7Bit
%%LanguageLevel: 2
%%BoundingBox: 42 30 342 353
%%EndComments
%%BeginProlog
save
50 dict begin
/q { gsave } bind def
/Q { grestore } bind def
/cm { 6 array astore concat } bind def
/w { setlinewidth } bind def
/J { setlinecap } bind def
/j { setlinejoin } bind def
/M { setmiterlimit } bind def
/d { setdash } bind def
/m { moveto } bind def
/l { lineto } bind def
/c { curveto } bind def
/h { closepath } bind def
/re { exch dup neg 3 1 roll 5 3 roll moveto 0 rlineto
      0 exch rlineto 0 rlineto closepath } bind def
/S { stroke } bind def
/f { fill } bind def
/f* { eofill } bind def
/n { newpath } bind def
/W { clip } bind def
/W* { eoclip } bind def
/BT { } bind def
/ET { } bind def
/pdfmark where { pop globaldict /?pdfmark /exec load put }
    { globaldict begin /?pdfmark /pop load def /pdfmark
    /cleartomark load def end } ifelse
/BDC { mark 3 1 roll /BDC pdfmark } bind def
/EMC { mark /EMC pdfmark } bind def
/cairo_store_point { /cairo_point_y exch def /cairo_point_x exch def } def
/Tj { show currentpoint cairo_store_point } bind def
/TJ {
  {
    dup
    type /stringtype eq
    { show } { -0.001 mul 0 cairo_font_matrix dtransform rmoveto } ifelse
  } forall
  currentpoint cairo_store_point
} bind def
/cairo_selectfont { cairo_font_matrix aload pop pop pop 0 0 6 array astore
    cairo_font exch selectfont cairo_point_x cairo_point_y moveto } bind def
/Tf { pop /cairo_font exch def /cairo_font_matrix where
      { pop cairo_selectfont } if } bind def
/Td { matrix translate cairo_font_matrix matrix concatmatrix dup
      /cairo_font_matrix exch def dup 4 get exch 5 get cairo_store_point
      /cairo_font where { pop cairo_selectfont } if } bind def
/Tm { 2 copy 8 2 roll 6 array astore /cairo_font_matrix exch def
      cairo_store_point /cairo_font where { pop cairo_selectfont } if } bind def
/g { setgray } bind def
/rg { setrgbcolor } bind def
/d1 { setcachedevice } bind def
%%EndProlog
%%BeginSetup
%%EndSetup
%%Page: 1 1
%%BeginPageSetup
%%PageBoundingBox: 42 30 342 353
%%EndPageSetup
q 42 30 300 323 rectclip q
0 g
273 176.625 m 273 172.07 269.305 168.375 264.75 168.375 c 260.195 168.375
 256.5 172.07 256.5 176.625 c 256.5 181.18 260.195 184.875 264.75 184.875
 c 269.305 184.875 273 181.18 273 176.625 c h
273 176.625 m f
229.5 176.625 m 229.5 172.07 225.805 168.375 221.25 168.375 c 216.695 168.375
 213 172.07 213 176.625 c 213 181.18 216.695 184.875 221.25 184.875 c 225.805
 184.875 229.5 181.18 229.5 176.625 c h
229.5 176.625 m f
229.5 71.625 m 229.5 67.07 225.805 63.375 221.25 63.375 c 216.695 63.375
 213 67.07 213 71.625 c 213 76.18 216.695 79.875 221.25 79.875 c 225.805
 79.875 229.5 76.18 229.5 71.625 c h
229.5 71.625 m f
273 71.625 m 273 67.07 269.305 63.375 264.75 63.375 c 260.195 63.375 256.5
 67.07 256.5 71.625 c 256.5 76.18 260.195 79.875 264.75 79.875 c 269.305
 79.875 273 76.18 273 71.625 c h
273 71.625 m f
292.875 111.75 m 266.77 111.75 l 265.988 111 264.539 109.5 262.875 109.5
 c 75.375 109.5 l 73.711 109.5 72.262 111 71.48 111.75 c 45.375 111.75 l
 43.719 111.75 42 110.781 42 109.125 c 42 34.125 l 42.145 32.324 43.574 
30.895 45.375 30.75 c 292.875 30.75 l 294.531 30.75 295.5 32.469 295.5 34.125
 c 295.5 109.125 l 295.648 110.633 294.383 111.898 292.875 111.75 c h
65.25 60.375 m 65.25 54.375 56.25 54.375 56.25 60.375 c 56.25 82.875 l 
56.25 88.875 65.25 88.875 65.25 82.875 c h
84.75 60.375 m 84.75 54.375 75.75 54.375 75.75 60.375 c 75.75 82.875 l 
75.75 88.875 84.75 88.875 84.75 82.875 c h
105 60.375 m 105 54.375 96 54.375 96 60.375 c 96 82.875 l 96 88.875 105
 88.875 105 82.875 c h
124.5 60.375 m 124.5 54.375 115.5 54.375 115.5 60.375 c 115.5 82.875 l 
115.5 88.875 124.5 88.875 124.5 82.875 c h
144.75 60.375 m 144.75 54.375 135.75 54.375 135.75 60.375 c 135.75 82.875
 l 135.75 88.875 144.75 88.875 144.75 82.875 c h
221.25 54.375 m 214.273 54.375 207.984 58.578 205.312 65.023 c 202.645 
71.469 204.117 78.891 209.051 83.824 c 213.984 88.758 221.406 90.23 227.852
 87.562 c 234.297 84.891 238.5 78.602 238.5 71.625 c 238.488 62.102 230.773
 54.387 221.25 54.375 c h
264.75 54.375 m 257.773 54.375 251.484 58.578 248.812 65.023 c 246.145 
71.469 247.617 78.891 252.551 83.824 c 257.484 88.758 264.906 90.23 271.352
 87.562 c 277.797 84.891 282 78.602 282 71.625 c 281.988 62.102 274.273 
54.387 264.75 54.375 c h
264.75 54.375 m f
217.352 223.5 m 213.781 227.074 210.402 230.828 207.227 234.75 c 79.5 234.75
 l 79.5 223.5 l h
217.352 223.5 m f
303.145 251.531 m 303.145 246.418 299 242.277 293.891 242.277 c 288.777
 242.277 284.637 246.418 284.637 251.531 c 284.637 256.645 288.777 260.785
 293.891 260.785 c 299 260.785 303.145 256.645 303.145 251.531 c h
303.145 251.531 m f
45.375 240.75 m 71.137 240.75 l 71.754 243 73.418 243.75 75.375 243.75 
c 201.449 243.75 l 195.191 255.75 191.625 268.145 191.625 282 c 191.625 
296.469 195.516 310.5 202.297 321.75 c 45.375 321.75 l 43.719 321.75 42 
320.781 42 319.125 c 42 244.125 l 42.145 242.324 43.574 240.895 45.375 240.75
 c h
135.75 292.875 m 135.75 298.875 144.75 298.875 144.75 292.875 c 144.75 
270.375 l 144.75 264.375 135.75 264.375 135.75 270.375 c h
115.5 292.875 m 115.5 298.875 124.5 298.875 124.5 292.875 c 124.5 270.375
 l 124.5 264.375 115.5 264.375 115.5 270.375 c h
96 292.875 m 96 298.875 105 298.875 105 292.875 c 105 270.375 l 105 264.375
 96 264.375 96 270.375 c h
75.75 292.875 m 75.75 298.875 84.75 298.875 84.75 292.875 c 84.75 270.375
 l 84.75 264.375 75.75 264.375 75.75 270.375 c h
56.25 292.875 m 56.25 298.875 65.25 298.875 65.25 292.875 c 65.25 270.375
 l 65.25 264.375 56.25 264.375 56.25 270.375 c h
56.25 292.875 m f
229.172 214.5 m 75.375 214.5 l 73.711 214.5 72.262 216 71.484 216.75 c 
45.375 216.75 l 43.719 216.75 42 215.781 42 214.125 c 42 139.125 l 42.145
 137.324 43.574 135.895 45.375 135.75 c 71.137 135.75 l 71.754 138 73.418
 138.75 75.375 138.75 c 262.875 138.75 l 264.832 138.75 266.496 138 267.113
 135.75 c 292.875 135.75 l 294.531 135.75 295.5 137.469 295.5 139.125 c 
295.5 206.824 l 287.594 204.117 279.297 202.719 270.938 202.688 c 256.188
 202.656 241.723 206.746 229.172 214.5 c h
65.25 165.375 m 65.25 159.375 56.25 159.375 56.25 165.375 c 56.25 187.875
 l 56.25 193.875 65.25 193.875 65.25 187.875 c h
84.75 165.375 m 84.75 159.375 75.75 159.375 75.75 165.375 c 75.75 187.875
 l 75.75 193.875 84.75 193.875 84.75 187.875 c h
105 165.375 m 105 159.375 96 159.375 96 165.375 c 96 187.875 l 96 193.875
 105 193.875 105 187.875 c h
124.5 165.375 m 124.5 159.375 115.5 159.375 115.5 165.375 c 115.5 187.875
 l 115.5 193.875 124.5 193.875 124.5 187.875 c h
144.75 165.375 m 144.75 159.375 135.75 159.375 135.75 165.375 c 135.75 
187.875 l 135.75 193.875 144.75 193.875 144.75 187.875 c h
221.25 159.375 m 214.273 159.375 207.984 163.578 205.312 170.023 c 202.645
 176.469 204.117 183.891 209.051 188.824 c 213.984 193.758 221.406 195.23
 227.852 192.562 c 234.297 189.891 238.5 183.602 238.5 176.625 c 238.488
 167.102 230.773 159.387 221.25 159.375 c h
282 176.625 m 282 169.648 277.797 163.359 271.352 160.688 c 264.906 158.02
 257.484 159.492 252.551 164.426 c 247.617 169.359 246.145 176.781 248.812
 183.227 c 251.484 189.672 257.773 193.875 264.75 193.875 c 274.273 193.863
 281.988 186.148 282 176.625 c h
282 176.625 m f
271.125 352.875 m 242.609 352.875 216.902 335.699 205.992 309.355 c 195.078
 283.012 201.109 252.688 221.273 232.523 c 241.438 212.359 271.762 206.328
 298.105 217.242 c 324.449 228.152 341.625 253.859 341.625 282.375 c 341.582
 321.293 310.043 352.832 271.125 352.875 c h
251.613 282.375 m 251.613 280.473 251.316 278.582 250.73 276.773 c 279.996
 263.348 l 285.945 270.305 296.148 271.746 303.793 266.711 c 311.441 261.672
 314.145 251.734 310.102 243.516 c 306.059 235.301 296.535 231.379 287.879
 234.363 c 279.223 237.348 274.141 246.305 276.02 255.266 c 245.871 269.098
 l 240.449 263.984 232.469 262.676 225.703 265.797 c 218.938 268.914 214.746
 275.832 215.113 283.273 c 215.48 290.715 220.332 297.188 227.375 299.625
 c 234.414 302.059 242.23 299.973 247.117 294.352 c 276.301 308.352 l 273.824
 317.242 278.355 326.586 286.871 330.145 c 295.383 333.703 305.215 330.367
 309.805 322.363 c 314.395 314.359 312.309 304.188 304.934 298.641 c 297.562
 293.09 287.211 293.898 280.789 300.527 c 251.18 286.32 l 251.469 285.023
 251.613 283.703 251.613 282.375 c h
251.613 282.375 m f
79.5 129.75 178.5 -11.25 re f
242.613 282.375 m 242.613 277.262 238.473 273.121 233.359 273.121 c 228.25
 273.121 224.105 277.262 224.105 282.375 c 224.105 287.488 228.25 291.629
 233.359 291.629 c 238.473 291.629 242.613 287.488 242.613 282.375 c h
242.613 282.375 m f
303.145 313.219 m 303.145 308.105 299 303.965 293.891 303.965 c 288.777
 303.965 284.637 308.105 284.637 313.219 c 284.637 318.332 288.777 322.473
 293.891 322.473 c 299 322.473 303.145 318.332 303.145 313.219 c h
303.145 313.219 m f
Q Q
showpage
%%Trailer
end restore
%%EOF
