%!PS-Adobe-3.0 EPSF-3.0
%%Creator: cairo 1.14.8 (http://cairographics.org)
%%CreationDate: Thu Mar 21 09:07:39 2019
%%Pages: 1
%%DocumentData: Clean7Bit
%%LanguageLevel: 2
%%BoundingBox: 110 24 274 360
%%EndComments
%%BeginProlog
save
50 dict begin
/q { gsave } bind def
/Q { grestore } bind def
/cm { 6 array astore concat } bind def
/w { setlinewidth } bind def
/J { setlinecap } bind def
/j { setlinejoin } bind def
/M { setmiterlimit } bind def
/d { setdash } bind def
/m { moveto } bind def
/l { lineto } bind def
/c { curveto } bind def
/h { closepath } bind def
/re { exch dup neg 3 1 roll 5 3 roll moveto 0 rlineto
      0 exch rlineto 0 rlineto closepath } bind def
/S { stroke } bind def
/f { fill } bind def
/f* { eofill } bind def
/n { newpath } bind def
/W { clip } bind def
/W* { eoclip } bind def
/BT { } bind def
/ET { } bind def
/pdfmark where { pop globaldict /?pdfmark /exec load put }
    { globaldict begin /?pdfmark /pop load def /pdfmark
    /cleartomark load def end } ifelse
/BDC { mark 3 1 roll /BDC pdfmark } bind def
/EMC { mark /EMC pdfmark } bind def
/cairo_store_point { /cairo_point_y exch def /cairo_point_x exch def } def
/Tj { show currentpoint cairo_store_point } bind def
/TJ {
  {
    dup
    type /stringtype eq
    { show } { -0.001 mul 0 cairo_font_matrix dtransform rmoveto } ifelse
  } forall
  currentpoint cairo_store_point
} bind def
/cairo_selectfont { cairo_font_matrix aload pop pop pop 0 0 6 array astore
    cairo_font exch selectfont cairo_point_x cairo_point_y moveto } bind def
/Tf { pop /cairo_font exch def /cairo_font_matrix where
      { pop cairo_selectfont } if } bind def
/Td { matrix translate cairo_font_matrix matrix concatmatrix dup
      /cairo_font_matrix exch def dup 4 get exch 5 get cairo_store_point
      /cairo_font where { pop cairo_selectfont } if } bind def
/Tm { 2 copy 8 2 roll 6 array astore /cairo_font_matrix exch def
      cairo_store_point /cairo_font where { pop cairo_selectfont } if } bind def
/g { setgray } bind def
/rg { setrgbcolor } bind def
/d1 { setcachedevice } bind def
%%EndProlog
%%BeginSetup
%%EndSetup
%%Page: 1 1
%%BeginPageSetup
%%PageBoundingBox: 110 24 274 360
%%EndPageSetup
q 110 24 164 336 rectclip q
0 g
141.23 261 m 242.77 261 l 256.754 261.004 268.465 271.598 269.867 285.512
 c 271.266 299.43 261.898 312.141 248.195 314.93 c 246.156 315.34 244.668
 317.09 244.586 319.168 c 244.25 327.566 240.051 335.344 233.211 340.23 
c 226.371 345.117 217.656 346.57 209.598 344.168 c 207.875 343.648 206.008
 344.211 204.852 345.59 c 194.078 358.477 176.391 363.238 160.605 357.504
 c 144.816 351.773 134.305 336.773 134.309 319.977 c 134.309 319.34 134.324
 318.703 134.355 318.074 c 134.441 316.137 133.277 314.363 131.469 313.668
 c 119.215 308.965 112.059 296.184 114.449 283.277 c 116.844 270.367 128.102
 261 141.23 261 c h
141.23 261 m f
138 84 108 -9 re f
219.473 117.785 m 215.043 117.785 212.824 112.43 215.957 109.301 c 219.09
 106.168 224.441 108.387 224.441 112.816 c 224.438 115.559 222.215 117.781
 219.473 117.785 c h
219.473 117.785 m f
251.785 50.93 m 247.355 50.93 245.137 45.574 248.27 42.441 c 251.402 39.309
 256.758 41.527 256.758 45.957 c 256.754 48.703 254.531 50.926 251.785 50.93
 c h
251.785 50.93 m f
219.473 50.93 m 215.043 50.93 212.824 45.574 215.957 42.441 c 219.086 39.309
 224.441 41.527 224.441 45.957 c 224.438 48.703 222.215 50.926 219.473 50.93
 c h
219.473 50.93 m f
272.68 67.5 m 253.891 67.5 l 252.945 66.594 251.703 66.059 250.395 66 c
 133.605 66 l 132.297 66.059 131.055 66.594 130.109 67.5 c 111.32 67.5 l
 110.73 67.5 110.25 67.336 110.25 66.742 c 110.25 25.172 l 110.242 24.559
 110.711 24.047 111.32 24 c 272.68 24 l 273.289 24.047 273.758 24.559 273.75
 25.172 c 273.75 66.742 l 273.75 67.336 273.27 67.5 272.68 67.5 c h
127.5 37.602 m 127.5 31.602 118.5 31.602 118.5 37.602 c 118.5 48.742 l 
118.5 54.742 127.5 54.742 127.5 48.742 c h
141.75 37.602 m 141.75 31.602 132.75 31.602 132.75 37.602 c 132.75 48.742
 l 132.75 54.742 141.75 54.742 141.75 48.742 c h
156.75 37.602 m 156.75 31.602 147.75 31.602 147.75 37.602 c 147.75 48.742
 l 147.75 54.742 156.75 54.742 156.75 48.742 c h
171 37.602 m 171 31.602 162 31.602 162 37.602 c 162 48.742 l 162 54.742
 171 54.742 171 48.742 c h
186 37.602 m 186 31.602 177 31.602 177 37.602 c 177 48.742 l 177 54.742
 186 54.742 186 48.742 c h
219.473 31.984 m 213.82 31.984 208.727 35.391 206.562 40.609 c 204.398 
45.832 205.594 51.84 209.59 55.836 c 213.586 59.832 219.598 61.027 224.816
 58.867 c 230.039 56.703 233.441 51.609 233.441 45.957 c 233.434 38.246 
227.184 31.996 219.473 31.984 c h
251.785 31.984 m 246.133 31.984 241.039 35.391 238.879 40.609 c 236.715
 45.832 237.91 51.84 241.906 55.836 c 245.902 59.832 251.91 61.027 257.133
 58.867 c 262.352 56.703 265.758 51.609 265.758 45.957 c 265.75 38.246 259.5
 31.996 251.785 31.984 c h
251.785 31.984 m f
272.68 135 m 111.32 135 l 110.73 135 110.25 134.191 110.25 133.602 c 110.25
 92.031 l 110.238 91.395 110.695 90.848 111.32 90.75 c 129.727 90.75 l 130.477
 92.188 131.988 93.062 133.605 93 c 250.395 93 l 252.012 93.062 253.523 
92.188 254.273 90.75 c 272.68 90.75 l 273.305 90.848 273.762 91.395 273.75
 92.031 c 273.75 133.602 l 273.75 134.191 273.27 135 272.68 135 c h
127.5 104.457 m 127.5 98.457 118.5 98.457 118.5 104.457 c 118.5 115.602
 l 118.5 121.602 127.5 121.602 127.5 115.602 c h
141.75 104.457 m 141.75 98.457 132.75 98.457 132.75 104.457 c 132.75 115.602
 l 132.75 121.602 141.75 121.602 141.75 115.602 c h
156.75 104.457 m 156.75 98.457 147.75 98.457 147.75 104.457 c 147.75 115.602
 l 147.75 121.602 156.75 121.602 156.75 115.602 c h
171 104.457 m 171 98.457 162 98.457 162 104.457 c 162 115.602 l 162 121.602
 171 121.602 171 115.602 c h
186 104.457 m 186 98.457 177 98.457 177 104.457 c 177 115.602 l 177 121.602
 186 121.602 186 115.602 c h
219.473 98.844 m 213.82 98.844 208.727 102.246 206.562 107.469 c 204.402
 112.688 205.598 118.699 209.594 122.695 c 213.59 126.691 219.598 127.887
 224.816 125.723 c 230.039 123.559 233.441 118.465 233.441 112.816 c 233.434
 105.102 227.184 98.852 219.473 98.844 c h
251.785 98.844 m 246.137 98.844 241.039 102.25 238.879 107.469 c 236.715
 112.691 237.91 118.699 241.906 122.695 c 245.902 126.691 251.914 127.887
 257.133 125.723 c 262.352 123.559 265.758 118.465 265.758 112.816 c 265.75
 105.102 259.5 98.852 251.785 98.844 c h
251.785 98.844 m f
251.785 117.785 m 247.355 117.785 245.141 112.43 248.273 109.301 c 251.402
 106.168 256.758 108.387 256.758 112.816 c 256.754 115.559 254.531 117.781
 251.785 117.785 c h
251.785 117.785 m f
162.75 229.695 m 165.234 229.695 167.25 231.707 167.25 234.195 c 167.25
 238.844 l 167.25 244.844 158.25 244.844 158.25 238.844 c 158.25 234.195
 l 158.25 231.707 160.266 229.695 162.75 229.695 c h
162.75 229.695 m f
158.25 215.414 m 158.25 209.414 167.25 209.414 167.25 215.414 c 167.25 
219.68 l 167.25 225.68 158.25 225.68 158.25 219.68 c h
158.25 215.414 m f
158.25 166.602 m 142.398 181.531 l 140.613 183.223 137.785 183.121 136.133
 181.301 c 134.449 179.469 134.574 176.621 136.406 174.941 c 160.035 152.973
 l 161.77 151.363 164.453 151.363 166.188 152.973 c 189.797 174.941 l 191.613
 176.633 191.719 179.48 190.023 181.301 c 188.258 183.121 185.367 183.223
 183.477 181.531 c 167.25 166.602 l 167.25 200.242 l 167.25 206.242 158.25
 206.242 158.25 200.242 c h
158.25 166.602 m f
220.5 165.422 m 218.016 165.422 216 163.406 216 160.922 c 216 156.266 l
 216 150.266 225 150.266 225 156.266 c 225 160.922 l 225 163.406 222.984
 165.422 220.5 165.422 c h
220.5 165.422 m f
225 179.699 m 225 185.699 216 185.699 216 179.699 c 216 175.434 l 216 169.434
 225 169.434 225 175.434 c h
225 179.699 m f
225 228.512 m 241.227 213.586 l 242.094 212.809 243.223 212.379 244.387
 212.379 c 245.652 212.379 246.859 212.898 247.73 213.816 c 249.43 215.629
 249.336 218.477 247.523 220.176 c 223.93 242.145 l 222.203 243.754 219.527
 243.754 217.805 242.145 c 194.199 220.176 l 192.383 218.48 192.281 215.633
 193.977 213.816 c 195.594 211.996 198.402 211.895 200.148 213.59 c 216 
228.512 l 216 194.871 l 216 188.871 225 188.871 225 194.871 c h
225 228.512 m f
Q Q
showpage
%%Trailer
end restore
%%EOF
