%!PS-Adobe-3.0 EPSF-3.0
%%Creator: cairo 1.14.8 (http://cairographics.org)
%%CreationDate: Thu Mar 21 09:07:39 2019
%%Pages: 1
%%DocumentData: Clean7Bit
%%LanguageLevel: 2
%%BoundingBox: 34 34 350 350
%%EndComments
%%BeginProlog
save
50 dict begin
/q { gsave } bind def
/Q { grestore } bind def
/cm { 6 array astore concat } bind def
/w { setlinewidth } bind def
/J { setlinecap } bind def
/j { setlinejoin } bind def
/M { setmiterlimit } bind def
/d { setdash } bind def
/m { moveto } bind def
/l { lineto } bind def
/c { curveto } bind def
/h { closepath } bind def
/re { exch dup neg 3 1 roll 5 3 roll moveto 0 rlineto
      0 exch rlineto 0 rlineto closepath } bind def
/S { stroke } bind def
/f { fill } bind def
/f* { eofill } bind def
/n { newpath } bind def
/W { clip } bind def
/W* { eoclip } bind def
/BT { } bind def
/ET { } bind def
/pdfmark where { pop globaldict /?pdfmark /exec load put }
    { globaldict begin /?pdfmark /pop load def /pdfmark
    /cleartomark load def end } ifelse
/BDC { mark 3 1 roll /BDC pdfmark } bind def
/EMC { mark /EMC pdfmark } bind def
/cairo_store_point { /cairo_point_y exch def /cairo_point_x exch def } def
/Tj { show currentpoint cairo_store_point } bind def
/TJ {
  {
    dup
    type /stringtype eq
    { show } { -0.001 mul 0 cairo_font_matrix dtransform rmoveto } ifelse
  } forall
  currentpoint cairo_store_point
} bind def
/cairo_selectfont { cairo_font_matrix aload pop pop pop 0 0 6 array astore
    cairo_font exch selectfont cairo_point_x cairo_point_y moveto } bind def
/Tf { pop /cairo_font exch def /cairo_font_matrix where
      { pop cairo_selectfont } if } bind def
/Td { matrix translate cairo_font_matrix matrix concatmatrix dup
      /cairo_font_matrix exch def dup 4 get exch 5 get cairo_store_point
      /cairo_font where { pop cairo_selectfont } if } bind def
/Tm { 2 copy 8 2 roll 6 array astore /cairo_font_matrix exch def
      cairo_store_point /cairo_font where { pop cairo_selectfont } if } bind def
/g { setgray } bind def
/rg { setrgbcolor } bind def
/d1 { setcachedevice } bind def
%%EndProlog
%%BeginSetup
%%EndSetup
%%Page: 1 1
%%BeginPageSetup
%%PageBoundingBox: 34 34 350 350
%%EndPageSetup
q 34 34 316 316 rectclip q
0 g
160.5 190.395 m 160.5 222.438 l 147.383 213.031 121.906 208.07 97.5 208.07
 c 73.094 208.07 47.617 213.031 34.5 222.438 c 34.5 190.395 l 34.5 182.066
 58.469 170.465 97.5 170.465 c 136.531 170.465 160.5 182.07 160.5 190.395
 c h
160.5 190.395 m f
97.5 217.07 m 136.531 217.07 160.5 228.68 160.5 237 c 160.5 268.727 l 147.383
 259.32 121.906 254.359 97.5 254.359 c 73.094 254.359 47.617 259.316 34.5
 268.727 c 34.5 237 l 34.5 228.676 58.469 217.07 97.5 217.07 c h
97.5 217.07 m f
97.5 263.355 m 136.531 263.355 160.5 274.965 160.5 283.285 c 160.5 315.012
 l 147.383 305.605 121.906 300.645 97.5 300.645 c 73.094 300.645 47.617 
305.605 34.5 315.012 c 34.5 283.285 l 34.5 274.965 58.469 263.355 97.5 263.355
 c h
97.5 263.355 m f
160.5 329.57 m 160.5 318.566 132.293 309.645 97.5 309.645 c 62.707 309.645
 34.5 318.566 34.5 329.57 c 34.5 340.578 62.707 349.5 97.5 349.5 c 132.293
 349.5 160.5 340.578 160.5 329.57 c h
160.5 329.57 m f
349.5 193.605 m 349.5 182.602 321.293 173.68 286.5 173.68 c 251.707 173.68
 223.5 182.602 223.5 193.605 c 223.5 204.613 251.707 213.535 286.5 213.535
 c 321.293 213.535 349.5 204.613 349.5 193.605 c h
349.5 193.605 m f
223.5 179.043 m 223.5 147.32 l 223.5 138.992 247.469 127.391 286.5 127.391
 c 325.531 127.391 349.5 138.996 349.5 147.32 c 349.5 179.043 l 336.383 
169.637 310.906 164.68 286.5 164.68 c 262.094 164.68 236.617 169.637 223.5
 179.043 c h
223.5 179.043 m f
223.5 132.758 m 223.5 101.035 l 223.5 92.707 247.469 81.105 286.5 81.105
 c 325.531 81.105 349.5 92.711 349.5 101.035 c 349.5 132.758 l 336.383 123.352
 310.906 118.395 286.5 118.395 c 262.094 118.395 236.617 123.352 223.5 132.758
 c h
223.5 132.758 m f
223.5 86.477 m 223.5 54.43 l 223.5 46.105 247.469 34.504 286.5 34.504 c
 325.531 34.504 349.5 46.109 349.5 54.43 c 349.5 86.477 l 336.383 77.07 
310.906 72.109 286.5 72.109 c 262.094 72.109 236.617 77.066 223.5 86.477
 c h
223.5 86.477 m f
261.613 277.68 m 259.863 279.48 256.98 279.5 255.207 277.727 c 253.43 275.953
 253.449 273.07 255.25 271.32 c 287.066 239.5 l 288.824 237.742 291.676 
237.742 293.434 239.5 c 325.25 271.32 l 327.051 273.07 327.07 275.953 325.293
 277.727 c 323.52 279.5 320.637 279.48 318.887 277.68 c 294.75 253.543 l
 294.75 317.25 l 294.75 319.734 292.734 321.75 290.25 321.75 c 190.5 321.75
 l 184.5 321.75 184.5 312.75 190.5 312.75 c 285.75 312.75 l 285.75 253.543
 l h
261.613 277.68 m f
194.25 70.5 m 96.75 70.5 l 96.75 129.707 l 120.887 105.57 l 125.129 101.441
 131.379 107.688 127.25 111.93 c 95.434 143.75 l 93.676 145.508 90.824 145.508
 89.066 143.75 c 57.25 111.93 l 55.449 110.18 55.43 107.297 57.207 105.523
 c 58.98 103.75 61.863 103.77 63.613 105.57 c 87.75 129.707 l 87.75 66 l
 87.75 63.516 89.766 61.5 92.25 61.5 c 194.25 61.5 l 200.25 61.5 200.25 
70.5 194.25 70.5 c h
194.25 70.5 m f
Q Q
showpage
%%Trailer
end restore
%%EOF
