%!PS-Adobe-3.0 EPSF-3.0
%%Creator: cairo 1.14.8 (http://cairographics.org)
%%CreationDate: Thu Mar 21 09:07:39 2019
%%Pages: 1
%%DocumentData: Clean7Bit
%%LanguageLevel: 2
%%BoundingBox: 21 32 363 351
%%EndComments
%%BeginProlog
save
50 dict begin
/q { gsave } bind def
/Q { grestore } bind def
/cm { 6 array astore concat } bind def
/w { setlinewidth } bind def
/J { setlinecap } bind def
/j { setlinejoin } bind def
/M { setmiterlimit } bind def
/d { setdash } bind def
/m { moveto } bind def
/l { lineto } bind def
/c { curveto } bind def
/h { closepath } bind def
/re { exch dup neg 3 1 roll 5 3 roll moveto 0 rlineto
      0 exch rlineto 0 rlineto closepath } bind def
/S { stroke } bind def
/f { fill } bind def
/f* { eofill } bind def
/n { newpath } bind def
/W { clip } bind def
/W* { eoclip } bind def
/BT { } bind def
/ET { } bind def
/pdfmark where { pop globaldict /?pdfmark /exec load put }
    { globaldict begin /?pdfmark /pop load def /pdfmark
    /cleartomark load def end } ifelse
/BDC { mark 3 1 roll /BDC pdfmark } bind def
/EMC { mark /EMC pdfmark } bind def
/cairo_store_point { /cairo_point_y exch def /cairo_point_x exch def } def
/Tj { show currentpoint cairo_store_point } bind def
/TJ {
  {
    dup
    type /stringtype eq
    { show } { -0.001 mul 0 cairo_font_matrix dtransform rmoveto } ifelse
  } forall
  currentpoint cairo_store_point
} bind def
/cairo_selectfont { cairo_font_matrix aload pop pop pop 0 0 6 array astore
    cairo_font exch selectfont cairo_point_x cairo_point_y moveto } bind def
/Tf { pop /cairo_font exch def /cairo_font_matrix where
      { pop cairo_selectfont } if } bind def
/Td { matrix translate cairo_font_matrix matrix concatmatrix dup
      /cairo_font_matrix exch def dup 4 get exch 5 get cairo_store_point
      /cairo_font where { pop cairo_selectfont } if } bind def
/Tm { 2 copy 8 2 roll 6 array astore /cairo_font_matrix exch def
      cairo_store_point /cairo_font where { pop cairo_selectfont } if } bind def
/g { setgray } bind def
/rg { setrgbcolor } bind def
/d1 { setcachedevice } bind def
%%EndProlog
%%BeginSetup
%%EndSetup
%%Page: 1 1
%%BeginPageSetup
%%PageBoundingBox: 21 32 363 351
%%EndPageSetup
q 21 32 342 319 rectclip q
0 g
286.727 44.184 m 286.727 37.898 281.633 32.801 275.344 32.801 c 269.055
 32.801 263.961 37.898 263.961 44.184 c 263.961 50.473 269.055 55.566 275.344
 55.566 c 281.633 55.566 286.727 50.473 286.727 44.184 c h
286.727 44.184 m f
270.75 86.25 9 -26.25 re f
291.75 48.75 35.25 -9 re f
223.5 48.75 36 -9 re f
346.336 44.184 m 346.336 47.391 344.402 50.285 341.441 51.512 c 338.477
 52.738 335.066 52.062 332.797 49.793 c 330.527 47.523 329.848 44.113 331.078
 41.148 c 332.305 38.184 335.195 36.254 338.406 36.254 c 342.781 36.258 
346.332 39.805 346.336 44.184 c h
346.336 44.184 m f
212.281 36.254 m 215.492 36.254 218.383 38.184 219.609 41.148 c 220.84 
44.113 220.16 47.523 217.891 49.793 c 215.621 52.062 212.211 52.738 209.246
 51.512 c 206.285 50.285 204.352 47.391 204.352 44.184 c 204.355 39.805 
207.906 36.258 212.281 36.254 c h
212.281 36.254 m f
116.324 335.367 m 114.027 335.367 111.957 333.984 111.078 331.863 c 110.199
 329.738 110.684 327.297 112.309 325.672 c 113.934 324.047 116.375 323.562
 118.496 324.441 c 120.621 325.32 122.004 327.391 122.004 329.688 c 122 
332.824 119.461 335.363 116.324 335.367 c h
116.324 335.367 m f
80.355 335.367 m 78.059 335.367 75.988 333.984 75.109 331.863 c 74.23 329.738
 74.715 327.297 76.34 325.672 c 77.965 324.047 80.406 323.562 82.531 324.441
 c 84.652 325.32 86.035 327.391 86.035 329.688 c 86.031 332.824 83.492 335.363
 80.355 335.367 c h
80.355 335.367 m f
297.75 342.746 m 297.738 344.965 296.84 347.09 295.25 348.641 c 293.66 
350.191 291.516 351.043 289.297 351 c 30.203 351 l 27.984 351.043 25.84 
350.191 24.25 348.641 c 22.66 347.09 21.762 344.965 21.75 342.746 c 21.75
 307.5 l 297.75 307.5 l h
43.715 315.008 m 37.777 315.008 32.426 318.586 30.152 324.07 c 27.879 329.555
 29.137 335.871 33.336 340.07 c 37.531 344.266 43.848 345.523 49.332 343.25
 c 54.816 340.977 58.395 335.625 58.395 329.688 c 58.383 321.586 51.816 
315.02 43.715 315.008 c h
80.355 315.008 m 74.422 315.008 69.066 318.586 66.797 324.07 c 64.523 329.555
 65.777 335.871 69.977 340.07 c 74.176 344.266 80.488 345.523 85.973 343.25
 c 91.461 340.977 95.035 335.625 95.035 329.688 c 95.027 321.586 88.461 
315.02 80.355 315.008 c h
116.32 315.008 m 110.383 315.008 105.031 318.586 102.762 324.07 c 100.488
 329.555 101.742 335.871 105.941 340.07 c 110.141 344.266 116.453 345.523
 121.938 343.25 c 127.426 340.977 131 335.625 131 329.688 c 130.992 321.586
 124.426 315.02 116.324 315.008 c h
286.641 325.5 m 169.93 325.5 l 163.93 325.5 163.93 334.5 169.93 334.5 c
 286.641 334.5 l 292.641 334.5 292.641 325.5 286.641 325.5 c h
286.641 325.5 m f
43.715 335.367 m 41.418 335.367 39.348 333.984 38.469 331.863 c 37.59 329.738
 38.074 327.297 39.699 325.672 c 41.32 324.047 43.766 323.562 45.887 324.441
 c 48.008 325.32 49.395 327.391 49.395 329.688 c 49.391 332.824 46.848 335.363
 43.715 335.367 c h
43.715 335.367 m f
333.148 230.25 m 205.352 230.25 l 189.195 230.25 176.102 217.156 176.102
 201 c 176.102 184.844 189.195 171.75 205.352 171.75 c 333.148 171.75 l 
349.305 171.75 362.398 184.844 362.398 201 c 362.398 217.156 349.305 230.25
 333.148 230.25 c h
211.5 192.602 m 211.5 186.602 202.5 186.602 202.5 192.602 c 202.5 209.398
 l 202.5 215.398 211.5 215.398 211.5 209.398 c h
228 192.602 m 228 186.602 219 186.602 219 192.602 c 219 209.398 l 219 215.398
 228 215.398 228 209.398 c h
244.5 192.602 m 244.5 186.602 235.5 186.602 235.5 192.602 c 235.5 209.398
 l 235.5 215.398 244.5 215.398 244.5 209.398 c h
261 192.602 m 261 186.602 252 186.602 252 192.602 c 252 209.398 l 252 215.398
 261 215.398 261 209.398 c h
277.5 192.602 m 277.5 186.602 268.5 186.602 268.5 192.602 c 268.5 209.398
 l 268.5 215.398 277.5 215.398 277.5 209.398 c h
334.027 182.5 m 326.547 182.5 319.801 187.008 316.938 193.922 c 314.074
 200.832 315.656 208.789 320.945 214.082 c 326.238 219.371 334.195 220.953
 341.105 218.09 c 348.02 215.227 352.527 208.48 352.527 201 c 352.516 190.789
 344.238 182.516 334.027 182.504 c h
334.027 182.5 m f
334.027 210.5 m 330.188 210.504 326.723 208.188 325.25 204.637 c 323.781
 201.09 324.594 197.004 327.309 194.285 c 330.027 191.57 334.109 190.754
 337.66 192.227 c 341.211 193.695 343.527 197.156 343.527 201 c 343.523 
206.246 339.273 210.496 334.027 210.5 c h
334.027 210.5 m f
210 162.75 118.5 -6 re f
167.27 119.25 m 167.539 138.398 181.977 154.375 201 156.574 c 201 163.148
 l 180.895 165.453 166.078 183.047 167.234 203.254 c 168.391 223.461 185.113
 239.25 205.352 239.25 c 297.75 239.25 l 297.75 298.5 l 21.75 298.5 l 21.75
 127.988 l 21.75 123.328 25.543 119.25 30.203 119.25 c h
167.27 119.25 m f
333.148 147.75 m 205.352 147.75 l 189.195 147.75 176.102 134.656 176.102
 118.5 c 176.102 102.344 189.195 89.25 205.352 89.25 c 333.148 89.25 l 349.305
 89.25 362.398 102.344 362.398 118.5 c 362.398 134.656 349.305 147.75 333.148
 147.75 c h
211.5 110.32 m 211.5 104.32 202.5 104.32 202.5 110.32 c 202.5 127.121 l
 202.5 133.121 211.5 133.121 211.5 127.121 c h
228 110.32 m 228 104.32 219 104.32 219 110.32 c 219 127.121 l 219 133.121
 228 133.121 228 127.121 c h
244.5 110.32 m 244.5 104.32 235.5 104.32 235.5 110.32 c 235.5 127.121 l
 235.5 133.121 244.5 133.121 244.5 127.121 c h
261 110.32 m 261 104.32 252 104.32 252 110.32 c 252 127.121 l 252 133.121
 261 133.121 261 127.121 c h
277.5 110.32 m 277.5 104.32 268.5 104.32 268.5 110.32 c 268.5 127.121 l
 268.5 133.121 277.5 133.121 277.5 127.121 c h
334.027 100.223 m 326.547 100.219 319.801 104.727 316.938 111.641 c 314.074
 118.555 315.656 126.512 320.945 131.801 c 326.238 137.094 334.195 138.676
 341.105 135.812 c 348.02 132.949 352.527 126.203 352.527 118.719 c 352.516
 108.508 344.238 100.234 334.027 100.223 c h
334.027 100.223 m f
334.027 128.219 m 330.188 128.219 326.723 125.906 325.25 122.355 c 323.781
 118.805 324.594 114.719 327.309 112.004 c 330.027 109.285 334.113 108.473
 337.664 109.945 c 341.215 111.414 343.527 114.879 343.527 118.719 c 343.52
 123.965 339.273 128.215 334.027 128.219 c h
334.027 128.219 m f
Q Q
showpage
%%Trailer
end restore
%%EOF
