%!PS-Adobe-3.0 EPSF-3.0
%%Creator: cairo 1.14.8 (http://cairographics.org)
%%CreationDate: Thu Mar 21 09:07:39 2019
%%Pages: 1
%%DocumentData: Clean7Bit
%%LanguageLevel: 2
%%BoundingBox: 65 46 319 338
%%EndComments
%%BeginProlog
save
50 dict begin
/q { gsave } bind def
/Q { grestore } bind def
/cm { 6 array astore concat } bind def
/w { setlinewidth } bind def
/J { setlinecap } bind def
/j { setlinejoin } bind def
/M { setmiterlimit } bind def
/d { setdash } bind def
/m { moveto } bind def
/l { lineto } bind def
/c { curveto } bind def
/h { closepath } bind def
/re { exch dup neg 3 1 roll 5 3 roll moveto 0 rlineto
      0 exch rlineto 0 rlineto closepath } bind def
/S { stroke } bind def
/f { fill } bind def
/f* { eofill } bind def
/n { newpath } bind def
/W { clip } bind def
/W* { eoclip } bind def
/BT { } bind def
/ET { } bind def
/pdfmark where { pop globaldict /?pdfmark /exec load put }
    { globaldict begin /?pdfmark /pop load def /pdfmark
    /cleartomark load def end } ifelse
/BDC { mark 3 1 roll /BDC pdfmark } bind def
/EMC { mark /EMC pdfmark } bind def
/cairo_store_point { /cairo_point_y exch def /cairo_point_x exch def } def
/Tj { show currentpoint cairo_store_point } bind def
/TJ {
  {
    dup
    type /stringtype eq
    { show } { -0.001 mul 0 cairo_font_matrix dtransform rmoveto } ifelse
  } forall
  currentpoint cairo_store_point
} bind def
/cairo_selectfont { cairo_font_matrix aload pop pop pop 0 0 6 array astore
    cairo_font exch selectfont cairo_point_x cairo_point_y moveto } bind def
/Tf { pop /cairo_font exch def /cairo_font_matrix where
      { pop cairo_selectfont } if } bind def
/Td { matrix translate cairo_font_matrix matrix concatmatrix dup
      /cairo_font_matrix exch def dup 4 get exch 5 get cairo_store_point
      /cairo_font where { pop cairo_selectfont } if } bind def
/Tm { 2 copy 8 2 roll 6 array astore /cairo_font_matrix exch def
      cairo_store_point /cairo_font where { pop cairo_selectfont } if } bind def
/g { setgray } bind def
/rg { setrgbcolor } bind def
/d1 { setcachedevice } bind def
%%EndProlog
%%BeginSetup
%%EndSetup
%%Page: 1 1
%%BeginPageSetup
%%PageBoundingBox: 65 46 319 338
%%EndPageSetup
q 65 46 254 292 rectclip q
0 g
102.75 250.5 178.5 -11.25 re f
252.375 192 m 252.375 187.445 248.68 183.75 244.125 183.75 c 239.57 183.75
 235.875 187.445 235.875 192 c 235.875 196.555 239.57 200.25 244.125 200.25
 c 248.68 200.25 252.375 196.555 252.375 192 c h
252.375 192 m f
68.25 46.5 m 315.75 46.5 l 317.406 46.5 318.75 47.844 318.75 49.5 c 318.75
 124.5 l 318.75 126.156 317.406 127.5 315.75 127.5 c 289.645 127.5 l 288.84
 126.109 287.355 125.25 285.75 125.25 c 98.25 125.25 l 96.645 125.25 95.16
 126.109 94.355 127.5 c 68.25 127.5 l 66.594 127.5 65.25 126.156 65.25 124.5
 c 65.25 49.5 l 65.25 47.844 66.594 46.5 68.25 46.5 c h
287.625 104.25 m 294.602 104.25 300.891 100.047 303.562 93.602 c 306.23
 87.156 304.758 79.734 299.824 74.801 c 294.891 69.867 287.469 68.395 281.023
 71.062 c 274.578 73.734 270.375 80.023 270.375 87 c 270.387 96.523 278.102
 104.238 287.625 104.25 c h
244.125 104.25 m 251.102 104.25 257.391 100.047 260.062 93.602 c 262.73
 87.156 261.258 79.734 256.324 74.801 c 251.391 69.867 243.969 68.395 237.523
 71.062 c 231.078 73.734 226.875 80.023 226.875 87 c 226.887 96.523 234.602
 104.238 244.125 104.25 c h
158.25 98.25 m 158.25 104.25 167.25 104.25 167.25 98.25 c 167.25 75.75 
l 167.25 69.75 158.25 69.75 158.25 75.75 c h
138.75 98.25 m 138.75 104.25 147.75 104.25 147.75 98.25 c 147.75 75.75 
l 147.75 69.75 138.75 69.75 138.75 75.75 c h
118.5 98.25 m 118.5 104.25 127.5 104.25 127.5 98.25 c 127.5 75.75 l 127.5
 69.75 118.5 69.75 118.5 75.75 c h
99 98.25 m 99 104.25 108 104.25 108 98.25 c 108 75.75 l 108 69.75 99 69.75
 99 75.75 c h
78.75 98.25 m 78.75 104.25 87.75 104.25 87.75 98.25 c 87.75 75.75 l 87.75
 69.75 78.75 69.75 78.75 75.75 c h
78.75 98.25 m f
295.875 192 m 295.875 187.445 292.18 183.75 287.625 183.75 c 283.07 183.75
 279.375 187.445 279.375 192 c 279.375 196.555 283.07 200.25 287.625 200.25
 c 292.18 200.25 295.875 196.555 295.875 192 c h
295.875 192 m f
68.25 151.5 m 94.012 151.5 l 94.648 153.297 96.344 154.5 98.25 154.5 c 
285.75 154.5 l 287.656 154.5 289.352 153.297 289.988 151.5 c 315.75 151.5
 l 317.406 151.5 318.75 152.844 318.75 154.5 c 318.75 229.5 l 318.75 231.156
 317.406 232.5 315.75 232.5 c 289.645 232.5 l 288.84 231.109 287.355 230.25
 285.75 230.25 c 98.25 230.25 l 96.645 230.25 95.16 231.109 94.355 232.5
 c 68.25 232.5 l 66.594 232.5 65.25 231.156 65.25 229.5 c 65.25 154.5 l 
65.25 152.844 66.594 151.5 68.25 151.5 c h
287.625 209.25 m 294.602 209.25 300.891 205.047 303.562 198.602 c 306.23
 192.156 304.758 184.734 299.824 179.801 c 294.891 174.867 287.469 173.395
 281.023 176.062 c 274.578 178.734 270.375 185.023 270.375 192 c 270.387
 201.523 278.102 209.238 287.625 209.25 c h
244.125 209.25 m 251.102 209.25 257.391 205.047 260.062 198.602 c 262.73
 192.156 261.258 184.734 256.324 179.801 c 251.391 174.867 243.969 173.395
 237.523 176.062 c 231.078 178.734 226.875 185.023 226.875 192 c 226.887
 201.523 234.602 209.238 244.125 209.25 c h
158.25 203.25 m 158.25 209.25 167.25 209.25 167.25 203.25 c 167.25 180.75
 l 167.25 174.75 158.25 174.75 158.25 180.75 c h
138.75 203.25 m 138.75 209.25 147.75 209.25 147.75 203.25 c 147.75 180.75
 l 147.75 174.75 138.75 174.75 138.75 180.75 c h
118.5 203.25 m 118.5 209.25 127.5 209.25 127.5 203.25 c 127.5 180.75 l 
127.5 174.75 118.5 174.75 118.5 180.75 c h
99 203.25 m 99 209.25 108 209.25 108 203.25 c 108 180.75 l 108 174.75 99
 174.75 99 180.75 c h
78.75 203.25 m 78.75 209.25 87.75 209.25 87.75 203.25 c 87.75 180.75 l 
87.75 174.75 78.75 174.75 78.75 180.75 c h
78.75 203.25 m f
102.75 145.5 178.5 -11.25 re f
295.875 87 m 295.875 82.445 292.18 78.75 287.625 78.75 c 283.07 78.75 279.375
 82.445 279.375 87 c 279.375 91.555 283.07 95.25 287.625 95.25 c 292.18 
95.25 295.875 91.555 295.875 87 c h
295.875 87 m f
295.875 297 m 295.875 292.445 292.18 288.75 287.625 288.75 c 283.07 288.75
 279.375 292.445 279.375 297 c 279.375 301.555 283.07 305.25 287.625 305.25
 c 292.18 305.25 295.875 301.555 295.875 297 c h
295.875 297 m f
68.25 256.5 m 94.012 256.5 l 94.648 258.297 96.344 259.5 98.25 259.5 c 
285.75 259.5 l 287.656 259.5 289.352 258.297 289.988 256.5 c 315.75 256.5
 l 317.406 256.5 318.75 257.844 318.75 259.5 c 318.75 334.5 l 318.75 336.156
 317.406 337.5 315.75 337.5 c 68.25 337.5 l 66.594 337.5 65.25 336.156 65.25
 334.5 c 65.25 259.5 l 65.25 257.844 66.594 256.5 68.25 256.5 c h
287.625 314.25 m 294.602 314.25 300.891 310.047 303.562 303.602 c 306.23
 297.156 304.758 289.734 299.824 284.801 c 294.891 279.867 287.469 278.395
 281.023 281.062 c 274.578 283.734 270.375 290.023 270.375 297 c 270.387
 306.523 278.102 314.238 287.625 314.25 c h
244.125 314.25 m 251.102 314.25 257.391 310.047 260.062 303.602 c 262.73
 297.156 261.258 289.734 256.324 284.801 c 251.391 279.867 243.969 278.395
 237.523 281.062 c 231.078 283.734 226.875 290.023 226.875 297 c 226.887
 306.523 234.602 314.238 244.125 314.25 c h
158.25 308.25 m 158.25 314.25 167.25 314.25 167.25 308.25 c 167.25 285.75
 l 167.25 279.75 158.25 279.75 158.25 285.75 c h
138.75 308.25 m 138.75 314.25 147.75 314.25 147.75 308.25 c 147.75 285.75
 l 147.75 279.75 138.75 279.75 138.75 285.75 c h
118.5 308.25 m 118.5 314.25 127.5 314.25 127.5 308.25 c 127.5 285.75 l 
127.5 279.75 118.5 279.75 118.5 285.75 c h
99 308.25 m 99 314.25 108 314.25 108 308.25 c 108 285.75 l 108 279.75 99
 279.75 99 285.75 c h
78.75 308.25 m 78.75 314.25 87.75 314.25 87.75 308.25 c 87.75 285.75 l 
87.75 279.75 78.75 279.75 78.75 285.75 c h
78.75 308.25 m f
252.375 87 m 252.375 82.445 248.68 78.75 244.125 78.75 c 239.57 78.75 235.875
 82.445 235.875 87 c 235.875 91.555 239.57 95.25 244.125 95.25 c 248.68 
95.25 252.375 91.555 252.375 87 c h
252.375 87 m f
252.375 297 m 252.375 292.445 248.68 288.75 244.125 288.75 c 239.57 288.75
 235.875 292.445 235.875 297 c 235.875 301.555 239.57 305.25 244.125 305.25
 c 248.68 305.25 252.375 301.555 252.375 297 c h
252.375 297 m f
Q Q
showpage
%%Trailer
end restore
%%EOF
