%!PS-Adobe-3.0 EPSF-3.0
%%Creator: cairo 1.14.8 (http://cairographics.org)
%%CreationDate: Thu Mar 21 09:07:39 2019
%%Pages: 1
%%DocumentData: Clean7Bit
%%LanguageLevel: 2
%%BoundingBox: 65 66 319 318
%%EndComments
%%BeginProlog
save
50 dict begin
/q { gsave } bind def
/Q { grestore } bind def
/cm { 6 array astore concat } bind def
/w { setlinewidth } bind def
/J { setlinecap } bind def
/j { setlinejoin } bind def
/M { setmiterlimit } bind def
/d { setdash } bind def
/m { moveto } bind def
/l { lineto } bind def
/c { curveto } bind def
/h { closepath } bind def
/re { exch dup neg 3 1 roll 5 3 roll moveto 0 rlineto
      0 exch rlineto 0 rlineto closepath } bind def
/S { stroke } bind def
/f { fill } bind def
/f* { eofill } bind def
/n { newpath } bind def
/W { clip } bind def
/W* { eoclip } bind def
/BT { } bind def
/ET { } bind def
/pdfmark where { pop globaldict /?pdfmark /exec load put }
    { globaldict begin /?pdfmark /pop load def /pdfmark
    /cleartomark load def end } ifelse
/BDC { mark 3 1 roll /BDC pdfmark } bind def
/EMC { mark /EMC pdfmark } bind def
/cairo_store_point { /cairo_point_y exch def /cairo_point_x exch def } def
/Tj { show currentpoint cairo_store_point } bind def
/TJ {
  {
    dup
    type /stringtype eq
    { show } { -0.001 mul 0 cairo_font_matrix dtransform rmoveto } ifelse
  } forall
  currentpoint cairo_store_point
} bind def
/cairo_selectfont { cairo_font_matrix aload pop pop pop 0 0 6 array astore
    cairo_font exch selectfont cairo_point_x cairo_point_y moveto } bind def
/Tf { pop /cairo_font exch def /cairo_font_matrix where
      { pop cairo_selectfont } if } bind def
/Td { matrix translate cairo_font_matrix matrix concatmatrix dup
      /cairo_font_matrix exch def dup 4 get exch 5 get cairo_store_point
      /cairo_font where { pop cairo_selectfont } if } bind def
/Tm { 2 copy 8 2 roll 6 array astore /cairo_font_matrix exch def
      cairo_store_point /cairo_font where { pop cairo_selectfont } if } bind def
/g { setgray } bind def
/rg { setrgbcolor } bind def
/d1 { setcachedevice } bind def
%%EndProlog
%%BeginSetup
%%EndSetup
%%Page: 1 1
%%BeginPageSetup
%%PageBoundingBox: 65 66 319 318
%%EndPageSetup
q 65 66 254 252 rectclip q
0 g
295.875 194.25 m 295.875 189.695 292.18 186 287.625 186 c 283.07 186 279.375
 189.695 279.375 194.25 c 279.375 198.805 283.07 202.5 287.625 202.5 c 292.18
 202.5 295.875 198.805 295.875 194.25 c h
295.875 194.25 m f
102.75 245.25 178.5 -11.25 re f
252.375 284.25 m 252.375 279.695 248.68 276 244.125 276 c 239.57 276 235.875
 279.695 235.875 284.25 c 235.875 288.805 239.57 292.5 244.125 292.5 c 248.68
 292.5 252.375 288.805 252.375 284.25 c h
252.375 284.25 m f
68.25 161.25 m 315.75 161.25 l 317.406 161.25 318.75 162.594 318.75 164.25
 c 318.75 224.25 l 318.75 225.906 317.406 227.25 315.75 227.25 c 289.641
 227.25 l 288.84 225.859 287.355 225 285.75 225 c 98.25 225 l 96.645 225
 95.16 225.859 94.355 227.25 c 68.25 227.25 l 66.594 227.25 65.25 225.906
 65.25 224.25 c 65.25 164.25 l 65.25 162.594 66.594 161.25 68.25 161.25 
c h
287.625 211.5 m 294.602 211.5 300.891 207.297 303.562 200.852 c 306.23 
194.406 304.758 186.984 299.824 182.051 c 294.891 177.117 287.469 175.645
 281.023 178.312 c 274.578 180.984 270.375 187.273 270.375 194.25 c 270.387
 203.773 278.102 211.488 287.625 211.5 c h
244.125 211.5 m 251.102 211.5 257.391 207.297 260.062 200.852 c 262.73 
194.406 261.258 186.984 256.324 182.051 c 251.391 177.117 243.969 175.645
 237.523 178.312 c 231.078 180.984 226.875 187.273 226.875 194.25 c 226.887
 203.773 234.602 211.488 244.125 211.5 c h
158.25 198 m 158.25 204 167.25 204 167.25 198 c 167.25 183 l 167.25 177
 158.25 177 158.25 183 c h
138.75 198 m 138.75 204 147.75 204 147.75 198 c 147.75 183 l 147.75 177
 138.75 177 138.75 183 c h
118.5 198 m 118.5 204 127.5 204 127.5 198 c 127.5 183 l 127.5 177 118.5
 177 118.5 183 c h
99 198 m 99 204 108 204 108 198 c 108 183 l 108 177 99 177 99 183 c h
78.75 198 m 78.75 204 87.75 204 87.75 198 c 87.75 183 l 87.75 177 78.75
 177 78.75 183 c h
78.75 198 m f
68.25 251.25 m 94.012 251.25 l 94.648 253.047 96.344 254.25 98.25 254.25
 c 285.75 254.25 l 287.656 254.25 289.352 253.047 289.988 251.25 c 315.75
 251.25 l 317.406 251.25 318.75 252.594 318.75 254.25 c 318.75 314.25 l 
318.75 315.906 317.406 317.25 315.75 317.25 c 68.25 317.25 l 66.594 317.25
 65.25 315.906 65.25 314.25 c 65.25 254.25 l 65.25 252.594 66.594 251.25
 68.25 251.25 c h
287.625 301.5 m 294.602 301.5 300.891 297.297 303.562 290.852 c 306.23 
284.406 304.758 276.984 299.824 272.051 c 294.891 267.117 287.469 265.645
 281.023 268.312 c 274.578 270.984 270.375 277.273 270.375 284.25 c 270.387
 293.773 278.102 301.488 287.625 301.5 c h
244.125 301.5 m 251.102 301.5 257.391 297.297 260.062 290.852 c 262.73 
284.406 261.258 276.984 256.324 272.051 c 251.391 267.117 243.969 265.645
 237.523 268.312 c 231.078 270.984 226.875 277.273 226.875 284.25 c 226.887
 293.773 234.602 301.488 244.125 301.5 c h
158.25 288 m 158.25 294 167.25 294 167.25 288 c 167.25 273 l 167.25 267
 158.25 267 158.25 273 c h
138.75 288 m 138.75 294 147.75 294 147.75 288 c 147.75 273 l 147.75 267
 138.75 267 138.75 273 c h
118.5 288 m 118.5 294 127.5 294 127.5 288 c 127.5 273 l 127.5 267 118.5
 267 118.5 273 c h
99 288 m 99 294 108 294 108 288 c 108 273 l 108 267 99 267 99 273 c h
78.75 288 m 78.75 294 87.75 294 87.75 288 c 87.75 273 l 87.75 267 78.75
 267 78.75 273 c h
78.75 288 m f
252.375 194.25 m 252.375 189.695 248.68 186 244.125 186 c 239.57 186 235.875
 189.695 235.875 194.25 c 235.875 198.805 239.57 202.5 244.125 202.5 c 248.68
 202.5 252.375 198.805 252.375 194.25 c h
252.375 194.25 m f
295.875 284.25 m 295.875 279.695 292.18 276 287.625 276 c 283.07 276 279.375
 279.695 279.375 284.25 c 279.375 288.805 283.07 292.5 287.625 292.5 c 292.18
 292.5 295.875 288.805 295.875 284.25 c h
295.875 284.25 m f
204.75 79.5 m 204.75 72.457 199.043 66.75 192 66.75 c 184.957 66.75 179.25
 72.457 179.25 79.5 c 179.25 86.543 184.957 92.25 192 92.25 c 199.043 92.25
 204.75 86.543 204.75 79.5 c h
204.75 79.5 m f
187.5 156.75 9 -60 re f
209.25 84 57 -9 re f
117 84 57.75 -9 re f
287.809 79.5 m 287.809 74.531 283.777 70.5 278.809 70.5 c 273.836 70.5 
269.809 74.531 269.809 79.5 c 269.809 84.469 273.836 88.5 278.809 88.5 c
 283.777 88.5 287.809 84.469 287.809 79.5 c h
287.809 79.5 m f
114.191 79.5 m 114.191 74.531 110.164 70.5 105.191 70.5 c 100.223 70.5 
96.191 74.531 96.191 79.5 c 96.191 84.469 100.223 88.5 105.191 88.5 c 110.164
 88.5 114.191 84.469 114.191 79.5 c h
114.191 79.5 m f
Q Q
showpage
%%Trailer
end restore
%%EOF
