%!PS-Adobe-3.0 EPSF-3.0
%%Creator: cairo 1.14.8 (http://cairographics.org)
%%CreationDate: Thu Mar 21 09:07:39 2019
%%Pages: 1
%%DocumentData: Clean7Bit
%%LanguageLevel: 2
%%BoundingBox: 33 30 350 354
%%EndComments
%%BeginProlog
save
50 dict begin
/q { gsave } bind def
/Q { grestore } bind def
/cm { 6 array astore concat } bind def
/w { setlinewidth } bind def
/J { setlinecap } bind def
/j { setlinejoin } bind def
/M { setmiterlimit } bind def
/d { setdash } bind def
/m { moveto } bind def
/l { lineto } bind def
/c { curveto } bind def
/h { closepath } bind def
/re { exch dup neg 3 1 roll 5 3 roll moveto 0 rlineto
      0 exch rlineto 0 rlineto closepath } bind def
/S { stroke } bind def
/f { fill } bind def
/f* { eofill } bind def
/n { newpath } bind def
/W { clip } bind def
/W* { eoclip } bind def
/BT { } bind def
/ET { } bind def
/pdfmark where { pop globaldict /?pdfmark /exec load put }
    { globaldict begin /?pdfmark /pop load def /pdfmark
    /cleartomark load def end } ifelse
/BDC { mark 3 1 roll /BDC pdfmark } bind def
/EMC { mark /EMC pdfmark } bind def
/cairo_store_point { /cairo_point_y exch def /cairo_point_x exch def } def
/Tj { show currentpoint cairo_store_point } bind def
/TJ {
  {
    dup
    type /stringtype eq
    { show } { -0.001 mul 0 cairo_font_matrix dtransform rmoveto } ifelse
  } forall
  currentpoint cairo_store_point
} bind def
/cairo_selectfont { cairo_font_matrix aload pop pop pop 0 0 6 array astore
    cairo_font exch selectfont cairo_point_x cairo_point_y moveto } bind def
/Tf { pop /cairo_font exch def /cairo_font_matrix where
      { pop cairo_selectfont } if } bind def
/Td { matrix translate cairo_font_matrix matrix concatmatrix dup
      /cairo_font_matrix exch def dup 4 get exch 5 get cairo_store_point
      /cairo_font where { pop cairo_selectfont } if } bind def
/Tm { 2 copy 8 2 roll 6 array astore /cairo_font_matrix exch def
      cairo_store_point /cairo_font where { pop cairo_selectfont } if } bind def
/g { setgray } bind def
/rg { setrgbcolor } bind def
/d1 { setcachedevice } bind def
%%EndProlog
%%BeginSetup
%%EndSetup
%%Page: 1 1
%%BeginPageSetup
%%PageBoundingBox: 33 30 350 354
%%EndPageSetup
q 33 30 317 324 rectclip q
0 g
36.531 135 m 62.293 135 l 62.91 137.25 64.574 138 66.531 138 c 254.031 
138 l 255.988 138 257.652 137.25 258.27 135 c 284.031 135 l 285.797 135.148
 287.172 136.586 287.25 138.355 c 287.25 185.25 l 270.328 185.25 l 272.137
 182.438 273.117 179.172 273.156 175.828 c 273.148 169.633 269.82 163.914
 264.434 160.852 c 259.051 157.789 252.438 157.848 247.105 161.008 c 241.777
 164.168 238.555 169.945 238.66 176.141 c 238.766 182.336 242.184 187.996
 247.617 190.973 c 247.598 191.094 247.57 191.211 247.559 191.336 c 245.633
 212.48 l 240.809 214.637 236.223 217.289 231.945 220.395 c 212.711 211.523
 l 211.234 210.613 209.438 210.402 207.793 210.941 c 206.27 211.473 204.984
 212.527 204.172 213.922 c 204.172 213.75 l 66.531 213.75 l 64.867 213.75
 63.418 215.25 62.637 216 c 36.531 216 l 34.992 216.148 33.676 214.898 33.75
 213.355 c 33.75 138.355 l 33.75 136.699 34.875 135 36.531 135 c h
212.406 193.105 m 219.383 193.105 225.672 188.902 228.344 182.457 c 231.012
 176.008 229.535 168.59 224.605 163.656 c 219.672 158.723 212.25 157.246
 205.805 159.918 c 199.359 162.586 195.156 168.879 195.156 175.855 c 195.168
 185.375 202.883 193.094 212.406 193.105 c h
126.75 187.105 m 126.75 193.105 135.75 193.105 135.75 187.105 c 135.75 
164.605 l 135.75 158.605 126.75 158.605 126.75 164.605 c h
106.5 187.105 m 106.5 193.105 115.5 193.105 115.5 187.105 c 115.5 164.605
 l 115.5 158.605 106.5 158.605 106.5 164.605 c h
87 187.105 m 87 193.105 96 193.105 96 187.105 c 96 164.605 l 96 158.605
 87 158.605 87 164.605 c h
67.5 187.105 m 67.5 193.105 76.5 193.105 76.5 187.105 c 76.5 164.605 l 
76.5 158.605 67.5 158.605 67.5 164.605 c h
67.5 187.105 m f
287.25 33.355 m 287.25 108.355 l 287.25 110.008 285.684 111 284.031 111
 c 257.926 111 l 257.148 110.25 255.699 108.75 254.031 108.75 c 66.531 108.75
 l 64.867 108.75 63.418 110.25 62.641 111 c 36.531 111 l 34.992 111.148 
33.676 109.898 33.75 108.355 c 33.75 33.355 l 33.75 31.699 34.875 30 36.531
 30 c 284.031 30 l 285.797 30.148 287.172 31.586 287.25 33.355 c h
76.5 59.605 m 76.5 53.605 67.5 53.605 67.5 59.605 c 67.5 82.105 l 67.5 
88.105 76.5 88.105 76.5 82.105 c h
96 59.605 m 96 53.605 87 53.605 87 59.605 c 87 82.105 l 87 88.105 96 88.105
 96 82.105 c h
115.5 59.605 m 115.5 53.605 106.5 53.605 106.5 59.605 c 106.5 82.105 l 
106.5 88.105 115.5 88.105 115.5 82.105 c h
135.75 59.605 m 135.75 53.605 126.75 53.605 126.75 59.605 c 126.75 82.105
 l 126.75 88.105 135.75 88.105 135.75 82.105 c h
212.406 53.605 m 205.43 53.605 199.141 57.809 196.469 64.254 c 193.801 
70.699 195.273 78.117 200.207 83.051 c 205.141 87.984 212.562 89.461 219.008
 86.789 c 225.453 84.121 229.656 77.832 229.656 70.855 c 229.645 61.332 
221.93 53.613 212.406 53.605 c h
255.906 53.605 m 248.93 53.605 242.641 57.809 239.969 64.254 c 237.301 
70.699 238.773 78.117 243.707 83.051 c 248.641 87.984 256.062 89.461 262.508
 86.789 c 268.953 84.121 273.156 77.832 273.156 70.855 c 273.145 61.332 
265.43 53.613 255.906 53.605 c h
255.906 53.605 m f
220.656 175.855 m 220.656 171.297 216.961 167.605 212.406 167.605 c 207.852
 167.605 204.156 171.297 204.156 175.855 c 204.156 180.41 207.852 184.105
 212.406 184.105 c 216.961 184.105 220.656 180.41 220.656 175.855 c h
220.656 175.855 m f
71.25 129 178.5 -11.25 re f
220.656 70.855 m 220.656 66.297 216.961 62.605 212.406 62.605 c 207.852
 62.605 204.156 66.297 204.156 70.855 c 204.156 75.41 207.852 79.105 212.406
 79.105 c 216.961 79.105 220.656 75.41 220.656 70.855 c h
220.656 70.855 m f
329.957 264.621 m 330.133 265.832 l 330.586 268.523 330.836 271.246 330.891
 273.973 c 330.836 276.703 330.582 279.426 330.129 282.121 c 329.949 283.379
 l 329.715 285.047 330.426 286.707 331.797 287.684 c 349.742 300.445 l 333.742
 327.359 l 313.922 318.242 l 312.418 317.555 310.66 317.742 309.336 318.738
 c 308.348 319.496 l 303.93 322.84 299.117 325.633 294.02 327.812 c 292.883
 328.344 l 291.352 329.031 290.316 330.492 290.168 332.16 c 288.203 354 
l 257.145 354 l 255.184 332.164 l 255.043 330.469 254.008 328.98 252.473
 328.254 c 251.332 327.766 l 245.43 325.234 240.812 322.578 237.223 319.641
 c 236.219 318.816 l 234.887 317.727 233.051 317.492 231.488 318.211 c 211.625
 327.348 l 196.004 300.457 l 213.969 287.684 l 215.34 286.707 216.055 285.047
 215.816 283.379 c 215.637 282.125 l 215.184 279.43 214.93 276.707 214.875
 273.977 c 214.93 271.258 215.18 268.551 215.629 265.871 c 215.812 264.582
 l 216.051 262.93 215.352 261.281 213.996 260.301 c 212.93 259.531 l 212.895
 259.504 212.859 259.48 212.824 259.457 c 195.199 247.457 l 210.805 220.598
 l 230.609 229.707 l 232.109 230.398 233.867 230.211 235.188 229.219 c 236.18
 228.473 l 240.602 225.133 245.414 222.344 250.508 220.172 c 251.645 219.68
 l 253.164 219.023 254.203 217.59 254.355 215.938 c 256.324 194.25 l 287.383
 194.25 l 289.348 215.938 l 289.496 217.59 290.535 219.031 292.055 219.691
 c 293.195 220.18 l 299.105 222.715 303.723 225.375 307.305 228.305 c 308.309
 229.133 l 309.641 230.219 311.477 230.457 313.039 229.734 c 332.898 220.598
 l 348.555 247.547 l 331.68 260.402 l 330.387 261.391 329.727 263.004 329.957
 264.621 c h
272.469 225.996 m 245.57 225.996 224.496 247.07 224.496 273.969 c 224.496
 300.871 245.57 321.945 272.469 321.945 c 299.367 321.945 320.445 300.871
 320.445 273.969 c 320.445 247.07 299.371 226 272.469 226 c h
272.469 225.996 m f
36.531 240 m 62.293 240 l 62.91 242.25 64.574 243 66.531 243 c 187.172 
243 l 186.379 244.543 l 184.676 247.582 185.441 251.41 188.184 253.559 c
 188.242 253.602 188.301 253.645 188.363 253.688 c 206.512 266.043 l 206.113
 268.664 205.898 271.312 205.871 273.965 c 205.898 276.625 206.113 279.281
 206.516 281.914 c 189.188 294.215 l 189.156 294.234 189.125 294.215 189.094
 294.234 c 186.266 296.273 185.465 300.133 187.246 303.125 c 197.734 321
 l 36.531 321 l 34.992 321.148 33.676 319.898 33.75 318.355 c 33.75 243.355
 l 33.75 241.699 34.875 240 36.531 240 c h
126.75 292.105 m 126.75 298.105 135.75 298.105 135.75 292.105 c 135.75 
269.605 l 135.75 263.605 126.75 263.605 126.75 269.605 c h
106.5 292.105 m 106.5 298.105 115.5 298.105 115.5 292.105 c 115.5 269.605
 l 115.5 263.605 106.5 263.605 106.5 269.605 c h
87 292.105 m 87 298.105 96 298.105 96 292.105 c 96 269.605 l 96 263.605
 87 263.605 87 269.605 c h
67.5 292.105 m 67.5 298.105 76.5 298.105 76.5 292.105 c 76.5 269.605 l 
76.5 263.605 67.5 263.605 67.5 269.605 c h
67.5 292.105 m f
264.156 70.855 m 264.156 66.297 260.461 62.605 255.906 62.605 c 251.352
 62.605 247.656 66.297 247.656 70.855 c 247.656 75.41 251.352 79.105 255.906
 79.105 c 260.461 79.105 264.156 75.41 264.156 70.855 c h
264.156 70.855 m f
264.156 175.855 m 264.156 171.297 260.461 167.605 255.906 167.605 c 251.352
 167.605 247.656 171.297 247.656 175.855 c 247.656 180.41 251.352 184.105
 255.906 184.105 c 260.461 184.105 264.156 180.41 264.156 175.855 c h
264.156 175.855 m f
272.469 312.949 m 256.703 312.949 242.492 303.453 236.461 288.887 c 230.43
 274.324 233.762 257.559 244.91 246.414 c 256.059 235.266 272.82 231.934
 287.387 237.965 c 301.949 244 311.445 258.211 311.445 273.977 c 311.559
 284.348 307.488 294.324 300.152 301.656 c 292.82 308.992 282.84 313.062
 272.469 312.949 c h
272.469 249.895 m 262.73 249.895 253.949 255.762 250.223 264.758 c 246.496
 273.758 248.555 284.113 255.441 291 c 262.328 297.887 272.688 299.949 281.684
 296.223 c 290.684 292.496 296.551 283.715 296.551 273.977 c 296.621 267.566
 294.105 261.402 289.574 256.871 c 285.043 252.34 278.879 249.824 272.469
 249.895 c h
272.469 249.895 m f
71.25 222.75 m 198.941 222.75 l 192.402 234 l 71.25 234 l h
71.25 222.75 m f
272.469 289.051 m 266.371 289.051 260.871 285.375 258.539 279.738 c 256.203
 274.105 257.492 267.617 261.809 263.305 c 266.121 258.992 272.609 257.703
 278.246 260.039 c 283.879 262.375 287.551 267.875 287.551 273.977 c 287.594
 277.988 286.016 281.848 283.18 284.684 c 280.344 287.52 276.48 289.094 
272.469 289.051 c h
272.469 289.051 m f
Q Q
showpage
%%Trailer
end restore
%%EOF
