%!PS-Adobe-3.0 EPSF-3.0
%%Creator: cairo 1.14.8 (http://cairographics.org)
%%CreationDate: Thu Mar 21 09:07:39 2019
%%Pages: 1
%%DocumentData: Clean7Bit
%%LanguageLevel: 2
%%BoundingBox: 54 68 331 316
%%EndComments
%%BeginProlog
save
50 dict begin
/q { gsave } bind def
/Q { grestore } bind def
/cm { 6 array astore concat } bind def
/w { setlinewidth } bind def
/J { setlinecap } bind def
/j { setlinejoin } bind def
/M { setmiterlimit } bind def
/d { setdash } bind def
/m { moveto } bind def
/l { lineto } bind def
/c { curveto } bind def
/h { closepath } bind def
/re { exch dup neg 3 1 roll 5 3 roll moveto 0 rlineto
      0 exch rlineto 0 rlineto closepath } bind def
/S { stroke } bind def
/f { fill } bind def
/f* { eofill } bind def
/n { newpath } bind def
/W { clip } bind def
/W* { eoclip } bind def
/BT { } bind def
/ET { } bind def
/pdfmark where { pop globaldict /?pdfmark /exec load put }
    { globaldict begin /?pdfmark /pop load def /pdfmark
    /cleartomark load def end } ifelse
/BDC { mark 3 1 roll /BDC pdfmark } bind def
/EMC { mark /EMC pdfmark } bind def
/cairo_store_point { /cairo_point_y exch def /cairo_point_x exch def } def
/Tj { show currentpoint cairo_store_point } bind def
/TJ {
  {
    dup
    type /stringtype eq
    { show } { -0.001 mul 0 cairo_font_matrix dtransform rmoveto } ifelse
  } forall
  currentpoint cairo_store_point
} bind def
/cairo_selectfont { cairo_font_matrix aload pop pop pop 0 0 6 array astore
    cairo_font exch selectfont cairo_point_x cairo_point_y moveto } bind def
/Tf { pop /cairo_font exch def /cairo_font_matrix where
      { pop cairo_selectfont } if } bind def
/Td { matrix translate cairo_font_matrix matrix concatmatrix dup
      /cairo_font_matrix exch def dup 4 get exch 5 get cairo_store_point
      /cairo_font where { pop cairo_selectfont } if } bind def
/Tm { 2 copy 8 2 roll 6 array astore /cairo_font_matrix exch def
      cairo_store_point /cairo_font where { pop cairo_selectfont } if } bind def
/g { setgray } bind def
/rg { setrgbcolor } bind def
/d1 { setcachedevice } bind def
%%EndProlog
%%BeginSetup
%%EndSetup
%%Page: 1 1
%%BeginPageSetup
%%PageBoundingBox: 54 68 331 316
%%EndPageSetup
q 54 68 277 248 rectclip q
0 g
310.672 244.5 m 318.148 244.5 324.965 248.77 328.227 255.5 c 331.484 262.227
 330.609 270.227 325.973 276.094 c 321.34 281.957 313.758 284.656 306.457
 283.039 c 299.16 281.422 293.426 275.773 291.703 268.5 c 270.172 268.5 
l 267.652 268.512 265.582 266.52 265.5 264 c 265.5 241.5 l 252.75 241.5 
l 252.75 260 l 252.703 261.684 251.742 263.203 250.246 263.973 c 154.016
 315.223 l 152.664 315.934 151.047 315.926 149.707 315.195 c 56.266 263.949
 l 54.844 263.148 53.973 261.633 54 260 c 54 200.871 l 54.02 145.973 86.523
 96.289 136.816 74.281 c 149.754 68.625 l 150.312 68.379 150.918 68.25 151.527
 68.25 c 152.141 68.25 152.742 68.375 153.301 68.617 c 167.906 74.93 l 191.891
 85.031 212.543 101.691 227.488 123 c 265.5 123 l 265.5 100.5 l 265.582 
97.98 267.652 95.988 270.172 96 c 291.703 96 l 293.984 86.375 303.113 79.984
 312.941 81.133 c 322.766 82.281 330.176 90.605 330.176 100.5 c 330.176 
110.395 322.766 118.719 312.941 119.867 c 303.113 121.016 293.984 114.625
 291.703 105 c 274.5 105 l 274.5 127.5 l 274.582 129.949 272.625 131.984
 270.172 132 c 184.141 132 l 181.859 141.625 172.727 148.016 162.902 146.867
 c 153.074 145.719 145.668 137.395 145.668 127.5 c 145.668 117.605 153.074
 109.281 162.902 108.133 c 172.727 106.984 181.859 113.375 184.141 123 c
 216.324 123 l 202.695 105.508 184.805 91.805 164.363 83.203 c 151.516 77.652
 l 140.422 82.527 l 93.406 103.105 63.02 149.551 63 200.871 c 63 257.336
 l 152.074 306.137 l 243.75 257.301 l 243.75 241.5 l 184.141 241.5 l 181.859
 251.125 172.727 257.516 162.902 256.367 c 153.074 255.219 145.668 246.895
 145.668 237 c 145.668 227.105 153.074 218.781 162.902 217.633 c 172.727
 216.484 181.859 222.875 184.141 232.5 c 270.172 232.5 l 272.625 232.516
 274.582 234.551 274.5 237 c 274.5 259.5 l 291.703 259.5 l 293.797 250.715
 301.641 244.512 310.672 244.5 c h
310.672 244.5 m f
272.422 201.75 m 263.102 201.738 255.09 195.145 253.285 186 c 137.805 186
 l 135.906 195.707 127.035 202.457 117.172 201.695 c 107.309 200.938 99.578
 192.914 99.184 183.027 c 98.793 173.145 105.863 164.531 115.633 162.992
 c 125.406 161.453 134.781 167.473 137.449 177 c 253.645 177 l 255.641 169.867
 261.5 164.48 268.777 163.094 c 276.051 161.707 283.484 164.562 287.961 
170.465 c 292.438 176.363 293.184 184.289 289.891 190.922 c 286.594 197.559
 279.828 201.75 272.422 201.75 c h
272.422 201.75 m f
Q Q
showpage
%%Trailer
end restore
%%EOF
