%!PS-Adobe-3.0 EPSF-3.0
%%Creator: cairo 1.14.8 (http://cairographics.org)
%%CreationDate: Thu Mar 21 09:07:39 2019
%%Pages: 1
%%DocumentData: Clean7Bit
%%LanguageLevel: 2
%%BoundingBox: 31 26 353 357
%%EndComments
%%BeginProlog
save
50 dict begin
/q { gsave } bind def
/Q { grestore } bind def
/cm { 6 array astore concat } bind def
/w { setlinewidth } bind def
/J { setlinecap } bind def
/j { setlinejoin } bind def
/M { setmiterlimit } bind def
/d { setdash } bind def
/m { moveto } bind def
/l { lineto } bind def
/c { curveto } bind def
/h { closepath } bind def
/re { exch dup neg 3 1 roll 5 3 roll moveto 0 rlineto
      0 exch rlineto 0 rlineto closepath } bind def
/S { stroke } bind def
/f { fill } bind def
/f* { eofill } bind def
/n { newpath } bind def
/W { clip } bind def
/W* { eoclip } bind def
/BT { } bind def
/ET { } bind def
/pdfmark where { pop globaldict /?pdfmark /exec load put }
    { globaldict begin /?pdfmark /pop load def /pdfmark
    /cleartomark load def end } ifelse
/BDC { mark 3 1 roll /BDC pdfmark } bind def
/EMC { mark /EMC pdfmark } bind def
/cairo_store_point { /cairo_point_y exch def /cairo_point_x exch def } def
/Tj { show currentpoint cairo_store_point } bind def
/TJ {
  {
    dup
    type /stringtype eq
    { show } { -0.001 mul 0 cairo_font_matrix dtransform rmoveto } ifelse
  } forall
  currentpoint cairo_store_point
} bind def
/cairo_selectfont { cairo_font_matrix aload pop pop pop 0 0 6 array astore
    cairo_font exch selectfont cairo_point_x cairo_point_y moveto } bind def
/Tf { pop /cairo_font exch def /cairo_font_matrix where
      { pop cairo_selectfont } if } bind def
/Td { matrix translate cairo_font_matrix matrix concatmatrix dup
      /cairo_font_matrix exch def dup 4 get exch 5 get cairo_store_point
      /cairo_font where { pop cairo_selectfont } if } bind def
/Tm { 2 copy 8 2 roll 6 array astore /cairo_font_matrix exch def
      cairo_store_point /cairo_font where { pop cairo_selectfont } if } bind def
/g { setgray } bind def
/rg { setrgbcolor } bind def
/d1 { setcachedevice } bind def
%%EndProlog
%%BeginSetup
%%EndSetup
%%Page: 1 1
%%BeginPageSetup
%%PageBoundingBox: 31 26 353 357
%%EndPageSetup
q 31 26 322 331 rectclip q
0 g
114 165.871 m 114 160.098 121.922 153.785 135.191 148.984 c 150.293 143.52
 170.465 140.508 192 140.508 c 213.535 140.508 233.707 143.52 248.809 148.984
 c 262.078 153.785 270 160.098 270 165.871 c 270 206.668 l 265.52 203.07
 259.426 199.832 251.867 197.098 c 235.809 191.285 214.547 188.086 192 188.086
 c 161.297 188.086 129.195 194.469 114 206.547 c h
239.867 182.945 m 244.719 182.945 249.094 180.023 250.953 175.539 c 252.809
 171.055 251.781 165.891 248.352 162.461 c 244.918 159.027 239.758 158 235.273
 159.859 c 230.789 161.715 227.867 166.09 227.867 170.945 c 227.871 177.57
 233.242 182.938 239.867 182.945 c h
158.383 166.918 m 158.719 169.379 160.988 171.102 163.449 170.766 c 172.914
 169.496 182.453 168.871 192 168.891 c 199.633 168.883 207.262 169.277 214.852
 170.074 c 220.77 170.652 221.711 161.812 215.805 161.129 c 207.898 160.297
 199.953 159.883 192 159.891 c 182.043 159.871 172.098 160.523 162.23 161.848
 c 159.77 162.184 158.047 164.453 158.383 166.918 c h
158.383 166.918 m f
242.867 59.477 m 242.867 57.82 241.523 56.477 239.867 56.477 c 238.207 
56.477 236.867 57.82 236.867 59.477 c 236.867 61.133 238.207 62.477 239.867
 62.477 c 241.523 62.477 242.867 61.133 242.867 59.477 c h
242.867 59.477 m f
42 87 m 105 87 l 105 222.441 l 105 232.453 114.637 241.453 132.133 247.785
 c 148.191 253.598 169.453 256.801 192 256.801 c 234.176 256.801 279 244.758
 279 222.441 c 279 87 l 342 87 l 347.789 87 352.5 92.066 352.5 97.855 c 
352.5 295.5 l 31.5 295.5 l 31.5 97.855 l 31.5 92.066 36.211 87 42 87 c h
42 87 m f
352.5 346.523 m 352.492 352.316 347.793 357.004 342 357 c 42 357 l 36.207
 357.004 31.508 352.316 31.5 346.523 c 31.5 304.5 l 352.5 304.5 l h
57.645 315.117 m 51.055 315.117 45.117 319.086 42.594 325.172 c 40.074 
331.258 41.469 338.262 46.125 342.922 c 50.785 347.578 57.789 348.973 63.875
 346.453 c 69.961 343.93 73.93 337.992 73.93 331.406 c 73.918 322.414 66.633
 315.129 57.645 315.117 c h
100.07 315.117 m 93.484 315.117 87.547 319.086 85.023 325.172 c 82.504 
331.258 83.898 338.262 88.555 342.922 c 93.211 347.578 100.219 348.973 106.305
 346.453 c 112.391 343.93 116.355 337.992 116.355 331.406 c 116.348 322.414
 109.062 315.129 100.07 315.117 c h
141.715 315.117 m 135.125 315.117 129.188 319.086 126.668 325.172 c 124.148
 331.258 125.539 338.262 130.199 342.922 c 134.855 347.578 141.859 348.973
 147.945 346.453 c 154.031 343.93 158 337.992 158 331.406 c 157.992 322.414
 150.703 315.129 141.715 315.117 c h
338.926 327.75 m 203.785 327.75 l 197.785 327.75 197.785 336.75 203.785
 336.75 c 338.926 336.75 l 344.926 336.75 344.926 327.75 338.926 327.75 
c h
338.926 327.75 m f
114 110.477 m 114 109.297 l 114 103.527 121.922 97.215 135.191 92.41 c 
150.293 86.949 170.465 83.938 192 83.938 c 213.535 83.938 233.707 86.945
 248.809 92.41 c 262.078 97.215 270 103.527 270 109.297 c 270 150.09 l 265.52
 146.492 259.43 143.258 251.871 140.523 c 235.812 134.711 214.551 131.512
 192 131.512 c 161.297 131.512 129.195 137.895 114 149.977 c h
239.867 127.211 m 244.719 127.211 249.094 124.285 250.953 119.801 c 252.809
 115.316 251.781 110.156 248.352 106.723 c 244.918 103.293 239.758 102.266
 235.273 104.125 c 230.789 105.98 227.867 110.355 227.867 115.211 c 227.871
 121.836 233.242 127.203 239.867 127.211 c h
158.383 111.184 m 158.719 113.645 160.988 115.367 163.449 115.031 c 172.914
 113.762 182.453 113.137 192 113.156 c 199.633 113.148 207.262 113.543 214.852
 114.34 c 220.816 114.977 221.773 106.027 215.805 105.391 c 207.898 104.559
 199.953 104.148 192 104.156 c 182.043 104.137 172.098 104.789 162.23 106.113
 c 159.77 106.449 158.047 108.719 158.383 111.184 c h
158.383 111.184 m f
242.867 170.945 m 242.867 169.289 241.523 167.945 239.867 167.945 c 238.207
 167.945 236.867 169.289 236.867 170.945 c 236.867 172.602 238.207 173.945
 239.867 173.945 c 241.523 173.945 242.867 172.602 242.867 170.945 c h
242.867 170.945 m f
242.867 115.211 m 242.867 113.555 241.523 112.211 239.867 112.211 c 238.207
 112.211 236.867 113.555 236.867 115.211 c 236.867 116.867 238.207 118.211
 239.867 118.211 c 241.523 118.211 242.867 116.867 242.867 115.211 c h
242.867 115.211 m f
192 197.082 m 213.523 197.082 233.699 200.094 248.805 205.559 c 262.078
 210.359 270 216.672 270 222.438 c 270 228.207 262.078 234.516 248.805 239.32
 c 233.699 244.789 213.523 247.801 192 247.801 c 170.477 247.801 150.301
 244.789 135.195 239.324 c 121.922 234.523 114 228.211 114 222.445 c 114
 216.676 121.922 210.367 135.195 205.562 c 150.301 200.094 170.477 197.082
 192 197.082 c h
192 197.082 m f
141.715 338.691 m 138.766 338.691 136.109 336.914 134.98 334.191 c 133.855
 331.469 134.477 328.336 136.562 326.25 c 138.645 324.168 141.781 323.543
 144.504 324.672 c 147.227 325.801 149 328.457 149 331.406 c 148.996 335.426
 145.734 338.688 141.715 338.691 c h
141.715 338.691 m f
107.355 331.406 m 107.355 327.383 104.094 324.121 100.07 324.121 c 96.047
 324.121 92.785 327.383 92.785 331.406 c 92.785 335.43 96.047 338.691 100.07
 338.691 c 104.094 338.691 107.355 335.43 107.355 331.406 c h
107.355 331.406 m f
114 52.332 m 114 46.562 121.922 40.25 135.191 35.449 c 150.293 29.984 170.465
 26.973 192 26.973 c 213.535 26.973 233.707 29.984 248.809 35.449 c 262.078
 40.25 270 46.562 270 52.332 c 270 93.52 l 265.52 89.922 259.43 86.688 251.871
 83.949 c 235.812 78.141 214.551 74.941 192 74.941 c 161.297 74.941 129.195
 81.324 114 93.406 c h
239.867 71.477 m 244.719 71.477 249.094 68.551 250.953 64.066 c 252.809
 59.582 251.781 54.422 248.352 50.988 c 244.918 47.559 239.758 46.531 235.273
 48.387 c 230.789 50.246 227.867 54.621 227.867 59.477 c 227.875 66.098 
233.242 71.469 239.867 71.477 c h
158.383 55.449 m 158.719 57.91 160.988 59.633 163.449 59.297 c 172.914 
58.027 182.453 57.402 192 57.422 c 199.633 57.414 207.262 57.809 214.852
 58.605 c 220.816 59.242 221.773 50.293 215.805 49.656 c 207.898 48.828 
199.953 48.414 192 48.422 c 182.043 48.402 172.098 49.055 162.23 50.379 
c 159.77 50.715 158.047 52.984 158.383 55.449 c h
158.383 55.449 m f
57.645 338.691 m 54.695 338.691 52.039 336.914 50.91 334.191 c 49.781 331.469
 50.406 328.336 52.488 326.25 c 54.574 324.168 57.707 323.543 60.43 324.672
 c 63.152 325.801 64.93 328.457 64.93 331.406 c 64.922 335.426 61.664 338.688
 57.645 338.691 c h
57.645 338.691 m f
Q Q
showpage
%%Trailer
end restore
%%EOF
