%!PS-Adobe-3.0 EPSF-3.0
%%Creator: cairo 1.14.8 (http://cairographics.org)
%%CreationDate: Thu Mar 21 09:07:39 2019
%%Pages: 1
%%DocumentData: Clean7Bit
%%LanguageLevel: 2
%%BoundingBox: 31 40 353 345
%%EndComments
%%BeginProlog
save
50 dict begin
/q { gsave } bind def
/Q { grestore } bind def
/cm { 6 array astore concat } bind def
/w { setlinewidth } bind def
/J { setlinecap } bind def
/j { setlinejoin } bind def
/M { setmiterlimit } bind def
/d { setdash } bind def
/m { moveto } bind def
/l { lineto } bind def
/c { curveto } bind def
/h { closepath } bind def
/re { exch dup neg 3 1 roll 5 3 roll moveto 0 rlineto
      0 exch rlineto 0 rlineto closepath } bind def
/S { stroke } bind def
/f { fill } bind def
/f* { eofill } bind def
/n { newpath } bind def
/W { clip } bind def
/W* { eoclip } bind def
/BT { } bind def
/ET { } bind def
/pdfmark where { pop globaldict /?pdfmark /exec load put }
    { globaldict begin /?pdfmark /pop load def /pdfmark
    /cleartomark load def end } ifelse
/BDC { mark 3 1 roll /BDC pdfmark } bind def
/EMC { mark /EMC pdfmark } bind def
/cairo_store_point { /cairo_point_y exch def /cairo_point_x exch def } def
/Tj { show currentpoint cairo_store_point } bind def
/TJ {
  {
    dup
    type /stringtype eq
    { show } { -0.001 mul 0 cairo_font_matrix dtransform rmoveto } ifelse
  } forall
  currentpoint cairo_store_point
} bind def
/cairo_selectfont { cairo_font_matrix aload pop pop pop 0 0 6 array astore
    cairo_font exch selectfont cairo_point_x cairo_point_y moveto } bind def
/Tf { pop /cairo_font exch def /cairo_font_matrix where
      { pop cairo_selectfont } if } bind def
/Td { matrix translate cairo_font_matrix matrix concatmatrix dup
      /cairo_font_matrix exch def dup 4 get exch 5 get cairo_store_point
      /cairo_font where { pop cairo_selectfont } if } bind def
/Tm { 2 copy 8 2 roll 6 array astore /cairo_font_matrix exch def
      cairo_store_point /cairo_font where { pop cairo_selectfont } if } bind def
/g { setgray } bind def
/rg { setrgbcolor } bind def
/d1 { setcachedevice } bind def
%%EndProlog
%%BeginSetup
%%EndSetup
%%Page: 1 1
%%BeginPageSetup
%%PageBoundingBox: 31 40 353 345
%%EndPageSetup
q 31 40 322 305 rectclip q
0 g
270 154.5 m 270 156.156 268.656 157.5 267 157.5 c 117 157.5 l 115.344 157.5
 114 156.156 114 154.5 c 114 113.25 l 114 111.594 115.344 110.25 117 110.25
 c 267 110.25 l 268.656 110.25 270 111.594 270 113.25 c h
133.5 126.387 m 133.5 120.387 124.5 120.387 124.5 126.387 c 124.5 133.027
 l 124.5 139.027 133.5 139.027 133.5 133.027 c h
148.5 126.387 m 148.5 120.387 139.5 120.387 139.5 126.387 c 139.5 133.027
 l 139.5 139.027 148.5 139.027 148.5 133.027 c h
163.5 126.387 m 163.5 120.387 154.5 120.387 154.5 126.387 c 154.5 133.027
 l 154.5 139.027 163.5 139.027 163.5 133.027 c h
178.5 126.387 m 178.5 120.387 169.5 120.387 169.5 126.387 c 169.5 133.027
 l 169.5 139.027 178.5 139.027 178.5 133.027 c h
217.266 120.941 m 212.203 120.941 207.641 123.992 205.703 128.668 c 203.766
 133.344 204.836 138.727 208.414 142.305 c 211.992 145.887 217.375 146.957
 222.055 145.02 c 226.73 143.082 229.777 138.52 229.777 133.457 c 229.773
 126.547 224.172 120.949 217.266 120.941 c h
249.855 120.941 m 244.797 120.941 240.23 123.992 238.293 128.668 c 236.359
 133.344 237.43 138.727 241.008 142.305 c 244.586 145.887 249.969 146.957
 254.645 145.02 c 259.324 143.082 262.371 138.52 262.371 133.457 c 262.363
 126.547 256.766 120.949 249.855 120.941 c h
249.855 120.941 m f
220.777 63.648 m 220.777 61.707 219.207 60.137 217.266 60.137 c 215.324
 60.137 213.75 61.707 213.75 63.648 c 213.75 65.59 215.324 67.164 217.266
 67.164 c 219.207 67.164 220.777 65.59 220.777 63.648 c h
220.777 63.648 m f
121.5 172.5 141 -6 re f
220.777 204.957 m 220.777 203.016 219.207 201.441 217.266 201.441 c 215.324
 201.441 213.75 203.016 213.75 204.957 c 213.75 206.898 215.324 208.473 
217.266 208.473 c 219.207 208.473 220.777 206.898 220.777 204.957 c h
220.777 204.957 m f
121.5 100.5 141 -3.75 re f
217.266 136.973 m 214.133 136.973 212.566 133.188 214.777 130.973 c 216.992
 128.758 220.777 130.324 220.777 133.457 c 220.777 135.395 219.203 136.969
 217.266 136.973 c h
217.266 136.973 m f
114 84.75 m 114 43.5 l 114 41.844 115.344 40.5 117 40.5 c 267 40.5 l 268.656
 40.5 270 41.844 270 43.5 c 270 84.75 l 270 86.406 268.656 87.75 267 87.75
 c 117 87.75 l 115.344 87.75 114 86.406 114 84.75 c h
249.855 76.164 m 254.918 76.164 259.48 73.113 261.418 68.438 c 263.355 
63.762 262.285 58.379 258.707 54.801 c 255.125 51.219 249.742 50.148 245.066
 52.086 c 240.391 54.023 237.344 58.586 237.344 63.648 c 237.348 70.559 
242.949 76.156 249.855 76.164 c h
217.266 76.164 m 222.328 76.164 226.891 73.113 228.828 68.438 c 230.762
 63.762 229.691 58.379 226.113 54.801 c 222.535 51.219 217.152 50.148 212.477
 52.086 c 207.797 54.023 204.75 58.586 204.75 63.648 c 204.758 70.559 210.355
 76.156 217.266 76.164 c h
169.5 63.219 m 169.5 69.219 178.5 69.219 178.5 63.219 c 178.5 56.578 l 
178.5 50.578 169.5 50.578 169.5 56.578 c h
154.5 63.219 m 154.5 69.219 163.5 69.219 163.5 63.219 c 163.5 56.578 l 
163.5 50.578 154.5 50.578 154.5 56.578 c h
139.5 63.219 m 139.5 69.219 148.5 69.219 148.5 63.219 c 148.5 56.578 l 
148.5 50.578 139.5 50.578 139.5 56.578 c h
124.5 63.219 m 124.5 69.219 133.5 69.219 133.5 63.219 c 133.5 56.578 l 
133.5 50.578 124.5 50.578 124.5 56.578 c h
124.5 63.219 m f
249.855 136.973 m 246.727 136.973 245.156 133.188 247.371 130.973 c 249.586
 128.758 253.371 130.324 253.371 133.457 c 253.367 135.395 251.797 136.969
 249.855 136.973 c h
249.855 136.973 m f
253.371 204.957 m 253.371 203.016 251.797 201.441 249.855 201.441 c 247.918
 201.441 246.344 203.016 246.344 204.957 c 246.344 206.898 247.918 208.473
 249.855 208.473 c 251.797 208.473 253.371 206.898 253.371 204.957 c h
253.371 204.957 m f
253.371 63.648 m 253.371 61.707 251.797 60.137 249.855 60.137 c 247.918
 60.137 246.344 61.707 246.344 63.648 c 246.344 65.59 247.918 67.164 249.855
 67.164 c 251.797 67.164 253.371 65.59 253.371 63.648 c h
253.371 63.648 m f
57.645 325.801 m 54.695 325.801 52.039 324.023 50.91 321.301 c 49.785 318.582
 50.406 315.445 52.492 313.363 c 54.574 311.277 57.707 310.656 60.43 311.785
 c 63.152 312.91 64.93 315.566 64.93 318.516 c 64.922 322.535 61.664 325.797
 57.645 325.801 c h
57.645 325.801 m f
352.5 333.637 m 352.504 339.457 347.816 344.191 342 344.25 c 42 344.25 
l 36.184 344.191 31.496 339.457 31.5 333.637 c 31.5 291.75 l 352.5 291.75
 l h
57.645 302.23 m 51.055 302.23 45.117 306.199 42.598 312.285 c 40.078 318.371
 41.469 325.375 46.129 330.031 c 50.785 334.691 57.789 336.086 63.875 333.562
 c 69.961 331.043 73.93 325.105 73.93 318.516 c 73.918 309.527 66.633 302.242
 57.645 302.23 c h
100.07 302.23 m 93.484 302.23 87.547 306.199 85.027 312.285 c 82.504 318.371
 83.898 325.375 88.555 330.031 c 93.215 334.691 100.219 336.086 106.305 
333.562 c 112.391 331.043 116.355 325.105 116.355 318.516 c 116.348 309.527
 109.062 302.242 100.07 302.23 c h
141.715 302.23 m 135.129 302.23 129.188 306.199 126.668 312.285 c 124.148
 318.371 125.543 325.375 130.199 330.035 c 134.855 334.691 141.863 336.086
 147.945 333.562 c 154.031 331.043 158 325.105 158 318.516 c 157.988 309.527
 150.703 302.242 141.715 302.23 c h
338.926 315 m 203.785 315 l 197.785 315 197.785 324 203.785 324 c 338.926
 324 l 344.926 324 344.926 315 338.926 315 c h
338.926 315 m f
141.715 325.801 m 138.766 325.801 136.109 324.023 134.984 321.301 c 133.855
 318.578 134.48 315.445 136.562 313.363 c 138.648 311.277 141.781 310.656
 144.504 311.785 c 147.227 312.91 149 315.566 149 318.516 c 148.996 322.535
 145.734 325.797 141.715 325.801 c h
141.715 325.801 m f
107.355 318.516 m 107.355 314.492 104.094 311.23 100.07 311.23 c 96.047
 311.23 92.785 314.492 92.785 318.516 c 92.785 322.543 96.047 325.805 100.07
 325.805 c 104.094 325.805 107.355 322.543 107.355 318.516 c h
107.355 318.516 m f
42 74.25 m 105 74.25 l 105 84.434 l 105.008 89.32 107.973 93.715 112.5 
95.551 c 112.5 101.551 l 107.973 103.387 105.008 107.781 105 112.668 c 105
 154.242 l 105.008 159.129 107.973 163.523 112.5 165.359 c 112.5 173.055
 l 107.973 174.891 105.008 179.285 105 184.172 c 105 225.742 l 105.008 232.367
 110.375 237.738 117 237.75 c 267 237.75 l 273.625 237.738 278.992 232.367
 279 225.742 c 279 184.172 l 278.992 179.285 276.027 174.891 271.5 173.055
 c 271.5 165.359 l 276.027 163.523 278.992 159.129 279 154.242 c 279 112.672
 l 278.992 107.785 276.027 103.391 271.5 101.555 c 271.5 95.555 l 276.027
 93.719 278.992 89.324 279 84.438 c 279 74.25 l 342 74.25 l 347.84 74.359
 352.512 79.129 352.5 84.969 c 352.5 282.75 l 31.5 282.75 l 31.5 84.969 
l 31.488 79.129 36.16 74.359 42 74.25 c h
42 74.25 m f
270 225.75 m 270 227.406 268.656 228.75 267 228.75 c 117 228.75 l 115.344
 228.75 114 227.406 114 225.75 c 114 184.5 l 114 182.844 115.344 181.5 117
 181.5 c 267 181.5 l 268.656 181.5 270 182.844 270 184.5 c h
133.5 197.887 m 133.5 191.887 124.5 191.887 124.5 197.887 c 124.5 204.523
 l 124.5 210.523 133.5 210.523 133.5 204.523 c h
148.5 197.887 m 148.5 191.887 139.5 191.887 139.5 197.887 c 139.5 204.523
 l 139.5 210.523 148.5 210.523 148.5 204.523 c h
163.5 197.887 m 163.5 191.887 154.5 191.887 154.5 197.887 c 154.5 204.523
 l 154.5 210.523 163.5 210.523 163.5 204.523 c h
178.5 197.887 m 178.5 191.887 169.5 191.887 169.5 197.887 c 169.5 204.523
 l 169.5 210.523 178.5 210.523 178.5 204.523 c h
217.266 192.441 m 212.203 192.441 207.641 195.492 205.703 200.168 c 203.766
 204.844 204.836 210.227 208.414 213.805 c 211.992 217.387 217.375 218.457
 222.051 216.52 c 226.73 214.582 229.777 210.02 229.777 204.957 c 229.77
 198.051 224.172 192.449 217.266 192.441 c h
249.855 192.441 m 244.797 192.441 240.23 195.492 238.293 200.168 c 236.359
 204.844 237.43 210.227 241.008 213.805 c 244.586 217.387 249.969 218.457
 254.645 216.52 c 259.32 214.582 262.371 210.02 262.371 204.957 c 262.363
 198.051 256.766 192.449 249.855 192.441 c h
249.855 192.441 m f
Q Q
showpage
%%Trailer
end restore
%%EOF
