%!PS-Adobe-3.0 EPSF-3.0
%%Creator: cairo 1.14.8 (http://cairographics.org)
%%CreationDate: Thu Mar 21 09:07:39 2019
%%Pages: 1
%%DocumentData: Clean7Bit
%%LanguageLevel: 2
%%BoundingBox: 39 38 345 345
%%EndComments
%%BeginProlog
save
50 dict begin
/q { gsave } bind def
/Q { grestore } bind def
/cm { 6 array astore concat } bind def
/w { setlinewidth } bind def
/J { setlinecap } bind def
/j { setlinejoin } bind def
/M { setmiterlimit } bind def
/d { setdash } bind def
/m { moveto } bind def
/l { lineto } bind def
/c { curveto } bind def
/h { closepath } bind def
/re { exch dup neg 3 1 roll 5 3 roll moveto 0 rlineto
      0 exch rlineto 0 rlineto closepath } bind def
/S { stroke } bind def
/f { fill } bind def
/f* { eofill } bind def
/n { newpath } bind def
/W { clip } bind def
/W* { eoclip } bind def
/BT { } bind def
/ET { } bind def
/pdfmark where { pop globaldict /?pdfmark /exec load put }
    { globaldict begin /?pdfmark /pop load def /pdfmark
    /cleartomark load def end } ifelse
/BDC { mark 3 1 roll /BDC pdfmark } bind def
/EMC { mark /EMC pdfmark } bind def
/cairo_store_point { /cairo_point_y exch def /cairo_point_x exch def } def
/Tj { show currentpoint cairo_store_point } bind def
/TJ {
  {
    dup
    type /stringtype eq
    { show } { -0.001 mul 0 cairo_font_matrix dtransform rmoveto } ifelse
  } forall
  currentpoint cairo_store_point
} bind def
/cairo_selectfont { cairo_font_matrix aload pop pop pop 0 0 6 array astore
    cairo_font exch selectfont cairo_point_x cairo_point_y moveto } bind def
/Tf { pop /cairo_font exch def /cairo_font_matrix where
      { pop cairo_selectfont } if } bind def
/Td { matrix translate cairo_font_matrix matrix concatmatrix dup
      /cairo_font_matrix exch def dup 4 get exch 5 get cairo_store_point
      /cairo_font where { pop cairo_selectfont } if } bind def
/Tm { 2 copy 8 2 roll 6 array astore /cairo_font_matrix exch def
      cairo_store_point /cairo_font where { pop cairo_selectfont } if } bind def
/g { setgray } bind def
/rg { setrgbcolor } bind def
/d1 { setcachedevice } bind def
%%EndProlog
%%BeginSetup
%%EndSetup
%%Page: 1 1
%%BeginPageSetup
%%PageBoundingBox: 39 38 345 345
%%EndPageSetup
q 39 38 306 307 rectclip q
0 g
246.43 83.559 m 246.43 78.477 242.309 74.355 237.223 74.355 c 232.141 74.355
 228.02 78.477 228.02 83.559 c 228.02 88.645 232.141 92.766 237.223 92.766
 c 242.309 92.766 246.43 88.645 246.43 83.559 c h
246.43 83.559 m f
70.5 320.984 m 70.5 317.258 67.477 314.234 63.75 314.234 c 60.023 314.234
 57 317.258 57 320.984 c 57 324.715 60.023 327.734 63.75 327.734 c 67.477
 327.734 70.5 324.715 70.5 320.984 c h
70.5 320.984 m f
39 98.055 m 39.012 95.477 40.062 93.016 41.906 91.219 c 43.754 89.422 46.242
 88.441 48.816 88.5 c 129.129 88.5 l 130.938 94.895 136.043 99.824 142.5
 101.406 c 142.5 108.434 l 142.5 110.918 144.289 113.25 146.773 113.25 c
 162.75 113.25 l 162.75 141 l 141.23 141 l 126.543 141.086 113.34 149.98
 107.746 163.562 c 102.148 177.145 105.254 192.758 115.617 203.164 c 118.441
 206 121.719 208.344 125.316 210.102 c 125.648 230.004 138.008 247.723 156.574
 254.906 c 175.141 262.09 196.207 257.305 209.852 242.809 c 219.715 244.887
 230 242.77 238.242 236.957 c 246.48 231.148 251.934 222.172 253.293 212.184
 c 270.449 206.875 281.168 189.848 278.543 172.082 c 275.918 154.316 260.727
 141.117 242.77 141 c 221.25 141 l 221.25 126.75 l 237.227 126.75 l 239.711
 126.75 241.5 124.418 241.5 121.934 c 241.5 101.199 l 247.91 99.691 253.004
 94.832 254.816 88.5 c 335.184 88.5 l 337.758 88.441 340.246 89.422 342.094
 91.219 c 343.938 93.016 344.988 95.477 345 98.055 c 345 286.5 l 39 286.5
 l h
39 98.055 m f
201.203 47.969 m 201.203 42.887 197.082 38.766 192 38.766 c 186.918 38.766
 182.797 42.887 182.797 47.969 c 182.797 53.051 186.918 57.172 192 57.172
 c 197.082 57.172 201.203 53.051 201.203 47.969 c h
201.203 47.969 m f
155.98 83.766 m 155.98 78.68 151.859 74.559 146.777 74.559 c 141.691 74.559
 137.57 78.68 137.57 83.766 c 137.57 88.848 141.691 92.969 146.777 92.969
 c 151.859 92.969 155.98 88.848 155.98 83.766 c h
155.98 83.766 m f
131.469 202.934 m 120.938 198.836 114 188.691 114 177.391 c 114.004 162.328
 126.168 150.094 141.23 150 c 242.77 150 l 256.781 150.09 268.473 160.734
 269.867 174.68 c 271.262 188.625 261.914 201.375 248.195 204.234 c 246.156
 204.648 244.668 206.398 244.586 208.473 c 244.25 216.875 240.055 224.648
 233.211 229.539 c 226.371 234.426 217.656 235.879 209.598 233.477 c 207.875
 232.957 206.008 233.52 204.852 234.898 c 194.078 247.781 176.391 252.543
 160.605 246.812 c 144.82 241.082 134.309 226.082 134.309 209.285 c 134.309
 208.648 134.324 207.992 134.355 207.363 c 134.445 205.418 133.281 203.637
 131.469 202.934 c h
131.469 202.934 m f
150.75 320.984 m 150.75 317.258 147.727 314.234 144 314.234 c 140.273 314.234
 137.25 317.258 137.25 320.984 c 137.25 324.715 140.273 327.734 144 327.734
 c 147.727 327.734 150.75 324.715 150.75 320.984 c h
150.75 320.984 m f
335.184 345 m 48.816 345 l 46.238 345.051 43.75 344.062 41.902 342.262 
c 40.059 340.461 39.012 337.996 39 335.418 c 39 295.5 l 345 295.5 l 345 
335.418 l 344.988 337.996 343.941 340.461 342.098 342.262 c 340.25 344.062
 337.762 345.051 335.184 345 c h
63.75 305.234 m 57.379 305.234 51.637 309.074 49.199 314.957 c 46.762 320.844
 48.109 327.617 52.613 332.121 c 57.117 336.625 63.891 337.973 69.777 335.535
 c 75.664 333.098 79.5 327.355 79.5 320.984 c 79.488 312.289 72.445 305.246
 63.75 305.234 c h
104.25 305.234 m 97.879 305.234 92.137 309.074 89.699 314.957 c 87.262 
320.844 88.609 327.617 93.113 332.121 c 97.617 336.625 104.391 337.973 110.277
 335.535 c 116.164 333.098 120 327.355 120 320.984 c 119.988 312.289 112.945
 305.246 104.25 305.234 c h
144 305.234 m 137.629 305.234 131.887 309.074 129.449 314.957 c 127.012
 320.844 128.359 327.617 132.863 332.121 c 137.367 336.625 144.141 337.973
 150.027 335.535 c 155.914 333.098 159.75 327.355 159.75 320.984 c 159.738
 312.289 152.695 305.246 144 305.234 c h
332.25 317.25 m 203.25 317.25 l 197.25 317.25 197.25 326.25 203.25 326.25
 c 332.25 326.25 l 338.25 326.25 338.25 317.25 332.25 317.25 c h
332.25 317.25 m f
111 320.984 m 111 317.258 107.977 314.234 104.25 314.234 c 100.523 314.234
 97.5 317.258 97.5 320.984 c 97.5 324.715 100.523 327.734 104.25 327.734
 c 107.977 327.734 111 324.715 111 320.984 c h
111 320.984 m f
187.5 147 9 -85.5 re f
Q Q
showpage
%%Trailer
end restore
%%EOF
