%!PS-Adobe-3.0 EPSF-3.0
%%Creator: cairo 1.14.8 (http://cairographics.org)
%%CreationDate: Thu Mar 21 09:07:39 2019
%%Pages: 1
%%DocumentData: Clean7Bit
%%LanguageLevel: 2
%%BoundingBox: 21 28 363 356
%%EndComments
%%BeginProlog
save
50 dict begin
/q { gsave } bind def
/Q { grestore } bind def
/cm { 6 array astore concat } bind def
/w { setlinewidth } bind def
/J { setlinecap } bind def
/j { setlinejoin } bind def
/M { setmiterlimit } bind def
/d { setdash } bind def
/m { moveto } bind def
/l { lineto } bind def
/c { curveto } bind def
/h { closepath } bind def
/re { exch dup neg 3 1 roll 5 3 roll moveto 0 rlineto
      0 exch rlineto 0 rlineto closepath } bind def
/S { stroke } bind def
/f { fill } bind def
/f* { eofill } bind def
/n { newpath } bind def
/W { clip } bind def
/W* { eoclip } bind def
/BT { } bind def
/ET { } bind def
/pdfmark where { pop globaldict /?pdfmark /exec load put }
    { globaldict begin /?pdfmark /pop load def /pdfmark
    /cleartomark load def end } ifelse
/BDC { mark 3 1 roll /BDC pdfmark } bind def
/EMC { mark /EMC pdfmark } bind def
/cairo_store_point { /cairo_point_y exch def /cairo_point_x exch def } def
/Tj { show currentpoint cairo_store_point } bind def
/TJ {
  {
    dup
    type /stringtype eq
    { show } { -0.001 mul 0 cairo_font_matrix dtransform rmoveto } ifelse
  } forall
  currentpoint cairo_store_point
} bind def
/cairo_selectfont { cairo_font_matrix aload pop pop pop 0 0 6 array astore
    cairo_font exch selectfont cairo_point_x cairo_point_y moveto } bind def
/Tf { pop /cairo_font exch def /cairo_font_matrix where
      { pop cairo_selectfont } if } bind def
/Td { matrix translate cairo_font_matrix matrix concatmatrix dup
      /cairo_font_matrix exch def dup 4 get exch 5 get cairo_store_point
      /cairo_font where { pop cairo_selectfont } if } bind def
/Tm { 2 copy 8 2 roll 6 array astore /cairo_font_matrix exch def
      cairo_store_point /cairo_font where { pop cairo_selectfont } if } bind def
/g { setgray } bind def
/rg { setrgbcolor } bind def
/d1 { setcachedevice } bind def
%%EndProlog
%%BeginSetup
%%EndSetup
%%Page: 1 1
%%BeginPageSetup
%%PageBoundingBox: 21 28 363 356
%%EndPageSetup
q 21 28 342 328 rectclip q
0 g
338.406 65.684 m 330.625 65.684 324.062 60 322.086 53.25 c 295.223 53.25
 l 293.348 60.867 287.379 66.797 279.75 68.625 c 279.75 90.75 l 270.75 90.75
 l 270.75 68.625 l 263.168 66.785 257.262 60.844 255.465 53.25 c 228.602
 53.25 l 226.621 60 220.059 65.684 212.281 65.684 c 202.973 65.621 195.461
 58.059 195.461 48.75 c 195.461 39.441 202.973 31.879 212.281 31.82 c 219.938
 31.695 226.688 36.832 228.602 44.25 c 255.465 44.25 l 257.562 34.961 265.816
 28.367 275.34 28.367 c 284.863 28.367 293.117 34.961 295.219 44.25 c 322.082
 44.25 l 323.996 36.832 330.742 31.695 338.402 31.82 c 347.754 31.82 355.332
 39.398 355.332 48.75 c 355.332 58.102 347.754 65.684 338.402 65.684 c h
338.406 65.684 m f
116.324 339.934 m 114.027 339.934 111.957 338.551 111.078 336.43 c 110.199
 334.309 110.684 331.863 112.309 330.242 c 113.934 328.617 116.375 328.129
 118.496 329.008 c 120.617 329.887 122.004 331.957 122.004 334.254 c 122
 337.391 119.461 339.93 116.324 339.934 c h
116.324 339.934 m f
297.75 347.312 m 297.738 349.527 296.832 351.641 295.242 353.184 c 293.652
 354.723 291.508 355.559 289.297 355.5 c 30.203 355.5 l 27.992 355.559 25.848
 354.723 24.258 353.184 c 22.668 351.641 21.762 349.527 21.75 347.312 c 
21.75 312 l 297.75 312 l h
43.715 319.574 m 37.777 319.574 32.426 323.152 30.152 328.637 c 27.879 
334.121 29.137 340.434 33.332 344.633 c 37.531 348.832 43.844 350.086 49.332
 347.816 c 54.816 345.543 58.391 340.191 58.395 334.254 c 58.383 326.152
 51.816 319.586 43.715 319.574 c h
80.355 319.574 m 74.422 319.574 69.066 323.152 66.797 328.637 c 64.523 
334.121 65.777 340.434 69.977 344.633 c 74.176 348.832 80.488 350.086 85.973
 347.816 c 91.461 345.543 95.035 340.191 95.035 334.254 c 95.027 326.152
 88.461 319.586 80.355 319.574 c h
116.32 319.574 m 110.383 319.574 105.031 323.152 102.762 328.637 c 100.488
 334.121 101.742 340.434 105.941 344.633 c 110.141 348.832 116.453 350.086
 121.938 347.816 c 127.426 345.543 131 340.191 131 334.254 c 130.992 326.152
 124.426 319.586 116.324 319.574 c h
286.641 330 m 169.93 330 l 163.93 330 163.93 339 169.93 339 c 286.641 339
 l 292.641 339 292.641 330 286.641 330 c h
286.641 330 m f
333.148 234.75 m 205.352 234.75 l 189.195 234.75 176.102 221.656 176.102
 205.5 c 176.102 189.344 189.195 176.25 205.352 176.25 c 333.148 176.25 
l 349.305 176.25 362.398 189.344 362.398 205.5 c 362.398 221.656 349.305
 234.75 333.148 234.75 c h
211.5 197.168 m 211.5 191.168 202.5 191.168 202.5 197.168 c 202.5 213.969
 l 202.5 219.969 211.5 219.969 211.5 213.969 c h
228 197.168 m 228 191.168 219 191.168 219 197.168 c 219 213.969 l 219 219.969
 228 219.969 228 213.969 c h
244.5 197.168 m 244.5 191.168 235.5 191.168 235.5 197.168 c 235.5 213.969
 l 235.5 219.969 244.5 219.969 244.5 213.969 c h
261 197.168 m 261 191.168 252 191.168 252 197.168 c 252 213.969 l 252 219.969
 261 219.969 261 213.969 c h
277.5 197.168 m 277.5 191.168 268.5 191.168 268.5 197.168 c 268.5 213.969
 l 268.5 219.969 277.5 219.969 277.5 213.969 c h
334.027 187.07 m 326.547 187.07 319.801 191.578 316.938 198.488 c 314.074
 205.402 315.656 213.359 320.945 218.652 c 326.238 223.941 334.195 225.523
 341.105 222.66 c 348.02 219.797 352.527 213.051 352.527 205.57 c 352.516
 195.355 344.238 187.082 334.027 187.07 c h
334.027 187.07 m f
201 161.141 m 201 167.715 l 180.91 170.02 166.109 187.602 167.266 207.789
 c 168.422 227.977 185.129 243.754 205.352 243.75 c 297.75 243.75 l 297.75
 303 l 21.75 303 l 21.75 132.555 l 21.75 127.895 25.543 123.75 30.203 123.75
 c 167.27 123.75 l 167.535 142.914 181.965 158.91 201 161.141 c h
201 161.141 m f
80.355 339.934 m 78.059 339.934 75.988 338.551 75.109 336.43 c 74.23 334.309
 74.715 331.863 76.34 330.242 c 77.965 328.617 80.406 328.129 82.527 329.008
 c 84.652 329.887 86.035 331.957 86.035 334.254 c 86.031 337.391 83.492 
339.93 80.355 339.934 c h
80.355 339.934 m f
210 167.25 118.5 -6 re f
43.715 339.934 m 41.418 339.934 39.348 338.551 38.469 336.43 c 37.59 334.309
 38.074 331.863 39.699 330.242 c 41.32 328.617 43.766 328.129 45.887 329.008
 c 48.008 329.887 49.391 331.957 49.395 334.254 c 49.391 337.391 46.848 
339.93 43.715 339.934 c h
43.715 339.934 m f
334.027 215.07 m 330.188 215.07 326.723 212.754 325.25 209.203 c 323.781
 205.656 324.594 201.57 327.309 198.852 c 330.027 196.137 334.113 195.32
 337.664 196.793 c 341.211 198.262 343.527 201.727 343.527 205.57 c 343.52
 210.812 339.273 215.062 334.027 215.07 c h
334.027 215.07 m f
334.027 132.785 m 330.188 132.785 326.723 130.473 325.25 126.922 c 323.781
 123.371 324.594 119.285 327.309 116.57 c 330.027 113.852 334.113 113.039
 337.664 114.512 c 341.215 115.98 343.527 119.445 343.527 123.289 c 343.52
 128.531 339.273 132.781 334.027 132.785 c h
334.027 132.785 m f
333.148 152.25 m 205.352 152.25 l 189.195 152.25 176.102 139.156 176.102
 123 c 176.102 106.844 189.195 93.75 205.352 93.75 c 333.148 93.75 l 349.305
 93.75 362.398 106.844 362.398 123 c 362.398 139.156 349.305 152.25 333.148
 152.25 c h
211.5 114.887 m 211.5 108.887 202.5 108.887 202.5 114.887 c 202.5 131.688
 l 202.5 137.688 211.5 137.688 211.5 131.688 c h
228 114.887 m 228 108.887 219 108.887 219 114.887 c 219 131.688 l 219 137.688
 228 137.688 228 131.688 c h
244.5 114.887 m 244.5 108.887 235.5 108.887 235.5 114.887 c 235.5 131.688
 l 235.5 137.688 244.5 137.688 244.5 131.688 c h
261 114.887 m 261 108.887 252 108.887 252 114.887 c 252 131.688 l 252 137.688
 261 137.688 261 131.688 c h
277.5 114.887 m 277.5 108.887 268.5 108.887 268.5 114.887 c 268.5 131.688
 l 268.5 137.688 277.5 137.688 277.5 131.688 c h
334.027 104.789 m 326.547 104.789 319.801 109.293 316.938 116.207 c 314.074
 123.121 315.656 131.078 320.945 136.367 c 326.238 141.66 334.195 143.242
 341.105 140.379 c 348.02 137.516 352.527 130.77 352.527 123.289 c 352.512
 113.078 344.238 104.801 334.027 104.789 c h
334.027 104.789 m f
Q Q
showpage
%%Trailer
end restore
%%EOF
