\relax 
\@writefile{toc}{\contentsline {chapter}{\numberline {1}Einleitung}{1}}
\@writefile{lof}{\addvspace {10\p@ }}
\@writefile{lot}{\addvspace {10\p@ }}
\@writefile{toc}{\contentsline {section}{\numberline {1.1}Aufgabenstellung}{1}}
\citation{Duden}
\@writefile{toc}{\contentsline {chapter}{\numberline {2}Problemanalyse und L\"osungsvarianten}{2}}
\@writefile{lof}{\addvspace {10\p@ }}
\@writefile{lot}{\addvspace {10\p@ }}
\@writefile{toc}{\contentsline {section}{\numberline {2.1}Erstes Problem}{2}}
\newlabel{eq:nonsens}{{2.1}{2}}
\@writefile{toc}{\contentsline {section}{\numberline {2.2}Zweites Problem}{2}}
\@writefile{toc}{\contentsline {section}{\numberline {2.3}Erste L\"osungsvariante}{2}}
\@writefile{toc}{\contentsline {section}{\numberline {2.4}Zweite L\"osungsvariante}{3}}
\@writefile{toc}{\contentsline {section}{\numberline {2.5}Dritte L\"osungsvariante}{3}}
\@writefile{toc}{\contentsline {chapter}{\numberline {3}Ergebnisse}{4}}
\@writefile{lof}{\addvspace {10\p@ }}
\@writefile{lot}{\addvspace {10\p@ }}
\@writefile{toc}{\contentsline {section}{\numberline {3.1}Erstes Detailergebnis}{4}}
\@writefile{lof}{\contentsline {figure}{\numberline {3.1}{\ignorespaces Ein Bild sagt mehr als Tausend Worte}}{4}}
\newlabel{gr:Bild}{{3.1}{4}}
\@writefile{lof}{\contentsline {figure}{\numberline {3.2}{\ignorespaces Ein zu gro\IeC {\ss }es Bild sagt auch nur Tausend Worte}}{4}}
\newlabel{gr:grossesBild}{{3.2}{4}}
\@writefile{lof}{\contentsline {figure}{\numberline {3.3}{\ignorespaces Ein zu kleines Bild sagt dagegen keine Tausend Worte mehr}}{4}}
\newlabel{gr:kleinesBild}{{3.3}{4}}
\@writefile{toc}{\contentsline {section}{\numberline {3.2}Zweites Detailergebnis}{5}}
\bibdata{my_literature}
\@writefile{toc}{\contentsline {chapter}{\numberline {4}Zusammenfassung / Ausblick}{6}}
\@writefile{lof}{\addvspace {10\p@ }}
\@writefile{lot}{\addvspace {10\p@ }}
\@writefile{toc}{\contentsline {chapter}{Literatur}{6}}
\bibcite{Duden}{Bae91}
\bibstyle{alphadin}
