\relax 
\newacro{adc}[\AC@hyperlink{adc}{ADC}]{Analog Digital Wandler}
\newacro{bcu}[\AC@hyperlink{bcu}{BCU}]{Battery Controller Unit}
\newacro{bms}[\AC@hyperlink{bms}{BMS}]{Battery Management System}
\newacro{cad}[\AC@hyperlink{cad}{CAD}]{computer-aided design}
\newacro{can}[\AC@hyperlink{can}{CANbus}]{Controller Area Network}
\newacro{cccv}[\AC@hyperlink{cccv}{CCCV}]{Constant Current/ Constant Voltage}
\newacro{cmd}[\AC@hyperlink{cmd}{CMD}]{Command}
\newacro{crc}[\AC@hyperlink{crc}{CRC}]{Cyclic Redundanz Check}
\newacro{dma}[\AC@hyperlink{dma}{DMA}]{Direct Memory Access}
\newacro{emv}[\AC@hyperlink{emv}{EMV}]{Elektromagnetischevertr\"{a}glichkeit}
\newacro{gpio}[\AC@hyperlink{gpio}{GPIO}]{General Purpose Input/ Outpu}
\newacro{i2c}[\AC@hyperlink{i2c}{I$^2$C}]{Inter-Integrated Circuit}
\newacro{ic}[\AC@hyperlink{ic}{IC}]{Integrated Circuit}
\newacro{io}[\AC@hyperlink{io}{IO}]{Input/Output}
\newacro{isospi}[\AC@hyperlink{isospi}{isoSPI}]{Isolated SPI}
\newacro{lt}[\AC@hyperlink{lt}{LT}]{Linear Technologie}
\newacro{lfp}[\AC@hyperlink{lfp}{LiFePO\textsubscript  {4}}]{Lithiumeisenphosphat}
\newacro{lsb}[\AC@hyperlink{lsb}{LSB}]{Least Significant Bit}
\newacro{lut}[\AC@hyperlink{lut}{LUT}]{LookUp Table}
\newacro{msb}[\AC@hyperlink{msb}{MSB}]{Most Significant Bit}
\newacro{mux}[\AC@hyperlink{mux}{MUX}]{Multiplexer}
\newacro{ntc}[\AC@hyperlink{ntc}{NTC}]{Negative Temperature Coefficient Thermistor}
\newacro{op}[\AC@hyperlink{op}{OP}]{Operationsverst\"{a}rker}
\newacro{pec}[\AC@hyperlink{pec}{PEC}]{Packet Error Code}
\newacro{ptc}[\AC@hyperlink{ptc}{PTC}]{Positive Temperature Coefficient Thermistor}
\newacro{pcu}[\AC@hyperlink{pcu}{PCU}]{ESS Pack Controller Unit}
\newacro{pwm}[\AC@hyperlink{pwm}{PWM}]{Pulse Wide Modulation}
\newacro{rpi}[\AC@hyperlink{rpi}{RPI}]{Raspberry PI}
\newacro{rtu}[\AC@hyperlink{rtu}{RTU}]{Real Time Clock}
\newacro{rw}[\AC@hyperlink{rw}{RW}]{Read / Write}
\newacro{si}[\AC@hyperlink{si}{SI}]{Signal Interface}
\newacro{soc}[\AC@hyperlink{soc}{SOC}]{State of Charge}
\newacro{spi}[\AC@hyperlink{spi}{SPI}]{Serial Peripheral Interface}
\newacro{uc}[\AC@hyperlink{uc}{uC}]{Mikrocontroller}
\newacro{vde}[\AC@hyperlink{vde}{VDE}]{Verband der Elektrotechnik, Elektronik und Informationstechnik}
\newacro{wr}[\AC@hyperlink{wr}{WR}]{Wechselrichter}
\@setckpt{Struktur/Nomenklatur}{
\setcounter{page}{6}
\setcounter{equation}{0}
\setcounter{enumi}{0}
\setcounter{enumii}{0}
\setcounter{enumiii}{0}
\setcounter{enumiv}{0}
\setcounter{footnote}{0}
\setcounter{mpfootnote}{0}
\setcounter{part}{0}
\setcounter{chapter}{0}
\setcounter{section}{0}
\setcounter{subsection}{0}
\setcounter{subsubsection}{0}
\setcounter{paragraph}{0}
\setcounter{subparagraph}{0}
\setcounter{figure}{0}
\setcounter{table}{0}
}
