%!PS-Adobe-3.0 EPSF-3.0
%%Creator: cairo 1.14.8 (http://cairographics.org)
%%CreationDate: Tue Mar 26 09:15:41 2019
%%Pages: 1
%%DocumentData: Clean7Bit
%%LanguageLevel: 2
%%BoundingBox: 107 0 406 512
%%EndComments
%%BeginProlog
save
50 dict begin
/q { gsave } bind def
/Q { grestore } bind def
/cm { 6 array astore concat } bind def
/w { setlinewidth } bind def
/J { setlinecap } bind def
/j { setlinejoin } bind def
/M { setmiterlimit } bind def
/d { setdash } bind def
/m { moveto } bind def
/l { lineto } bind def
/c { curveto } bind def
/h { closepath } bind def
/re { exch dup neg 3 1 roll 5 3 roll moveto 0 rlineto
      0 exch rlineto 0 rlineto closepath } bind def
/S { stroke } bind def
/f { fill } bind def
/f* { eofill } bind def
/n { newpath } bind def
/W { clip } bind def
/W* { eoclip } bind def
/BT { } bind def
/ET { } bind def
/pdfmark where { pop globaldict /?pdfmark /exec load put }
    { globaldict begin /?pdfmark /pop load def /pdfmark
    /cleartomark load def end } ifelse
/BDC { mark 3 1 roll /BDC pdfmark } bind def
/EMC { mark /EMC pdfmark } bind def
/cairo_store_point { /cairo_point_y exch def /cairo_point_x exch def } def
/Tj { show currentpoint cairo_store_point } bind def
/TJ {
  {
    dup
    type /stringtype eq
    { show } { -0.001 mul 0 cairo_font_matrix dtransform rmoveto } ifelse
  } forall
  currentpoint cairo_store_point
} bind def
/cairo_selectfont { cairo_font_matrix aload pop pop pop 0 0 6 array astore
    cairo_font exch selectfont cairo_point_x cairo_point_y moveto } bind def
/Tf { pop /cairo_font exch def /cairo_font_matrix where
      { pop cairo_selectfont } if } bind def
/Td { matrix translate cairo_font_matrix matrix concatmatrix dup
      /cairo_font_matrix exch def dup 4 get exch 5 get cairo_store_point
      /cairo_font where { pop cairo_selectfont } if } bind def
/Tm { 2 copy 8 2 roll 6 array astore /cairo_font_matrix exch def
      cairo_store_point /cairo_font where { pop cairo_selectfont } if } bind def
/g { setgray } bind def
/rg { setrgbcolor } bind def
/d1 { setcachedevice } bind def
%%EndProlog
%%BeginSetup
%%EndSetup
%%Page: 1 1
%%BeginPageSetup
%%PageBoundingBox: 107 0 406 512
%%EndPageSetup
q 107 0 299 512 rectclip q
0 g
341.668 490.668 m 341.668 502.449 332.113 512 320.332 512 c 192.332 512
 l 180.551 512 171 502.449 171 490.668 c 171 448 l 341.668 448 l h
341.668 490.668 m f
107 426.668 m 107 42.668 l 107 19.102 126.102 0 149.668 0 c 363 0 l 386.566
 0 405.668 19.102 405.668 42.668 c 405.668 426.668 l h
177.598 186.75 m 161.375 211.887 156.246 243.879 163.52 274.523 c 176.652
 329.82 220.242 358.598 261.863 371.477 c 255.492 365.82 249.363 359.422
 243.602 352.273 c 217.91 320.391 202.555 278.047 200.359 233.039 c 199.023
 205.672 202.555 179.98 208.742 156.582 c 196.48 163.777 185.824 174.004
 177.598 186.75 c h
288.668 32.582 m 285.27 36.094 205.516 119.863 211.012 232.52 c 215.52 
324.934 276.461 389.332 328.332 389.332 c 328.332 368 l 291.02 368 236.445
 316.062 232.32 231.48 c 227.285 128.242 303.238 48.207 304.004 47.41 c 
h
346.516 213.492 m 336.176 168.496 300.391 144.004 258.238 144 c 258.07 
144 257.902 144.012 257.734 144.012 c 248.062 169.562 241.426 199.168 242.977
 230.961 c 246.586 304.895 292.012 353.16 324.215 357.051 c 319.75 309.547
 362.25 281.98 346.516 213.492 c h
346.516 213.492 m f
Q Q
showpage
%%Trailer
end restore
%%EOF
