%!PS-Adobe-3.0 EPSF-3.0
%%Creator: cairo 1.14.8 (http://cairographics.org)
%%CreationDate: Tue Mar 26 09:15:41 2019
%%Pages: 1
%%DocumentData: Clean7Bit
%%LanguageLevel: 2
%%BoundingBox: 74 0 439 512
%%EndComments
%%BeginProlog
save
50 dict begin
/q { gsave } bind def
/Q { grestore } bind def
/cm { 6 array astore concat } bind def
/w { setlinewidth } bind def
/J { setlinecap } bind def
/j { setlinejoin } bind def
/M { setmiterlimit } bind def
/d { setdash } bind def
/m { moveto } bind def
/l { lineto } bind def
/c { curveto } bind def
/h { closepath } bind def
/re { exch dup neg 3 1 roll 5 3 roll moveto 0 rlineto
      0 exch rlineto 0 rlineto closepath } bind def
/S { stroke } bind def
/f { fill } bind def
/f* { eofill } bind def
/n { newpath } bind def
/W { clip } bind def
/W* { eoclip } bind def
/BT { } bind def
/ET { } bind def
/pdfmark where { pop globaldict /?pdfmark /exec load put }
    { globaldict begin /?pdfmark /pop load def /pdfmark
    /cleartomark load def end } ifelse
/BDC { mark 3 1 roll /BDC pdfmark } bind def
/EMC { mark /EMC pdfmark } bind def
/cairo_store_point { /cairo_point_y exch def /cairo_point_x exch def } def
/Tj { show currentpoint cairo_store_point } bind def
/TJ {
  {
    dup
    type /stringtype eq
    { show } { -0.001 mul 0 cairo_font_matrix dtransform rmoveto } ifelse
  } forall
  currentpoint cairo_store_point
} bind def
/cairo_selectfont { cairo_font_matrix aload pop pop pop 0 0 6 array astore
    cairo_font exch selectfont cairo_point_x cairo_point_y moveto } bind def
/Tf { pop /cairo_font exch def /cairo_font_matrix where
      { pop cairo_selectfont } if } bind def
/Td { matrix translate cairo_font_matrix matrix concatmatrix dup
      /cairo_font_matrix exch def dup 4 get exch 5 get cairo_store_point
      /cairo_font where { pop cairo_selectfont } if } bind def
/Tm { 2 copy 8 2 roll 6 array astore /cairo_font_matrix exch def
      cairo_store_point /cairo_font where { pop cairo_selectfont } if } bind def
/g { setgray } bind def
/rg { setrgbcolor } bind def
/d1 { setcachedevice } bind def
%%EndProlog
%%BeginSetup
%%EndSetup
%%Page: 1 1
%%BeginPageSetup
%%PageBoundingBox: 74 0 439 512
%%EndPageSetup
q 74 0 365 512 rectclip q
0 g
341.832 490.668 m 341.832 502.449 332.281 512 320.5 512 c 192.5 512 l 180.719
 512 171.164 502.449 171.164 490.668 c 171.164 448 l 341.832 448 l h
341.832 490.668 m f
256.5 384 m 320.773 384 376.727 348.453 405.832 295.961 c 405.832 426.668
 l 107.164 426.668 l 107.164 295.961 l 136.273 348.453 192.223 384 256.5
 384 c h
256.5 384 m f
256.5 42.668 m 192.223 42.668 136.273 78.215 107.164 130.707 c 107.164 
42.668 l 107.164 19.102 126.266 0 149.832 0 c 363.164 0 l 386.73 0 405.832
 19.102 405.832 42.668 c 405.832 130.707 l 376.727 78.215 320.773 42.668
 256.5 42.668 c h
256.5 42.668 m f
128.5 213.332 m 128.5 142.754 185.922 85.332 256.5 85.332 c 256.5 128 l
 209.445 128 171.164 166.281 171.164 213.332 c 171.164 214.254 171.207 215.172
 171.234 216.094 c 202 195.586 l 225.668 231.086 l 161.668 273.754 l 154.5
 278.531 145.164 278.531 138 273.754 c 74 231.086 l 97.668 195.586 l 128.57
 216.188 l 128.551 215.234 128.5 214.285 128.5 213.332 c h
128.5 213.332 m f
384.5 213.332 m 384.5 283.91 327.078 341.332 256.5 341.332 c 256.5 298.668
 l 303.551 298.668 341.832 260.387 341.832 213.332 c 341.832 212.414 341.793
 211.492 341.762 210.574 c 310.996 231.082 l 287.332 195.582 l 351.332 152.914
 l 358.422 148.188 367.906 148.188 374.996 152.914 c 438.996 195.582 l 415.332
 231.082 l 384.426 210.48 l 384.449 211.434 384.5 212.383 384.5 213.332 
c h
384.5 213.332 m f
Q Q
showpage
%%Trailer
end restore
%%EOF
