%!PS-Adobe-3.0 EPSF-3.0
%%Creator: cairo 1.14.8 (http://cairographics.org)
%%CreationDate: Tue Mar 26 09:15:41 2019
%%Pages: 1
%%DocumentData: Clean7Bit
%%LanguageLevel: 2
%%BoundingBox: 70 0 443 512
%%EndComments
%%BeginProlog
save
50 dict begin
/q { gsave } bind def
/Q { grestore } bind def
/cm { 6 array astore concat } bind def
/w { setlinewidth } bind def
/J { setlinecap } bind def
/j { setlinejoin } bind def
/M { setmiterlimit } bind def
/d { setdash } bind def
/m { moveto } bind def
/l { lineto } bind def
/c { curveto } bind def
/h { closepath } bind def
/re { exch dup neg 3 1 roll 5 3 roll moveto 0 rlineto
      0 exch rlineto 0 rlineto closepath } bind def
/S { stroke } bind def
/f { fill } bind def
/f* { eofill } bind def
/n { newpath } bind def
/W { clip } bind def
/W* { eoclip } bind def
/BT { } bind def
/ET { } bind def
/pdfmark where { pop globaldict /?pdfmark /exec load put }
    { globaldict begin /?pdfmark /pop load def /pdfmark
    /cleartomark load def end } ifelse
/BDC { mark 3 1 roll /BDC pdfmark } bind def
/EMC { mark /EMC pdfmark } bind def
/cairo_store_point { /cairo_point_y exch def /cairo_point_x exch def } def
/Tj { show currentpoint cairo_store_point } bind def
/TJ {
  {
    dup
    type /stringtype eq
    { show } { -0.001 mul 0 cairo_font_matrix dtransform rmoveto } ifelse
  } forall
  currentpoint cairo_store_point
} bind def
/cairo_selectfont { cairo_font_matrix aload pop pop pop 0 0 6 array astore
    cairo_font exch selectfont cairo_point_x cairo_point_y moveto } bind def
/Tf { pop /cairo_font exch def /cairo_font_matrix where
      { pop cairo_selectfont } if } bind def
/Td { matrix translate cairo_font_matrix matrix concatmatrix dup
      /cairo_font_matrix exch def dup 4 get exch 5 get cairo_store_point
      /cairo_font where { pop cairo_selectfont } if } bind def
/Tm { 2 copy 8 2 roll 6 array astore /cairo_font_matrix exch def
      cairo_store_point /cairo_font where { pop cairo_selectfont } if } bind def
/g { setgray } bind def
/rg { setrgbcolor } bind def
/d1 { setcachedevice } bind def
%%EndProlog
%%BeginSetup
%%EndSetup
%%Page: 1 1
%%BeginPageSetup
%%PageBoundingBox: 70 0 443 512
%%EndPageSetup
q 70 0 373 512 rectclip q
0 g
314.336 490.668 m 314.336 502.449 304.785 512 293.004 512 c 165.004 512
 l 153.223 512 143.672 502.449 143.672 490.668 c 143.672 448 l 314.336 448
 l h
314.336 490.668 m f
166.754 83.582 m 185.949 83.582 204.168 89.898 219.07 101.516 c 125.539
 195.047 l 140.621 210.129 l 234.152 116.602 l 245.77 131.504 252.086 149.719
 252.086 168.914 c 252.086 191.707 243.211 213.137 227.094 229.254 c 197.809
 258.543 109.824 264.703 92.484 265.645 c 80 266.289 69.352 255.691 70.031
 243.188 c 70.969 225.852 77.129 137.863 106.418 108.578 c 122.531 92.457
 143.965 83.582 166.754 83.582 c h
166.754 83.582 m f
93.582 286.945 m 118.809 285.586 170.957 280.875 209.453 264.793 c 214.035
 271.574 219.285 277.969 225.199 283.883 c 255.969 314.652 326.98 329.797
 378.336 336.969 c 378.336 426.668 l 79.672 426.668 l 79.672 285.363 l 83.43
 286.426 87.352 287.004 91.371 287.004 c 92.105 287.004 92.848 286.988 93.582
 286.945 c h
93.582 286.945 m f
239.25 90.703 m 219.473 72.336 193.895 62.25 166.758 62.25 c 138.262 62.25
 111.48 73.348 91.332 93.492 c 87.027 97.797 83.16 102.949 79.672 108.703
 c 79.672 42.668 l 79.672 19.102 98.773 0 122.34 0 c 335.672 0 l 359.238
 0 378.34 19.102 378.34 42.668 c 378.34 81.719 l 359.422 71.07 338.012 65.375
 315.715 65.375 c 287.781 65.375 261.219 74.266 239.25 90.703 c h
239.25 90.703 m f
436.391 314.055 m 431.914 318.527 425.664 320.777 419.395 320.215 c 395.965
 318.105 277.211 305.719 240.285 268.797 c 235.969 264.48 232.098 259.844
 228.629 254.965 c 233.715 251.746 238.297 248.223 242.184 244.34 c 262.328
 224.191 273.422 197.406 273.422 168.914 c 273.422 167.98 273.395 167.047
 273.371 166.113 c 360.016 252.758 l 375.098 237.672 l 265.199 127.777 l
 262.102 120.383 258.176 113.34 253.445 106.77 c 271.469 93.754 293.043 
86.707 315.711 86.707 c 344.203 86.707 370.988 97.801 391.137 117.949 c 
428.059 154.875 440.445 273.625 442.551 297.059 c 443.117 303.355 440.859
 309.582 436.391 314.055 c h
436.391 314.055 m f
Q Q
showpage
%%Trailer
end restore
%%EOF
