%!PS-Adobe-3.0 EPSF-3.0
%%Creator: cairo 1.14.8 (http://cairographics.org)
%%CreationDate: Tue Mar 26 09:15:41 2019
%%Pages: 1
%%DocumentData: Clean7Bit
%%LanguageLevel: 2
%%BoundingBox: 31 0 483 512
%%EndComments
%%BeginProlog
save
50 dict begin
/q { gsave } bind def
/Q { grestore } bind def
/cm { 6 array astore concat } bind def
/w { setlinewidth } bind def
/J { setlinecap } bind def
/j { setlinejoin } bind def
/M { setmiterlimit } bind def
/d { setdash } bind def
/m { moveto } bind def
/l { lineto } bind def
/c { curveto } bind def
/h { closepath } bind def
/re { exch dup neg 3 1 roll 5 3 roll moveto 0 rlineto
      0 exch rlineto 0 rlineto closepath } bind def
/S { stroke } bind def
/f { fill } bind def
/f* { eofill } bind def
/n { newpath } bind def
/W { clip } bind def
/W* { eoclip } bind def
/BT { } bind def
/ET { } bind def
/pdfmark where { pop globaldict /?pdfmark /exec load put }
    { globaldict begin /?pdfmark /pop load def /pdfmark
    /cleartomark load def end } ifelse
/BDC { mark 3 1 roll /BDC pdfmark } bind def
/EMC { mark /EMC pdfmark } bind def
/cairo_store_point { /cairo_point_y exch def /cairo_point_x exch def } def
/Tj { show currentpoint cairo_store_point } bind def
/TJ {
  {
    dup
    type /stringtype eq
    { show } { -0.001 mul 0 cairo_font_matrix dtransform rmoveto } ifelse
  } forall
  currentpoint cairo_store_point
} bind def
/cairo_selectfont { cairo_font_matrix aload pop pop pop 0 0 6 array astore
    cairo_font exch selectfont cairo_point_x cairo_point_y moveto } bind def
/Tf { pop /cairo_font exch def /cairo_font_matrix where
      { pop cairo_selectfont } if } bind def
/Td { matrix translate cairo_font_matrix matrix concatmatrix dup
      /cairo_font_matrix exch def dup 4 get exch 5 get cairo_store_point
      /cairo_font where { pop cairo_selectfont } if } bind def
/Tm { 2 copy 8 2 roll 6 array astore /cairo_font_matrix exch def
      cairo_store_point /cairo_font where { pop cairo_selectfont } if } bind def
/g { setgray } bind def
/rg { setrgbcolor } bind def
/d1 { setcachedevice } bind def
%%EndProlog
%%BeginSetup
%%EndSetup
%%Page: 1 1
%%BeginPageSetup
%%PageBoundingBox: 31 0 483 512
%%EndPageSetup
q 31 0 452 512 rectclip q
0 g
405.902 307.828 m 482.137 361.191 l 457.668 396.145 l 405.902 359.906 l
 405.902 426.668 l 107.234 426.668 l 107.234 359.906 l 55.469 396.145 l 
31 361.191 l 107.234 307.828 l 107.234 150.84 l 31 97.477 l 55.469 62.523
 l 107.234 98.762 l 107.234 42.668 l 107.234 19.102 126.336 0 149.902 0 
c 363.234 0 l 386.801 0 405.902 19.102 405.902 42.668 c 405.902 98.762 l
 457.668 62.523 l 482.137 97.477 l 405.902 150.84 l h
363.234 180.707 m 341.902 195.641 l 341.902 263.027 l 363.234 277.961 l
 h
149.902 384 m 363.234 384 l 363.234 330.039 l 341.902 315.105 l 341.902
 362.668 l 171.234 362.668 l 171.234 315.105 l 149.902 330.039 l h
149.902 277.961 m 171.234 263.027 l 171.234 195.641 l 149.902 180.707 l
 h
363.234 42.668 m 149.902 42.668 l 149.902 128.625 l 171.234 143.559 l 171.234
 64 l 341.902 64 l 341.902 143.559 l 363.234 128.625 l h
363.234 42.668 m f
341.902 490.668 m 341.902 502.449 332.348 512 320.566 512 c 192.566 512
 l 180.785 512 171.234 502.449 171.234 490.668 c 171.234 448 l 341.902 448
 l h
341.902 490.668 m f
Q Q
showpage
%%Trailer
end restore
%%EOF
