%!PS-Adobe-3.0 EPSF-3.0
%%Creator: cairo 1.14.8 (http://cairographics.org)
%%CreationDate: Tue Mar 26 09:15:41 2019
%%Pages: 1
%%DocumentData: Clean7Bit
%%LanguageLevel: 2
%%BoundingBox: 32 0 480 512
%%EndComments
%%BeginProlog
save
50 dict begin
/q { gsave } bind def
/Q { grestore } bind def
/cm { 6 array astore concat } bind def
/w { setlinewidth } bind def
/J { setlinecap } bind def
/j { setlinejoin } bind def
/M { setmiterlimit } bind def
/d { setdash } bind def
/m { moveto } bind def
/l { lineto } bind def
/c { curveto } bind def
/h { closepath } bind def
/re { exch dup neg 3 1 roll 5 3 roll moveto 0 rlineto
      0 exch rlineto 0 rlineto closepath } bind def
/S { stroke } bind def
/f { fill } bind def
/f* { eofill } bind def
/n { newpath } bind def
/W { clip } bind def
/W* { eoclip } bind def
/BT { } bind def
/ET { } bind def
/pdfmark where { pop globaldict /?pdfmark /exec load put }
    { globaldict begin /?pdfmark /pop load def /pdfmark
    /cleartomark load def end } ifelse
/BDC { mark 3 1 roll /BDC pdfmark } bind def
/EMC { mark /EMC pdfmark } bind def
/cairo_store_point { /cairo_point_y exch def /cairo_point_x exch def } def
/Tj { show currentpoint cairo_store_point } bind def
/TJ {
  {
    dup
    type /stringtype eq
    { show } { -0.001 mul 0 cairo_font_matrix dtransform rmoveto } ifelse
  } forall
  currentpoint cairo_store_point
} bind def
/cairo_selectfont { cairo_font_matrix aload pop pop pop 0 0 6 array astore
    cairo_font exch selectfont cairo_point_x cairo_point_y moveto } bind def
/Tf { pop /cairo_font exch def /cairo_font_matrix where
      { pop cairo_selectfont } if } bind def
/Td { matrix translate cairo_font_matrix matrix concatmatrix dup
      /cairo_font_matrix exch def dup 4 get exch 5 get cairo_store_point
      /cairo_font where { pop cairo_selectfont } if } bind def
/Tm { 2 copy 8 2 roll 6 array astore /cairo_font_matrix exch def
      cairo_store_point /cairo_font where { pop cairo_selectfont } if } bind def
/g { setgray } bind def
/rg { setrgbcolor } bind def
/d1 { setcachedevice } bind def
%%EndProlog
%%BeginSetup
%%EndSetup
%%Page: 1 1
%%BeginPageSetup
%%PageBoundingBox: 32 0 480 512
%%EndPageSetup
q 32 0 448 512 rectclip q
0 g
266.668 490.668 m 266.668 502.449 257.113 512 245.332 512 c 117.332 512
 l 105.551 512 96 502.449 96 490.668 c 96 448 l 266.668 448 l h
266.668 490.668 m f
266.668 85.332 m 288 85.332 l 288 0 l 330.668 0 l 330.668 85.332 l 352 
85.332 l 352 128 l 266.668 128 l h
266.668 85.332 m f
384.754 150.406 m 414.922 180.574 l 445.094 150.406 l 414.922 120.234 l
 h
384.754 150.406 m f
437.332 277.332 42.668 -42.664 re f
384.754 361.594 m 414.926 391.762 l 445.094 361.594 l 414.926 331.422 l
 h
384.754 361.594 m f
202.668 256 m 202.668 314.816 250.516 362.668 309.332 362.668 c 316.637
 362.668 323.77 361.926 330.668 360.52 c 330.668 426.668 l 32 426.668 l 
32 42.668 l 32 19.102 51.102 0 74.668 0 c 245.332 0 l 245.332 170.695 l 
218.617 190.793 202.668 222.684 202.668 256 c h
203.738 391.766 m 233.91 361.594 l 203.738 331.426 l 173.566 361.594 l 
h
138.668 277.332 m 181.332 277.332 l 181.332 234.668 l 138.668 234.668 l
 h
203.738 120.234 m 173.57 150.402 l 203.742 180.574 l 233.91 150.406 l h
203.738 120.234 m f
309.332 341.332 m 262.281 341.332 224 303.055 224 256 c 224 229.348 236.77
 203.836 258.16 187.742 c 266.668 181.344 l 266.668 149.332 l 352 149.332
 l 352 181.34 l 360.508 187.742 l 381.895 203.836 394.668 229.348 394.668
 256 c 394.668 303.055 356.387 341.332 309.332 341.332 c h
330.668 256 m 318.887 256 309.332 265.551 309.332 277.332 c 309.332 289.113
 318.887 298.668 330.668 298.668 c 342.449 298.668 352 289.113 352 277.332
 c 352 265.551 342.449 256 330.668 256 c h
330.668 256 m f
Q Q
showpage
%%Trailer
end restore
%%EOF
