%!PS-Adobe-3.0 EPSF-3.0
%%Creator: cairo 1.14.8 (http://cairographics.org)
%%CreationDate: Tue Mar 26 09:15:41 2019
%%Pages: 1
%%DocumentData: Clean7Bit
%%LanguageLevel: 2
%%BoundingBox: 43 0 470 512
%%EndComments
%%BeginProlog
save
50 dict begin
/q { gsave } bind def
/Q { grestore } bind def
/cm { 6 array astore concat } bind def
/w { setlinewidth } bind def
/J { setlinecap } bind def
/j { setlinejoin } bind def
/M { setmiterlimit } bind def
/d { setdash } bind def
/m { moveto } bind def
/l { lineto } bind def
/c { curveto } bind def
/h { closepath } bind def
/re { exch dup neg 3 1 roll 5 3 roll moveto 0 rlineto
      0 exch rlineto 0 rlineto closepath } bind def
/S { stroke } bind def
/f { fill } bind def
/f* { eofill } bind def
/n { newpath } bind def
/W { clip } bind def
/W* { eoclip } bind def
/BT { } bind def
/ET { } bind def
/pdfmark where { pop globaldict /?pdfmark /exec load put }
    { globaldict begin /?pdfmark /pop load def /pdfmark
    /cleartomark load def end } ifelse
/BDC { mark 3 1 roll /BDC pdfmark } bind def
/EMC { mark /EMC pdfmark } bind def
/cairo_store_point { /cairo_point_y exch def /cairo_point_x exch def } def
/Tj { show currentpoint cairo_store_point } bind def
/TJ {
  {
    dup
    type /stringtype eq
    { show } { -0.001 mul 0 cairo_font_matrix dtransform rmoveto } ifelse
  } forall
  currentpoint cairo_store_point
} bind def
/cairo_selectfont { cairo_font_matrix aload pop pop pop 0 0 6 array astore
    cairo_font exch selectfont cairo_point_x cairo_point_y moveto } bind def
/Tf { pop /cairo_font exch def /cairo_font_matrix where
      { pop cairo_selectfont } if } bind def
/Td { matrix translate cairo_font_matrix matrix concatmatrix dup
      /cairo_font_matrix exch def dup 4 get exch 5 get cairo_store_point
      /cairo_font where { pop cairo_selectfont } if } bind def
/Tm { 2 copy 8 2 roll 6 array astore /cairo_font_matrix exch def
      cairo_store_point /cairo_font where { pop cairo_selectfont } if } bind def
/g { setgray } bind def
/rg { setrgbcolor } bind def
/d1 { setcachedevice } bind def
%%EndProlog
%%BeginSetup
%%EndSetup
%%Page: 1 1
%%BeginPageSetup
%%PageBoundingBox: 43 0 470 512
%%EndPageSetup
q 43 0 427 512 rectclip q
0 g
277.668 490.668 m 277.668 502.449 268.113 512 256.332 512 c 128.332 512
 l 116.551 512 107 502.449 107 490.668 c 107 448 l 277.668 448 l h
277.668 490.668 m f
320.332 381.332 m 237.992 381.332 171 314.34 171 232 c 171 149.66 237.992
 82.668 320.332 82.668 c 402.676 82.668 469.668 149.66 469.668 232 c 469.668
 314.34 402.676 381.332 320.332 381.332 c h
341.668 192 m 298.609 105.883 l 271.367 110.562 247.047 123.871 228.566
 142.898 c 277.668 192 l 256.332 234.668 l 213.668 256 l 193.754 251.02 
l 197.391 275.32 207.898 297.391 223.207 315.23 c 256.332 298.668 l 299 
298.668 l 341.668 234.668 l h
384.332 234.668 m 384.332 298.668 l 384.332 298.668 393.586 312.523 405.617
 327.344 c 431.812 303.891 448.332 269.844 448.332 232 c 448.332 217.883
 446.004 204.309 441.762 191.598 c h
384.332 234.668 m f
149.668 234.668 m 149.668 328.922 226.078 405.332 320.332 405.332 c 327.562
 405.332 334.672 404.832 341.668 403.957 c 341.668 426.668 l 43 426.668 
l 43 42.668 l 43 19.102 62.102 0 85.668 0 c 299 0 l 322.566 0 341.668 19.102
 341.668 42.668 c 341.668 65.375 l 334.672 64.504 327.562 64 320.332 64 
c 226.078 64 149.668 140.41 149.668 234.668 c h
149.668 234.668 m f
Q Q
showpage
%%Trailer
end restore
%%EOF
