%!PS-Adobe-3.0 EPSF-3.0
%%Creator: cairo 1.14.8 (http://cairographics.org)
%%CreationDate: Tue Mar 26 09:15:41 2019
%%Pages: 1
%%DocumentData: Clean7Bit
%%LanguageLevel: 2
%%BoundingBox: 54 0 458 512
%%EndComments
%%BeginProlog
save
50 dict begin
/q { gsave } bind def
/Q { grestore } bind def
/cm { 6 array astore concat } bind def
/w { setlinewidth } bind def
/J { setlinecap } bind def
/j { setlinejoin } bind def
/M { setmiterlimit } bind def
/d { setdash } bind def
/m { moveto } bind def
/l { lineto } bind def
/c { curveto } bind def
/h { closepath } bind def
/re { exch dup neg 3 1 roll 5 3 roll moveto 0 rlineto
      0 exch rlineto 0 rlineto closepath } bind def
/S { stroke } bind def
/f { fill } bind def
/f* { eofill } bind def
/n { newpath } bind def
/W { clip } bind def
/W* { eoclip } bind def
/BT { } bind def
/ET { } bind def
/pdfmark where { pop globaldict /?pdfmark /exec load put }
    { globaldict begin /?pdfmark /pop load def /pdfmark
    /cleartomark load def end } ifelse
/BDC { mark 3 1 roll /BDC pdfmark } bind def
/EMC { mark /EMC pdfmark } bind def
/cairo_store_point { /cairo_point_y exch def /cairo_point_x exch def } def
/Tj { show currentpoint cairo_store_point } bind def
/TJ {
  {
    dup
    type /stringtype eq
    { show } { -0.001 mul 0 cairo_font_matrix dtransform rmoveto } ifelse
  } forall
  currentpoint cairo_store_point
} bind def
/cairo_selectfont { cairo_font_matrix aload pop pop pop 0 0 6 array astore
    cairo_font exch selectfont cairo_point_x cairo_point_y moveto } bind def
/Tf { pop /cairo_font exch def /cairo_font_matrix where
      { pop cairo_selectfont } if } bind def
/Td { matrix translate cairo_font_matrix matrix concatmatrix dup
      /cairo_font_matrix exch def dup 4 get exch 5 get cairo_store_point
      /cairo_font where { pop cairo_selectfont } if } bind def
/Tm { 2 copy 8 2 roll 6 array astore /cairo_font_matrix exch def
      cairo_store_point /cairo_font where { pop cairo_selectfont } if } bind def
/g { setgray } bind def
/rg { setrgbcolor } bind def
/d1 { setcachedevice } bind def
%%EndProlog
%%BeginSetup
%%EndSetup
%%Page: 1 1
%%BeginPageSetup
%%PageBoundingBox: 54 0 458 512
%%EndPageSetup
q 54 0 404 512 rectclip q
0 g
288.664 490.668 m 288.664 502.449 279.113 512 267.332 512 c 139.332 512
 l 127.551 512 117.996 502.449 117.996 490.668 c 117.996 448 l 288.664 448
 l h
288.664 490.668 m f
308.699 85.91 m 246.371 57.094 l 240.156 54.219 232.879 57.863 231.457 
64.566 c 217.23 131.746 l 216.559 134.922 214.477 137.617 211.574 139.07
 c 150.184 169.836 l 144.062 172.902 142.375 180.863 146.727 186.152 c 190.383
 239.16 l 192.445 241.668 193.258 244.977 192.586 248.148 c 178.355 315.332
 l 176.938 322.035 182.113 328.316 188.961 328.207 c 257.621 327.129 l 260.867
 327.078 263.961 328.508 266.023 331.012 c 309.68 384.02 l 314.035 389.309
 322.172 389.18 326.355 383.762 c 352.668 349.68 l 352.668 426.668 l 54 
426.668 l 54 42.668 l 54 19.102 73.102 0 96.668 0 c 310 0 l 333.566 0 352.668
 19.102 352.668 42.668 c 352.668 68.375 l 317.953 85.77 l 315.051 87.223
 311.645 87.273 308.699 85.91 c h
308.699 85.91 m f
414.727 234.383 m 431.543 303.055 l 360.848 304.168 l 317.641 360.133 l
 272.691 305.555 l 201.996 306.668 l 216.645 237.496 l 171.699 182.918 l
 234.91 151.242 l 249.559 82.07 l 313.734 111.742 l 376.945 80.07 l 393.762
 148.742 l 457.938 178.414 l h
315.332 170.668 m 291.766 170.668 272.664 189.77 272.664 213.332 c 272.664
 236.898 291.766 256 315.332 256 c 338.895 256 357.996 236.898 357.996 213.332
 c 357.996 189.77 338.895 170.668 315.332 170.668 c h
315.332 170.668 m f
Q Q
showpage
%%Trailer
end restore
%%EOF
