%!PS-Adobe-3.0 EPSF-3.0
%%Creator: cairo 1.14.8 (http://cairographics.org)
%%CreationDate: Tue Mar 26 09:15:41 2019
%%Pages: 1
%%DocumentData: Clean7Bit
%%LanguageLevel: 2
%%BoundingBox: 107 0 406 512
%%EndComments
%%BeginProlog
save
50 dict begin
/q { gsave } bind def
/Q { grestore } bind def
/cm { 6 array astore concat } bind def
/w { setlinewidth } bind def
/J { setlinecap } bind def
/j { setlinejoin } bind def
/M { setmiterlimit } bind def
/d { setdash } bind def
/m { moveto } bind def
/l { lineto } bind def
/c { curveto } bind def
/h { closepath } bind def
/re { exch dup neg 3 1 roll 5 3 roll moveto 0 rlineto
      0 exch rlineto 0 rlineto closepath } bind def
/S { stroke } bind def
/f { fill } bind def
/f* { eofill } bind def
/n { newpath } bind def
/W { clip } bind def
/W* { eoclip } bind def
/BT { } bind def
/ET { } bind def
/pdfmark where { pop globaldict /?pdfmark /exec load put }
    { globaldict begin /?pdfmark /pop load def /pdfmark
    /cleartomark load def end } ifelse
/BDC { mark 3 1 roll /BDC pdfmark } bind def
/EMC { mark /EMC pdfmark } bind def
/cairo_store_point { /cairo_point_y exch def /cairo_point_x exch def } def
/Tj { show currentpoint cairo_store_point } bind def
/TJ {
  {
    dup
    type /stringtype eq
    { show } { -0.001 mul 0 cairo_font_matrix dtransform rmoveto } ifelse
  } forall
  currentpoint cairo_store_point
} bind def
/cairo_selectfont { cairo_font_matrix aload pop pop pop 0 0 6 array astore
    cairo_font exch selectfont cairo_point_x cairo_point_y moveto } bind def
/Tf { pop /cairo_font exch def /cairo_font_matrix where
      { pop cairo_selectfont } if } bind def
/Td { matrix translate cairo_font_matrix matrix concatmatrix dup
      /cairo_font_matrix exch def dup 4 get exch 5 get cairo_store_point
      /cairo_font where { pop cairo_selectfont } if } bind def
/Tm { 2 copy 8 2 roll 6 array astore /cairo_font_matrix exch def
      cairo_store_point /cairo_font where { pop cairo_selectfont } if } bind def
/g { setgray } bind def
/rg { setrgbcolor } bind def
/d1 { setcachedevice } bind def
%%EndProlog
%%BeginSetup
%%EndSetup
%%Page: 1 1
%%BeginPageSetup
%%PageBoundingBox: 107 0 406 512
%%EndPageSetup
q 107 0 299 512 rectclip q
0 g
341.668 490.668 m 341.668 502.449 332.113 512 320.332 512 c 192.332 512
 l 180.551 512 171 502.449 171 490.668 c 171 448 l 341.668 448 l h
341.668 490.668 m f
213.668 149.332 42.664 -21.332 re f
213.668 298.668 42.664 -21.336 re f
107 426.668 m 107 42.668 l 107 19.102 126.102 0 149.668 0 c 363 0 l 386.566
 0 405.668 19.102 405.668 42.668 c 405.668 426.668 l h
341.668 149.332 m 299 149.332 l 299 128 l 341.668 128 l 341.668 85.332 
l 213.668 85.332 l 190.141 85.332 171 104.477 171 128 c 171 149.332 l 171
 172.859 190.141 192 213.668 192 c 341.668 192 l h
341.668 298.668 m 299 298.668 l 299 277.332 l 341.668 277.332 l 341.668
 234.668 l 213.668 234.668 l 190.141 234.668 171 253.809 171 277.332 c 171
 298.668 l 171 322.191 190.141 341.332 213.668 341.332 c 341.668 341.332
 l h
341.668 298.668 m f
Q Q
showpage
%%Trailer
end restore
%%EOF
