%!PS-Adobe-3.0 EPSF-3.0
%%Creator: cairo 1.14.8 (http://cairographics.org)
%%CreationDate: Tue Mar 26 09:15:41 2019
%%Pages: 1
%%DocumentData: Clean7Bit
%%LanguageLevel: 2
%%BoundingBox: 35 0 477 512
%%EndComments
%%BeginProlog
save
50 dict begin
/q { gsave } bind def
/Q { grestore } bind def
/cm { 6 array astore concat } bind def
/w { setlinewidth } bind def
/J { setlinecap } bind def
/j { setlinejoin } bind def
/M { setmiterlimit } bind def
/d { setdash } bind def
/m { moveto } bind def
/l { lineto } bind def
/c { curveto } bind def
/h { closepath } bind def
/re { exch dup neg 3 1 roll 5 3 roll moveto 0 rlineto
      0 exch rlineto 0 rlineto closepath } bind def
/S { stroke } bind def
/f { fill } bind def
/f* { eofill } bind def
/n { newpath } bind def
/W { clip } bind def
/W* { eoclip } bind def
/BT { } bind def
/ET { } bind def
/pdfmark where { pop globaldict /?pdfmark /exec load put }
    { globaldict begin /?pdfmark /pop load def /pdfmark
    /cleartomark load def end } ifelse
/BDC { mark 3 1 roll /BDC pdfmark } bind def
/EMC { mark /EMC pdfmark } bind def
/cairo_store_point { /cairo_point_y exch def /cairo_point_x exch def } def
/Tj { show currentpoint cairo_store_point } bind def
/TJ {
  {
    dup
    type /stringtype eq
    { show } { -0.001 mul 0 cairo_font_matrix dtransform rmoveto } ifelse
  } forall
  currentpoint cairo_store_point
} bind def
/cairo_selectfont { cairo_font_matrix aload pop pop pop 0 0 6 array astore
    cairo_font exch selectfont cairo_point_x cairo_point_y moveto } bind def
/Tf { pop /cairo_font exch def /cairo_font_matrix where
      { pop cairo_selectfont } if } bind def
/Td { matrix translate cairo_font_matrix matrix concatmatrix dup
      /cairo_font_matrix exch def dup 4 get exch 5 get cairo_store_point
      /cairo_font where { pop cairo_selectfont } if } bind def
/Tm { 2 copy 8 2 roll 6 array astore /cairo_font_matrix exch def
      cairo_store_point /cairo_font where { pop cairo_selectfont } if } bind def
/g { setgray } bind def
/rg { setrgbcolor } bind def
/d1 { setcachedevice } bind def
%%EndProlog
%%BeginSetup
%%EndSetup
%%Page: 1 1
%%BeginPageSetup
%%PageBoundingBox: 35 0 477 512
%%EndPageSetup
q 35 0 442 512 rectclip q
0 g
327.414 490.668 m 327.414 502.449 317.863 512 306.082 512 c 178.082 512
 l 166.301 512 156.75 502.449 156.75 490.668 c 156.75 448 l 327.414 448 
l h
327.414 490.668 m f
348.75 362.668 m 278.055 362.668 220.75 305.359 220.75 234.668 c 220.75
 163.973 278.055 106.668 348.75 106.668 c 419.441 106.668 476.75 163.973
 476.75 234.668 c 476.75 305.359 419.441 362.668 348.75 362.668 c h
412.75 192 m 412.75 149.332 l 306.082 149.332 l 296.188 149.332 287.594
 156.137 285.32 165.766 c 283.047 175.391 287.691 185.324 296.543 189.746
 c 327.367 205.219 370.082 236.852 370.082 256 c 370.082 265.66 360.566 
277.332 348.75 277.332 c 336.988 277.332 327.414 267.762 327.414 256 c 284.75
 256 l 284.75 291.289 313.457 320 348.75 320 c 382.844 320 412.75 290.094
 412.75 256 c 412.75 231.805 395.992 209.688 376.199 192 c h
412.75 192 m f
199.414 234.668 m 199.414 317.012 266.406 384 348.75 384 c 363.574 384 
377.887 381.797 391.414 377.758 c 391.414 426.668 l 92.75 426.668 l 92.75
 295.008 l 103.414 284.34 l 141.668 322.59 l 202.004 262.246 l 163.758 224
 l 202.004 185.754 l 141.668 125.41 l 103.414 163.66 l 92.75 152.992 l 92.75
 42.668 l 92.75 19.102 111.852 0 135.414 0 c 348.75 0 l 372.316 0 391.414
 19.102 391.414 42.668 c 391.414 91.574 l 377.887 87.535 363.574 85.332 
348.75 85.332 c 266.406 85.332 199.414 152.324 199.414 234.668 c h
199.414 234.668 m f
141.668 155.582 m 171.836 185.754 l 133.586 224 l 171.836 262.246 l 141.668
 292.418 l 103.414 254.172 l 65.168 292.418 l 35 262.246 l 73.246 224 l 
35 185.754 l 65.168 155.582 l 103.414 193.828 l h
141.668 155.582 m f
Q Q
showpage
%%Trailer
end restore
%%EOF
