%!PS-Adobe-3.0 EPSF-3.0
%%Creator: cairo 1.14.8 (http://cairographics.org)
%%CreationDate: Tue Mar 26 09:15:41 2019
%%Pages: 1
%%DocumentData: Clean7Bit
%%LanguageLevel: 2
%%BoundingBox: 0 32 512 480
%%EndComments
%%BeginProlog
save
50 dict begin
/q { gsave } bind def
/Q { grestore } bind def
/cm { 6 array astore concat } bind def
/w { setlinewidth } bind def
/J { setlinecap } bind def
/j { setlinejoin } bind def
/M { setmiterlimit } bind def
/d { setdash } bind def
/m { moveto } bind def
/l { lineto } bind def
/c { curveto } bind def
/h { closepath } bind def
/re { exch dup neg 3 1 roll 5 3 roll moveto 0 rlineto
      0 exch rlineto 0 rlineto closepath } bind def
/S { stroke } bind def
/f { fill } bind def
/f* { eofill } bind def
/n { newpath } bind def
/W { clip } bind def
/W* { eoclip } bind def
/BT { } bind def
/ET { } bind def
/pdfmark where { pop globaldict /?pdfmark /exec load put }
    { globaldict begin /?pdfmark /pop load def /pdfmark
    /cleartomark load def end } ifelse
/BDC { mark 3 1 roll /BDC pdfmark } bind def
/EMC { mark /EMC pdfmark } bind def
/cairo_store_point { /cairo_point_y exch def /cairo_point_x exch def } def
/Tj { show currentpoint cairo_store_point } bind def
/TJ {
  {
    dup
    type /stringtype eq
    { show } { -0.001 mul 0 cairo_font_matrix dtransform rmoveto } ifelse
  } forall
  currentpoint cairo_store_point
} bind def
/cairo_selectfont { cairo_font_matrix aload pop pop pop 0 0 6 array astore
    cairo_font exch selectfont cairo_point_x cairo_point_y moveto } bind def
/Tf { pop /cairo_font exch def /cairo_font_matrix where
      { pop cairo_selectfont } if } bind def
/Td { matrix translate cairo_font_matrix matrix concatmatrix dup
      /cairo_font_matrix exch def dup 4 get exch 5 get cairo_store_point
      /cairo_font where { pop cairo_selectfont } if } bind def
/Tm { 2 copy 8 2 roll 6 array astore /cairo_font_matrix exch def
      cairo_store_point /cairo_font where { pop cairo_selectfont } if } bind def
/g { setgray } bind def
/rg { setrgbcolor } bind def
/d1 { setcachedevice } bind def
%%EndProlog
%%BeginSetup
%%EndSetup
%%Page: 1 1
%%BeginPageSetup
%%PageBoundingBox: 0 32 512 480
%%EndPageSetup
q 0 32 512 448 rectclip q
0 g
448 458.668 m 448 470.449 438.449 480 426.668 480 c 341.332 480 l 329.551
 480 320 470.449 320 458.668 c 320 416 l 448 416 l h
448 458.668 m f
192 458.668 m 192 470.449 182.449 480 170.668 480 c 85.332 480 l 73.551
 480 64 470.449 64 458.668 c 64 416 l 192 416 l h
192 458.668 m f
0 394.668 m 0 74.668 l 0 62.887 9.551 53.332 21.332 53.332 c 64 53.332 
l 64 32 l 106.668 32 l 106.668 53.332 l 405.332 53.332 l 405.332 32 l 448
 32 l 448 53.332 l 490.668 53.332 l 502.449 53.332 512 62.887 512 74.668
 c 512 394.668 l h
256 96 m 185.422 96 128 153.418 128 224 c 128 224.953 128.051 225.902 128.07
 226.852 c 97.168 206.25 l 73.5 241.754 l 137.5 284.418 l 144.668 289.195
 154.004 289.195 161.168 284.418 c 225.168 241.754 l 201.5 206.25 l 170.734
 226.762 l 170.707 225.84 170.668 224.922 170.668 224 c 170.668 176.945 
208.945 138.668 256 138.668 c h
374.5 163.586 m 367.406 158.859 357.926 158.855 350.832 163.586 c 286.832
 206.25 l 310.5 241.754 l 341.266 221.242 l 341.293 222.16 341.332 223.078
 341.332 224 c 341.332 271.055 303.055 309.332 256 309.332 c 256 352 l 326.582
 352 384 294.582 384 224 c 384 223.047 383.949 222.098 383.93 221.148 c 
414.832 241.75 l 438.5 206.246 l h
374.5 163.586 m f
Q Q
showpage
%%Trailer
end restore
%%EOF
