%!PS-Adobe-3.0 EPSF-3.0
%%Creator: cairo 1.14.8 (http://cairographics.org)
%%CreationDate: Tue Mar 26 09:15:41 2019
%%Pages: 1
%%DocumentData: Clean7Bit
%%LanguageLevel: 2
%%BoundingBox: 0 32 512 480
%%EndComments
%%BeginProlog
save
50 dict begin
/q { gsave } bind def
/Q { grestore } bind def
/cm { 6 array astore concat } bind def
/w { setlinewidth } bind def
/J { setlinecap } bind def
/j { setlinejoin } bind def
/M { setmiterlimit } bind def
/d { setdash } bind def
/m { moveto } bind def
/l { lineto } bind def
/c { curveto } bind def
/h { closepath } bind def
/re { exch dup neg 3 1 roll 5 3 roll moveto 0 rlineto
      0 exch rlineto 0 rlineto closepath } bind def
/S { stroke } bind def
/f { fill } bind def
/f* { eofill } bind def
/n { newpath } bind def
/W { clip } bind def
/W* { eoclip } bind def
/BT { } bind def
/ET { } bind def
/pdfmark where { pop globaldict /?pdfmark /exec load put }
    { globaldict begin /?pdfmark /pop load def /pdfmark
    /cleartomark load def end } ifelse
/BDC { mark 3 1 roll /BDC pdfmark } bind def
/EMC { mark /EMC pdfmark } bind def
/cairo_store_point { /cairo_point_y exch def /cairo_point_x exch def } def
/Tj { show currentpoint cairo_store_point } bind def
/TJ {
  {
    dup
    type /stringtype eq
    { show } { -0.001 mul 0 cairo_font_matrix dtransform rmoveto } ifelse
  } forall
  currentpoint cairo_store_point
} bind def
/cairo_selectfont { cairo_font_matrix aload pop pop pop 0 0 6 array astore
    cairo_font exch selectfont cairo_point_x cairo_point_y moveto } bind def
/Tf { pop /cairo_font exch def /cairo_font_matrix where
      { pop cairo_selectfont } if } bind def
/Td { matrix translate cairo_font_matrix matrix concatmatrix dup
      /cairo_font_matrix exch def dup 4 get exch 5 get cairo_store_point
      /cairo_font where { pop cairo_selectfont } if } bind def
/Tm { 2 copy 8 2 roll 6 array astore /cairo_font_matrix exch def
      cairo_store_point /cairo_font where { pop cairo_selectfont } if } bind def
/g { setgray } bind def
/rg { setrgbcolor } bind def
/d1 { setcachedevice } bind def
%%EndProlog
%%BeginSetup
%%EndSetup
%%Page: 1 1
%%BeginPageSetup
%%PageBoundingBox: 0 32 512 480
%%EndPageSetup
q 0 32 512 448 rectclip q
0 g
448 458.668 m 448 470.449 438.449 480 426.668 480 c 341.332 480 l 329.551
 480 320 470.449 320 458.668 c 320 416 l 448 416 l h
448 458.668 m f
192 458.668 m 192 470.449 182.449 480 170.668 480 c 85.332 480 l 73.551
 480 64 470.449 64 458.668 c 64 416 l 192 416 l h
192 458.668 m f
0 394.668 m 0 74.668 l 0 62.887 9.551 53.332 21.332 53.332 c 64 53.332 
l 64 32 l 106.668 32 l 106.668 53.332 l 405.332 53.332 l 405.332 32 l 448
 32 l 448 53.332 l 490.668 53.332 l 502.449 53.332 512 62.887 512 74.668
 c 512 394.668 l h
237.152 148.602 m 237.07 148.496 236.98 148.395 236.895 148.289 c 236.98
 148.398 237.059 148.504 237.141 148.609 c 140.953 244.797 l 125.871 229.711
 l 222.07 133.516 l 207.168 121.898 188.953 115.582 169.754 115.582 c 146.961
 115.582 125.531 124.457 109.414 140.574 c 80.129 169.863 73.965 257.848
 73.027 275.188 c 72.348 287.691 82.996 298.285 95.48 297.641 c 112.82 296.703
 200.805 290.539 230.09 261.25 c 246.207 245.133 255.082 223.703 255.082
 200.91 c 255.082 181.719 248.758 163.508 237.137 148.609 c h
445.547 329.055 m 443.441 305.625 431.055 186.871 394.133 149.945 c 373.984
 129.801 347.199 118.703 318.707 118.703 c 296.039 118.703 274.465 125.75
 256.441 138.766 c 261.184 145.352 265.145 152.402 268.238 159.82 c 382.09
 273.672 l 367.008 288.758 l 276.348 198.098 l 276.375 199.039 276.418 199.973
 276.418 200.914 c 276.418 229.406 265.324 256.188 245.18 276.34 c 241.293
 280.223 236.711 283.746 231.625 286.961 c 235.094 291.84 238.965 296.477
 243.281 300.793 c 280.207 337.715 398.961 350.102 422.391 352.211 c 435.438
 353.387 446.723 342.105 445.547 329.055 c h
445.547 329.055 m f
Q Q
showpage
%%Trailer
end restore
%%EOF
