\relax 
\AC@reset@newl@bel
\acronymused{bms}
\acronymused{bms}
\acronymused{bms}
\AC@undonewlabel{acro:cccv}
\newlabel{acro:cccv}{{}{3}}
\acronymused{cccv}
\acronymused{bms}
\AC@undonewlabel{acro:bms}
\newlabel{acro:bms}{{}{3}}
\acronymused{bms}
\acronymused{bms}
\acronymused{bms}
\acronymused{bms}
\acronymused{bms}
\acronymused{bms}
\acronymused{bcu}
\acronymused{pcu}
\AC@undonewlabel{acro:isospi}
\newlabel{acro:isospi}{{}{4}}
\acronymused{isospi}
\AC@undonewlabel{acro:can}
\newlabel{acro:can}{{}{4}}
\acronymused{can}
\@input{Struktur/Nomenklatur.aux}
\@input{Struktur/description.aux}
\@input{Chapter/3_BMS_Arten_und_Funktionalitaet.aux}
\@input{Chapter/4_BMS_Entwicklung_und_Implementierung.aux}
\@input{Chapter/6_Ergebnisse.aux}
\bibdata{Referensis}
\bibcite{Weicker2013}{1}
\bibcite{Andrea2010}{2}
\bibcite{ltc6811}{3}
\bibcite{isospi_Abbildung_3}{4}
\bibcite{isa_ivt-s}{5}
\bibstyle{unsrt}
