\relax 
\AC@reset@newl@bel
\bibstyle{unsrt}
\AC@undonewlabel{acro:bms}
\newlabel{acro:bms}{{}{1}}
\acronymused{bms}
\acronymused{bms}
\acronymused{bms}
\AC@undonewlabel{acro:cccv}
\newlabel{acro:cccv}{{}{1}}
\acronymused{cccv}
\acronymused{bms}
\acronymused{bms}
\acronymused{bms}
\acronymused{bms}
\acronymused{bms}
\acronymused{bms}
\acronymused{bms}
\AC@undonewlabel{acro:isospi}
\newlabel{acro:isospi}{{}{2}}
\acronymused{isospi}
\AC@undonewlabel{acro:can}
\newlabel{acro:can}{{}{2}}
\acronymused{can}
\AC@undonewlabel{acro:bcu}
\newlabel{acro:bcu}{{}{2}}
\acronymused{bcu}
\@input{Struktur/Nomenklatur.aux}
\@writefile{toc}{\contentsline {chapter}{\numberline {1}Einleitung}{6}}
\@writefile{lof}{\addvspace {10\p@ }}
\@writefile{lot}{\addvspace {10\p@ }}
\citation{MachManfred2015}
\citation{PeterKurzweil2018}
\@writefile{toc}{\contentsline {chapter}{\numberline {2}Theoretische Grundlagen}{7}}
\@writefile{lof}{\addvspace {10\p@ }}
\@writefile{lot}{\addvspace {10\p@ }}
\newlabel{Theoretische Grundlagen Stromspeicherung}{{2}{7}}
\citation{PeterKurzweil2018}
\@writefile{toc}{\contentsline {chapter}{\numberline {3}Stand der Technik}{8}}
\@writefile{lof}{\addvspace {10\p@ }}
\@writefile{lot}{\addvspace {10\p@ }}
\@writefile{toc}{\contentsline {section}{\numberline {3.1}Energiespeicherung}{8}}
\@writefile{toc}{\contentsline {section}{\numberline {3.2}Elektrochemische Energiespeicherung}{8}}
\citation{Weicker2013}
\@writefile{toc}{\contentsline {section}{\numberline {3.3}Batterieskalierung}{9}}
\@writefile{toc}{\contentsline {subsection}{\numberline {3.3.1}Zelle Module}{10}}
\@writefile{toc}{\contentsline {subsection}{\numberline {3.3.2}Zelle System}{10}}
\@writefile{toc}{\contentsline {section}{\numberline {3.4}Lithium Eisen Phosphat Zelle}{10}}
\AC@undonewlabel{acro:lfp}
\newlabel{acro:lfp}{{3.4}{10}}
\acronymused{lfp}
\@writefile{toc}{\contentsline {subsection}{\numberline {3.4.1}Aufbau und Wirkungsweise}{10}}
\@writefile{toc}{\contentsline {subsection}{\numberline {3.4.2}Charakteristiken}{10}}
\citation{Symposium2015}
\@writefile{toc}{\contentsline {subsection}{\numberline {3.4.3}Batterie Einsatzgebiet}{11}}
\@writefile{toc}{\contentsline {chapter}{\numberline {4}Arten des \acf {bms} und dessen Funktionalit\IeC {\"a}t}{12}}
\@writefile{lof}{\addvspace {10\p@ }}
\@writefile{lot}{\addvspace {10\p@ }}
\acronymused{bms}
\acronymused{bms}
\@writefile{toc}{\contentsline {section}{\numberline {4.1}\acf {bms} Einf\IeC {\"u}hrung}{12}}
\acronymused{bms}
\acronymused{bms}
\acronymused{bms}
\acronymused{bms}
\acronymused{bms}
\acronymused{bms}
\acronymused{bms}
\@writefile{toc}{\contentsline {section}{\numberline {4.2}Definition des \acfp {bms}}{13}}
\newlabel{definition des bmss}{{4.2}{13}}
\acronymused{bms}
\acronymused{bms}
\acronymused{bms}
\acronymused{bms}
\acronymused{cccv}
\acronymused{bms}
\acronymused{bms}
\acronymused{cccv}
\acronymused{cccv}
\@writefile{toc}{\contentsline {subsection}{\numberline {4.2.1}\acf {cccv}}{13}}
\acronymused{cccv}
\acronymused{cccv}
\acronymused{cccv}
\acronymused{cccv}
\acronymused{lfp}
\acronymused{bms}
\acronymused{cccv}
\acronymused{bms}
\acronymused{bms}
\acronymused{bms}
\acronymused{cccv}
\acronymused{bms}
\acronymused{cccv}
\@writefile{lof}{\contentsline {figure}{\numberline {4.1}{\ignorespaces (Links)\ac {cccv} Charakteristiken und (Rechts) Strom und Spannung bei der Ladevorgang\relax }}{14}}
\acronymused{cccv}
\providecommand*\caption@xref[2]{\@setref\relax\@undefined{#1}}
\newlabel{img:cccv}{{4.1}{14}}
\@writefile{toc}{\contentsline {subsection}{\numberline {4.2.2}Regler}{14}}
\@writefile{toc}{\contentsline {subsection}{\numberline {4.2.3}Z\IeC {\"a}hler}{15}}
\AC@undonewlabel{acro:soc}
\newlabel{acro:soc}{{4.2.3}{15}}
\acronymused{soc}
\acronymused{bms}
\acronymused{bms}
\citation{Andrea2010}
\@writefile{toc}{\contentsline {subsection}{\numberline {4.2.4}Monitor}{16}}
\@writefile{toc}{\contentsline {subsection}{\numberline {4.2.5}Ausgleicher (Balancer)}{16}}
\acronymused{lfp}
\acronymused{bms}
\@writefile{toc}{\contentsline {subsection}{\numberline {4.2.6}Protector}{16}}
\@writefile{toc}{\contentsline {subsection}{\numberline {4.2.7}Funktionalit\IeC {\"a}tsvergleich}{16}}
\acronymused{bms}
\acronymused{lfp}
\acronymused{bms}
\@writefile{toc}{\contentsline {section}{\numberline {4.3}\ac {bms} Arten}{17}}
\acronymused{bms}
\acronymused{bms}
\@writefile{toc}{\contentsline {subsection}{\numberline {4.3.1}Monolithisch \ac {bms}}{17}}
\newlabel{Centralized_bms}{{4.3.1}{17}}
\acronymused{bms}
\acronymused{bms}
\@writefile{lof}{\contentsline {figure}{\numberline {4.2}{\ignorespaces Topologie des Monolithisches BMS\relax }}{17}}
\newlabel{bms_centralized}{{4.2}{17}}
\acronymused{bms}
\@writefile{toc}{\contentsline {subsection}{\numberline {4.3.2}Modular \ac {bms}}{18}}
\newlabel{Modular_bms}{{4.3.2}{18}}
\acronymused{bms}
\acronymused{bms}
\acronymused{bms}
\acronymused{bms}
\acronymused{bms}
\@writefile{lof}{\contentsline {figure}{\numberline {4.3}{\ignorespaces Topologie des Modulares BMS\relax }}{18}}
\newlabel{bms_modul}{{4.3}{18}}
\acronymused{bms}
\@writefile{toc}{\contentsline {subsection}{\numberline {4.3.3}Master - Slave \ac {bms}}{19}}
\acronymused{bms}
\acronymused{bms}
\@writefile{lof}{\contentsline {figure}{\numberline {4.4}{\ignorespaces Topologie des Master - Slave BMS\relax }}{19}}
\newlabel{bms_master_slave}{{4.4}{19}}
\citation{Andrea2010}
\acronymused{bms}
\@writefile{toc}{\contentsline {subsection}{\numberline {4.3.4}Verteilt \ac {bms}}{20}}
\@writefile{lof}{\contentsline {figure}{\numberline {4.5}{\ignorespaces Topologie des Verteiltes BMS\relax }}{20}}
\newlabel{bms_distributed}{{4.5}{20}}
\acronymused{bms}
\acronymused{emv}
\newlabel{Vergleich von bms Topologie}{{\caption@xref {Vergleich von bms Topologie}{ on input line 281}}{20}}
\@writefile{toc}{\contentsline {section}{\numberline {4.4}Technische Normen}{20}}
\newlabel{technische normen}{{4.4}{20}}
\AC@undonewlabel{acro:vde}
\newlabel{acro:vde}{{4.4}{20}}
\acronymused{vde}
\acronymused{bms}
\acronymused{bms}
\acronymused{vde}
\acronymused{vde}
\citation{Weicker2013}
\@writefile{toc}{\contentsline {chapter}{\numberline {5}\acf {bms} Entwicklung Vorgehensweise}{22}}
\@writefile{lof}{\addvspace {10\p@ }}
\@writefile{lot}{\addvspace {10\p@ }}
\acronymused{bms}
\@writefile{toc}{\contentsline {section}{\numberline {5.1}Idee der Untersuchung}{22}}
\acronymused{bms}
\newlabel{Idee der Untersuchung}{{5.1}{22}}
\acronymused{bms}
\acronymused{bms}
\acronymused{bms}
\@writefile{toc}{\contentsline {section}{\numberline {5.2}\acf {bms} Strukturplan}{22}}
\acronymused{bms}
\AC@undonewlabel{acro:pcu}
\newlabel{acro:pcu}{{5.2}{22}}
\acronymused{pcu}
\acronymused{bcu}
\acronymused{bms}
\acronymused{bms}
\acronymused{bms}
\acronymused{pcu}
\acronymused{bcu}
\acronymused{pcu}
\acronymused{bms}
\acronymused{bms}
\AC@undonewlabel{acro:i2c}
\newlabel{acro:i2c}{{5.2}{23}}
\acronymused{i2c}
\@writefile{lof}{\contentsline {figure}{\numberline {5.1}{\ignorespaces Topologie der BMS Aufbau\relax }}{23}}
\newlabel{img:GessamtStrukturAufbau}{{5.1}{23}}
\citation{ltc6811}
\@writefile{toc}{\contentsline {section}{\numberline {5.3}Kommunikation}{24}}
\acronymused{bms}
\acronymused{bcu}
\acronymused{bcu}
\AC@undonewlabel{acro:emv}
\newlabel{acro:emv}{{5.3}{24}}
\acronymused{emv}
\acronymused{isospi}
\acronymused{can}
\acronymused{isospi}
\@writefile{toc}{\contentsline {subsection}{\numberline {5.3.1}\ac {isospi}}{24}}
\acronymused{isospi}
\acronymused{isospi}
\acronymused{isospi}
\acronymused{isospi}
\AC@undonewlabel{acro:ic}
\newlabel{acro:ic}{{5.3.1}{24}}
\acronymused{ic}
\acronymused{isospi}
\@writefile{lof}{\contentsline {figure}{\numberline {5.2}{\ignorespaces Anschluss von Signal Transformator an LTC6811 f\IeC {\"u}r sicher galvanische Trennung jeder \ac {pcu} in der Daisy-Chaine\relax }}{24}}
\acronymused{pcu}
\newlabel{isoSpi_LTC6811}{{5.2}{24}}
\acronymused{pcu}
\acronymused{pcu}
\citation{ltc6811}
\citation{ltc6811}
\@writefile{lof}{\contentsline {figure}{\numberline {5.3}{\ignorespaces Verbindung von \ac {bcu} und mehrere \ac {pcu} in einer Daisy-Chaine\relax }}{25}}
\acronymused{bcu}
\acronymused{pcu}
\newlabel{Daisychaine_LTC6811}{{5.3}{25}}
\acronymused{can}
\@writefile{toc}{\contentsline {subsection}{\numberline {5.3.2}\ac {can}}{25}}
\@writefile{toc}{\contentsline {section}{\numberline {5.4}Zielhardware und eingesetzte Werkzeuge}{25}}
\AC@undonewlabel{acro:cad}
\newlabel{acro:cad}{{5.4}{25}}
\acronymused{cad}
\@writefile{toc}{\contentsline {subsection}{\numberline {5.4.1}Entwicklungsumgebung}{25}}
\acronymused{ic}
\acronymused{ic}
\AC@undonewlabel{acro:gpio}
\newlabel{acro:gpio}{{5.4.1}{25}}
\acronymused{gpio}
\acronymused{ic}
\acronymused{i2c}
\AC@undonewlabel{acro:spi}
\newlabel{acro:spi}{{5.4.1}{25}}
\acronymused{spi}
\acronymused{ic}
\acronymused{bms}
\AC@undonewlabel{acro:ntc}
\newlabel{acro:ntc}{{5.4.1}{25}}
\acronymused{ntc}
\AC@undonewlabel{acro:ptc}
\newlabel{acro:ptc}{{5.4.1}{25}}
\acronymused{ptc}
\AC@undonewlabel{acro:mux}
\newlabel{acro:mux}{{5.4.1}{26}}
\acronymused{mux}
\acronymused{gpio}
\acronymused{mux}
\acronymused{i2c}
\acronymused{ic}
\acronymused{i2c}
\acronymused{spi}
\acronymused{bcu}
\@writefile{toc}{\contentsline {subsection}{\numberline {5.4.2}Rechenmodule (\acf {bcu})}{26}}
\acronymused{bcu}
\AC@undonewlabel{acro:rpi}
\newlabel{acro:rpi}{{5.4.2}{26}}
\acronymused{rpi}
\acronymused{rpi}
\AC@undonewlabel{acro:rtc}
\newlabel{acro:rtc}{{5.4.2}{26}}
\acronymused{rtc}
\acronymused{i2c}
\acronymused{rpi}
\@writefile{toc}{\contentsline {subsection}{\numberline {5.4.3}Implementierung}{26}}
\acronymused{pcu}
\@writefile{toc}{\contentsline {subsection}{\numberline {5.4.4}Datentransfer}{26}}
\acronymused{bcu}
\acronymused{rpi}
\acronymused{pcu}
\acronymused{spi}
\acronymused{rpi}
\acronymused{spi}
\acronymused{isospi}
\acronymused{pcu}
\acronymused{spi}
\acronymused{isospi}
\AC@undonewlabel{acro:lt}
\newlabel{acro:lt}{{5.4.4}{26}}
\acronymused{lt}
\acronymused{ic}
\acronymused{bcu}
\AC@undonewlabel{acro:cmd}
\newlabel{acro:cmd}{{5.4.4}{26}}
\acronymused{cmd}
\AC@undonewlabel{acro:pec}
\newlabel{acro:pec}{{5.4.4}{26}}
\acronymused{pec}
\acronymused{pcu}
\acronymused{spi}
\acronymused{spi}
\acronymused{pec}
\acronymused{pec}
\AC@undonewlabel{acro:crc}
\newlabel{acro:crc}{{5.4.4}{26}}
\acronymused{crc}
\citation{ltc6811}
\AC@undonewlabel{acro:adc}
\newlabel{acro:adc}{{5.4.4}{27}}
\acronymused{adc}
\acronymused{adc}
\acronymused{pcu}
\acronymused{adc}
\acronymused{pcu}
\acronymused{pcu}
\acronymused{adc}
\acronymused{gpio}
\acronymused{gpio}
\acronymused{mux}
\acronymused{pcu}
\acronymused{pcu}
\acronymused{pcu}
\acronymused{adc}
\acronymused{pcu}
\@writefile{lot}{\contentsline {table}{\numberline {5.1}{\ignorespaces Broadcast Schreibbefehl. Nach dieser Muster wurden die Daten auf \ac {pcu} \IeC {\"U}bertragen und der Antwort von \ac {pcu} erhalten\relax }}{27}}
\acronymused{pcu}
\acronymused{pcu}
\newlabel{Datenpaket}{{5.1}{27}}
\@writefile{toc}{\contentsline {section}{\numberline {5.5}Spannungsmessungen}{27}}
\acronymused{lfp}
\@writefile{lof}{\contentsline {figure}{\numberline {5.4}{\ignorespaces ADC Spannungsmessaufbau in der LTC6811\relax }}{28}}
\newlabel{ADCConwention}{{5.4}{28}}
\@writefile{lof}{\contentsline {figure}{\numberline {5.5}{\ignorespaces Zeitverteilung bei der Messung aller 12 Zellen\relax }}{28}}
\newlabel{Measurement_von_ADC}{{5.5}{28}}
\acronymused{adc}
\acronymused{adc}
\acronymused{lt}
\acronymused{adc}
\@writefile{toc}{\contentsline {section}{\numberline {5.6}Strommessung}{28}}
\@writefile{lof}{\contentsline {figure}{\numberline {5.6}{\ignorespaces Optimaler Verschaltung von 8 Zellen mit LTC6811\relax }}{29}}
\newlabel{Acht_Zellen_Verschaltung}{{5.6}{29}}
\@writefile{toc}{\contentsline {section}{\numberline {5.7}Temperaturmessung}{29}}
\@writefile{toc}{\contentsline {section}{\numberline {5.8}Balancieren}{29}}
\@writefile{lof}{\contentsline {figure}{\numberline {5.7}{\ignorespaces Balancing Schaltung f\IeC {\"u}r die Zelle 1 (Balancing anderer Zellen ist identisch)\relax }}{31}}
\newlabel{Balancing_Verschaltung}{{5.7}{31}}
\@writefile{toc}{\contentsline {section}{\numberline {5.9}Balancing Feedback}{31}}
\acronymused{pcu}
\acronymused{bms}
\acronymused{gpio}
\acronymused{bcu}
\AC@undonewlabel{acro:op}
\newlabel{acro:op}{{5.9}{31}}
\acronymused{op}
\acronymused{gpio}
\acronymused{i2c}
\acronymused{i2c}
\AC@undonewlabel{acro:io}
\newlabel{acro:io}{{5.9}{31}}
\acronymused{io}
\@writefile{lof}{\contentsline {figure}{\numberline {5.8}{\ignorespaces Balancing Feedback Schaltung welcher auf \ac {mux} Basis aufgebaut ist\relax }}{32}}
\acronymused{mux}
\newlabel{Balancing_Feedback}{{5.8}{32}}
\acronymused{i2c}
\acronymused{bcu}
\acronymused{i2c}
\acronymused{i2c}
\acronymused{gpio}
\acronymused{gpio}
\acronymused{bcu}
\@input{Struktur/Tabeles_CD74HC4067.aux}
\@writefile{toc}{\contentsline {section}{\numberline {5.10}Temperatur Management}{34}}
\acronymused{adc}
\acronymused{pcu}
\acronymused{pcu}
\acronymused{pcu}
\acronymused{pcu}
\acronymused{pcu}
\AC@undonewlabel{acro:pwm}
\newlabel{acro:pwm}{{5.10}{34}}
\acronymused{pwm}
\acronymused{pwm}
\@writefile{toc}{\contentsline {chapter}{\numberline {6}Batteriesicherheitssystem Charakteristiken}{35}}
\@writefile{lof}{\addvspace {10\p@ }}
\@writefile{lot}{\addvspace {10\p@ }}
\AC@undonewlabel{acro:wr}
\newlabel{acro:wr}{{6}{35}}
\acronymused{wr}
\@writefile{toc}{\contentsline {section}{\numberline {6.1}Probleme zu Kl\IeC {\"a}ren}{35}}
\acronymused{bms}
\acronymused{bms}
\acronymused{wr}
\acronymused{wr}
\@writefile{toc}{\contentsline {section}{\numberline {6.2}Precharge Schaltkreis}{35}}
\acronymused{bms}
\@writefile{toc}{\contentsline {section}{\numberline {6.3}Strukturplan}{36}}
\@writefile{toc}{\contentsline {section}{\numberline {6.4}Komponente}{36}}
\newlabel{SecKomponente}{{6.4}{36}}
\AC@undonewlabel{acro:mcu}
\newlabel{acro:mcu}{{6.4}{36}}
\acronymused{mcu}
\@writefile{toc}{\contentsline {section}{\numberline {6.5}Aufbau}{37}}
\acronymused{mcu}
\AC@undonewlabel{acro:uart}
\newlabel{acro:uart}{{6.5}{37}}
\acronymused{uart}
\acronymused{can}
\acronymused{mcu}
\@writefile{toc}{\contentsline {section}{\numberline {6.6}Kommunikation}{37}}
\acronymused{bcu}
\acronymused{can}
\@writefile{toc}{\contentsline {section}{\numberline {6.7}Ansteuerung}{37}}
\@writefile{toc}{\contentsline {section}{\numberline {6.8}Sicherheitsparameter state machine}{37}}
\@writefile{toc}{\contentsline {chapter}{\numberline {7}Ergebnis}{38}}
\@writefile{lof}{\addvspace {10\p@ }}
\@writefile{lot}{\addvspace {10\p@ }}
\@writefile{toc}{\contentsline {section}{\numberline {7.1}Ergebnis Auswertung}{38}}
\acronymused{bms}
\acronymused{bms}
\bibdata{Referensis}
\@writefile{toc}{\contentsline {chapter}{\numberline {8}Zusammenfassung}{39}}
\@writefile{lof}{\addvspace {10\p@ }}
\@writefile{lot}{\addvspace {10\p@ }}
\bibcite{MachManfred2015}{1}
\bibcite{PeterKurzweil2018}{2}
\bibcite{Weicker2013}{3}
\bibcite{Symposium2015}{4}
\bibcite{Andrea2010}{5}
\bibcite{ltc6811}{6}
