EESchema Schematic File Version 2
LIBS:power
LIBS:device
LIBS:switches
LIBS:relays
LIBS:motors
LIBS:transistors
LIBS:conn
LIBS:linear
LIBS:regul
LIBS:74xx
LIBS:cmos4000
LIBS:adc-dac
LIBS:memory
LIBS:xilinx
LIBS:microcontrollers
LIBS:dsp
LIBS:microchip
LIBS:analog_switches
LIBS:motorola
LIBS:texas
LIBS:intel
LIBS:audio
LIBS:interface
LIBS:digital-audio
LIBS:philips
LIBS:display
LIBS:cypress
LIBS:siliconi
LIBS:opto
LIBS:atmel
LIBS:contrib
LIBS:valves
LIBS:Pack_Controller
EELAYER 25 0
EELAYER END
$Descr A4 11693 8268
encoding utf-8
Sheet 1 1
Title ""
Date ""
Rev ""
Comp ""
Comment1 ""
Comment2 ""
Comment3 ""
Comment4 ""
$EndDescr
$Comp
L LTC6811 U1
U 1 1 5C41D6B4
P 2350 3200
F 0 "U1" H 2350 1900 60  0000 C CNN
F 1 "LTC6811" H 2300 4550 60  0000 C CNN
F 2 "" H 2350 3200 60  0001 C CNN
F 3 "" H 2350 3200 60  0001 C CNN
	1    2350 3200
	1    0    0    -1  
$EndComp
$Comp
L PCF8574 U4
U 1 1 5C41D736
P 4750 3950
F 0 "U4" H 4400 4550 50  0000 L CNN
F 1 "PCF8574" H 4850 4550 50  0000 L CNN
F 2 "" H 4750 3950 50  0001 C CNN
F 3 "" H 4750 3950 50  0001 C CNN
	1    4750 3950
	1    0    0    -1  
$EndComp
$Comp
L +5V #PWR1
U 1 1 5C41D77B
P 3500 3050
F 0 "#PWR1" H 3500 2900 50  0001 C CNN
F 1 "+5V" H 3500 3190 50  0000 C CNN
F 2 "" H 3500 3050 50  0001 C CNN
F 3 "" H 3500 3050 50  0001 C CNN
	1    3500 3050
	1    0    0    -1  
$EndComp
Wire Wire Line
	3500 3150 3500 3050
Wire Wire Line
	2950 3150 3500 3150
$Comp
L +5V #PWR5
U 1 1 5C41D79F
P 4100 3850
F 0 "#PWR5" H 4100 3700 50  0001 C CNN
F 1 "+5V" H 4100 3990 50  0000 C CNN
F 2 "" H 4100 3850 50  0001 C CNN
F 3 "" H 4100 3850 50  0001 C CNN
	1    4100 3850
	0    -1   -1   0   
$EndComp
Wire Wire Line
	4100 3850 4250 3850
Wire Wire Line
	4250 3950 4100 3950
Wire Wire Line
	4100 3950 4100 4750
Wire Wire Line
	4100 4350 4250 4350
Wire Wire Line
	4250 4050 4100 4050
Connection ~ 4100 4050
Wire Wire Line
	4100 4750 4750 4750
Wire Wire Line
	4750 4650 4750 5050
Connection ~ 4100 4350
Connection ~ 4750 4750
$Comp
L GND #PWR7
U 1 1 5C41D7FB
P 4750 5050
F 0 "#PWR7" H 4750 4800 50  0001 C CNN
F 1 "GND" H 4750 4900 50  0000 C CNN
F 2 "" H 4750 5050 50  0001 C CNN
F 3 "" H 4750 5050 50  0001 C CNN
	1    4750 5050
	1    0    0    -1  
$EndComp
$Comp
L GND #PWR2
U 1 1 5C41D813
P 3700 3750
F 0 "#PWR2" H 3700 3500 50  0001 C CNN
F 1 "GND" H 3700 3600 50  0000 C CNN
F 2 "" H 3700 3750 50  0001 C CNN
F 3 "" H 3700 3750 50  0001 C CNN
	1    3700 3750
	1    0    0    -1  
$EndComp
$Comp
L +5V #PWR6
U 1 1 5C41D847
P 4750 3050
F 0 "#PWR6" H 4750 2900 50  0001 C CNN
F 1 "+5V" H 4750 3190 50  0000 C CNN
F 2 "" H 4750 3050 50  0001 C CNN
F 3 "" H 4750 3050 50  0001 C CNN
	1    4750 3050
	1    0    0    -1  
$EndComp
Wire Wire Line
	4750 3050 4750 3250
$Comp
L R R1
U 1 1 5C41D86C
P 3700 3200
F 0 "R1" V 3780 3200 50  0000 C CNN
F 1 "R" V 3700 3200 50  0000 C CNN
F 2 "" V 3630 3200 50  0001 C CNN
F 3 "" H 3700 3200 50  0001 C CNN
	1    3700 3200
	1    0    0    -1  
$EndComp
$Comp
L R R2
U 1 1 5C41D88A
P 3900 3200
F 0 "R2" V 3980 3200 50  0000 C CNN
F 1 "R" V 3900 3200 50  0000 C CNN
F 2 "" V 3830 3200 50  0001 C CNN
F 3 "" H 3900 3200 50  0001 C CNN
	1    3900 3200
	1    0    0    -1  
$EndComp
Wire Wire Line
	3900 3350 3900 3550
Wire Wire Line
	2950 3550 4250 3550
Wire Wire Line
	3700 3650 3700 3350
Wire Wire Line
	3700 3050 3700 2950
Wire Wire Line
	3700 2950 3900 2950
Wire Wire Line
	3900 2950 3900 3050
$Comp
L +5V #PWR4
U 1 1 5C41D8FA
P 3800 2850
F 0 "#PWR4" H 3800 2700 50  0001 C CNN
F 1 "+5V" H 3800 2990 50  0000 C CNN
F 2 "" H 3800 2850 50  0001 C CNN
F 3 "" H 3800 2850 50  0001 C CNN
	1    3800 2850
	1    0    0    -1  
$EndComp
Wire Wire Line
	3800 2850 3800 2950
Connection ~ 3800 2950
Connection ~ 3900 3550
Wire Wire Line
	2950 3650 4250 3650
Connection ~ 3700 3650
$Comp
L CD74HC4067M U5
U 1 1 5C41DCCA
P 6300 3650
F 0 "U5" H 5950 4550 50  0000 L CNN
F 1 "CD74HC4067M" H 6350 4550 50  0000 L CNN
F 2 "Package_SO:SOIC-24W_7.5x15.4mm_P1.27mm" H 7200 2650 50  0001 C CIN
F 3 "" H 5950 4500 50  0001 C CNN
	1    6300 3650
	1    0    0    -1  
$EndComp
Wire Wire Line
	5250 3550 5800 3550
Wire Wire Line
	5250 3650 5800 3650
Wire Wire Line
	5250 3750 5800 3750
Wire Wire Line
	5250 3850 5800 3850
Wire Wire Line
	5250 3950 5300 3950
Wire Wire Line
	5300 3950 5300 4750
Wire Wire Line
	5300 4750 5350 4750
$Comp
L BC847 Q1
U 1 1 5C41DE2A
P 5550 4750
F 0 "Q1" H 5750 4825 50  0000 L CNN
F 1 "BC847" H 5750 4750 50  0000 L CNN
F 2 "TO_SOT_Packages_SMD:SOT-23" H 5750 4675 50  0001 L CIN
F 3 "" H 5550 4750 50  0001 L CNN
	1    5550 4750
	1    0    0    -1  
$EndComp
$Comp
L R R4
U 1 1 5C41DE93
P 5500 4250
F 0 "R4" V 5580 4250 50  0000 C CNN
F 1 "R" V 5500 4250 50  0000 C CNN
F 2 "" V 5430 4250 50  0001 C CNN
F 3 "" H 5500 4250 50  0001 C CNN
	1    5500 4250
	1    0    0    -1  
$EndComp
Wire Wire Line
	5500 4400 5500 4500
Wire Wire Line
	5500 4500 5800 4500
Wire Wire Line
	5650 4500 5650 4550
Wire Wire Line
	5800 4500 5800 4250
Connection ~ 5650 4500
$Comp
L +5V #PWR10
U 1 1 5C41DF83
P 5500 4050
F 0 "#PWR10" H 5500 3900 50  0001 C CNN
F 1 "+5V" H 5500 4190 50  0000 C CNN
F 2 "" H 5500 4050 50  0001 C CNN
F 3 "" H 5500 4050 50  0001 C CNN
	1    5500 4050
	1    0    0    -1  
$EndComp
Wire Wire Line
	5500 4050 5500 4100
$Comp
L GND #PWR11
U 1 1 5C41DFD4
P 5650 5050
F 0 "#PWR11" H 5650 4800 50  0001 C CNN
F 1 "GND" H 5650 4900 50  0000 C CNN
F 2 "" H 5650 5050 50  0001 C CNN
F 3 "" H 5650 5050 50  0001 C CNN
	1    5650 5050
	1    0    0    -1  
$EndComp
Wire Wire Line
	5650 5050 5650 4950
Wire Wire Line
	5600 3150 5800 3150
Wire Wire Line
	5600 1850 5600 3150
Wire Wire Line
	2950 3850 3400 3850
Wire Wire Line
	3400 3850 3400 3750
Connection ~ 3400 3750
Wire Wire Line
	2950 3750 3700 3750
$Comp
L MCP6001-OT U2
U 1 1 5C41E290
P 4900 1950
F 0 "U2" H 4850 2200 50  0000 L CNN
F 1 "MCP6001-OT" H 4850 2100 50  0000 L CNN
F 2 "TO_SOT_Packages_SMD:SOT-23-5" H 4800 1750 50  0001 L CNN
F 3 "" H 4900 2150 50  0001 C CNN
	1    4900 1950
	-1   0    0    -1  
$EndComp
Wire Wire Line
	5600 1850 5200 1850
Wire Wire Line
	5200 2050 5300 2050
Wire Wire Line
	5300 2050 5300 2500
Wire Wire Line
	5300 2500 4500 2500
Wire Wire Line
	4500 2500 4500 1950
Wire Wire Line
	4400 1950 4600 1950
$Comp
L GND #PWR9
U 1 1 5C41E396
P 5000 2250
F 0 "#PWR9" H 5000 2000 50  0001 C CNN
F 1 "GND" H 5000 2100 50  0000 C CNN
F 2 "" H 5000 2250 50  0001 C CNN
F 3 "" H 5000 2250 50  0001 C CNN
	1    5000 2250
	1    0    0    -1  
$EndComp
$Comp
L +5V #PWR8
U 1 1 5C41E3B9
P 5000 1650
F 0 "#PWR8" H 5000 1500 50  0001 C CNN
F 1 "+5V" H 5000 1790 50  0000 C CNN
F 2 "" H 5000 1650 50  0001 C CNN
F 3 "" H 5000 1650 50  0001 C CNN
	1    5000 1650
	1    0    0    -1  
$EndComp
Connection ~ 4500 1950
$Comp
L R R3
U 1 1 5C41E423
P 4250 1950
F 0 "R3" V 4330 1950 50  0000 C CNN
F 1 "100" V 4250 1950 50  0000 C CNN
F 2 "" V 4180 1950 50  0001 C CNN
F 3 "" H 4250 1950 50  0001 C CNN
	1    4250 1950
	0    1    1    0   
$EndComp
$Comp
L C C1
U 1 1 5C41E490
P 3800 2150
F 0 "C1" H 3825 2250 50  0000 L CNN
F 1 "C" H 3825 2050 50  0000 L CNN
F 2 "" H 3838 2000 50  0001 C CNN
F 3 "" H 3800 2150 50  0001 C CNN
	1    3800 2150
	1    0    0    -1  
$EndComp
Wire Wire Line
	3650 1950 4100 1950
Wire Wire Line
	3800 2000 3800 1950
$Comp
L GND #PWR3
U 1 1 5C41E61C
P 3800 2300
F 0 "#PWR3" H 3800 2050 50  0001 C CNN
F 1 "GND" H 3800 2150 50  0000 C CNN
F 2 "" H 3800 2300 50  0001 C CNN
F 3 "" H 3800 2300 50  0001 C CNN
	1    3800 2300
	1    0    0    -1  
$EndComp
Text GLabel 3100 4150 2    60   Input ~ 0
GPIO1
Wire Wire Line
	3100 4150 2950 4150
Text GLabel 3650 1950 0    60   Input ~ 0
GPIO1
Connection ~ 3800 1950
Text GLabel 7000 2950 2    60   Input ~ 0
Balancing_Feedback_1
Wire Wire Line
	7000 2950 6800 2950
Text GLabel 7000 3050 2    60   Input ~ 0
Balancing_Feedback_2
Text GLabel 7000 3150 2    60   Input ~ 0
Balancing_Feedback_3
Text GLabel 7000 3250 2    60   Input ~ 0
Balancing_Feedback_4
Text GLabel 7000 3350 2    60   Input ~ 0
Balancing_Feedback_5
Text GLabel 7000 3450 2    60   Input ~ 0
Balancing_Feedback_6
Text GLabel 7000 3550 2    60   Input ~ 0
Balancing_Feedback_7
Text GLabel 7000 3650 2    60   Input ~ 0
Balancing_Feedback_8
Wire Wire Line
	7000 3050 6800 3050
Wire Wire Line
	6800 3150 7000 3150
Wire Wire Line
	7000 3250 6800 3250
Wire Wire Line
	6800 3350 7000 3350
Wire Wire Line
	7000 3450 6800 3450
Wire Wire Line
	6800 3550 7000 3550
Wire Wire Line
	7000 3650 6800 3650
NoConn ~ 6800 3750
NoConn ~ 6800 3850
NoConn ~ 6800 3950
NoConn ~ 6800 4050
NoConn ~ 6800 4150
NoConn ~ 6800 4250
NoConn ~ 6800 4350
NoConn ~ 6800 4450
$EndSCHEMATC
