<?xml version="1.0" encoding="iso-8859-1"?>
<!-- Generator: Adobe Illustrator 19.0.0, SVG Export Plug-In . SVG Version: 6.00 Build 0)  -->
<svg xmlns="http://www.w3.org/2000/svg" xmlns:xlink="http://www.w3.org/1999/xlink" version="1.1" id="Layer_1" x="0px" y="0px" viewBox="0 0 512 512" style="enable-background:new 0 0 512 512;" xml:space="preserve" width="512" height="512">
<g>
	<circle style="fill:#575F64;" cx="256" cy="256" r="256"/>
	<path style="fill:#32393F;" d="M264.23,511.854c134.423-4.247,242.687-112.115,247.578-246.375L381.601,135.274L271.333,90.667   l-108,26.667L104,190.667L92.667,274l41.958,108.25L264.23,511.854z"/>
	<g>
		<g>
			<path style="fill:#E0F4FF;" d="M378.904,379.563c-33.908,33.908-78.504,51.445-122.893,51.65     c-44.801,0.206-89.807-17.331-124.126-51.65c-56.189-56.189-67.42-144.181-26.921-212.495l17.673,10.481     c-35.566,60.094-25.773,138.016,23.838,187.423c30.21,30.415,69.873,45.897,109.536,45.691     c39.047-0.206,78.298-15.686,108.303-45.691c61.858-61.858,61.858-155.98,0-217.838c-29.387-29.593-68.64-45.691-108.303-45.897     c-27.127-0.206-54.46,7.672-79.12,22.263l-10.481-17.673c27.949-16.646,58.775-25.346,89.601-25.14     c45.006,0.206,89.395,18.358,122.893,51.856C448.777,202.415,448.777,309.69,378.904,379.563z"/>
		</g>
		<g>
			<g>
				<path style="fill:#FF9100;" d="M256.011,163.574c-50.965,0-92.478,41.512-92.478,92.478c0,50.966,41.513,92.478,92.478,92.478      s92.478-41.513,92.478-92.478C348.49,205.086,306.977,163.574,256.011,163.574z"/>
			</g>
		</g>
		<path style="fill:#BBDCFF;" d="M378.904,379.563c-33.908,33.908-78.504,51.445-122.893,51.65v-20.551    c39.047-0.206,78.298-15.686,108.303-45.691c61.858-61.858,61.858-155.98,0-217.838c-29.387-29.593-68.64-45.691-108.303-45.897    V80.686c45.006,0.206,89.395,18.358,122.893,51.856C448.777,202.415,448.777,309.69,378.904,379.563z"/>
		<path style="fill:#FF641A;" d="M348.49,256.053c0,50.966-41.513,92.478-92.478,92.478V163.574    C306.977,163.574,348.49,205.086,348.49,256.053z"/>
		<g>
			<g>
				<g>
					<g>
						<path style="fill:#9CDD05;" d="M102.804,176.138c-20.08-20.059-20.08-52.591,0-72.65c19.387-19.407,53.243-19.407,72.65,0l0,0        l0,0l0,0c20.121,20.121,20.049,52.622,0,72.65C155.395,196.218,122.863,196.218,102.804,176.138z"/>
					</g>
				</g>
			</g>
		</g>
		<g>
			<g>
				<rect x="117.636" y="128.569" style="fill:#575F64;" width="41.102" height="20.551"/>
			</g>
		</g>
		<polygon style="fill:#575F64;" points="307.388,245.777 307.388,266.191 266.286,266.191 266.286,307.43 245.736,307.43     245.736,266.191 204.634,266.191 204.634,245.777 245.736,245.777 245.736,204.676 266.286,204.676 266.286,245.777   "/>
		<polygon style="fill:#32393F;" points="266.286,307.43 256.011,307.43 256.011,204.676 266.286,204.676 266.286,245.777     307.388,245.777 307.388,266.191 266.286,266.191   "/>
	</g>
</g>















</svg>
