<?xml version="1.0" encoding="iso-8859-1"?>
<!-- Generator: Adobe Illustrator 19.0.0, SVG Export Plug-In . SVG Version: 6.00 Build 0)  -->
<svg xmlns="http://www.w3.org/2000/svg" xmlns:xlink="http://www.w3.org/1999/xlink" version="1.1" id="Layer_1" x="0px" y="0px" viewBox="0 0 512 512" style="enable-background:new 0 0 512 512;" xml:space="preserve" width="512" height="512">
<g>
	<circle style="fill:#C6715A;" cx="256" cy="256" r="256"/>
	<path style="fill:#99503D;" d="M353.667,132.333l-50.563-50.63L240.333,76L166,137.667l-76.667,26.667l16,95l-9.089,105.724   l146.611,146.611c4.354,0.22,8.736,0.332,13.144,0.332c141.385,0,256-114.615,256-256c0-4.376-0.111-8.726-0.328-13.048   l-95.776-95.776L353.667,132.333z"/>
	<g>
		<path style="fill:#575F64;" d="M256,198.834c-31.611,0-57.266,25.655-57.266,57.266s25.655,57.266,57.266,57.266    s57.266-25.655,57.266-57.266S287.611,198.834,256,198.834z"/>
		<path style="fill:#9CDD05;" d="M256,60.632c-57.725,0-103.079,86.204-103.079,195.469c0,109.263,45.354,195.469,103.079,195.469    s103.079-86.206,103.079-195.469C359.079,146.836,313.725,60.632,256,60.632z M256,428.663    c-43.523,0-80.173-79.333-80.173-172.562S212.477,83.538,256,83.538s80.173,79.333,80.173,172.562S299.523,428.663,256,428.663z"/>
		<path style="fill:#32393F;" d="M256,313.367V198.834c31.611,0,57.266,25.655,57.266,57.266S287.611,313.367,256,313.367z"/>
		<path style="fill:#66BB00;" d="M359.079,256.101c0,109.263-45.354,195.469-103.079,195.469v-22.906    c43.523,0,80.173-79.333,80.173-172.562S299.523,83.538,256,83.538V60.632C313.725,60.632,359.079,146.836,359.079,256.101z"/>
		<path style="fill:#FF9100;" d="M424.591,158.748c-14.431-25.198-46.27-37.567-89.564-35.048    c-24.739,1.604-51.769,8.018-79.028,18.554c-17.18,6.414-34.589,14.66-51.54,24.51C109.856,221.512,58.546,303.288,87.409,353.453    c13.285,22.906,40.773,35.275,78.34,35.275c3.664,0,7.33,0,11.224-0.229c24.739-1.604,51.769-8.017,79.028-18.554    c17.18-6.413,34.589-14.66,51.54-24.51C402.144,290.69,453.454,208.913,424.591,158.748z M296.086,325.507    c-13.286,7.56-26.8,14.431-40.086,19.701c-27.945,11.91-55.433,18.782-80.402,20.386c-33.672,2.062-58.641-6.642-68.49-23.593    c-3.437-5.956-5.039-12.828-5.039-20.158c0-39.4,46.041-95.978,113.845-135.149c13.286-7.558,26.8-14.431,40.086-19.699    c27.945-11.912,55.433-18.783,80.402-20.387c3.435-0.229,6.413-0.229,9.62-0.229c28.633,0,49.936,8.475,58.87,23.824    C426.424,207.768,376.718,279.007,296.086,325.507z"/>
		<path style="fill:#FF641A;" d="M307.54,345.435c-16.951,9.85-34.36,18.097-51.54,24.51v-24.738    c13.286-5.269,26.8-12.141,40.086-19.701c80.631-46.499,130.338-117.738,108.806-155.305    c-8.934-15.348-30.237-23.824-58.87-23.824c-3.207,0-6.185,0-9.62,0.229c-24.969,1.604-52.457,8.475-80.402,20.387v-24.739    c27.259-10.536,54.288-16.951,79.028-18.554c43.294-2.519,75.133,9.85,89.564,35.048    C453.454,208.913,402.144,290.69,307.54,345.435z"/>
		<path style="fill:#FFDA2D;" d="M307.54,166.765c-16.951-9.85-34.36-18.096-51.54-24.51    c-27.259-10.536-54.288-16.951-79.028-18.554c-43.294-2.519-75.133,9.85-89.564,35.048    C58.546,208.913,109.856,290.69,204.46,345.435c16.951,9.85,34.36,18.097,51.54,24.51c27.259,10.537,54.288,16.951,79.028,18.554    c3.894,0.229,7.56,0.229,11.224,0.229c37.567,0,65.055-12.369,78.34-35.275C453.454,303.288,402.144,221.512,307.54,166.765z     M404.892,342c-9.85,16.951-35.048,25.426-68.49,23.593c-24.969-1.604-52.457-8.475-80.402-20.386    c-13.286-5.269-26.8-12.141-40.086-19.701c-80.631-46.499-130.338-117.738-108.806-155.305    c8.934-15.348,30.237-23.824,58.87-23.824c3.207,0,6.185,0,9.62,0.229c24.969,1.604,52.457,8.475,80.402,20.387    c13.286,5.268,26.8,12.141,40.086,19.699C376.718,233.194,426.424,304.433,404.892,342z"/>
		<path style="fill:#FDBF00;" d="M424.591,353.453c-13.285,22.906-40.773,35.275-78.34,35.275c-3.664,0-7.33,0-11.224-0.229    c-24.739-1.604-51.769-8.017-79.028-18.554v-24.738c27.945,11.91,55.433,18.782,80.402,20.386    c33.443,1.833,58.641-6.642,68.49-23.593c21.532-37.567-28.175-108.806-108.806-155.307c-13.286-7.558-26.8-14.431-40.086-19.699    v-24.739c17.18,6.414,34.589,14.66,51.54,24.51C402.144,221.512,453.454,303.288,424.591,353.453z"/>
	</g>
</g>















</svg>
