<?xml version="1.0" encoding="iso-8859-1"?>
<!-- Generator: Adobe Illustrator 19.0.0, SVG Export Plug-In . SVG Version: 6.00 Build 0)  -->
<svg xmlns="http://www.w3.org/2000/svg" xmlns:xlink="http://www.w3.org/1999/xlink" version="1.1" id="Layer_1" x="0px" y="0px" viewBox="0 0 512 512" style="enable-background:new 0 0 512 512;" xml:space="preserve" width="512" height="512">
<g>
	<circle style="fill:#C6715A;" cx="256" cy="256" r="256"/>
	<path style="fill:#99503D;" d="M510.486,283.853L396.662,170.028l-30.654,30.654l-68.278-68.278L157.763,272.372l30.302,30.302   l-91.323,91.323l114.017,114.017C225.444,510.633,240.562,512,256,512C387.972,512,496.604,412.134,510.486,283.853z"/>
	<g>
		<polygon style="fill:#FF9100;" points="396.622,170 396.622,222.266 349.956,217.787 340.622,216.854 340.622,170   "/>
		<path style="fill:#9ABADB;" d="M415.289,235.333V394h-37.333l-28-29.307l-2.8-2.987L321.956,394h-19.911l-18.667-8.961V215.36    l6.72-2.053c12.88-3.92,31.671-5.973,50.525-5.973c1.307,0,4.667,0,9.333,0.187C370.488,208.453,415.289,213.12,415.289,235.333z"/>
		<path style="fill:#32393F;" d="M321.956,244.667v56h56v-56H321.956z"/>
		<rect x="340.622" y="263.333" style="fill:#FDBF00;" width="18.667" height="18.667"/>
		<polygon style="fill:#32393F;" points="377.956,319.333 377.956,394 359.289,394 349.956,384.667 340.622,394 321.956,394     321.956,319.333   "/>
		<path style="fill:#E0F4FF;" d="M302.044,142v28l-8.213,8.96v196.374L283.378,394h-112l-18.667-28v-65.333h-43.494L96.711,282V142    c0-25.947,78.587-28,102.667-28S302.044,116.053,302.044,142z"/>
		<path style="fill:#BBDCFF;" d="M302.044,142v28l-8.213,8.96v196.374L283.378,394h-84V114C223.457,114,302.044,116.053,302.044,142    z"/>
		<g>
			<rect x="236.711" y="338" style="fill:#32393F;" width="56" height="18.667"/>
		</g>
		<g>
			<rect x="236.711" y="300.667" style="fill:#32393F;" width="56" height="18.667"/>
		</g>
		<g>
			<rect x="236.711" y="263.333" style="fill:#32393F;" width="56" height="18.667"/>
		</g>
		<g>
			<rect x="236.711" y="226" style="fill:#32393F;" width="56" height="18.667"/>
		</g>
		<g>
			<rect x="236.711" y="188.667" style="fill:#32393F;" width="56" height="18.667"/>
		</g>
		<g>
			<path style="fill:#575F64;" d="M171.378,394H96.711V282h74.667V394z"/>
		</g>
		<g>
			<g>
				<rect x="134.044" y="244.667" style="fill:#9ABADB;" width="18.667" height="18.667"/>
			</g>
		</g>
		<g>
			<g>
				<rect x="134.044" y="207.333" style="fill:#9ABADB;" width="18.667" height="18.667"/>
			</g>
		</g>
		<g>
			<rect x="227.378" y="170" style="fill:#575F64;" width="18.667" height="224"/>
		</g>
		<g>
			<rect x="283.378" y="170" style="fill:#575F64;" width="18.667" height="224"/>
		</g>
		<rect x="115.378" y="300.667" style="fill:#FFDA2D;" width="37.333" height="93.333"/>
		<rect x="340.622" y="338" style="fill:#FDBF00;" width="18.667" height="56"/>
	</g>
</g>















</svg>
