<?xml version="1.0" encoding="iso-8859-1"?>
<!-- Generator: Adobe Illustrator 19.0.0, SVG Export Plug-In . SVG Version: 6.00 Build 0)  -->
<svg xmlns="http://www.w3.org/2000/svg" xmlns:xlink="http://www.w3.org/1999/xlink" version="1.1" id="Layer_1" x="0px" y="0px" viewBox="0 0 512 512" style="enable-background:new 0 0 512 512;" xml:space="preserve" width="512" height="512">
<g>
	<circle style="fill:#9CDD05;" cx="256" cy="256" r="256"/>
	<path style="fill:#66BB00;" d="M402.091,148.791l-29.458-29.458l-38.744,38.744l-50.238-50.238l-29.112,29.112l-30.724-30.724   l-10.094,10.094L195.68,98.279l-28.461,28.461l0.906,0.906l-0.938,0.938l47.859,47.859l-2.36,2.36l32.422,32.422l-5.992,5.992   l-96.057-96.057l-40.216,40.216l96.057,96.057L94.969,361.365l150.399,150.399C248.895,511.908,252.437,512,256,512   c141.385,0,256-114.615,256-256c0-4.615-0.129-9.199-0.37-13.753L410.133,140.749L402.091,148.791z"/>
	<g>
		<g>
			<g>
				<path style="fill:#FF9100;" d="M321.648,145.809l-16.988-8.494c6.018-12.045,16.941-20.938,29.96-24.396      c13.01-3.487,26.909-1.159,38.12,6.315l-10.534,15.801c-6.667-4.46-14.957-5.842-22.709-3.765      C331.737,133.328,325.237,138.632,321.648,145.809z"/>
			</g>
		</g>
		<g>
			<path style="fill:#C6715A;" d="M123.251,170.048c-15.708,0-28.486-12.778-28.486-28.486s12.778-28.486,28.486-28.486     s28.486,12.778,28.486,28.486S138.959,170.048,123.251,170.048z"/>
		</g>
		<g>
			<g>
				<path style="fill:#FDBF00;" d="M229.293,146.829l-15.235-22.848c-4.024-6.036-10.478-9.912-17.692-10.626      c-7.214-0.751-14.298,1.817-19.435,6.945l-8.985,8.985l-13.427-13.427l8.985-8.985c9.171-9.18,21.791-13.807,34.735-12.416      c12.898,1.28,24.424,8.197,31.62,18.99l15.235,22.848L229.293,146.829z"/>
			</g>
		</g>
		<g>
			<g>
				
					<rect x="256.182" y="101.34" transform="matrix(0.8944 0.4472 -0.4472 0.8944 82.8642 -105.8749)" style="fill:#FF9100;" width="18.993" height="42.464"/>
			</g>
		</g>
		<g>
			<g>
				<path style="fill:#C6715A;" d="M283.15,132.067h-91.913l-12.913,76.721l62.478,42.855l15.382-32.03l4.177-8.356l39.31,19.75      L283.15,132.067z"/>
			</g>
		</g>
		<g>
			<path style="fill:#99503D;" d="M336.132,227.019H291.92l-13.158-6.593l-11.572-69.369h53.744L336.132,227.019z"/>
		</g>
		<g>
			<path style="fill:#99503D;" d="M389.749,189.038c-15.708,0-28.486-12.778-28.486-28.486s12.778-28.486,28.486-28.486     s28.486,12.778,28.486,28.486S405.457,189.038,389.749,189.038z"/>
		</g>
		<polygon style="fill:#B35F49;" points="260.361,211.257 256.184,219.612 256.184,132.067 283.15,132.067 299.671,231.006   "/>
		<path style="fill:#575F64;" d="M378.292,308.424l-39.689-100.395h-42.159l-40.26-20.13l-4.177-2.09l-18.421,36.841l-58.491-38.93    l-41.209,124.894l-36.271,36.272l7.026,6.266h294.984l14.812-7.216L378.292,308.424z"/>
		<polygon style="fill:#32393F;" points="414.437,343.936 399.625,351.152 256.184,351.152 256.184,187.899 296.443,208.029     338.602,208.029 378.292,308.424   "/>
		<g>
			<g>
				<rect x="132.746" y="380.208" style="fill:#E0F4FF;" width="75.962" height="18.99"/>
			</g>
		</g>
		<rect x="227.698" y="399.199" style="fill:#E0F4FF;" width="56.971" height="18.99"/>
		<rect x="303.66" y="380.208" style="fill:#BBDCFF;" width="56.971" height="18.99"/>
		<g>
			<g>
				<rect x="379.621" y="399.199" style="fill:#BBDCFF;" width="18.99" height="18.99"/>
			</g>
		</g>
		<g>
			<g>
				<polygon style="fill:#7C8388;" points="208.327,278.04 190.097,351.152 170.537,351.152 190.097,273.482     "/>
			</g>
		</g>
		<g>
			<polygon style="fill:#575F64;" points="342.211,351.152 321.701,351.152 285.428,260.379 302.9,253.162    "/>
		</g>
		<rect x="246.688" y="304.247" style="fill:#7C8388;" width="18.99" height="46.906"/>
		<g>
			<g>
				<rect x="227.698" y="266.266" style="fill:#7C8388;" width="18.99" height="18.99"/>
			</g>
		</g>
		<rect x="256.184" y="304.247" style="fill:#575F64;" width="9.495" height="46.906"/>
		<rect x="256.184" y="399.199" style="fill:#BBDCFF;" width="28.486" height="18.99"/>
		<g>
			<g>
				<rect x="94.765" y="342.227" style="fill:#E0F4FF;" width="323.47" height="18.99"/>
			</g>
		</g>
		<rect x="256.184" y="342.227" style="fill:#BBDCFF;" width="162.051" height="18.99"/>
	</g>
</g>















</svg>
