<?xml version="1.0" encoding="iso-8859-1"?>
<!-- Generator: Adobe Illustrator 19.0.0, SVG Export Plug-In . SVG Version: 6.00 Build 0)  -->
<svg xmlns="http://www.w3.org/2000/svg" xmlns:xlink="http://www.w3.org/1999/xlink" version="1.1" id="Layer_1" x="0px" y="0px" viewBox="0 0 512 512" style="enable-background:new 0 0 512 512;" xml:space="preserve" width="512" height="512">
<g>
	<circle style="fill:#575F64;" cx="256" cy="256" r="256"/>
	<path style="fill:#32393F;" d="M394.912,139.072l-47.333,47.333l-75.958-75.958l8.047,45.887l-47.492-47.924l-11.883,11.882   L278,218l-76.083,74.917l-32.083-10.583l-28.812,4.917l37.031,37.031l-11.135,11.135l-9.5-9.5l-26.042,26.042l157.892,157.892   c125.615-16.302,222.652-123.654,222.731-253.692L394.912,139.072z"/>
	<g>
		<g>
			<path style="fill:#FDBF00;" d="M425.872,339.494l-36.551-36.295l31.878-53.195l-51.466-10.37l25.157-100.628l-72.59,72.782     l-21.893-43.784l-28.806-57.611v100.628L98.128,106.745l79.184,101.972l-66.061-21.893l77.006,76.815l-47.24,23.62l67.596,22.66     l-46.856,70.479l68.365-22.853l-10.563,53.003l58.763-35.335l22.085,33.222l22.468-33.798l72.591,36.486l-24.197-60.876     L425.872,339.494z"/>
		</g>
		<polygon style="fill:#FF9100;" points="371.269,350.249 395.466,411.124 322.876,374.638 300.408,408.435 300.408,168.005     322.3,211.789 394.89,139.007 369.733,239.635 421.199,250.004 389.321,303.199 425.872,339.494   "/>
		<g>
			<g>
				<g>
					
						<rect x="176.118" y="179.91" transform="matrix(0.4472 0.8944 -0.8944 0.4472 314.3358 -129.5796)" style="fill:#FF9100;" width="171.764" height="19.206"/>
				</g>
			</g>
		</g>
		<g>
			<g>
				<g>
					<polygon style="fill:#FF9100;" points="131.353,351.967 123.795,334.32 258.221,276.708 265.779,294.356      "/>
				</g>
			</g>
		</g>
		<g>
			<g>
				<g>
					<polygon style="fill:#FF641A;" points="329.898,423.521 291.49,327.503 309.325,320.376 347.732,416.395      "/>
				</g>
			</g>
		</g>
		<g>
			<g>
				<g>
					
						<rect x="358.014" y="185.642" transform="matrix(0.6247 0.7809 -0.7809 0.6247 330.9415 -194.3162)" style="fill:#FF641A;" width="19.213" height="122.964"/>
				</g>
			</g>
		</g>
		<g>
			<g>
				
					<rect x="281.205" y="285.533" transform="matrix(0.7071 0.7071 -0.7071 0.7071 293.8661 -119.1879)" style="fill:#575F64;" width="19.202" height="19.202"/>
			</g>
		</g>
		<g>
			<g>
				
					<rect x="319.612" y="304.737" transform="matrix(0.7071 0.7071 -0.7071 0.7071 318.6945 -140.7215)" style="fill:#32393F;" width="19.202" height="19.202"/>
			</g>
		</g>
	</g>
</g>















</svg>
