<?xml version="1.0" encoding="iso-8859-1"?>
<!-- Generator: Adobe Illustrator 19.0.0, SVG Export Plug-In . SVG Version: 6.00 Build 0)  -->
<svg xmlns="http://www.w3.org/2000/svg" xmlns:xlink="http://www.w3.org/1999/xlink" version="1.1" id="Layer_1" x="0px" y="0px" viewBox="0 0 512 512" style="enable-background:new 0 0 512 512;" xml:space="preserve" width="512" height="512">
<g>
	<circle style="fill:#9CDD05;" cx="256" cy="256" r="256"/>
	<path style="fill:#66BB00;" d="M279.484,510.917C409.859,499.057,512,389.466,512,256c0-8.813-0.446-17.522-1.316-26.107   l-115.87-115.87l-63.5,63.5l-49.083-49.083l-29.044,29.044l-43.473-43.474l-64.697,64.697l25.651,123.959l-13.651,85.782   L279.484,510.917z"/>
	<g>
		<polygon style="fill:#E0F4FF;" points="186.653,206.578 209.711,188.063 209.711,114 117.133,114 117.133,188.063     135.998,206.578   "/>
		<g>
			<g>
				<path style="fill:#FF641A;" d="M302.289,188.063v103.07c0,25.552-20.737,46.289-46.289,46.289      c-12.405,0-23.885-4.814-32.773-13.517c-8.702-8.887-13.516-20.367-13.516-32.772v-103.07h-92.578v103.07      C117.133,367.788,179.345,430,256,430c37.031,0,72.026-14.443,98.133-40.735c26.292-26.107,40.735-61.101,40.735-98.133v-103.07      H302.289z"/>
			</g>
		</g>
		<g>
			<g>
				<polygon style="fill:#FFDA2D;" points="291.735,169.547 256,223.427 245.261,239.535 229.708,229.167 256,189.914       257.296,188.063 220.265,188.063 256,134.181 266.739,118.073 282.292,128.442 256,167.695 254.704,169.547     "/>
			</g>
		</g>
		<polygon style="fill:#BBDCFF;" points="375.702,206.578 394.867,188.063 394.867,114 302.289,114 302.289,188.063     322.104,206.578   "/>
		<polygon style="fill:#FDBF00;" points="282.292,128.442 256,167.695 256,134.181 266.739,118.073   "/>
		<polygon style="fill:#FDBF00;" points="291.735,169.547 256,223.427 256,169.547   "/>
		<path style="fill:#F03800;" d="M394.867,188.063v103.07c0,37.031-14.443,72.026-40.735,98.133    C328.026,415.557,293.031,430,256,430v-92.578c25.552,0,46.289-20.737,46.289-46.289v-103.07H394.867z"/>
	</g>
</g>















</svg>
