\relax 
\AC@undonewlabel{acro:cccv}
\newlabel{acro:cccv}{{3.1}{16}}
\acronymused{cccv}
\acronymused{cccv}
\acronymused{cccv}
\acronymused{cccv}
\acronymused{lfp}
\acronymused{bms}
\acronymused{cccv}
\acronymused{bms}
\acronymused{bms}
\acronymused{bms}
\acronymused{cccv}
\acronymused{bms}
\acronymused{cccv}
\@writefile{lof}{\contentsline {figure}{\numberline {3.1}{\ignorespaces (Links)\ac {cccv} Charakteristiken und (Rechts) Strom und Spannung bei der Ladevorgang}}{16}\protected@file@percent }
\acronymused{cccv}
\newlabel{img:cccv}{{3.1}{16}}
\@setckpt{Chapter/TG_includes/cccv}{
\setcounter{page}{17}
\setcounter{equation}{0}
\setcounter{enumi}{9}
\setcounter{enumii}{0}
\setcounter{enumiii}{0}
\setcounter{enumiv}{0}
\setcounter{footnote}{0}
\setcounter{mpfootnote}{0}
\setcounter{part}{0}
\setcounter{chapter}{3}
\setcounter{section}{1}
\setcounter{subsection}{0}
\setcounter{subsubsection}{0}
\setcounter{paragraph}{0}
\setcounter{subparagraph}{0}
\setcounter{figure}{1}
\setcounter{table}{0}
}
