\relax 
\providecommand*\new@tpo@label[2]{}
\catcode `"\active 
\babel@aux{german}{}
\babel@aux{german}{}
\@writefile{toc}{\contentsline {section}{\numberline {1}13 August 2018}{2}}
\@writefile{toc}{\contentsline {subsection}{\numberline {1.1}Leistungshardware Vorbereitung}{2}}
\@writefile{toc}{\contentsline {section}{\numberline {2}14 August 2018}{2}}
\@writefile{toc}{\contentsline {subsection}{\numberline {2.1}Teststandaufbau}{2}}
\@writefile{toc}{\contentsline {section}{\numberline {3}15 August 2018}{3}}
\@writefile{toc}{\contentsline {subsection}{\numberline {3.1}Leistungsleiterplatten Reparatur und Test}{3}}
\@writefile{toc}{\contentsline {subsection}{\numberline {3.2}Daten ausl\IeC {\"a}sen und Plausibilit\IeC {\"a}t Pr\IeC {\"u}fung}{3}}
\@writefile{toc}{\contentsline {section}{\numberline {4}20 August 2018}{3}}
\@writefile{toc}{\contentsline {subsection}{\numberline {4.1}Balancing testen und PCB Best\IeC {\"u}cken}{3}}
\@writefile{toc}{\contentsline {section}{\numberline {5}21 August 2018}{4}}
\@writefile{toc}{\contentsline {subsection}{\numberline {5.1}MUX feedback Probleme}{4}}
\@writefile{toc}{\contentsline {section}{\numberline {6}23 August 2018}{4}}
\@writefile{toc}{\contentsline {subsection}{\numberline {6.1}Zusammenbau von W\IeC {\"a}rmebildkamera}{4}}
\@writefile{toc}{\contentsline {section}{\numberline {7}23 August 2018}{4}}
\@writefile{toc}{\contentsline {subsection}{\numberline {7.1}Balancing Temperatur messen}{4}}
\@writefile{toc}{\contentsline {subsection}{\numberline {7.2}Vorbereitung 3D model f\IeC {\"u}r Packs connector}{4}}
\@writefile{toc}{\contentsline {section}{\numberline {8}29 August 2018}{4}}
\newlabel{sec:29-augusta-2018}{{8}{4}}
\@writefile{toc}{\contentsline {subsection}{\numberline {8.1}Schaltplan f\IeC {\"u}r connector}{4}}
\global\@namedef{scr@dte@section@lastmaxnumwidth}{10.84041pt}
\global\@namedef{scr@dte@subsection@lastmaxnumwidth}{18.37155pt}
