\babel@toc {german}{}
\babel@toc {german}{}
\contentsline {section}{\numberline {1}13 August 2018}{2}
\contentsline {subsection}{\numberline {1.1}Leistungshardware Vorbereitung}{2}
\contentsline {section}{\numberline {2}14 August 2018}{2}
\contentsline {subsection}{\numberline {2.1}Teststandaufbau}{2}
\contentsline {section}{\numberline {3}15 August 2018}{3}
\contentsline {subsection}{\numberline {3.1}Leistungsleiterplatten Reparatur und Test}{3}
\contentsline {subsection}{\numberline {3.2}Daten ausl\IeC {\"a}sen und Plausibilit\IeC {\"a}t Pr\IeC {\"u}fung}{3}
\contentsline {section}{\numberline {4}20 August 2018}{3}
\contentsline {subsection}{\numberline {4.1}Balancing testen und PCB Best\IeC {\"u}cken}{3}
\contentsline {section}{\numberline {5}21 August 2018}{4}
\contentsline {subsection}{\numberline {5.1}MUX feedback Probleme}{4}
\contentsline {section}{\numberline {6}23 August 2018}{4}
\contentsline {subsection}{\numberline {6.1}Zusammenbau von W\IeC {\"a}rmebildkamera}{4}
\contentsline {section}{\numberline {7}23 August 2018}{4}
\contentsline {subsection}{\numberline {7.1}Balancing Temperatur messen}{4}
\contentsline {subsection}{\numberline {7.2}Vorbereitung 3D model f\IeC {\"u}r Packs connector}{4}
\contentsline {section}{\numberline {8}29 August 2018}{4}
\contentsline {subsection}{\numberline {8.1}Schaltplan f\IeC {\"u}r connector}{4}
