%!PS-Adobe-3.0 EPSF-3.0
%%Creator: cairo 1.14.2 (http://cairographics.org)
%%CreationDate: Wed Aug 22 08:28:11 2018
%%Pages: 1
%%DocumentData: Clean7Bit
%%LanguageLevel: 2
%%BoundingBox: 0 6 129 123
%%EndComments
%%BeginProlog
save
50 dict begin
/q { gsave } bind def
/Q { grestore } bind def
/cm { 6 array astore concat } bind def
/w { setlinewidth } bind def
/J { setlinecap } bind def
/j { setlinejoin } bind def
/M { setmiterlimit } bind def
/d { setdash } bind def
/m { moveto } bind def
/l { lineto } bind def
/c { curveto } bind def
/h { closepath } bind def
/re { exch dup neg 3 1 roll 5 3 roll moveto 0 rlineto
      0 exch rlineto 0 rlineto closepath } bind def
/S { stroke } bind def
/f { fill } bind def
/f* { eofill } bind def
/n { newpath } bind def
/W { clip } bind def
/W* { eoclip } bind def
/BT { } bind def
/ET { } bind def
/pdfmark where { pop globaldict /?pdfmark /exec load put }
    { globaldict begin /?pdfmark /pop load def /pdfmark
    /cleartomark load def end } ifelse
/BDC { mark 3 1 roll /BDC pdfmark } bind def
/EMC { mark /EMC pdfmark } bind def
/cairo_store_point { /cairo_point_y exch def /cairo_point_x exch def } def
/Tj { show currentpoint cairo_store_point } bind def
/TJ {
  {
    dup
    type /stringtype eq
    { show } { -0.001 mul 0 cairo_font_matrix dtransform rmoveto } ifelse
  } forall
  currentpoint cairo_store_point
} bind def
/cairo_selectfont { cairo_font_matrix aload pop pop pop 0 0 6 array astore
    cairo_font exch selectfont cairo_point_x cairo_point_y moveto } bind def
/Tf { pop /cairo_font exch def /cairo_font_matrix where
      { pop cairo_selectfont } if } bind def
/Td { matrix translate cairo_font_matrix matrix concatmatrix dup
      /cairo_font_matrix exch def dup 4 get exch 5 get cairo_store_point
      /cairo_font where { pop cairo_selectfont } if } bind def
/Tm { 2 copy 8 2 roll 6 array astore /cairo_font_matrix exch def
      cairo_store_point /cairo_font where { pop cairo_selectfont } if } bind def
/g { setgray } bind def
/rg { setrgbcolor } bind def
/d1 { setcachedevice } bind def
%%EndProlog
%%BeginSetup
%%EndSetup
%%Page: 1 1
%%BeginPageSetup
%%PageBoundingBox: 0 6 129 123
%%EndPageSetup
q 0 6 129 117 rectclip q
0 g
79.367 78.645 11.957 -5.445 re f
117.035 78.645 11.965 -5.445 re f
108.438 108.082 m 108.438 116.914 104.176 122.523 96.082 122.523 c 46.875
 122.523 l 35.98 122.523 31.77 115.914 31.77 109.426 c 31.77 101.602 l 25.094
 101.602 l 25.094 90.703 l 46.875 90.703 l 46.875 101.602 l 40.246 101.602
 l 40.246 108.422 l 40.492 109.66 40.246 113.996 46.875 113.996 c 95.066
 113.996 l 100.496 113.996 99.922 110.672 99.922 108.082 c 99.922 69.488
 l 79.328 69.488 l 79.328 6.348 l 129 6.348 l 129 69.488 l 108.438 69.488
 l h
112.07 54.477 m 103.336 42.379 l 114.828 42.379 l 97.371 20.617 l 102.73
 37.547 l 93.539 37.547 l 100.582 54.477 l h
112.07 54.477 m f
6.621 87.016 m 0 87.016 l 0 80.375 l 6.621 80.375 l 6.621 14.996 l 0 14.996
 l 0 8.363 l 71.977 8.363 l 71.977 14.996 l 64.871 14.996 l 64.871 80.375
 l 71.977 80.375 l 71.977 87.016 l h
55.852 32.922 m 16.164 32.922 l 14.883 32.922 13.852 33.957 13.848 35.234
 c 13.848 36.512 14.879 37.547 16.16 37.547 c 55.852 37.547 l 57.125 37.547
 58.156 36.512 58.156 35.234 c 58.156 33.961 57.125 32.93 55.852 32.922 
c h
56.148 45.383 m 16.461 45.383 l 15.18 45.383 14.148 46.414 14.145 47.688
 c 14.145 48.965 15.176 50.004 16.457 50.004 c 56.109 50.004 l 57.387 50.004
 58.422 48.965 58.422 47.688 c 58.422 46.414 57.383 45.383 56.109 45.383
 c h
56.441 57.852 m 16.754 57.852 l 15.48 57.852 14.445 58.883 14.445 60.16
 c 14.441 61.434 15.477 62.473 16.75 62.473 c 56.41 62.473 l 57.684 62.473
 58.715 61.434 58.715 60.16 c 58.715 58.887 57.684 57.852 56.41 57.852 c
 h
56.441 57.852 m f
Q Q
showpage
%%Trailer
end restore
%%EOF
