%!PS-Adobe-3.0 EPSF-3.0
%%Creator: cairo 1.14.2 (http://cairographics.org)
%%CreationDate: Wed Aug 22 08:28:11 2018
%%Pages: 1
%%DocumentData: Clean7Bit
%%LanguageLevel: 2
%%BoundingBox: 0 1 131 129
%%EndComments
%%BeginProlog
save
50 dict begin
/q { gsave } bind def
/Q { grestore } bind def
/cm { 6 array astore concat } bind def
/w { setlinewidth } bind def
/J { setlinecap } bind def
/j { setlinejoin } bind def
/M { setmiterlimit } bind def
/d { setdash } bind def
/m { moveto } bind def
/l { lineto } bind def
/c { curveto } bind def
/h { closepath } bind def
/re { exch dup neg 3 1 roll 5 3 roll moveto 0 rlineto
      0 exch rlineto 0 rlineto closepath } bind def
/S { stroke } bind def
/f { fill } bind def
/f* { eofill } bind def
/n { newpath } bind def
/W { clip } bind def
/W* { eoclip } bind def
/BT { } bind def
/ET { } bind def
/pdfmark where { pop globaldict /?pdfmark /exec load put }
    { globaldict begin /?pdfmark /pop load def /pdfmark
    /cleartomark load def end } ifelse
/BDC { mark 3 1 roll /BDC pdfmark } bind def
/EMC { mark /EMC pdfmark } bind def
/cairo_store_point { /cairo_point_y exch def /cairo_point_x exch def } def
/Tj { show currentpoint cairo_store_point } bind def
/TJ {
  {
    dup
    type /stringtype eq
    { show } { -0.001 mul 0 cairo_font_matrix dtransform rmoveto } ifelse
  } forall
  currentpoint cairo_store_point
} bind def
/cairo_selectfont { cairo_font_matrix aload pop pop pop 0 0 6 array astore
    cairo_font exch selectfont cairo_point_x cairo_point_y moveto } bind def
/Tf { pop /cairo_font exch def /cairo_font_matrix where
      { pop cairo_selectfont } if } bind def
/Td { matrix translate cairo_font_matrix matrix concatmatrix dup
      /cairo_font_matrix exch def dup 4 get exch 5 get cairo_store_point
      /cairo_font where { pop cairo_selectfont } if } bind def
/Tm { 2 copy 8 2 roll 6 array astore /cairo_font_matrix exch def
      cairo_store_point /cairo_font where { pop cairo_selectfont } if } bind def
/g { setgray } bind def
/rg { setrgbcolor } bind def
/d1 { setcachedevice } bind def
%%EndProlog
%%BeginSetup
%%EndSetup
%%Page: 1 1
%%BeginPageSetup
%%PageBoundingBox: 0 1 131 129
%%EndPageSetup
q 0 1 131 128 rectclip q
0 g
34.965 96.93 m 22.559 96.93 l 19.203 96.93 16.492 94.211 16.492 90.859 
c 41.059 90.859 l 41.059 94.211 38.34 96.93 34.988 96.93 c h
34.965 96.93 m f
106.844 96.93 m 94.438 96.93 l 91.082 96.93 88.371 94.211 88.371 90.859
 c 112.938 90.859 l 112.938 94.211 110.219 96.93 106.867 96.93 c h
106.844 96.93 m f
7.094 1.684 m 53.664 1.684 l 57.582 1.688 60.758 4.863 60.773 8.785 c 60.773
 80.164 l 60.777 84.098 57.598 87.293 53.664 87.297 c 7.094 87.297 l 3.176
 87.285 0.004 84.105 0 80.191 c 0 8.758 l 0.027 4.855 3.191 1.699 7.094 
1.684 c h
17.359 48.355 m 43.41 48.355 l 43.41 40.656 l 17.359 40.656 l h
17.359 48.355 m f
70.242 80.164 m 70.242 8.734 l 70.281 4.84 73.441 1.699 77.336 1.684 c 
123.902 1.684 l 127.816 1.699 130.984 4.863 131 8.785 c 131 80.164 l 131.008
 84.09 127.832 87.285 123.902 87.297 c 77.336 87.297 l 73.406 87.285 70.23
 84.09 70.242 80.164 c h
87.609 48.301 m 96.777 48.301 l 96.777 57.52 l 104.473 57.52 l 104.473 
48.355 l 113.656 48.355 l 113.656 40.656 l 104.473 40.656 l 104.473 31.465
 l 96.777 31.465 l 96.777 40.645 l 87.598 40.645 l h
87.609 48.301 m f
104.176 100.523 m 104.176 110.875 l 104.176 116.879 100.863 128.242 88.344
 128.242 c 41.035 128.242 l 28.512 128.242 25.199 116.879 25.199 110.875
 c 25.199 100.562 l 32.309 100.562 l 32.309 110.875 l 32.309 111.926 32.645
 121.246 40.996 121.246 c 88.344 121.246 l 96.742 121.246 97.031 111.926
 97.031 110.887 c 97.031 100.574 l h
104.176 100.523 m f
Q Q
showpage
%%Trailer
end restore
%%EOF
