%!PS-Adobe-3.0 EPSF-3.0
%%Creator: cairo 1.14.2 (http://cairographics.org)
%%CreationDate: Wed Aug 22 08:28:11 2018
%%Pages: 1
%%DocumentData: Clean7Bit
%%LanguageLevel: 2
%%BoundingBox: 17 0 117 134
%%EndComments
%%BeginProlog
save
50 dict begin
/q { gsave } bind def
/Q { grestore } bind def
/cm { 6 array astore concat } bind def
/w { setlinewidth } bind def
/J { setlinecap } bind def
/j { setlinejoin } bind def
/M { setmiterlimit } bind def
/d { setdash } bind def
/m { moveto } bind def
/l { lineto } bind def
/c { curveto } bind def
/h { closepath } bind def
/re { exch dup neg 3 1 roll 5 3 roll moveto 0 rlineto
      0 exch rlineto 0 rlineto closepath } bind def
/S { stroke } bind def
/f { fill } bind def
/f* { eofill } bind def
/n { newpath } bind def
/W { clip } bind def
/W* { eoclip } bind def
/BT { } bind def
/ET { } bind def
/pdfmark where { pop globaldict /?pdfmark /exec load put }
    { globaldict begin /?pdfmark /pop load def /pdfmark
    /cleartomark load def end } ifelse
/BDC { mark 3 1 roll /BDC pdfmark } bind def
/EMC { mark /EMC pdfmark } bind def
/cairo_store_point { /cairo_point_y exch def /cairo_point_x exch def } def
/Tj { show currentpoint cairo_store_point } bind def
/TJ {
  {
    dup
    type /stringtype eq
    { show } { -0.001 mul 0 cairo_font_matrix dtransform rmoveto } ifelse
  } forall
  currentpoint cairo_store_point
} bind def
/cairo_selectfont { cairo_font_matrix aload pop pop pop 0 0 6 array astore
    cairo_font exch selectfont cairo_point_x cairo_point_y moveto } bind def
/Tf { pop /cairo_font exch def /cairo_font_matrix where
      { pop cairo_selectfont } if } bind def
/Td { matrix translate cairo_font_matrix matrix concatmatrix dup
      /cairo_font_matrix exch def dup 4 get exch 5 get cairo_store_point
      /cairo_font where { pop cairo_selectfont } if } bind def
/Tm { 2 copy 8 2 roll 6 array astore /cairo_font_matrix exch def
      cairo_store_point /cairo_font where { pop cairo_selectfont } if } bind def
/g { setgray } bind def
/rg { setrgbcolor } bind def
/d1 { setcachedevice } bind def
%%EndProlog
%%BeginSetup
%%EndSetup
%%Page: 1 1
%%BeginPageSetup
%%PageBoundingBox: 17 0 117 134
%%EndPageSetup
q 17 0 100 134 rectclip q
0 g
60.188 60.469 56.219 -17.051 re f
60.199 39.742 m 60.395 32.414 63.449 25.453 68.711 20.352 c 68.711 0.027
 l 75.711 0.027 l 75.711 15.328 l 83.637 11.352 92.969 11.352 100.895 15.328
 c 100.895 0 l 107.922 0 l 107.922 20.328 l 113.172 25.445 116.207 32.414
 116.379 39.742 c h
60.199 39.742 m f
88.297 91.523 m 73.074 91.52 60.621 79.402 60.199 64.184 c 116.379 64.184
 l 115.961 79.398 103.516 91.516 88.297 91.523 c h
88.297 91.523 m f
54.27 125.934 m 67.039 125.934 l 76.664 125.914 84.465 118.109 84.469 108.48
 c 84.469 97.812 l 67.781 97.812 l 67.781 88.055 l 79.422 99.109 97.742 
98.93 109.16 87.648 c 109.16 97.812 l 92.527 97.812 l 92.527 108.48 l 92.512
 122.555 81.113 133.965 67.039 134 c 54.27 134 l 40.184 133.98 28.777 122.566
 28.762 108.48 c 28.762 82.75 l 20.723 80.523 16.012 72.211 18.234 64.168
 c 20.453 56.133 28.777 51.418 36.809 53.645 c 44.852 55.867 49.562 64.184
 47.344 72.227 c 45.93 77.336 41.93 81.336 36.809 82.75 c 36.809 108.48 
l 36.82 118.117 44.633 125.93 54.27 125.934 c h
23.477 68.23 m 23.473 70.062 24.008 71.852 25.02 73.371 c 30.16 68.23 l
 25.02 63.094 l 24.008 64.613 23.473 66.406 23.477 68.23 c h
32.789 58.914 m 30.957 58.914 29.168 59.453 27.645 60.469 c 32.789 65.605
 l 37.93 60.469 l 36.41 59.441 34.617 58.895 32.789 58.891 c h
42.102 68.23 m 42.102 66.406 41.566 64.613 40.555 63.094 c 35.414 68.23
 l 40.555 73.371 l 41.566 71.852 42.102 70.062 42.102 68.23 c h
37.93 75.977 m 32.789 70.832 l 27.645 75.977 l 30.766 78.039 34.809 78.039
 37.93 75.977 c h
37.93 75.977 m f
Q Q
showpage
%%Trailer
end restore
%%EOF
