%!PS-Adobe-3.0 EPSF-3.0
%%Creator: cairo 1.14.2 (http://cairographics.org)
%%CreationDate: Wed Aug 22 08:28:11 2018
%%Pages: 1
%%DocumentData: Clean7Bit
%%LanguageLevel: 2
%%BoundingBox: 3 0 127 129
%%EndComments
%%BeginProlog
save
50 dict begin
/q { gsave } bind def
/Q { grestore } bind def
/cm { 6 array astore concat } bind def
/w { setlinewidth } bind def
/J { setlinecap } bind def
/j { setlinejoin } bind def
/M { setmiterlimit } bind def
/d { setdash } bind def
/m { moveto } bind def
/l { lineto } bind def
/c { curveto } bind def
/h { closepath } bind def
/re { exch dup neg 3 1 roll 5 3 roll moveto 0 rlineto
      0 exch rlineto 0 rlineto closepath } bind def
/S { stroke } bind def
/f { fill } bind def
/f* { eofill } bind def
/n { newpath } bind def
/W { clip } bind def
/W* { eoclip } bind def
/BT { } bind def
/ET { } bind def
/pdfmark where { pop globaldict /?pdfmark /exec load put }
    { globaldict begin /?pdfmark /pop load def /pdfmark
    /cleartomark load def end } ifelse
/BDC { mark 3 1 roll /BDC pdfmark } bind def
/EMC { mark /EMC pdfmark } bind def
/cairo_store_point { /cairo_point_y exch def /cairo_point_x exch def } def
/Tj { show currentpoint cairo_store_point } bind def
/TJ {
  {
    dup
    type /stringtype eq
    { show } { -0.001 mul 0 cairo_font_matrix dtransform rmoveto } ifelse
  } forall
  currentpoint cairo_store_point
} bind def
/cairo_selectfont { cairo_font_matrix aload pop pop pop 0 0 6 array astore
    cairo_font exch selectfont cairo_point_x cairo_point_y moveto } bind def
/Tf { pop /cairo_font exch def /cairo_font_matrix where
      { pop cairo_selectfont } if } bind def
/Td { matrix translate cairo_font_matrix matrix concatmatrix dup
      /cairo_font_matrix exch def dup 4 get exch 5 get cairo_store_point
      /cairo_font where { pop cairo_selectfont } if } bind def
/Tm { 2 copy 8 2 roll 6 array astore /cairo_font_matrix exch def
      cairo_store_point /cairo_font where { pop cairo_selectfont } if } bind def
/g { setgray } bind def
/rg { setrgbcolor } bind def
/d1 { setcachedevice } bind def
%%EndProlog
%%BeginSetup
%%EndSetup
%%Page: 1 1
%%BeginPageSetup
%%PageBoundingBox: 3 0 127 129
%%EndPageSetup
q 3 0 124 129 rectclip q
0 g
26.793 93.516 m 26.793 97.227 l 23.531 97.219 20.891 94.57 20.898 91.309
 c 20.898 85.016 l 20.906 81.762 23.539 79.129 26.793 79.117 c 26.793 82.828
 l 25.586 82.828 24.605 83.809 24.605 85.016 c 24.605 91.309 l 24.594 92.512
 25.562 93.504 26.77 93.516 c h
26.793 93.516 m f
106.531 76.551 m 100.746 76.551 l 100.746 89.102 l 28.859 89.102 l 28.859
 58.797 l 23.078 58.797 l 15.227 58.652 3.531 53.211 3.531 38.875 c 3.531
 0 l 12.766 0 l 12.766 38.875 l 12.766 48.762 21.531 49.504 23.16 49.566
 c 28.848 49.566 l 28.848 35.973 l 28.848 16.113 44.941 0.02 64.801 0.02
 c 84.648 0.02 100.746 16.113 100.746 35.973 c 100.746 67.316 l 106.434 
67.316 l 108.066 67.316 116.824 66.465 116.824 56.621 c 116.824 0 l 126.059
 0 l 126.059 56.621 l 126.059 70.965 114.379 76.398 106.531 76.551 c h
64.805 40.457 m 54.711 40.457 46.531 48.637 46.531 58.723 c 46.531 68.812
 54.711 76.988 64.805 76.988 c 74.891 76.988 83.07 68.812 83.07 58.723 c
 83.055 48.641 74.887 40.469 64.805 40.457 c h
64.805 40.457 m f
64.805 65.043 m 65.137 65.031 65.473 65.004 65.809 64.941 c 69.688 72.43
 l 66.535 73.574 63.086 73.574 59.934 72.43 c 63.816 64.941 l 64.137 64.996
 64.469 65.031 64.805 65.043 c h
64.805 65.043 m f
60.477 63.297 m 56.621 70.715 l 52.828 68.129 50.477 63.902 50.277 59.312
 c 58.621 60 l 58.887 61.262 59.531 62.418 60.477 63.297 c h
60.477 63.297 m f
67.41 58.723 m 67.41 57.285 66.242 56.117 64.805 56.117 c 63.363 56.117
 62.195 57.285 62.195 58.723 c 62.195 60.16 63.363 61.332 64.805 61.332 
c 66.242 61.332 67.41 60.16 67.41 58.723 c h
67.41 58.723 m f
64.805 52.406 m 64.254 52.418 63.711 52.496 63.184 52.645 c 58.883 45.438
 l 62.656 43.73 66.984 43.73 70.762 45.438 c 66.438 52.629 l 65.902 52.484
 65.355 52.41 64.805 52.406 c h
64.805 52.406 m f
58.98 56.305 m 50.578 55.656 l 51.285 52.387 53.102 49.457 55.719 47.367
 c 60.047 54.617 l 59.602 55.121 59.246 55.684 58.98 56.305 c h
58.98 56.305 m f
69.578 54.617 m 73.93 47.391 l 76.539 49.488 78.348 52.43 79.043 55.711
 c 70.637 56.328 l 70.375 55.703 70.016 55.129 69.578 54.617 c h
69.578 54.617 m f
72.996 70.75 m 69.141 63.336 l 70.086 62.441 70.727 61.281 70.98 60.008
 c 79.324 59.402 l 79.117 63.969 76.773 68.172 72.996 70.75 c h
72.996 70.75 m f
67.348 93.047 m 76.605 93.047 l 76.605 99.57 71.32 104.859 64.801 104.859
 c 58.273 104.859 52.984 99.57 52.984 93.047 c 62.145 93.047 l 70.145 101.191
 l 70.859 101.93 72.039 101.941 72.77 101.227 c 73.504 100.512 73.516 99.332
 72.797 98.602 c h
67.348 93.047 m f
100.746 93.047 m 100.746 112.902 84.648 129 64.801 129 c 44.941 129 28.848
 112.902 28.848 93.047 c 49.289 93.047 l 49.289 101.621 56.238 108.566 64.809
 108.566 c 73.379 108.566 80.328 101.621 80.328 93.047 c h
100.746 93.047 m f
Q Q
showpage
%%Trailer
end restore
%%EOF
