%!PS-Adobe-3.0 EPSF-3.0
%%Creator: cairo 1.14.2 (http://cairographics.org)
%%CreationDate: Wed Aug 22 08:28:11 2018
%%Pages: 1
%%DocumentData: Clean7Bit
%%LanguageLevel: 2
%%BoundingBox: 0 0 132 132
%%EndComments
%%BeginProlog
save
50 dict begin
/q { gsave } bind def
/Q { grestore } bind def
/cm { 6 array astore concat } bind def
/w { setlinewidth } bind def
/J { setlinecap } bind def
/j { setlinejoin } bind def
/M { setmiterlimit } bind def
/d { setdash } bind def
/m { moveto } bind def
/l { lineto } bind def
/c { curveto } bind def
/h { closepath } bind def
/re { exch dup neg 3 1 roll 5 3 roll moveto 0 rlineto
      0 exch rlineto 0 rlineto closepath } bind def
/S { stroke } bind def
/f { fill } bind def
/f* { eofill } bind def
/n { newpath } bind def
/W { clip } bind def
/W* { eoclip } bind def
/BT { } bind def
/ET { } bind def
/pdfmark where { pop globaldict /?pdfmark /exec load put }
    { globaldict begin /?pdfmark /pop load def /pdfmark
    /cleartomark load def end } ifelse
/BDC { mark 3 1 roll /BDC pdfmark } bind def
/EMC { mark /EMC pdfmark } bind def
/cairo_store_point { /cairo_point_y exch def /cairo_point_x exch def } def
/Tj { show currentpoint cairo_store_point } bind def
/TJ {
  {
    dup
    type /stringtype eq
    { show } { -0.001 mul 0 cairo_font_matrix dtransform rmoveto } ifelse
  } forall
  currentpoint cairo_store_point
} bind def
/cairo_selectfont { cairo_font_matrix aload pop pop pop 0 0 6 array astore
    cairo_font exch selectfont cairo_point_x cairo_point_y moveto } bind def
/Tf { pop /cairo_font exch def /cairo_font_matrix where
      { pop cairo_selectfont } if } bind def
/Td { matrix translate cairo_font_matrix matrix concatmatrix dup
      /cairo_font_matrix exch def dup 4 get exch 5 get cairo_store_point
      /cairo_font where { pop cairo_selectfont } if } bind def
/Tm { 2 copy 8 2 roll 6 array astore /cairo_font_matrix exch def
      cairo_store_point /cairo_font where { pop cairo_selectfont } if } bind def
/g { setgray } bind def
/rg { setrgbcolor } bind def
/d1 { setcachedevice } bind def
%%EndProlog
%%BeginSetup
%%EndSetup
%%Page: 1 1
%%BeginPageSetup
%%PageBoundingBox: 0 0 132 132
%%EndPageSetup
q 0 0 132 132 rectclip q
0 g
64.367 16.484 m 64.367 117.77 l 8.961 117.77 l 8.961 16.484 l h
49.555 105.047 m 51.746 105.047 53.523 103.27 53.523 101.074 c 53.523 98.879
 51.746 97.102 49.555 97.102 c 47.359 97.102 45.582 98.879 45.582 101.074
 c 45.582 103.25 47.328 105.02 49.504 105.047 c h
37.215 105.047 m 39.406 105.047 41.184 103.27 41.184 101.074 c 41.184 98.879
 39.406 97.102 37.215 97.102 c 35.016 97.102 33.238 98.879 33.238 101.074
 c 33.238 103.242 34.973 105.004 37.137 105.047 c h
24.875 105.047 m 27.062 105.047 28.844 103.27 28.844 101.074 c 28.844 98.879
 27.062 97.102 24.875 97.102 c 22.676 97.102 20.898 98.879 20.898 101.074
 c 20.898 103.23 22.617 104.996 24.773 105.047 c h
18.543 87.277 m 55.82 87.277 l 55.82 69.723 l 18.441 69.723 l h
18.543 62.418 m 55.82 62.418 l 55.82 55.855 l 18.441 55.855 l h
18.543 50.156 m 55.82 50.156 l 55.82 43.586 l 18.441 43.586 l h
18.543 37.887 m 55.82 37.887 l 55.82 31.32 l 18.441 31.32 l h
18.543 37.887 m f
123.379 16.484 m 123.379 117.77 l 67.98 117.77 l 67.98 16.484 l h
107.57 105.047 m 109.762 105.047 111.539 103.27 111.539 101.074 c 111.539
 98.879 109.762 97.102 107.57 97.102 c 105.375 97.102 103.594 98.879 103.594
 101.074 c 103.594 103.27 105.375 105.047 107.57 105.047 c h
95.23 105.047 m 97.426 105.047 99.203 103.27 99.203 101.074 c 99.203 98.879
 97.426 97.102 95.23 97.102 c 93.031 97.102 91.254 98.879 91.254 101.074
 c 91.254 103.262 93.016 105.035 95.199 105.047 c h
82.887 105.047 m 85.082 105.047 86.859 103.27 86.859 101.074 c 86.859 98.879
 85.082 97.102 82.887 97.102 c 80.691 97.102 78.91 98.879 78.91 101.074 
c 78.91 103.25 80.66 105.02 82.836 105.047 c h
76.559 87.277 m 113.938 87.277 l 113.938 69.723 l 76.508 69.723 l h
76.559 62.418 m 113.938 62.418 l 113.938 55.855 l 76.508 55.855 l h
76.559 50.156 m 113.938 50.156 l 113.938 43.586 l 76.508 43.586 l h
76.559 37.887 m 113.938 37.887 l 113.938 31.32 l 76.508 31.32 l h
76.559 37.887 m f
2 132 128.34 -10.613 re f
124.254 12.863 m 7.949 12.863 l 3.863 12.863 0.547 9.547 0.547 5.457 c 
0.547 0 l 131.605 0 l 131.605 5.551 l 131.555 9.582 128.289 12.832 124.254
 12.863 c h
124.254 12.863 m f
Q Q
showpage
%%Trailer
end restore
%%EOF
