%!PS-Adobe-3.0 EPSF-3.0
%%Creator: cairo 1.14.2 (http://cairographics.org)
%%CreationDate: Wed Aug 22 08:28:11 2018
%%Pages: 1
%%DocumentData: Clean7Bit
%%LanguageLevel: 2
%%BoundingBox: 15 0 118 133
%%EndComments
%%BeginProlog
save
50 dict begin
/q { gsave } bind def
/Q { grestore } bind def
/cm { 6 array astore concat } bind def
/w { setlinewidth } bind def
/J { setlinecap } bind def
/j { setlinejoin } bind def
/M { setmiterlimit } bind def
/d { setdash } bind def
/m { moveto } bind def
/l { lineto } bind def
/c { curveto } bind def
/h { closepath } bind def
/re { exch dup neg 3 1 roll 5 3 roll moveto 0 rlineto
      0 exch rlineto 0 rlineto closepath } bind def
/S { stroke } bind def
/f { fill } bind def
/f* { eofill } bind def
/n { newpath } bind def
/W { clip } bind def
/W* { eoclip } bind def
/BT { } bind def
/ET { } bind def
/pdfmark where { pop globaldict /?pdfmark /exec load put }
    { globaldict begin /?pdfmark /pop load def /pdfmark
    /cleartomark load def end } ifelse
/BDC { mark 3 1 roll /BDC pdfmark } bind def
/EMC { mark /EMC pdfmark } bind def
/cairo_store_point { /cairo_point_y exch def /cairo_point_x exch def } def
/Tj { show currentpoint cairo_store_point } bind def
/TJ {
  {
    dup
    type /stringtype eq
    { show } { -0.001 mul 0 cairo_font_matrix dtransform rmoveto } ifelse
  } forall
  currentpoint cairo_store_point
} bind def
/cairo_selectfont { cairo_font_matrix aload pop pop pop 0 0 6 array astore
    cairo_font exch selectfont cairo_point_x cairo_point_y moveto } bind def
/Tf { pop /cairo_font exch def /cairo_font_matrix where
      { pop cairo_selectfont } if } bind def
/Td { matrix translate cairo_font_matrix matrix concatmatrix dup
      /cairo_font_matrix exch def dup 4 get exch 5 get cairo_store_point
      /cairo_font where { pop cairo_selectfont } if } bind def
/Tm { 2 copy 8 2 roll 6 array astore /cairo_font_matrix exch def
      cairo_store_point /cairo_font where { pop cairo_selectfont } if } bind def
/g { setgray } bind def
/rg { setrgbcolor } bind def
/d1 { setcachedevice } bind def
%%EndProlog
%%BeginSetup
%%EndSetup
%%Page: 1 1
%%BeginPageSetup
%%PageBoundingBox: 15 0 118 133
%%EndPageSetup
q 15 0 103 133 rectclip q
0 g
113.855 50.961 m 110.344 59.293 105.77 72.066 106.359 81.035 c 75.625 81.035
 l 76.262 72.066 71.703 59.277 68.133 50.961 c h
113.855 50.961 m f
66.609 47.332 m 66.094 46.191 65.648 45.219 65.281 44.473 c 116.77 44.473
 l 116.422 45.211 115.984 46.129 115.523 47.219 c 115.391 47.203 115.254
 47.203 115.113 47.219 c 67.371 47.219 l 67.109 47.199 66.852 47.238 66.609
 47.332 c h
66.609 47.332 m f
30.316 133 m 30.008 127.066 l 49.449 127.066 l 49.125 133 l h
30.316 133 m f
29.793 123.281 m 24.172 22.793 l 55.285 22.793 l 49.648 123.281 l h
29.793 123.281 m f
87.289 26.152 m 84.082 32.398 l 80.988 30.188 79.043 26.711 78.797 22.918
 c 85.754 23.453 l 86.012 24.469 86.547 25.402 87.289 26.152 c h
87.289 26.152 m f
93.512 22.027 m 93.512 20.891 92.586 19.973 91.445 19.973 c 90.309 19.973
 89.387 20.891 89.387 22.027 c 89.387 23.168 90.309 24.09 91.445 24.09 c
 92.586 24.09 93.512 23.168 93.512 22.027 c h
93.512 22.027 m f
91.445 27.887 m 91.691 27.883 91.941 27.852 92.184 27.812 c 95.418 34.055
 l 92.84 34.922 90.047 34.922 87.465 34.055 c 90.695 27.812 l 90.945 27.852
 91.195 27.883 91.445 27.887 c h
91.445 27.887 m f
83.316 12.312 m 86.926 18.359 l 86.609 18.738 86.336 19.16 86.129 19.609
 c 79.133 19.066 l 79.77 16.426 81.234 14.062 83.316 12.312 c h
83.316 12.312 m f
15.109 0 m 117.684 0 l 117.684 40.676 l 64.348 40.676 l 64.348 18.98 l 
15.109 18.98 l h
91.445 38.504 m 100.551 38.504 107.93 31.117 107.93 22.016 c 107.93 12.91
 100.551 5.531 91.445 5.531 c 82.34 5.531 74.961 12.91 74.961 22.016 c 74.973
 31.117 82.344 38.492 91.445 38.504 c h
91.445 38.504 m f
91.445 16.172 m 91.004 16.176 90.555 16.23 90.121 16.332 c 86.551 10.305
 l 89.695 8.98 93.227 8.98 96.367 10.305 c 92.758 16.293 l 92.328 16.207
 91.887 16.16 91.445 16.172 c h
91.445 16.172 m f
104.082 22.902 m 103.836 26.668 101.926 30.121 98.863 32.332 c 95.656 26.086
 l 96.402 25.328 96.926 24.387 97.18 23.355 c h
104.082 22.902 m f
95.996 18.367 m 99.625 12.336 l 101.711 14.09 103.168 16.469 103.797 19.121
 c 96.805 19.633 l 96.594 19.18 96.316 18.754 95.996 18.367 c h
95.996 18.367 m f
Q Q
showpage
%%Trailer
end restore
%%EOF
