%!PS-Adobe-3.0 EPSF-3.0
%%Creator: cairo 1.14.2 (http://cairographics.org)
%%CreationDate: Wed Aug 22 08:28:11 2018
%%Pages: 1
%%DocumentData: Clean7Bit
%%LanguageLevel: 2
%%BoundingBox: 11 0 123 133
%%EndComments
%%BeginProlog
save
50 dict begin
/q { gsave } bind def
/Q { grestore } bind def
/cm { 6 array astore concat } bind def
/w { setlinewidth } bind def
/J { setlinecap } bind def
/j { setlinejoin } bind def
/M { setmiterlimit } bind def
/d { setdash } bind def
/m { moveto } bind def
/l { lineto } bind def
/c { curveto } bind def
/h { closepath } bind def
/re { exch dup neg 3 1 roll 5 3 roll moveto 0 rlineto
      0 exch rlineto 0 rlineto closepath } bind def
/S { stroke } bind def
/f { fill } bind def
/f* { eofill } bind def
/n { newpath } bind def
/W { clip } bind def
/W* { eoclip } bind def
/BT { } bind def
/ET { } bind def
/pdfmark where { pop globaldict /?pdfmark /exec load put }
    { globaldict begin /?pdfmark /pop load def /pdfmark
    /cleartomark load def end } ifelse
/BDC { mark 3 1 roll /BDC pdfmark } bind def
/EMC { mark /EMC pdfmark } bind def
/cairo_store_point { /cairo_point_y exch def /cairo_point_x exch def } def
/Tj { show currentpoint cairo_store_point } bind def
/TJ {
  {
    dup
    type /stringtype eq
    { show } { -0.001 mul 0 cairo_font_matrix dtransform rmoveto } ifelse
  } forall
  currentpoint cairo_store_point
} bind def
/cairo_selectfont { cairo_font_matrix aload pop pop pop 0 0 6 array astore
    cairo_font exch selectfont cairo_point_x cairo_point_y moveto } bind def
/Tf { pop /cairo_font exch def /cairo_font_matrix where
      { pop cairo_selectfont } if } bind def
/Td { matrix translate cairo_font_matrix matrix concatmatrix dup
      /cairo_font_matrix exch def dup 4 get exch 5 get cairo_store_point
      /cairo_font where { pop cairo_selectfont } if } bind def
/Tm { 2 copy 8 2 roll 6 array astore /cairo_font_matrix exch def
      cairo_store_point /cairo_font where { pop cairo_selectfont } if } bind def
/g { setgray } bind def
/rg { setrgbcolor } bind def
/d1 { setcachedevice } bind def
%%EndProlog
%%BeginSetup
%%EndSetup
%%Page: 1 1
%%BeginPageSetup
%%PageBoundingBox: 11 0 123 133
%%EndPageSetup
q 11 0 112 133 rectclip q
0 g
11.57 13.637 79.672 -13.637 re f
91.242 80.707 m 95.566 80.707 l 96.25 80.469 97.605 79.812 97.605 78.398
 c 97.605 34.695 l 97.859 29.395 100.867 23.695 106.844 23.695 c 106.965
 23.988 l 107.414 23.789 107.891 23.691 108.383 23.695 c 109.707 23.695 
l 109.707 23.879 l 112.652 24.609 116.848 27.609 116.848 35.242 c 116.848
 88.035 l 122.23 88.035 l 122.23 124.742 l 122.23 124.742 120.703 133 112.738
 133 c 109.129 133 l 109.129 126.27 l 109.129 126.27 115.711 126.582 115.711
 122.293 c 115.711 102.711 l 115.711 101.664 114.859 100.812 113.805 100.812
 c 105.117 100.812 l 105.117 88.035 l 109.934 88.035 l 109.934 35.258 l 
109.934 32.152 108.918 30.824 108.172 30.637 c 106.844 30.637 l 104.98 30.637
 104.543 34.883 104.531 34.883 c 104.531 78.348 l 104.531 84.184 99.5 86.891
 96.836 87.5 c 96.582 87.559 96.32 87.59 96.062 87.59 c 91.242 87.59 l 91.242
 125.094 l 91.266 129.062 88.062 132.297 84.094 132.316 c 18.73 132.316 
l 14.785 132.305 11.582 129.102 11.57 125.152 c 11.57 17.5 l 91.242 17.5
 l h
22.719 117.715 m 80.098 117.715 l 80.098 111.738 l 22.719 111.738 l h
47.965 84.258 m 21.379 84.258 l 21.379 93.312 l 47.965 93.312 l h
47.965 97.113 m 21.379 97.113 l 21.379 100.031 l 47.965 100.031 l h
81.434 84.258 m 54.848 84.258 l 54.848 93.312 l 81.434 93.312 l h
81.434 97.113 m 54.848 97.113 l 54.848 100.031 l 81.434 100.031 l h
81.434 97.113 m f
105.109 110.055 m 105.109 104.609 l 111.773 104.609 l 111.773 115.254 l
 109.129 115.254 l 109.129 115.254 105.109 115.875 105.109 110.055 c h
105.109 110.055 m f
Q Q
showpage
%%Trailer
end restore
%%EOF
