%!PS-Adobe-3.0 EPSF-3.0
%%Creator: cairo 1.14.2 (http://cairographics.org)
%%CreationDate: Wed Aug 22 08:28:11 2018
%%Pages: 1
%%DocumentData: Clean7Bit
%%LanguageLevel: 2
%%BoundingBox: 24 0 108 132
%%EndComments
%%BeginProlog
save
50 dict begin
/q { gsave } bind def
/Q { grestore } bind def
/cm { 6 array astore concat } bind def
/w { setlinewidth } bind def
/J { setlinecap } bind def
/j { setlinejoin } bind def
/M { setmiterlimit } bind def
/d { setdash } bind def
/m { moveto } bind def
/l { lineto } bind def
/c { curveto } bind def
/h { closepath } bind def
/re { exch dup neg 3 1 roll 5 3 roll moveto 0 rlineto
      0 exch rlineto 0 rlineto closepath } bind def
/S { stroke } bind def
/f { fill } bind def
/f* { eofill } bind def
/n { newpath } bind def
/W { clip } bind def
/W* { eoclip } bind def
/BT { } bind def
/ET { } bind def
/pdfmark where { pop globaldict /?pdfmark /exec load put }
    { globaldict begin /?pdfmark /pop load def /pdfmark
    /cleartomark load def end } ifelse
/BDC { mark 3 1 roll /BDC pdfmark } bind def
/EMC { mark /EMC pdfmark } bind def
/cairo_store_point { /cairo_point_y exch def /cairo_point_x exch def } def
/Tj { show currentpoint cairo_store_point } bind def
/TJ {
  {
    dup
    type /stringtype eq
    { show } { -0.001 mul 0 cairo_font_matrix dtransform rmoveto } ifelse
  } forall
  currentpoint cairo_store_point
} bind def
/cairo_selectfont { cairo_font_matrix aload pop pop pop 0 0 6 array astore
    cairo_font exch selectfont cairo_point_x cairo_point_y moveto } bind def
/Tf { pop /cairo_font exch def /cairo_font_matrix where
      { pop cairo_selectfont } if } bind def
/Td { matrix translate cairo_font_matrix matrix concatmatrix dup
      /cairo_font_matrix exch def dup 4 get exch 5 get cairo_store_point
      /cairo_font where { pop cairo_selectfont } if } bind def
/Tm { 2 copy 8 2 roll 6 array astore /cairo_font_matrix exch def
      cairo_store_point /cairo_font where { pop cairo_selectfont } if } bind def
/g { setgray } bind def
/rg { setrgbcolor } bind def
/d1 { setcachedevice } bind def
%%EndProlog
%%BeginSetup
%%EndSetup
%%Page: 1 1
%%BeginPageSetup
%%PageBoundingBox: 24 0 108 132
%%EndPageSetup
q 24 0 84 132 rectclip q
0 g
65.895 57.969 41.762 -8.719 re f
107.656 45.508 m 24.133 45.508 l 24.133 41.539 l 65.895 41.539 l 66.922
 41.539 67.754 40.699 67.754 39.672 c 67.754 38.645 66.922 37.812 65.895
 37.812 c 24.133 37.812 l 24.133 19.949 l 32.355 19.949 l 32.355 0 l 41.398
 0 l 41.398 19.957 l 61.367 19.957 l 61.367 0.016 l 70.414 0.016 l 70.414
 19.957 l 74.465 19.957 l 74.465 25.898 l 65.895 25.898 l 64.863 25.898 
64.031 26.734 64.031 27.762 c 64.031 28.789 64.863 29.621 65.895 29.621 
c 107.656 29.621 l h
107.656 45.508 m f
40.293 99.656 m 51.137 99.656 l 50.777 105.34 l 40.652 105.34 l h
40.293 99.656 m f
40.07 95.938 m 36.91 49.238 l 54.52 49.238 l 51.359 95.938 l 40.055 95.938
 l h
40.07 95.938 m f
45.004 109.105 m 44.766 114.41 52.453 116.352 51.074 123.828 c 49.695 131.305
 43.957 132 43.957 132 c 46.449 127.906 46.84 122.875 45.004 118.445 c 43.582
 115.496 43.582 112.059 45.004 109.105 c h
45.004 109.105 m f
78.191 25.898 7.102 -5.926 re f
89.02 25.887 m 89.02 19.957 l 90.352 19.957 l 90.352 0.023 l 99.391 0.023
 l 99.391 19.957 l 96.125 19.957 l 96.125 25.887 l h
89.02 25.887 m f
99.852 25.898 7.805 -5.926 re f
Q Q
showpage
%%Trailer
end restore
%%EOF
