%!PS-Adobe-3.0 EPSF-3.0
%%Creator: cairo 1.14.2 (http://cairographics.org)
%%CreationDate: Wed Aug 22 08:28:11 2018
%%Pages: 1
%%DocumentData: Clean7Bit
%%LanguageLevel: 2
%%BoundingBox: 24 0 109 133
%%EndComments
%%BeginProlog
save
50 dict begin
/q { gsave } bind def
/Q { grestore } bind def
/cm { 6 array astore concat } bind def
/w { setlinewidth } bind def
/J { setlinecap } bind def
/j { setlinejoin } bind def
/M { setmiterlimit } bind def
/d { setdash } bind def
/m { moveto } bind def
/l { lineto } bind def
/c { curveto } bind def
/h { closepath } bind def
/re { exch dup neg 3 1 roll 5 3 roll moveto 0 rlineto
      0 exch rlineto 0 rlineto closepath } bind def
/S { stroke } bind def
/f { fill } bind def
/f* { eofill } bind def
/n { newpath } bind def
/W { clip } bind def
/W* { eoclip } bind def
/BT { } bind def
/ET { } bind def
/pdfmark where { pop globaldict /?pdfmark /exec load put }
    { globaldict begin /?pdfmark /pop load def /pdfmark
    /cleartomark load def end } ifelse
/BDC { mark 3 1 roll /BDC pdfmark } bind def
/EMC { mark /EMC pdfmark } bind def
/cairo_store_point { /cairo_point_y exch def /cairo_point_x exch def } def
/Tj { show currentpoint cairo_store_point } bind def
/TJ {
  {
    dup
    type /stringtype eq
    { show } { -0.001 mul 0 cairo_font_matrix dtransform rmoveto } ifelse
  } forall
  currentpoint cairo_store_point
} bind def
/cairo_selectfont { cairo_font_matrix aload pop pop pop 0 0 6 array astore
    cairo_font exch selectfont cairo_point_x cairo_point_y moveto } bind def
/Tf { pop /cairo_font exch def /cairo_font_matrix where
      { pop cairo_selectfont } if } bind def
/Td { matrix translate cairo_font_matrix matrix concatmatrix dup
      /cairo_font_matrix exch def dup 4 get exch 5 get cairo_store_point
      /cairo_font where { pop cairo_selectfont } if } bind def
/Tm { 2 copy 8 2 roll 6 array astore /cairo_font_matrix exch def
      cairo_store_point /cairo_font where { pop cairo_selectfont } if } bind def
/g { setgray } bind def
/rg { setrgbcolor } bind def
/d1 { setcachedevice } bind def
%%EndProlog
%%BeginSetup
%%EndSetup
%%Page: 1 1
%%BeginPageSetup
%%PageBoundingBox: 24 0 109 133
%%EndPageSetup
q 24 0 85 133 rectclip q
0 g
108.66 3.578 m 108.66 6.195 106.535 8.32 103.918 8.32 c 28.887 8.32 l 26.27
 8.32 24.148 6.195 24.148 3.578 c 24.148 0 l 108.66 0 l h
108.66 3.578 m f
29.199 14.418 m 29.199 12.367 30.863 10.707 32.914 10.707 c 99.945 10.707
 l 101.996 10.707 103.66 12.367 103.66 14.418 c 103.66 47.172 l 29.199 47.172
 l h
29.199 14.418 m f
53.152 121.418 m 56.617 121.418 l 55.418 128.914 48.363 134.027 40.859 
132.824 c 38.676 132.477 36.605 131.602 34.832 130.281 c 34.688 130.203 
34.559 130.102 34.445 129.984 c 31.762 127.848 29.973 124.797 29.422 121.406
 c 29.211 121.406 l 29.211 116.219 l 41.191 116.219 l 41.191 121.418 l 33.121
 121.418 l 33.598 123.527 34.734 125.434 36.367 126.852 c 39.148 126.73 
41.301 124.383 41.184 121.605 c 41.184 121.418 l 44.895 121.418 l 44.895
 121.594 l 44.84 124.008 43.91 126.316 42.281 128.102 c 41.906 128.492 41.492
 128.828 41.047 129.129 c 41.723 129.281 42.41 129.352 43.098 129.352 c 
47.852 129.348 51.961 126.051 53 121.418 c 44.844 121.418 l 44.844 116.234
 l 53.152 116.234 l h
53.152 121.418 m f
56.801 121.418 46.797 -5.184 re f
29.199 50.832 m 103.613 50.832 l 103.613 81.375 l 56.801 81.375 l 56.801
 64.051 l 56.801 63.027 55.969 62.195 54.941 62.195 c 53.914 62.195 53.09
 63.027 53.09 64.051 c 53.09 66.387 l 44.844 66.387 l 44.844 64.012 l 44.844
 62.988 44.012 62.16 42.988 62.16 c 41.965 62.16 41.133 62.988 41.133 64.012
 c 41.133 81.344 l 29.199 81.344 l h
29.199 50.832 m f
44.844 73.891 8.309 -3.836 re f
44.844 81.375 8.309 -3.82 re f
44.844 88.879 8.309 -3.82 re f
44.844 103.855 8.309 -3.836 re f
44.844 96.367 8.309 -3.824 re f
44.844 112.863 8.309 -5.355 re f
56.801 85.043 m 103.613 85.043 l 103.613 109.211 l 103.613 111.27 101.949
 112.93 99.898 112.93 c 56.801 112.93 l h
56.801 85.043 m f
29.199 85.043 m 41.184 85.043 l 41.184 112.863 l 32.863 112.863 l 30.809
 112.863 29.148 111.207 29.148 109.152 c h
29.199 85.043 m f
Q Q
showpage
%%Trailer
end restore
%%EOF
