%!PS-Adobe-3.0 EPSF-3.0
%%Creator: cairo 1.14.2 (http://cairographics.org)
%%CreationDate: Wed Aug 22 08:28:11 2018
%%Pages: 1
%%DocumentData: Clean7Bit
%%LanguageLevel: 2
%%BoundingBox: 0 21 138 117
%%EndComments
%%BeginProlog
save
50 dict begin
/q { gsave } bind def
/Q { grestore } bind def
/cm { 6 array astore concat } bind def
/w { setlinewidth } bind def
/J { setlinecap } bind def
/j { setlinejoin } bind def
/M { setmiterlimit } bind def
/d { setdash } bind def
/m { moveto } bind def
/l { lineto } bind def
/c { curveto } bind def
/h { closepath } bind def
/re { exch dup neg 3 1 roll 5 3 roll moveto 0 rlineto
      0 exch rlineto 0 rlineto closepath } bind def
/S { stroke } bind def
/f { fill } bind def
/f* { eofill } bind def
/n { newpath } bind def
/W { clip } bind def
/W* { eoclip } bind def
/BT { } bind def
/ET { } bind def
/pdfmark where { pop globaldict /?pdfmark /exec load put }
    { globaldict begin /?pdfmark /pop load def /pdfmark
    /cleartomark load def end } ifelse
/BDC { mark 3 1 roll /BDC pdfmark } bind def
/EMC { mark /EMC pdfmark } bind def
/cairo_store_point { /cairo_point_y exch def /cairo_point_x exch def } def
/Tj { show currentpoint cairo_store_point } bind def
/TJ {
  {
    dup
    type /stringtype eq
    { show } { -0.001 mul 0 cairo_font_matrix dtransform rmoveto } ifelse
  } forall
  currentpoint cairo_store_point
} bind def
/cairo_selectfont { cairo_font_matrix aload pop pop pop 0 0 6 array astore
    cairo_font exch selectfont cairo_point_x cairo_point_y moveto } bind def
/Tf { pop /cairo_font exch def /cairo_font_matrix where
      { pop cairo_selectfont } if } bind def
/Td { matrix translate cairo_font_matrix matrix concatmatrix dup
      /cairo_font_matrix exch def dup 4 get exch 5 get cairo_store_point
      /cairo_font where { pop cairo_selectfont } if } bind def
/Tm { 2 copy 8 2 roll 6 array astore /cairo_font_matrix exch def
      cairo_store_point /cairo_font where { pop cairo_selectfont } if } bind def
/g { setgray } bind def
/rg { setrgbcolor } bind def
/d1 { setcachedevice } bind def
%%EndProlog
%%BeginSetup
%%EndSetup
%%Page: 1 1
%%BeginPageSetup
%%PageBoundingBox: 0 21 138 117
%%EndPageSetup
q 0 21 138 96 rectclip q
0 g
71.773 85.102 m 19.109 85.102 l 18.902 83.359 18.668 81.578 18.41 79.766
 c 72.465 79.766 l 72.23 81.578 71.996 83.359 71.773 85.102 c h
71.773 85.102 m f
73.016 76.059 m 17.867 76.059 l 16.203 64.914 13.574 53.93 9.992 43.242
 c 80.859 43.242 l 77.289 53.93 74.668 64.914 73.016 76.059 c h
73.016 76.059 m f
69.918 107.824 m 20.977 107.824 l 20.777 102.98 20.363 96.391 19.543 88.801
 c 71.336 88.801 l 70.531 96.391 70.117 102.98 69.918 107.824 c h
69.918 107.824 m f
69.781 111.547 m 69.695 114.617 69.719 116.367 69.719 116.367 c 21.137 
116.367 l 21.137 116.367 21.137 114.617 21.074 111.547 c h
69.781 111.547 m f
90.895 21.883 m 87.398 27.496 84.48 33.441 82.191 39.645 c 81.984 39.566
 81.766 39.523 81.547 39.523 c 9.34 39.523 l 9.121 39.523 8.906 39.566 8.703
 39.645 c 6.41 33.441 3.496 27.496 0 21.883 c h
90.895 21.883 m f
84.465 94.523 37.301 -3.285 re f
123.352 70.043 m 82.773 70.043 l 82.641 68.984 82.5 67.902 82.348 66.797
 c 123.777 66.797 l 123.629 67.902 123.488 68.984 123.352 70.043 c h
123.352 70.043 m f
121.836 87.508 m 84.246 87.508 l 84.078 83.93 83.781 79.168 83.211 73.746
 c 122.93 73.746 l 122.348 79.184 122.051 83.93 121.836 87.508 c h
121.836 87.508 m f
87.383 38.738 m 130.156 38.738 l 127.531 46.684 125.574 54.836 124.324 
63.105 c 81.766 63.105 l 81.434 60.98 81.281 59.664 80.852 57.473 c 81.824
 53.227 83.066 49.039 84.578 44.941 c 85.395 42.82 86.332 40.754 87.383 
38.738 c h
87.383 38.738 m f
130.812 35.008 m 88.816 35.008 l 88.816 35.008 90.383 31.844 92.176 28.504
 c 93.43 26.234 94.801 24.02 96.277 21.883 c 138 21.883 l 135.395 26.074
 133.207 30.512 131.473 35.133 c 131.262 35.051 131.043 35.012 130.812 35.008
 c h
130.812 35.008 m f
Q Q
showpage
%%Trailer
end restore
%%EOF
