%!PS-Adobe-3.0 EPSF-3.0
%%Creator: cairo 1.14.2 (http://cairographics.org)
%%CreationDate: Wed Aug 22 08:28:11 2018
%%Pages: 1
%%DocumentData: Clean7Bit
%%LanguageLevel: 2
%%BoundingBox: 20 0 114 133
%%EndComments
%%BeginProlog
save
50 dict begin
/q { gsave } bind def
/Q { grestore } bind def
/cm { 6 array astore concat } bind def
/w { setlinewidth } bind def
/J { setlinecap } bind def
/j { setlinejoin } bind def
/M { setmiterlimit } bind def
/d { setdash } bind def
/m { moveto } bind def
/l { lineto } bind def
/c { curveto } bind def
/h { closepath } bind def
/re { exch dup neg 3 1 roll 5 3 roll moveto 0 rlineto
      0 exch rlineto 0 rlineto closepath } bind def
/S { stroke } bind def
/f { fill } bind def
/f* { eofill } bind def
/n { newpath } bind def
/W { clip } bind def
/W* { eoclip } bind def
/BT { } bind def
/ET { } bind def
/pdfmark where { pop globaldict /?pdfmark /exec load put }
    { globaldict begin /?pdfmark /pop load def /pdfmark
    /cleartomark load def end } ifelse
/BDC { mark 3 1 roll /BDC pdfmark } bind def
/EMC { mark /EMC pdfmark } bind def
/cairo_store_point { /cairo_point_y exch def /cairo_point_x exch def } def
/Tj { show currentpoint cairo_store_point } bind def
/TJ {
  {
    dup
    type /stringtype eq
    { show } { -0.001 mul 0 cairo_font_matrix dtransform rmoveto } ifelse
  } forall
  currentpoint cairo_store_point
} bind def
/cairo_selectfont { cairo_font_matrix aload pop pop pop 0 0 6 array astore
    cairo_font exch selectfont cairo_point_x cairo_point_y moveto } bind def
/Tf { pop /cairo_font exch def /cairo_font_matrix where
      { pop cairo_selectfont } if } bind def
/Td { matrix translate cairo_font_matrix matrix concatmatrix dup
      /cairo_font_matrix exch def dup 4 get exch 5 get cairo_store_point
      /cairo_font where { pop cairo_selectfont } if } bind def
/Tm { 2 copy 8 2 roll 6 array astore /cairo_font_matrix exch def
      cairo_store_point /cairo_font where { pop cairo_selectfont } if } bind def
/g { setgray } bind def
/rg { setrgbcolor } bind def
/d1 { setcachedevice } bind def
%%EndProlog
%%BeginSetup
%%EndSetup
%%Page: 1 1
%%BeginPageSetup
%%PageBoundingBox: 20 0 114 133
%%EndPageSetup
q 20 0 94 133 rectclip q
0 g
109.07 132.992 m 24.543 132.992 l 22.422 133.109 20.605 131.492 20.484 
129.367 c 20.363 127.25 21.984 125.43 24.105 125.309 c 24.254 125.297 24.398
 125.297 24.543 125.309 c 109.07 125.309 l 111.191 125.184 113.012 126.812
 113.129 128.93 c 113.25 131.051 111.629 132.871 109.508 132.992 c 109.359
 133 109.219 133 109.07 132.992 c h
109.07 132.992 m f
20.695 3.84 m 20.695 1.727 22.414 0.008 24.531 0.008 c 109.07 0.008 l 111.191
 -0.113 113.012 1.512 113.129 3.629 c 113.25 5.75 111.629 7.57 109.508 7.691
 c 109.359 7.695 109.219 7.695 109.07 7.691 c 24.543 7.691 l 22.426 7.695
 20.703 5.988 20.695 3.863 c h
20.695 3.84 m f
27.461 41.914 78.691 -30.738 re f
27.461 121.832 78.691 -30.727 re f
27.461 45.398 m 106.152 45.398 l 106.152 87.602 l 27.461 87.602 l h
55.164 67.555 m 60.898 79.668 63.355 81.148 62.535 87.527 c 62.535 87.527
 72.035 83.105 72.848 72.633 c 73.434 65.184 72.441 61.93 71.82 60.703 c
 71.711 60.449 71.562 60.223 71.375 60.016 c 74.855 63.922 76.641 69.051
 76.34 74.27 c 76.34 74.27 81.582 66.898 79.781 59.539 c 78.535 54.926 75.902
 50.812 72.242 47.746 c 73.035 50.633 73.562 53.582 73.828 56.57 c 72.359
 55.461 70.766 54.531 69.074 53.789 c 66.363 57.875 65.059 62.73 65.352 
67.633 c 65.352 67.633 56.02 62.305 60.391 47.77 c 60.402 47.746 49.434 
55.438 55.164 67.555 c h
55.164 67.555 m f
Q Q
showpage
%%Trailer
end restore
%%EOF
