%!PS-Adobe-3.0 EPSF-3.0
%%Creator: cairo 1.14.2 (http://cairographics.org)
%%CreationDate: Wed Aug 22 08:28:11 2018
%%Pages: 1
%%DocumentData: Clean7Bit
%%LanguageLevel: 2
%%BoundingBox: 0 7 134 127
%%EndComments
%%BeginProlog
save
50 dict begin
/q { gsave } bind def
/Q { grestore } bind def
/cm { 6 array astore concat } bind def
/w { setlinewidth } bind def
/J { setlinecap } bind def
/j { setlinejoin } bind def
/M { setmiterlimit } bind def
/d { setdash } bind def
/m { moveto } bind def
/l { lineto } bind def
/c { curveto } bind def
/h { closepath } bind def
/re { exch dup neg 3 1 roll 5 3 roll moveto 0 rlineto
      0 exch rlineto 0 rlineto closepath } bind def
/S { stroke } bind def
/f { fill } bind def
/f* { eofill } bind def
/n { newpath } bind def
/W { clip } bind def
/W* { eoclip } bind def
/BT { } bind def
/ET { } bind def
/pdfmark where { pop globaldict /?pdfmark /exec load put }
    { globaldict begin /?pdfmark /pop load def /pdfmark
    /cleartomark load def end } ifelse
/BDC { mark 3 1 roll /BDC pdfmark } bind def
/EMC { mark /EMC pdfmark } bind def
/cairo_store_point { /cairo_point_y exch def /cairo_point_x exch def } def
/Tj { show currentpoint cairo_store_point } bind def
/TJ {
  {
    dup
    type /stringtype eq
    { show } { -0.001 mul 0 cairo_font_matrix dtransform rmoveto } ifelse
  } forall
  currentpoint cairo_store_point
} bind def
/cairo_selectfont { cairo_font_matrix aload pop pop pop 0 0 6 array astore
    cairo_font exch selectfont cairo_point_x cairo_point_y moveto } bind def
/Tf { pop /cairo_font exch def /cairo_font_matrix where
      { pop cairo_selectfont } if } bind def
/Td { matrix translate cairo_font_matrix matrix concatmatrix dup
      /cairo_font_matrix exch def dup 4 get exch 5 get cairo_store_point
      /cairo_font where { pop cairo_selectfont } if } bind def
/Tm { 2 copy 8 2 roll 6 array astore /cairo_font_matrix exch def
      cairo_store_point /cairo_font where { pop cairo_selectfont } if } bind def
/g { setgray } bind def
/rg { setrgbcolor } bind def
/d1 { setcachedevice } bind def
%%EndProlog
%%BeginSetup
%%EndSetup
%%Page: 1 1
%%BeginPageSetup
%%PageBoundingBox: 0 7 134 127
%%EndPageSetup
q 0 7 134 120 rectclip q
0 g
0 64.566 95.684 -8.539 re f
99.422 57.074 m 134 112.996 l 134 121.133 l 99.422 65.598 l h
99.422 57.074 m f
134 126.836 m 118.203 126.836 l 112.117 117.684 l 128.312 117.684 l h
134 126.836 m f
27.781 105.812 m 40.977 105.812 l 46.738 113.957 l 33.816 113.957 l h
27.781 105.812 m f
24.367 82.363 m 30.02 90.355 l 16.328 90.355 l 10.418 82.363 l h
24.367 82.363 m f
34.266 68.301 m 41.336 78.625 l 26.297 78.625 l 18.996 68.301 l h
34.266 68.301 m f
53.957 117.684 m 68.059 117.684 l 74.32 126.836 l 60.426 126.836 l h
53.957 117.684 m f
94.121 126.836 m 78.836 126.836 l 72.578 117.684 l 87.836 117.684 l h
94.121 126.836 m f
19.094 94.086 m 32.672 94.086 l 38.32 102.078 l 25.02 102.078 l h
19.094 94.086 m f
118.578 102.078 m 101.723 102.078 l 96.398 94.086 l 113.613 94.086 l h
118.578 102.078 m f
60.977 78.625 m 45.855 78.625 l 38.797 68.301 l 53.871 68.301 l h
60.977 78.625 m f
125.984 113.957 m 109.633 113.957 l 104.203 105.812 l 120.902 105.812 l
 h
125.984 113.957 m f
111.281 90.355 m 93.922 90.355 l 88.598 82.363 l 106.305 82.363 l h
111.281 90.355 m f
81.621 78.625 m 65.504 78.625 l 58.398 68.301 l 74.754 68.301 l h
81.621 78.625 m f
77.098 102.078 m 61.898 102.078 l 56.434 94.086 l 71.602 94.086 l h
77.098 102.078 m f
89.434 90.355 m 73.574 90.355 l 68.074 82.363 l 84.113 82.363 l h
89.434 90.355 m f
43.887 82.363 m 49.348 90.355 l 34.602 90.355 l 28.938 82.363 l h
43.887 82.363 m f
113.727 126.836 m 98.656 126.836 l 92.367 117.684 l 107.625 117.684 l h
113.727 126.836 m f
65.504 113.957 m 51.305 113.957 l 45.543 105.812 l 59.926 105.812 l h
65.504 113.957 m f
86.121 78.625 m 79.234 68.301 l 97.559 68.301 l 103.992 78.625 l h
86.121 78.625 m f
21.734 78.625 m 7.641 78.625 l 0 68.301 l 14.414 68.301 l h
21.734 78.625 m f
36.582 117.684 m 49.379 117.684 l 55.848 126.836 l 43.355 126.836 l h
36.582 117.684 m f
69.039 90.355 m 53.879 90.355 l 48.402 82.363 l 63.539 82.363 l h
69.039 90.355 m f
37.242 94.086 m 51.914 94.086 l 57.379 102.078 l 42.902 102.078 l h
37.242 94.086 m f
85.273 113.957 m 70.023 113.957 l 64.453 105.812 l 79.66 105.812 l h
85.273 113.957 m f
105.148 113.957 m 89.801 113.957 l 84.199 105.812 l 99.719 105.812 l h
105.148 113.957 m f
97.234 102.078 m 81.621 102.078 l 76.137 94.086 l 91.918 94.086 l h
97.234 102.078 m f
67.598 13.422 m 57.516 13.422 l 57.516 52.293 l 47.344 52.293 l 47.344 
13.422 l 37.266 13.422 l 34.16 13.422 31.641 10.898 31.641 7.793 c 73.223
 7.793 l 73.223 10.898 70.703 13.422 67.598 13.422 c h
67.598 13.422 m f
Q Q
showpage
%%Trailer
end restore
%%EOF
