%!PS-Adobe-3.0 EPSF-3.0
%%Creator: cairo 1.14.2 (http://cairographics.org)
%%CreationDate: Wed Aug 22 08:28:11 2018
%%Pages: 1
%%DocumentData: Clean7Bit
%%LanguageLevel: 2
%%BoundingBox: 17 0 118 134
%%EndComments
%%BeginProlog
save
50 dict begin
/q { gsave } bind def
/Q { grestore } bind def
/cm { 6 array astore concat } bind def
/w { setlinewidth } bind def
/J { setlinecap } bind def
/j { setlinejoin } bind def
/M { setmiterlimit } bind def
/d { setdash } bind def
/m { moveto } bind def
/l { lineto } bind def
/c { curveto } bind def
/h { closepath } bind def
/re { exch dup neg 3 1 roll 5 3 roll moveto 0 rlineto
      0 exch rlineto 0 rlineto closepath } bind def
/S { stroke } bind def
/f { fill } bind def
/f* { eofill } bind def
/n { newpath } bind def
/W { clip } bind def
/W* { eoclip } bind def
/BT { } bind def
/ET { } bind def
/pdfmark where { pop globaldict /?pdfmark /exec load put }
    { globaldict begin /?pdfmark /pop load def /pdfmark
    /cleartomark load def end } ifelse
/BDC { mark 3 1 roll /BDC pdfmark } bind def
/EMC { mark /EMC pdfmark } bind def
/cairo_store_point { /cairo_point_y exch def /cairo_point_x exch def } def
/Tj { show currentpoint cairo_store_point } bind def
/TJ {
  {
    dup
    type /stringtype eq
    { show } { -0.001 mul 0 cairo_font_matrix dtransform rmoveto } ifelse
  } forall
  currentpoint cairo_store_point
} bind def
/cairo_selectfont { cairo_font_matrix aload pop pop pop 0 0 6 array astore
    cairo_font exch selectfont cairo_point_x cairo_point_y moveto } bind def
/Tf { pop /cairo_font exch def /cairo_font_matrix where
      { pop cairo_selectfont } if } bind def
/Td { matrix translate cairo_font_matrix matrix concatmatrix dup
      /cairo_font_matrix exch def dup 4 get exch 5 get cairo_store_point
      /cairo_font where { pop cairo_selectfont } if } bind def
/Tm { 2 copy 8 2 roll 6 array astore /cairo_font_matrix exch def
      cairo_store_point /cairo_font where { pop cairo_selectfont } if } bind def
/g { setgray } bind def
/rg { setrgbcolor } bind def
/d1 { setcachedevice } bind def
%%EndProlog
%%BeginSetup
%%EndSetup
%%Page: 1 1
%%BeginPageSetup
%%PageBoundingBox: 17 0 118 134
%%EndPageSetup
q 17 0 101 134 rectclip q
0 g
57.953 9.758 m 77.699 9.758 l 70.32 74.715 l 73.035 76.09 74.113 79.398
 72.738 82.105 c 71.363 84.816 68.055 85.895 65.344 84.527 c 62.637 83.148
 61.555 79.84 62.926 77.129 c 63.461 76.09 64.305 75.246 65.344 74.715 c
 h
57.953 9.758 m f
56.832 0 m 78.809 0 l 78.121 6.074 l 57.516 6.074 l h
56.832 0 m f
72.738 73.047 m 79.207 68.562 99.062 56.098 117.527 57.617 c 117.609 57.816
 l 106.258 72.477 83.645 78.656 75.969 80.402 c 75.984 80.133 75.984 79.863
 75.969 79.594 c 75.98 77.023 74.781 74.602 72.738 73.047 c h
72.738 73.047 m f
62.633 73.207 m 60.414 75.008 59.301 77.848 59.727 80.672 c 51.984 79.266
 29.129 74.043 17.109 59.883 c 17.188 59.684 l 35.609 57.434 55.98 69.055
 62.633 73.207 c h
62.633 73.207 m f
67.824 87.777 m 69.227 87.777 70.605 87.414 71.824 86.723 c 73.32 94.445
 76.805 117.637 67.922 134 c 67.711 134 l 58.875 117.664 62.312 94.469 63.805
 86.723 c 65.027 87.414 66.41 87.777 67.824 87.777 c h
67.824 87.777 m f
Q Q
showpage
%%Trailer
end restore
%%EOF
