<?xml version="1.0" encoding="UTF-8" standalone="no"?>
<!-- Created with Inkscape (http://www.inkscape.org/) -->

<svg
   xmlns:dc="http://purl.org/dc/elements/1.1/"
   xmlns:cc="http://creativecommons.org/ns#"
   xmlns:rdf="http://www.w3.org/1999/02/22-rdf-syntax-ns#"
   xmlns:svg="http://www.w3.org/2000/svg"
   xmlns="http://www.w3.org/2000/svg"
   xmlns:sodipodi="http://sodipodi.sourceforge.net/DTD/sodipodi-0.dtd"
   xmlns:inkscape="http://www.inkscape.org/namespaces/inkscape"
   width="149mm"
   height="70mm"
   viewBox="0 0 149 70"
   version="1.1"
   id="svg3648"
   inkscape:version="0.92.3 (2405546, 2018-03-11)"
   sodipodi:docname="Acht_zellen_verschaltung_SW.svg">
  <defs
     id="defs3642">
    <pattern
       y="0"
       x="0"
       height="6"
       width="6"
       patternUnits="userSpaceOnUse"
       id="EMFhbasepattern" />
  </defs>
  <sodipodi:namedview
     id="base"
     pagecolor="#ffffff"
     bordercolor="#666666"
     borderopacity="1.0"
     inkscape:pageopacity="0.0"
     inkscape:pageshadow="2"
     inkscape:zoom="1.979899"
     inkscape:cx="188.65373"
     inkscape:cy="156.23342"
     inkscape:document-units="mm"
     inkscape:current-layer="g1848"
     showgrid="false"
     showguides="false"
     inkscape:window-width="1920"
     inkscape:window-height="1017"
     inkscape:window-x="1912"
     inkscape:window-y="-8"
     inkscape:window-maximized="1" />
  <metadata
     id="metadata3645">
    <rdf:RDF>
      <cc:Work
         rdf:about="">
        <dc:format>image/svg+xml</dc:format>
        <dc:type
           rdf:resource="http://purl.org/dc/dcmitype/StillImage" />
        <dc:title></dc:title>
      </cc:Work>
    </rdf:RDF>
  </metadata>
  <g
     inkscape:label="Ebene 1"
     inkscape:groupmode="layer"
     id="layer1"
     transform="translate(0,-227)">
    <g
       id="g1848"
       transform="matrix(0.10903533,0,0,0.11110233,-23.314285,198.09723)">
      <path
         sodipodi:nodetypes="cc"
         inkscape:connector-curvature="0"
         id="path1315"
         d="M 455,454.42036 H 399"
         style="fill:none;stroke:#000000;stroke-width:3.5;stroke-linecap:square;stroke-linejoin:miter;stroke-miterlimit:4;stroke-dasharray:none;stroke-opacity:1" />
      <path
         sodipodi:nodetypes="cc"
         inkscape:connector-curvature="0"
         id="path1317"
         d="M 441,461.42036 H 413"
         style="fill:none;stroke:#000000;stroke-width:7;stroke-linecap:square;stroke-linejoin:miter;stroke-miterlimit:4;stroke-dasharray:none;stroke-opacity:1" />
      <path
         sodipodi:nodetypes="cc"
         inkscape:connector-curvature="0"
         id="path2220"
         d="m 427,440.42036 v 14"
         style="fill:none;stroke:#000000;stroke-width:3.5;stroke-linecap:round;stroke-linejoin:miter;stroke-miterlimit:4;stroke-dasharray:none;stroke-opacity:1" />
      <path
         sodipodi:nodetypes="cc"
         inkscape:connector-curvature="0"
         id="path2222"
         d="m 427,461.42036 v 35"
         style="fill:none;stroke:#000000;stroke-width:3.5;stroke-linecap:round;stroke-linejoin:miter;stroke-miterlimit:4;stroke-dasharray:none;stroke-opacity:1" />
      <path
         inkscape:connector-curvature="0"
         style="fill:none;stroke:#000000;stroke-width:2.00000191px;stroke-linecap:butt;stroke-linejoin:miter;stroke-opacity:1"
         d="m 412.33567,440.42036 h -10.5"
         id="path1478"
         sodipodi:nodetypes="cc" />
      <path
         inkscape:connector-curvature="0"
         style="fill:none;stroke:#000000;stroke-width:2.00000191px;stroke-linecap:butt;stroke-linejoin:miter;stroke-opacity:1"
         d="m 407.08567,445.67036 v -10.5"
         id="path1480"
         sodipodi:nodetypes="cc" />
      <path
         sodipodi:nodetypes="cc"
         inkscape:connector-curvature="0"
         id="path2222-0"
         d="M 537.86597,552.36883 V 664.42032"
         style="fill:none;stroke:#000000;stroke-width:3.41675258;stroke-linecap:round;stroke-linejoin:miter;stroke-miterlimit:4;stroke-dasharray:none;stroke-opacity:1" />
      <path
         sodipodi:nodetypes="cc"
         inkscape:connector-curvature="0"
         id="path1315-2"
         d="M 455,678.42036 H 399"
         style="fill:none;stroke:#000000;stroke-width:3.5;stroke-linecap:square;stroke-linejoin:miter;stroke-miterlimit:4;stroke-dasharray:none;stroke-opacity:1" />
      <path
         sodipodi:nodetypes="cc"
         inkscape:connector-curvature="0"
         id="path1317-19"
         d="M 441,685.42036 H 413"
         style="fill:none;stroke:#000000;stroke-width:7;stroke-linecap:square;stroke-linejoin:miter;stroke-miterlimit:4;stroke-dasharray:none;stroke-opacity:1" />
      <path
         sodipodi:nodetypes="cc"
         inkscape:connector-curvature="0"
         id="path2220-1"
         d="m 427,664.42036 v 14"
         style="fill:none;stroke:#000000;stroke-width:3.5;stroke-linecap:round;stroke-linejoin:miter;stroke-miterlimit:4;stroke-dasharray:none;stroke-opacity:1" />
      <path
         sodipodi:nodetypes="cc"
         inkscape:connector-curvature="0"
         id="path2222-6"
         d="m 427,685.42036 v 35"
         style="fill:none;stroke:#000000;stroke-width:3.5;stroke-linecap:round;stroke-linejoin:miter;stroke-miterlimit:4;stroke-dasharray:none;stroke-opacity:1" />
      <path
         inkscape:connector-curvature="0"
         style="fill:none;stroke:#000000;stroke-width:2.00000191px;stroke-linecap:butt;stroke-linejoin:miter;stroke-opacity:1"
         d="m 412.33567,664.42036 h -10.5"
         id="path1478-0"
         sodipodi:nodetypes="cc" />
      <path
         inkscape:connector-curvature="0"
         style="fill:none;stroke:#000000;stroke-width:2.00000191px;stroke-linecap:butt;stroke-linejoin:miter;stroke-opacity:1"
         d="m 407.08567,669.67036 v -10.5"
         id="path1480-8"
         sodipodi:nodetypes="cc" />
      <path
         sodipodi:nodetypes="cc"
         inkscape:connector-curvature="0"
         id="path1315-9-8"
         d="M 455,734.42036 H 399"
         style="fill:none;stroke:#000000;stroke-width:3.5;stroke-linecap:square;stroke-linejoin:miter;stroke-miterlimit:4;stroke-dasharray:none;stroke-opacity:1" />
      <path
         sodipodi:nodetypes="cc"
         inkscape:connector-curvature="0"
         id="path1317-3-9"
         d="M 441,741.42036 H 413"
         style="fill:none;stroke:#000000;stroke-width:7;stroke-linecap:square;stroke-linejoin:miter;stroke-miterlimit:4;stroke-dasharray:none;stroke-opacity:1" />
      <path
         sodipodi:nodetypes="cc"
         inkscape:connector-curvature="0"
         id="path2220-4-1"
         d="m 427,720.42036 v 14"
         style="fill:none;stroke:#000000;stroke-width:3.5;stroke-linecap:round;stroke-linejoin:miter;stroke-miterlimit:4;stroke-dasharray:none;stroke-opacity:1" />
      <path
         sodipodi:nodetypes="cc"
         inkscape:connector-curvature="0"
         id="path2222-5-3"
         d="m 427,741.42036 v 35"
         style="fill:none;stroke:#000000;stroke-width:3.5;stroke-linecap:round;stroke-linejoin:miter;stroke-miterlimit:4;stroke-dasharray:none;stroke-opacity:1" />
      <path
         inkscape:connector-curvature="0"
         style="fill:none;stroke:#000000;stroke-width:2.00000191px;stroke-linecap:butt;stroke-linejoin:miter;stroke-opacity:1"
         d="m 412.33567,720.42036 h -10.5"
         id="path1478-2-2"
         sodipodi:nodetypes="cc" />
      <path
         inkscape:connector-curvature="0"
         style="fill:none;stroke:#000000;stroke-width:2.00000191px;stroke-linecap:butt;stroke-linejoin:miter;stroke-opacity:1"
         d="m 407.08567,725.67036 v -10.5"
         id="path1480-4-2"
         sodipodi:nodetypes="cc" />
      <path
         sodipodi:nodetypes="cc"
         inkscape:connector-curvature="0"
         id="path1315-1-8"
         d="M 455,790.42036 H 399"
         style="fill:none;stroke:#000000;stroke-width:3.5;stroke-linecap:square;stroke-linejoin:miter;stroke-miterlimit:4;stroke-dasharray:none;stroke-opacity:1" />
      <path
         sodipodi:nodetypes="cc"
         inkscape:connector-curvature="0"
         id="path1317-1-9"
         d="M 441,797.42036 H 413"
         style="fill:none;stroke:#000000;stroke-width:7;stroke-linecap:square;stroke-linejoin:miter;stroke-miterlimit:4;stroke-dasharray:none;stroke-opacity:1" />
      <path
         sodipodi:nodetypes="cc"
         inkscape:connector-curvature="0"
         id="path2220-3-9"
         d="m 427,776.42036 v 14"
         style="fill:none;stroke:#000000;stroke-width:3.5;stroke-linecap:round;stroke-linejoin:miter;stroke-miterlimit:4;stroke-dasharray:none;stroke-opacity:1" />
      <path
         sodipodi:nodetypes="cc"
         inkscape:connector-curvature="0"
         id="path2222-0-4"
         d="m 427,797.42036 v 35"
         style="fill:none;stroke:#000000;stroke-width:3.5;stroke-linecap:round;stroke-linejoin:miter;stroke-miterlimit:4;stroke-dasharray:none;stroke-opacity:1" />
      <path
         inkscape:connector-curvature="0"
         style="fill:none;stroke:#000000;stroke-width:2.00000191px;stroke-linecap:butt;stroke-linejoin:miter;stroke-opacity:1"
         d="m 412.33567,776.42036 h -10.5"
         id="path1478-6-0"
         sodipodi:nodetypes="cc" />
      <path
         inkscape:connector-curvature="0"
         style="fill:none;stroke:#000000;stroke-width:2.00000191px;stroke-linecap:butt;stroke-linejoin:miter;stroke-opacity:1"
         d="m 407.08567,781.67036 v -10.5"
         id="path1480-7-4"
         sodipodi:nodetypes="cc" />
      <path
         sodipodi:nodetypes="cc"
         inkscape:connector-curvature="0"
         id="path1315-6-6"
         d="M 455,846.42036 H 399"
         style="fill:none;stroke:#000000;stroke-width:3.5;stroke-linecap:square;stroke-linejoin:miter;stroke-miterlimit:4;stroke-dasharray:none;stroke-opacity:1" />
      <path
         sodipodi:nodetypes="cc"
         inkscape:connector-curvature="0"
         id="path1317-2-8"
         d="M 441,853.42036 H 413"
         style="fill:none;stroke:#000000;stroke-width:7;stroke-linecap:square;stroke-linejoin:miter;stroke-miterlimit:4;stroke-dasharray:none;stroke-opacity:1" />
      <path
         sodipodi:nodetypes="cc"
         inkscape:connector-curvature="0"
         id="path2220-5-8"
         d="m 427,832.42036 v 14"
         style="fill:none;stroke:#000000;stroke-width:3.5;stroke-linecap:round;stroke-linejoin:miter;stroke-miterlimit:4;stroke-dasharray:none;stroke-opacity:1" />
      <path
         sodipodi:nodetypes="cc"
         inkscape:connector-curvature="0"
         id="path2222-2-6"
         d="m 427,853.42036 v 35"
         style="fill:none;stroke:#000000;stroke-width:3.5;stroke-linecap:round;stroke-linejoin:miter;stroke-miterlimit:4;stroke-dasharray:none;stroke-opacity:1" />
      <path
         inkscape:connector-curvature="0"
         style="fill:none;stroke:#000000;stroke-width:2.00000191px;stroke-linecap:butt;stroke-linejoin:miter;stroke-opacity:1"
         d="m 412.33567,832.42036 h -10.5"
         id="path1478-5-1"
         sodipodi:nodetypes="cc" />
      <path
         inkscape:connector-curvature="0"
         style="fill:none;stroke:#000000;stroke-width:2.00000191px;stroke-linecap:butt;stroke-linejoin:miter;stroke-opacity:1"
         d="m 407.08567,837.67036 v -10.5"
         id="path1480-9-3"
         sodipodi:nodetypes="cc" />
      <path
         sodipodi:nodetypes="cc"
         inkscape:connector-curvature="0"
         id="path2222-5-6"
         d="m 427,293.42036 v 35"
         style="fill:none;stroke:#000000;stroke-width:3.5;stroke-linecap:round;stroke-linejoin:miter;stroke-miterlimit:4;stroke-dasharray:none;stroke-opacity:1" />
      <path
         sodipodi:nodetypes="cc"
         inkscape:connector-curvature="0"
         id="path1315-1-4"
         d="M 455,342.42036 H 399"
         style="fill:none;stroke:#000000;stroke-width:3.5;stroke-linecap:square;stroke-linejoin:miter;stroke-miterlimit:4;stroke-dasharray:none;stroke-opacity:1" />
      <path
         sodipodi:nodetypes="cc"
         inkscape:connector-curvature="0"
         id="path1317-1-4"
         d="M 441,349.42036 H 413"
         style="fill:none;stroke:#000000;stroke-width:7;stroke-linecap:square;stroke-linejoin:miter;stroke-miterlimit:4;stroke-dasharray:none;stroke-opacity:1" />
      <path
         sodipodi:nodetypes="cc"
         inkscape:connector-curvature="0"
         id="path2220-3-2"
         d="m 427,328.42036 v 14"
         style="fill:none;stroke:#000000;stroke-width:3.5;stroke-linecap:round;stroke-linejoin:miter;stroke-miterlimit:4;stroke-dasharray:none;stroke-opacity:1" />
      <path
         sodipodi:nodetypes="cc"
         inkscape:connector-curvature="0"
         id="path2222-0-0"
         d="m 427,349.42036 v 35"
         style="fill:none;stroke:#000000;stroke-width:3.5;stroke-linecap:round;stroke-linejoin:miter;stroke-miterlimit:4;stroke-dasharray:none;stroke-opacity:1" />
      <path
         inkscape:connector-curvature="0"
         style="fill:none;stroke:#000000;stroke-width:2.00000191px;stroke-linecap:butt;stroke-linejoin:miter;stroke-opacity:1"
         d="m 412.33567,328.42036 h -10.5"
         id="path1478-6-6"
         sodipodi:nodetypes="cc" />
      <path
         inkscape:connector-curvature="0"
         style="fill:none;stroke:#000000;stroke-width:2.00000191px;stroke-linecap:butt;stroke-linejoin:miter;stroke-opacity:1"
         d="m 407.08567,333.67036 v -10.5"
         id="path1480-7-3"
         sodipodi:nodetypes="cc" />
      <path
         sodipodi:nodetypes="cc"
         inkscape:connector-curvature="0"
         id="path1315-6-9"
         d="M 455,398.42036 H 399"
         style="fill:none;stroke:#000000;stroke-width:3.5;stroke-linecap:square;stroke-linejoin:miter;stroke-miterlimit:4;stroke-dasharray:none;stroke-opacity:1" />
      <path
         sodipodi:nodetypes="cc"
         inkscape:connector-curvature="0"
         id="path1317-2-9"
         d="M 441,405.42036 H 413"
         style="fill:none;stroke:#000000;stroke-width:7;stroke-linecap:square;stroke-linejoin:miter;stroke-miterlimit:4;stroke-dasharray:none;stroke-opacity:1" />
      <path
         sodipodi:nodetypes="cc"
         inkscape:connector-curvature="0"
         id="path2220-5-89"
         d="m 427,384.42036 v 14"
         style="fill:none;stroke:#000000;stroke-width:3.5;stroke-linecap:round;stroke-linejoin:miter;stroke-miterlimit:4;stroke-dasharray:none;stroke-opacity:1" />
      <path
         sodipodi:nodetypes="cc"
         inkscape:connector-curvature="0"
         id="path2222-2-67"
         d="m 427,405.42036 v 35"
         style="fill:none;stroke:#000000;stroke-width:3.5;stroke-linecap:round;stroke-linejoin:miter;stroke-miterlimit:4;stroke-dasharray:none;stroke-opacity:1" />
      <path
         inkscape:connector-curvature="0"
         style="fill:none;stroke:#000000;stroke-width:2.00000191px;stroke-linecap:butt;stroke-linejoin:miter;stroke-opacity:1"
         d="m 412.33567,384.42036 h -10.5"
         id="path1478-5-9"
         sodipodi:nodetypes="cc" />
      <path
         inkscape:connector-curvature="0"
         style="fill:none;stroke:#000000;stroke-width:2.00000191px;stroke-linecap:butt;stroke-linejoin:miter;stroke-opacity:1"
         d="m 407.08567,389.67036 v -10.5"
         id="path1480-9-4"
         sodipodi:nodetypes="cc" />
      <path
         style="fill:none;stroke:#000000;stroke-width:3.3798524;stroke-linecap:butt;stroke-linejoin:miter;stroke-opacity:1;stroke-miterlimit:4;stroke-dasharray:none"
         d="M 603.87351,608.42036 H 536.69207"
         id="path4798-3"
         inkscape:connector-curvature="0" />
      <path
         style="fill:none;stroke:#000000;stroke-width:3.3798524;stroke-linecap:butt;stroke-linejoin:miter;stroke-opacity:1;stroke-miterlimit:4;stroke-dasharray:none"
         d="m 537.50101,552.42036 h 66.3725"
         id="path4798-2"
         inkscape:connector-curvature="0" />
      <path
         sodipodi:nodetypes="cc"
         inkscape:connector-curvature="0"
         id="path2222-2-6-1"
         d="M 859.65887,831.95168 859.10676,934.6948"
         style="fill:none;stroke:#000000;stroke-width:4.32475758;stroke-linecap:round;stroke-linejoin:miter;stroke-miterlimit:4;stroke-dasharray:none;stroke-opacity:1" />
      <path
         style="fill:none;stroke:#000000;stroke-width:3.40710927;stroke-linecap:butt;stroke-linejoin:miter;stroke-opacity:1;stroke-miterlimit:4;stroke-dasharray:none"
         d="m 783.20371,783.88107 111.79617,1.70102 V 971.84458 L 427.12424,972.05721 427,934.69912"
         id="path5078"
         inkscape:connector-curvature="0"
         sodipodi:nodetypes="ccccc" />
      <path
         sodipodi:nodetypes="cc"
         inkscape:connector-curvature="0"
         id="path1315-9-5-1"
         d="M 455,510.42036 H 399"
         style="fill:none;stroke:#000000;stroke-width:3.5;stroke-linecap:square;stroke-linejoin:miter;stroke-miterlimit:4;stroke-dasharray:none;stroke-opacity:1" />
      <path
         sodipodi:nodetypes="cc"
         inkscape:connector-curvature="0"
         id="path1317-3-0-1"
         d="M 441,517.42036 H 413"
         style="fill:none;stroke:#000000;stroke-width:7;stroke-linecap:square;stroke-linejoin:miter;stroke-miterlimit:4;stroke-dasharray:none;stroke-opacity:1" />
      <path
         sodipodi:nodetypes="cc"
         inkscape:connector-curvature="0"
         id="path2220-4-5-1"
         d="m 427,496.42036 v 14"
         style="fill:none;stroke:#000000;stroke-width:3.5;stroke-linecap:round;stroke-linejoin:miter;stroke-miterlimit:4;stroke-dasharray:none;stroke-opacity:1" />
      <path
         sodipodi:nodetypes="cc"
         inkscape:connector-curvature="0"
         id="path2222-5-6-8"
         d="m 427,517.42036 v 147"
         style="fill:none;stroke:#000000;stroke-width:3.49796552;stroke-linecap:round;stroke-linejoin:miter;stroke-miterlimit:4;stroke-dasharray:none;stroke-opacity:1" />
      <path
         inkscape:connector-curvature="0"
         style="fill:none;stroke:#000000;stroke-width:2.00000191px;stroke-linecap:butt;stroke-linejoin:miter;stroke-opacity:1"
         d="m 412.33567,496.42036 h -10.5"
         id="path1478-2-1-2"
         sodipodi:nodetypes="cc" />
      <path
         inkscape:connector-curvature="0"
         style="fill:none;stroke:#000000;stroke-width:2.00000191px;stroke-linecap:butt;stroke-linejoin:miter;stroke-opacity:1"
         d="m 407.08567,501.67036 v -10.5"
         id="path1480-4-0-7"
         sodipodi:nodetypes="cc" />
      <path
         sodipodi:nodetypes="cc"
         inkscape:connector-curvature="0"
         id="path2222-0-7"
         d="M 537.86597,216.36886 V 328.42035"
         style="fill:none;stroke:#000000;stroke-width:3.41675258;stroke-linecap:round;stroke-linejoin:miter;stroke-miterlimit:4;stroke-dasharray:none;stroke-opacity:1" />
      <text
         xml:space="preserve"
         style="font-style:normal;font-weight:normal;font-size:96.15619659px;line-height:1.25;font-family:sans-serif;letter-spacing:0px;word-spacing:0px;fill:#000000;fill-opacity:1;stroke:none;stroke-width:2.40390491"
         x="608.80481"
         y="128.52609"
         id="text13753"
         transform="scale(1.0094341,0.99065408)"><tspan
           sodipodi:role="line"
           id="tspan13751"
           x="608.80481"
           y="128.52609"
           style="font-style:normal;font-variant:normal;font-weight:normal;font-stretch:normal;font-size:38.46247864px;font-family:'Segoe MDL2 Assets';-inkscape-font-specification:'Segoe MDL2 Assets';stroke-width:2.40390491">LTC6811</tspan></text>
    </g>
    <rect
       style="fill:#a9a9a9;fill-opacity:1;stroke:#000000;stroke-width:0.45016286;stroke-linecap:round;stroke-linejoin:round;stroke-miterlimit:4;stroke-dasharray:none;stroke-opacity:1;paint-order:fill markers stroke"
       id="rect4361"
       width="19.549837"
       height="83.549835"
       x="42.572407"
       y="213.22508" />
    <text
       xml:space="preserve"
       style="font-style:normal;font-weight:normal;font-size:10.58333397px;line-height:1.25;font-family:sans-serif;letter-spacing:0px;word-spacing:0px;fill:#000000;fill-opacity:1;stroke:none;stroke-width:0.26458335"
       x="42.762287"
       y="242.34955"
       id="text4369"><tspan
         sodipodi:role="line"
         id="tspan4367"
         x="42.762287"
         y="242.34955"
         style="font-size:4.23333311px;stroke-width:0.26458335">C9</tspan></text>
    <text
       xml:space="preserve"
       style="font-style:normal;font-weight:normal;font-size:10.58333397px;line-height:1.25;font-family:sans-serif;letter-spacing:0px;word-spacing:0px;fill:#000000;fill-opacity:1;stroke:none;stroke-width:0.26458338"
       x="42.762287"
       y="236.12755"
       id="text4369-1"><tspan
         sodipodi:role="line"
         id="tspan4367-7"
         x="42.762287"
         y="236.12755"
         style="font-size:4.23333311px;stroke-width:0.26458338">C10</tspan></text>
    <text
       xml:space="preserve"
       style="font-style:normal;font-weight:normal;font-size:10.58333397px;line-height:1.25;font-family:sans-serif;letter-spacing:0px;word-spacing:0px;fill:#000000;fill-opacity:1;stroke:none;stroke-width:0.26458338"
       x="42.762287"
       y="285.90155"
       id="text4369-16"><tspan
         sodipodi:role="line"
         id="tspan4367-3"
         x="42.762287"
         y="285.90155"
         style="font-size:4.23333311px;stroke-width:0.26458338">C2</tspan></text>
    <text
       xml:space="preserve"
       style="font-style:normal;font-weight:normal;font-size:10.58354664px;line-height:1.25;font-family:sans-serif;letter-spacing:0px;word-spacing:0px;fill:#000000;fill-opacity:1;stroke:none;stroke-width:0.26458868"
       x="42.763149"
       y="292.11569"
       id="text4369-7"
       transform="scale(0.99997991,1.0000201)"><tspan
         sodipodi:role="line"
         id="tspan4367-2"
         x="42.763149"
         y="292.11569"
         style="font-size:4.23341799px;stroke-width:0.26458868">C1</tspan></text>
    <text
       xml:space="preserve"
       style="font-style:normal;font-weight:normal;font-size:10.58333397px;line-height:1.25;font-family:sans-serif;letter-spacing:0px;word-spacing:0px;fill:#000000;fill-opacity:1;stroke:none;stroke-width:0.26458341"
       x="42.762287"
       y="279.67856"
       id="text4369-16-3"><tspan
         sodipodi:role="line"
         id="tspan4367-3-7"
         x="42.762287"
         y="279.67856"
         style="font-size:4.23333311px;stroke-width:0.26458341">C3</tspan></text>
    <text
       xml:space="preserve"
       style="font-style:normal;font-weight:normal;font-size:10.58333397px;line-height:1.25;font-family:sans-serif;letter-spacing:0px;word-spacing:0px;fill:#000000;fill-opacity:1;stroke:none;stroke-width:0.26458341"
       x="42.762287"
       y="273.45654"
       id="text4369-16-7"><tspan
         sodipodi:role="line"
         id="tspan4367-3-3"
         x="42.762287"
         y="273.45654"
         style="font-size:4.23333311px;stroke-width:0.26458341">C4</tspan></text>
    <text
       xml:space="preserve"
       style="font-style:normal;font-weight:normal;font-size:10.58354664px;line-height:1.25;font-family:sans-serif;letter-spacing:0px;word-spacing:0px;fill:#000000;fill-opacity:1;stroke:none;stroke-width:0.26458871"
       x="42.763145"
       y="267.2312"
       id="text4369-16-76"
       transform="scale(0.99997995,1.0000201)"><tspan
         sodipodi:role="line"
         id="tspan4367-3-1"
         x="42.763145"
         y="267.2312"
         style="font-size:4.23341799px;stroke-width:0.26458871">C5</tspan></text>
    <text
       xml:space="preserve"
       style="font-style:normal;font-weight:normal;font-size:10.58333397px;line-height:1.25;font-family:sans-serif;letter-spacing:0px;word-spacing:0px;fill:#000000;fill-opacity:1;stroke:none;stroke-width:0.26458341"
       x="42.762287"
       y="254.89256"
       id="text4369-16-1"><tspan
         sodipodi:role="line"
         id="tspan4367-3-79"
         x="42.762287"
         y="254.89256"
         style="font-size:4.23333311px;stroke-width:0.26458341">C7</tspan></text>
    <text
       xml:space="preserve"
       style="font-style:normal;font-weight:normal;font-size:10.58333397px;line-height:1.25;font-family:sans-serif;letter-spacing:0px;word-spacing:0px;fill:#000000;fill-opacity:1;stroke:none;stroke-width:0.26458341"
       x="42.762287"
       y="261.01456"
       id="text4369-16-6"><tspan
         sodipodi:role="line"
         id="tspan4367-3-0"
         x="42.762287"
         y="261.01456"
         style="font-size:4.23333311px;stroke-width:0.26458341">C6</tspan></text>
    <text
       xml:space="preserve"
       style="font-style:normal;font-weight:normal;font-size:10.58333397px;line-height:1.25;font-family:sans-serif;letter-spacing:0px;word-spacing:0px;fill:#000000;fill-opacity:1;stroke:none;stroke-width:0.26458341"
       x="42.762287"
       y="248.57056"
       id="text4369-16-4"><tspan
         sodipodi:role="line"
         id="tspan4367-3-5"
         x="42.762287"
         y="248.57056"
         style="font-size:4.23333311px;stroke-width:0.26458341">C8</tspan></text>
    <text
       xml:space="preserve"
       style="font-style:normal;font-weight:normal;font-size:10.58333397px;line-height:1.25;font-family:sans-serif;letter-spacing:0px;word-spacing:0px;fill:#000000;fill-opacity:1;stroke:none;stroke-width:0.26458341"
       x="42.762287"
       y="229.90555"
       id="text4369-16-68"><tspan
         sodipodi:role="line"
         id="tspan4367-3-54"
         x="42.762287"
         y="229.90555"
         style="font-size:4.23333311px;stroke-width:0.26458341">C11</tspan></text>
    <text
       xml:space="preserve"
       style="font-style:normal;font-weight:normal;font-size:10.58333397px;line-height:1.25;font-family:sans-serif;letter-spacing:0px;word-spacing:0px;fill:#000000;fill-opacity:1;stroke:none;stroke-width:0.26458341"
       x="42.762287"
       y="223.68456"
       id="text4369-16-61"><tspan
         sodipodi:role="line"
         id="tspan4367-3-78"
         x="42.762287"
         y="223.68456"
         style="font-size:4.23333311px;stroke-width:0.26458341">C12</tspan></text>
    <path
       style="fill:none;stroke:#000000;stroke-width:0.34999999;stroke-linecap:butt;stroke-linejoin:miter;stroke-miterlimit:4;stroke-dasharray:none;stroke-opacity:1"
       d="m 23.243801,290.58107 h 5"
       id="path4407-4-5"
       inkscape:connector-curvature="0" />
    <g
       id="g1087-1-4"
       transform="matrix(0.11251282,0,0,0.11251282,27.456212,196.47347)">
      <path
         inkscape:connector-curvature="0"
         id="path5036-1-2"
         d="M 7,836.41665 H 21"
         style="fill:none;stroke:#000000;stroke-width:3.5;stroke-linecap:round;stroke-linejoin:miter;stroke-miterlimit:4;stroke-dasharray:none;stroke-opacity:1"
         sodipodi:nodetypes="cc" />
      <path
         inkscape:connector-curvature="0"
         id="path5038-3-0"
         d="m 55.999996,836.41665 h 14"
         style="fill:none;stroke:#000000;stroke-width:3.5;stroke-linecap:round;stroke-linejoin:miter;stroke-miterlimit:4;stroke-dasharray:none;stroke-opacity:1"
         sodipodi:nodetypes="cc" />
      <rect
         y="829.41669"
         x="21.000002"
         height="13.999982"
         width="34.999996"
         id="rect5044-0-3"
         style="color:#000000;display:inline;overflow:visible;visibility:visible;fill:none;stroke:#000000;stroke-width:3.5;stroke-linecap:square;stroke-linejoin:round;stroke-miterlimit:4;stroke-dasharray:none;stroke-dashoffset:0;stroke-opacity:1;marker:none" />
    </g>
    <path
       style="fill:none;stroke:#000000;stroke-width:0.37156269;stroke-linecap:butt;stroke-linejoin:miter;stroke-miterlimit:4;stroke-dasharray:none;stroke-opacity:1"
       d="m 35.332108,290.58107 h 7.336679"
       id="path4457-9-2"
       inkscape:connector-curvature="0" />
    <path
       style="fill:none;stroke:#000000;stroke-width:0.34999999;stroke-linecap:butt;stroke-linejoin:miter;stroke-miterlimit:4;stroke-dasharray:none;stroke-opacity:1"
       d="m 23.243801,284.35934 h 5"
       id="path4407-4-2"
       inkscape:connector-curvature="0" />
    <g
       id="g1087-1-8"
       transform="matrix(0.11251282,0,0,0.11251282,27.456212,190.25174)">
      <path
         inkscape:connector-curvature="0"
         id="path5036-1-5"
         d="M 7,836.41665 H 21"
         style="fill:none;stroke:#000000;stroke-width:3.5;stroke-linecap:round;stroke-linejoin:miter;stroke-miterlimit:4;stroke-dasharray:none;stroke-opacity:1"
         sodipodi:nodetypes="cc" />
      <path
         inkscape:connector-curvature="0"
         id="path5038-3-3"
         d="m 55.999996,836.41665 h 14"
         style="fill:none;stroke:#000000;stroke-width:3.5;stroke-linecap:round;stroke-linejoin:miter;stroke-miterlimit:4;stroke-dasharray:none;stroke-opacity:1"
         sodipodi:nodetypes="cc" />
      <rect
         y="829.41669"
         x="21.000002"
         height="13.999982"
         width="34.999996"
         id="rect5044-0-4"
         style="color:#000000;display:inline;overflow:visible;visibility:visible;fill:none;stroke:#000000;stroke-width:3.5;stroke-linecap:square;stroke-linejoin:round;stroke-miterlimit:4;stroke-dasharray:none;stroke-dashoffset:0;stroke-opacity:1;marker:none" />
    </g>
    <path
       style="fill:none;stroke:#000000;stroke-width:0.37156269;stroke-linecap:butt;stroke-linejoin:miter;stroke-miterlimit:4;stroke-dasharray:none;stroke-opacity:1"
       d="m 35.332108,284.35934 h 7.336679"
       id="path4457-9-4"
       inkscape:connector-curvature="0" />
    <path
       style="fill:none;stroke:#000000;stroke-width:0.34999999;stroke-linecap:butt;stroke-linejoin:miter;stroke-miterlimit:4;stroke-dasharray:none;stroke-opacity:1"
       d="m 23.243801,278.13761 h 5"
       id="path4407-4-4"
       inkscape:connector-curvature="0" />
    <g
       id="g1087-1-9"
       transform="matrix(0.11251282,0,0,0.11251282,27.456212,184.03001)">
      <path
         inkscape:connector-curvature="0"
         id="path5036-1-6"
         d="M 7,836.41665 H 21"
         style="fill:none;stroke:#000000;stroke-width:3.5;stroke-linecap:round;stroke-linejoin:miter;stroke-miterlimit:4;stroke-dasharray:none;stroke-opacity:1"
         sodipodi:nodetypes="cc" />
      <path
         inkscape:connector-curvature="0"
         id="path5038-3-9"
         d="m 55.999996,836.41665 h 14"
         style="fill:none;stroke:#000000;stroke-width:3.5;stroke-linecap:round;stroke-linejoin:miter;stroke-miterlimit:4;stroke-dasharray:none;stroke-opacity:1"
         sodipodi:nodetypes="cc" />
      <rect
         y="829.41669"
         x="21.000002"
         height="13.999982"
         width="34.999996"
         id="rect5044-0-7"
         style="color:#000000;display:inline;overflow:visible;visibility:visible;fill:none;stroke:#000000;stroke-width:3.5;stroke-linecap:square;stroke-linejoin:round;stroke-miterlimit:4;stroke-dasharray:none;stroke-dashoffset:0;stroke-opacity:1;marker:none" />
    </g>
    <path
       style="fill:none;stroke:#000000;stroke-width:0.37156269;stroke-linecap:butt;stroke-linejoin:miter;stroke-miterlimit:4;stroke-dasharray:none;stroke-opacity:1"
       d="m 35.332108,278.13761 h 7.336679"
       id="path4457-9-7"
       inkscape:connector-curvature="0" />
    <path
       style="fill:none;stroke:#000000;stroke-width:0.34999999;stroke-linecap:butt;stroke-linejoin:miter;stroke-miterlimit:4;stroke-dasharray:none;stroke-opacity:1"
       d="m 23.243801,271.91588 h 5"
       id="path4407-4-8"
       inkscape:connector-curvature="0" />
    <g
       id="g1087-1-1"
       transform="matrix(0.11251282,0,0,0.11251282,27.456212,177.80828)">
      <path
         inkscape:connector-curvature="0"
         id="path5036-1-68"
         d="M 7,836.41665 H 21"
         style="fill:none;stroke:#000000;stroke-width:3.5;stroke-linecap:round;stroke-linejoin:miter;stroke-miterlimit:4;stroke-dasharray:none;stroke-opacity:1"
         sodipodi:nodetypes="cc" />
      <path
         inkscape:connector-curvature="0"
         id="path5038-3-5"
         d="m 55.999996,836.41665 h 14"
         style="fill:none;stroke:#000000;stroke-width:3.5;stroke-linecap:round;stroke-linejoin:miter;stroke-miterlimit:4;stroke-dasharray:none;stroke-opacity:1"
         sodipodi:nodetypes="cc" />
      <rect
         y="829.41669"
         x="21.000002"
         height="13.999982"
         width="34.999996"
         id="rect5044-0-2"
         style="color:#000000;display:inline;overflow:visible;visibility:visible;fill:none;stroke:#000000;stroke-width:3.5;stroke-linecap:square;stroke-linejoin:round;stroke-miterlimit:4;stroke-dasharray:none;stroke-dashoffset:0;stroke-opacity:1;marker:none" />
    </g>
    <path
       style="fill:none;stroke:#000000;stroke-width:0.37156269;stroke-linecap:butt;stroke-linejoin:miter;stroke-miterlimit:4;stroke-dasharray:none;stroke-opacity:1"
       d="m 35.332108,271.91588 h 7.336679"
       id="path4457-9-0"
       inkscape:connector-curvature="0" />
    <path
       style="fill:none;stroke:#000000;stroke-width:0.34999999;stroke-linecap:butt;stroke-linejoin:miter;stroke-miterlimit:4;stroke-dasharray:none;stroke-opacity:1"
       d="m 23.243801,240.80723 h 5"
       id="path4407-4-8-8"
       inkscape:connector-curvature="0" />
    <g
       id="g1087-1-1-2"
       transform="matrix(0.11251282,0,0,0.11251282,27.456212,146.69963)">
      <path
         inkscape:connector-curvature="0"
         id="path5036-1-68-6"
         d="M 7,836.41665 H 21"
         style="fill:none;stroke:#000000;stroke-width:3.5;stroke-linecap:round;stroke-linejoin:miter;stroke-miterlimit:4;stroke-dasharray:none;stroke-opacity:1"
         sodipodi:nodetypes="cc" />
      <path
         inkscape:connector-curvature="0"
         id="path5038-3-5-1"
         d="m 55.999996,836.41665 h 14"
         style="fill:none;stroke:#000000;stroke-width:3.5;stroke-linecap:round;stroke-linejoin:miter;stroke-miterlimit:4;stroke-dasharray:none;stroke-opacity:1"
         sodipodi:nodetypes="cc" />
      <rect
         y="829.41669"
         x="21.000002"
         height="13.999982"
         width="34.999996"
         id="rect5044-0-2-3"
         style="color:#000000;display:inline;overflow:visible;visibility:visible;fill:none;stroke:#000000;stroke-width:3.5;stroke-linecap:square;stroke-linejoin:round;stroke-miterlimit:4;stroke-dasharray:none;stroke-dashoffset:0;stroke-opacity:1;marker:none" />
    </g>
    <path
       style="fill:none;stroke:#000000;stroke-width:0.37156269;stroke-linecap:butt;stroke-linejoin:miter;stroke-miterlimit:4;stroke-dasharray:none;stroke-opacity:1"
       d="m 35.332108,240.80723 h 7.336679"
       id="path4457-9-0-6"
       inkscape:connector-curvature="0" />
    <path
       style="fill:none;stroke:#000000;stroke-width:0.34999999;stroke-linecap:butt;stroke-linejoin:miter;stroke-miterlimit:4;stroke-dasharray:none;stroke-opacity:1"
       d="m 23.243801,234.5855 h 5"
       id="path4407-4-8-6"
       inkscape:connector-curvature="0" />
    <g
       id="g1087-1-1-7"
       transform="matrix(0.11251282,0,0,0.11251282,27.456212,140.4779)">
      <path
         inkscape:connector-curvature="0"
         id="path5036-1-68-4"
         d="M 7,836.41665 H 21"
         style="fill:none;stroke:#000000;stroke-width:3.5;stroke-linecap:round;stroke-linejoin:miter;stroke-miterlimit:4;stroke-dasharray:none;stroke-opacity:1"
         sodipodi:nodetypes="cc" />
      <path
         inkscape:connector-curvature="0"
         id="path5038-3-5-7"
         d="m 55.999996,836.41665 h 14"
         style="fill:none;stroke:#000000;stroke-width:3.5;stroke-linecap:round;stroke-linejoin:miter;stroke-miterlimit:4;stroke-dasharray:none;stroke-opacity:1"
         sodipodi:nodetypes="cc" />
      <rect
         y="829.41669"
         x="21.000002"
         height="13.999982"
         width="34.999996"
         id="rect5044-0-2-7"
         style="color:#000000;display:inline;overflow:visible;visibility:visible;fill:none;stroke:#000000;stroke-width:3.5;stroke-linecap:square;stroke-linejoin:round;stroke-miterlimit:4;stroke-dasharray:none;stroke-dashoffset:0;stroke-opacity:1;marker:none" />
    </g>
    <path
       style="fill:none;stroke:#000000;stroke-width:0.37156269;stroke-linecap:butt;stroke-linejoin:miter;stroke-miterlimit:4;stroke-dasharray:none;stroke-opacity:1"
       d="m 35.332108,234.5855 h 7.336679"
       id="path4457-9-0-65"
       inkscape:connector-curvature="0" />
    <path
       style="fill:none;stroke:#000000;stroke-width:0.37156269;stroke-linecap:butt;stroke-linejoin:miter;stroke-miterlimit:4;stroke-dasharray:none;stroke-opacity:1"
       d="m 35.332108,228.36377 h 7.336679"
       id="path4457-9-0-65-8"
       inkscape:connector-curvature="0" />
    <path
       style="fill:none;stroke:#000000;stroke-width:0.37156269;stroke-linecap:butt;stroke-linejoin:miter;stroke-miterlimit:4;stroke-dasharray:none;stroke-opacity:1"
       d="m 35.332108,222.14204 h 7.336679"
       id="path4457-9-0-65-4"
       inkscape:connector-curvature="0" />
    <text
       xml:space="preserve"
       style="font-style:normal;font-weight:normal;font-size:10.58354664px;line-height:1.25;font-family:sans-serif;letter-spacing:0px;word-spacing:0px;fill:#000000;fill-opacity:1;stroke:none;stroke-width:0.26458868"
       x="56.26342"
       y="292.11618"
       id="text4369-7-9"
       transform="scale(0.99997991,1.0000201)"><tspan
         sodipodi:role="line"
         id="tspan4367-2-4"
         x="56.26342"
         y="292.11618"
         style="font-size:4.23341799px;stroke-width:0.26458868">C0</tspan></text>
    <text
       xml:space="preserve"
       style="font-style:normal;font-weight:normal;font-size:10.58354664px;line-height:1.25;font-family:sans-serif;letter-spacing:0px;word-spacing:0px;fill:#000000;fill-opacity:1;stroke:none;stroke-width:0.26458868"
       x="56.26342"
       y="285.89529"
       id="text4369-7-9-8"
       transform="scale(0.99997991,1.0000201)"><tspan
         sodipodi:role="line"
         id="tspan4367-2-4-1"
         x="56.26342"
         y="285.89529"
         style="font-size:4.23341799px;stroke-width:0.26458868">V-</tspan></text>
    <path
       style="fill:none;stroke:#000000;stroke-width:0.34999999;stroke-linecap:butt;stroke-linejoin:miter;stroke-miterlimit:4;stroke-dasharray:none;stroke-opacity:1"
       d="m 23.243801,296.8028 v 5.14168"
       id="path4979"
       inkscape:connector-curvature="0"
       sodipodi:nodetypes="cc" />
    <path
       style="fill:none;stroke:#000000;stroke-width:0.34999999;stroke-linecap:round;stroke-linejoin:round;stroke-miterlimit:4;stroke-dasharray:none;stroke-opacity:1"
       d="m 23.243801,301.94448 h 5"
       id="path4407-4-4-3"
       inkscape:connector-curvature="0" />
    <g
       id="g1087-1-9-4"
       transform="matrix(0.11251282,0,0,0.11251282,27.456212,207.83688)">
      <path
         inkscape:connector-curvature="0"
         id="path5036-1-6-9"
         d="M 7,836.41665 H 21"
         style="fill:none;stroke:#000000;stroke-width:3.5;stroke-linecap:round;stroke-linejoin:miter;stroke-miterlimit:4;stroke-dasharray:none;stroke-opacity:1"
         sodipodi:nodetypes="cc" />
      <path
         inkscape:connector-curvature="0"
         id="path5038-3-9-0"
         d="m 55.999996,836.41665 h 14"
         style="fill:none;stroke:#000000;stroke-width:3.5;stroke-linecap:round;stroke-linejoin:miter;stroke-miterlimit:4;stroke-dasharray:none;stroke-opacity:1"
         sodipodi:nodetypes="cc" />
      <rect
         y="829.41669"
         x="21.000002"
         height="13.999982"
         width="34.999996"
         id="rect5044-0-7-4"
         style="color:#000000;display:inline;overflow:visible;visibility:visible;fill:none;stroke:#000000;stroke-width:3.5;stroke-linecap:square;stroke-linejoin:round;stroke-miterlimit:4;stroke-dasharray:none;stroke-dashoffset:0;stroke-opacity:1;marker:none" />
    </g>
    <path
       style="fill:none;stroke:#000000;stroke-width:0.48780966;stroke-linecap:butt;stroke-linejoin:miter;stroke-miterlimit:4;stroke-dasharray:none;stroke-opacity:1"
       d="M 33.811941,301.944 H 70.358704"
       id="path4457-9-7-6"
       inkscape:connector-curvature="0" />
    <path
       style="fill:none;stroke:#000000;stroke-width:0.47982946;stroke-linecap:butt;stroke-linejoin:miter;stroke-miterlimit:4;stroke-dasharray:none;stroke-opacity:1"
       d="m 62.013147,290.529 h 8.405757"
       id="path4457-9-2-5"
       inkscape:connector-curvature="0" />
    <path
       style="fill:none;stroke:#000000;stroke-width:0.34999999;stroke-linecap:butt;stroke-linejoin:miter;stroke-miterlimit:4;stroke-dasharray:none;stroke-opacity:1"
       d="m 23.243801,247.02896 h 5"
       id="path4407-4-8-8-0"
       inkscape:connector-curvature="0" />
    <g
       id="g1087-1-1-2-9"
       transform="matrix(0.11251282,0,0,0.11251282,27.456212,152.92136)">
      <path
         inkscape:connector-curvature="0"
         id="path5036-1-68-6-1"
         d="M 7,836.41665 H 21"
         style="fill:none;stroke:#000000;stroke-width:3.5;stroke-linecap:round;stroke-linejoin:miter;stroke-miterlimit:4;stroke-dasharray:none;stroke-opacity:1"
         sodipodi:nodetypes="cc" />
      <path
         inkscape:connector-curvature="0"
         id="path5038-3-5-1-1"
         d="m 55.999996,836.41665 h 14"
         style="fill:none;stroke:#000000;stroke-width:3.5;stroke-linecap:round;stroke-linejoin:miter;stroke-miterlimit:4;stroke-dasharray:none;stroke-opacity:1"
         sodipodi:nodetypes="cc" />
      <rect
         y="829.41669"
         x="21.000002"
         height="13.999982"
         width="34.999996"
         id="rect5044-0-2-3-1"
         style="color:#000000;display:inline;overflow:visible;visibility:visible;fill:none;stroke:#000000;stroke-width:3.5;stroke-linecap:square;stroke-linejoin:round;stroke-miterlimit:4;stroke-dasharray:none;stroke-dashoffset:0;stroke-opacity:1;marker:none" />
    </g>
    <path
       style="fill:none;stroke:#000000;stroke-width:0.37156269;stroke-linecap:butt;stroke-linejoin:miter;stroke-miterlimit:4;stroke-dasharray:none;stroke-opacity:1"
       d="m 35.332108,247.02896 h 7.336679"
       id="path4457-9-0-6-5"
       inkscape:connector-curvature="0" />
    <path
       style="fill:none;stroke:#000000;stroke-width:0.34999999;stroke-linecap:butt;stroke-linejoin:miter;stroke-miterlimit:4;stroke-dasharray:none;stroke-opacity:1"
       d="m 23.243801,253.25069 h 5"
       id="path4407-4-8-8-01"
       inkscape:connector-curvature="0" />
    <g
       id="g1087-1-1-2-1"
       transform="matrix(0.11251282,0,0,0.11251282,27.456212,159.14309)">
      <path
         inkscape:connector-curvature="0"
         id="path5036-1-68-6-5"
         d="M 7,836.41665 H 21"
         style="fill:none;stroke:#000000;stroke-width:3.5;stroke-linecap:round;stroke-linejoin:miter;stroke-miterlimit:4;stroke-dasharray:none;stroke-opacity:1"
         sodipodi:nodetypes="cc" />
      <path
         inkscape:connector-curvature="0"
         id="path5038-3-5-1-9"
         d="m 55.999996,836.41665 h 14"
         style="fill:none;stroke:#000000;stroke-width:3.5;stroke-linecap:round;stroke-linejoin:miter;stroke-miterlimit:4;stroke-dasharray:none;stroke-opacity:1"
         sodipodi:nodetypes="cc" />
      <rect
         y="829.41669"
         x="21.000002"
         height="13.999982"
         width="34.999996"
         id="rect5044-0-2-3-18"
         style="color:#000000;display:inline;overflow:visible;visibility:visible;fill:none;stroke:#000000;stroke-width:3.5;stroke-linecap:square;stroke-linejoin:round;stroke-miterlimit:4;stroke-dasharray:none;stroke-dashoffset:0;stroke-opacity:1;marker:none" />
    </g>
    <path
       style="fill:none;stroke:#000000;stroke-width:0.37156269;stroke-linecap:butt;stroke-linejoin:miter;stroke-miterlimit:4;stroke-dasharray:none;stroke-opacity:1"
       d="m 35.332108,253.25069 h 7.336679"
       id="path4457-9-0-6-1"
       inkscape:connector-curvature="0" />
    <path
       style="fill:none;stroke:#000000;stroke-width:0.375;stroke-linecap:butt;stroke-linejoin:miter;stroke-opacity:1;stroke-miterlimit:4;stroke-dasharray:none"
       d="M 23.243801,230.69692 V 216.11309"
       id="path5183"
       inkscape:connector-curvature="0" />
    <path
       style="fill:none;stroke:#000000;stroke-width:0.34999999;stroke-linecap:butt;stroke-linejoin:miter;stroke-miterlimit:4;stroke-dasharray:none;stroke-opacity:1"
       d="m 23.243801,216.11309 h 5"
       id="path4407-4-8-8-6"
       inkscape:connector-curvature="0" />
    <g
       id="g1087-1-1-2-8"
       transform="matrix(0.11251282,0,0,0.11251282,27.456212,122.00549)">
      <path
         inkscape:connector-curvature="0"
         id="path5036-1-68-6-50"
         d="M 7,836.41665 H 21"
         style="fill:none;stroke:#000000;stroke-width:3.5;stroke-linecap:round;stroke-linejoin:miter;stroke-miterlimit:4;stroke-dasharray:none;stroke-opacity:1"
         sodipodi:nodetypes="cc" />
      <path
         inkscape:connector-curvature="0"
         id="path5038-3-5-1-5"
         d="m 55.999996,836.41665 h 14"
         style="fill:none;stroke:#000000;stroke-width:3.5;stroke-linecap:round;stroke-linejoin:miter;stroke-miterlimit:4;stroke-dasharray:none;stroke-opacity:1"
         sodipodi:nodetypes="cc" />
      <rect
         y="829.41669"
         x="21.000002"
         height="13.999982"
         width="34.999996"
         id="rect5044-0-2-3-4"
         style="color:#000000;display:inline;overflow:visible;visibility:visible;fill:none;stroke:#000000;stroke-width:3.5;stroke-linecap:square;stroke-linejoin:round;stroke-miterlimit:4;stroke-dasharray:none;stroke-dashoffset:0;stroke-opacity:1;marker:none" />
    </g>
    <path
       style="fill:none;stroke:#000000;stroke-width:0.37156269;stroke-linecap:butt;stroke-linejoin:miter;stroke-miterlimit:4;stroke-dasharray:none;stroke-opacity:1"
       d="m 35.332108,216.11309 h 7.336679"
       id="path4457-9-0-6-6"
       inkscape:connector-curvature="0" />
    <text
       xml:space="preserve"
       style="font-style:normal;font-weight:normal;font-size:10.58333397px;line-height:1.25;font-family:sans-serif;letter-spacing:0px;word-spacing:0px;fill:#000000;fill-opacity:1;stroke:none;stroke-width:0.26458341"
       x="42.966927"
       y="217.64006"
       id="text4369-16-61-9"><tspan
         sodipodi:role="line"
         id="tspan4367-3-78-4"
         x="42.966927"
         y="217.64006"
         style="font-size:4.23333311px;stroke-width:0.26458341">V+</tspan></text>
  </g>
</svg>
