<?xml version="1.0" encoding="UTF-8" standalone="no"?>
<!-- Created with Inkscape (http://www.inkscape.org/) -->

<svg
   xmlns:dc="http://purl.org/dc/elements/1.1/"
   xmlns:cc="http://creativecommons.org/ns#"
   xmlns:rdf="http://www.w3.org/1999/02/22-rdf-syntax-ns#"
   xmlns:svg="http://www.w3.org/2000/svg"
   xmlns="http://www.w3.org/2000/svg"
   xmlns:sodipodi="http://sodipodi.sourceforge.net/DTD/sodipodi-0.dtd"
   xmlns:inkscape="http://www.inkscape.org/namespaces/inkscape"
   width="210mm"
   height="297mm"
   viewBox="0 0 210 297"
   version="1.1"
   id="svg16008"
   inkscape:version="0.92.3 (2405546, 2018-03-11)"
   sodipodi:docname="ADCV_Command_Measuring.svg">
  <defs
     id="defs16002">
    <clipPath
       clipPathUnits="userSpaceOnUse"
       id="clipPath15159">
      <path
         d="M 90.416,363.084 H 520.984 V 482.4 H 90.416 Z"
         id="path15157"
         inkscape:connector-curvature="0" />
    </clipPath>
  </defs>
  <sodipodi:namedview
     id="base"
     pagecolor="#ffffff"
     bordercolor="#666666"
     borderopacity="1.0"
     inkscape:pageopacity="0.0"
     inkscape:pageshadow="2"
     inkscape:zoom="1.4"
     inkscape:cx="330.91651"
     inkscape:cy="430.52106"
     inkscape:document-units="mm"
     inkscape:current-layer="layer1"
     showgrid="false"
     inkscape:window-width="1920"
     inkscape:window-height="1017"
     inkscape:window-x="-8"
     inkscape:window-y="-8"
     inkscape:window-maximized="1" />
  <metadata
     id="metadata16005">
    <rdf:RDF>
      <cc:Work
         rdf:about="">
        <dc:format>image/svg+xml</dc:format>
        <dc:type
           rdf:resource="http://purl.org/dc/dcmitype/StillImage" />
        <dc:title></dc:title>
      </cc:Work>
    </rdf:RDF>
  </metadata>
  <g
     inkscape:label="Ebene 1"
     inkscape:groupmode="layer"
     id="layer1">
    <g
       id="g14773"
       transform="matrix(0.63606944,0,0,-0.57213541,73.48273,187.35289)">
      <path
         d="M 0,0 V 98.888"
         style="fill:none;stroke:#000000;stroke-width:0.30000001;stroke-linecap:butt;stroke-linejoin:miter;stroke-miterlimit:4;stroke-dasharray:none;stroke-opacity:1"
         id="path14775"
         inkscape:connector-curvature="0" />
    </g>
    <g
       id="g14797"
       transform="matrix(0.63606944,0,0,-0.73450339,134.12466,187.35289)">
      <path
         d="M 0,0 V 77.028"
         style="fill:none;stroke:#000000;stroke-width:0.30000001;stroke-linecap:butt;stroke-linejoin:miter;stroke-miterlimit:4;stroke-dasharray:none;stroke-opacity:1"
         id="path14799"
         inkscape:connector-curvature="0" />
    </g>
    <g
       id="g14805"
       transform="matrix(0.63606944,0,0,-0.63606944,67.281053,187.35289)">
      <path
         d="M 0,0 V 82.987"
         style="fill:none;stroke:#000000;stroke-width:0.30000001;stroke-linecap:butt;stroke-linejoin:miter;stroke-miterlimit:4;stroke-dasharray:none;stroke-opacity:1"
         id="path14807"
         inkscape:connector-curvature="0" />
    </g>
    <g
       id="g14809"
       transform="matrix(0.63606944,0,0,-0.63606944,104.75188,187.35289)">
      <path
         d="M 0,0 V 88.948"
         style="fill:none;stroke:#000000;stroke-width:0.30000001;stroke-linecap:butt;stroke-linejoin:miter;stroke-miterlimit:4;stroke-dasharray:none;stroke-opacity:1"
         id="path14811"
         inkscape:connector-curvature="0" />
    </g>
    <g
       id="g14843"
       transform="matrix(0.63606944,0,0,-0.63606944,134.12715,161.14734)">
      <path
         d="M 0,0 -6.156,-10.499 H -35.853 L -42.009,0 l 6.156,10.5 h 29.697 z"
         style="fill:#ffeeaa;stroke:#000000;stroke-width:1.20000005;stroke-linecap:butt;stroke-linejoin:miter;stroke-miterlimit:4;stroke-dasharray:none;stroke-opacity:1"
         id="path14845"
         inkscape:connector-curvature="0" />
    </g>
    <g
       id="g14853"
       transform="matrix(0.63606944,0,0,-0.63606944,104.75372,161.14734)"
       style="fill:#ffccaa">
      <path
         d="M 0,0 -6.156,-10.499 H -35.853 L -42.009,0 l 6.156,10.5 h 29.697 z"
         style="fill:#ffccaa;stroke:#000000;stroke-width:1.20000005;stroke-linecap:butt;stroke-linejoin:miter;stroke-miterlimit:4;stroke-dasharray:none;stroke-opacity:1"
         id="path14855"
         inkscape:connector-curvature="0" />
    </g>
    <g
       id="g14891"
       transform="matrix(0.63606944,0,0,-0.63606944,76.504045,136.41454)">
      <path
         d="M 0,0 H 6.08"
         style="fill:none;stroke:#000000;stroke-width:0.30000001;stroke-linecap:butt;stroke-linejoin:miter;stroke-miterlimit:4;stroke-dasharray:none;stroke-opacity:1"
         id="path14893"
         inkscape:connector-curvature="0" />
    </g>
    <g
       id="g14895"
       transform="matrix(0.63606944,0,0,-0.63606944,76.504045,136.41454)">
      <path
         d="m 0,0 0.914,-1.537 -5.617,1.514 V 0.031 L 0.914,1.545 0,0.01 Z"
         style="fill:#000000;fill-opacity:1;fill-rule:nonzero;stroke:none"
         id="path14897"
         inkscape:connector-curvature="0" />
    </g>
    <g
       id="g14899"
       transform="matrix(0.63606944,0,0,-0.63606944,64.259718,136.41454)">
      <path
         d="M 0,0 H -6.08"
         style="fill:none;stroke:#000000;stroke-width:0.30000001;stroke-linecap:butt;stroke-linejoin:miter;stroke-miterlimit:4;stroke-dasharray:none;stroke-opacity:1"
         id="path14901"
         inkscape:connector-curvature="0" />
    </g>
    <g
       id="g14903"
       transform="matrix(0.63606944,0,0,-0.63606944,64.259718,136.41454)">
      <path
         d="m 0,0 -0.914,-1.537 5.617,1.514 V 0.031 L -0.914,1.545 0,0.01 Z"
         style="fill:#000000;fill-opacity:1;fill-rule:nonzero;stroke:none"
         id="path14905"
         inkscape:connector-curvature="0" />
    </g>
    <g
       id="g14943"
       transform="matrix(0.63606944,0,0,-0.63606944,135.39681,161.14734)">
      <path
         d="M 0,0 H -2"
         style="fill:none;stroke:#000000;stroke-width:1.20000005;stroke-linecap:butt;stroke-linejoin:miter;stroke-miterlimit:4;stroke-dasharray:none;stroke-opacity:1"
         id="path14945"
         inkscape:connector-curvature="0" />
    </g>
    <g
       id="g14967"
       transform="matrix(0.63606944,0,0,-0.63606944,135.39681,145.05492)">
      <path
         d="M 0,0 H -2"
         style="fill:none;stroke:#000000;stroke-width:1.20000005;stroke-linecap:butt;stroke-linejoin:miter;stroke-miterlimit:4;stroke-dasharray:none;stroke-opacity:1"
         id="path14969"
         inkscape:connector-curvature="0" />
    </g>
    <g
       id="g14971"
       transform="matrix(0.63606944,0,0,-0.63606944,107.40352,161.14734)">
      <path
         d="M 0,0 H -4.169"
         style="fill:none;stroke:#000000;stroke-width:1.20000005;stroke-linecap:butt;stroke-linejoin:miter;stroke-miterlimit:4;stroke-dasharray:none;stroke-opacity:1"
         id="path14973"
         inkscape:connector-curvature="0" />
    </g>
    <g
       id="g14979"
       transform="matrix(0.63606944,0,0,-0.63606944,67.251285,145.05492)"
       style="fill:#b7c4c8">
      <path
         d="M 0,0 -6.156,-8.016 H -55.722 L -61.878,0 l 6.156,8.017 h 49.566 z"
         style="fill:#b7c4c8;stroke:#000000;stroke-width:1.20000005;stroke-linecap:butt;stroke-linejoin:miter;stroke-miterlimit:4;stroke-dasharray:none;stroke-opacity:1"
         id="path14981"
         inkscape:connector-curvature="0" />
    </g>
    <text
       y="146.77364"
       x="62.61351"
       style="font-variant:normal;font-weight:normal;font-stretch:condensed;font-size:4.45248604px;font-family:'Linear Helv Cond';-inkscape-font-specification:LinearHelvCond;writing-mode:lr-tb;fill:#000000;fill-opacity:1;fill-rule:nonzero;stroke:none;stroke-width:0.63606942"
       id="text14985">
      <tspan
         style="stroke-width:0.63606942"
         sodipodi:role="line"
         id="tspan14983"
         x="62.61351"
         y="150.71304" />
    </text>
    <g
       id="g14987"
       transform="matrix(0.63606944,0,0,-0.63606944,27.89258,145.05492)">
      <path
         d="M 0,0 H -9.238"
         style="fill:none;stroke:#000000;stroke-width:1.20000005;stroke-linecap:butt;stroke-linejoin:miter;stroke-miterlimit:4;stroke-dasharray:none;stroke-opacity:1"
         id="path14989"
         inkscape:connector-curvature="0" />
    </g>
    <g
       id="g14991"
       transform="matrix(1.1753369,0,0,-0.63606944,190.82109,145.05492)">
      <path
         d="M 0,0 H -105.136"
         style="fill:none;stroke:#000000;stroke-width:1.20000005;stroke-linecap:butt;stroke-linejoin:miter;stroke-miterlimit:4;stroke-dasharray:none;stroke-opacity:1"
         id="path14993"
         inkscape:connector-curvature="0" />
    </g>
    <g
       id="g15003"
       transform="matrix(0.63606944,0,0,-0.63606944,78.033336,161.14734)">
      <path
         d="M 0,0 H -88.067"
         style="fill:none;stroke:#000000;stroke-width:1.20000005;stroke-linecap:butt;stroke-linejoin:miter;stroke-miterlimit:4;stroke-dasharray:none;stroke-opacity:1"
         id="path15005"
         inkscape:connector-curvature="0" />
    </g>
    <g
       id="g15057"
       transform="matrix(0.63606944,0,0,-0.63606944,134.12715,177.18633)"
       style="fill:#ffeeaa">
      <path
         d="M 0,0 -6.156,-10.499 H -35.853 L -42.009,0 l 6.156,10.499 h 29.697 z"
         style="fill:#ffeeaa;stroke:#000000;stroke-width:1.20000005;stroke-linecap:butt;stroke-linejoin:miter;stroke-miterlimit:4;stroke-dasharray:none;stroke-opacity:1"
         id="path15059"
         inkscape:connector-curvature="0" />
    </g>
    <g
       id="g15067"
       transform="matrix(0.63606944,0,0,-0.63606944,104.75372,177.18633)">
      <path
         d="M 0,0 -6.156,-10.499 H -35.853 L -42.009,0 l 6.156,10.499 h 29.697 z"
         style="fill:#ffccaa;stroke:#000000;stroke-width:1.20000005;stroke-linecap:butt;stroke-linejoin:miter;stroke-miterlimit:4;stroke-dasharray:none;stroke-opacity:1"
         id="path15069"
         inkscape:connector-curvature="0" />
    </g>
    <text
       y="132.35498"
       x="60.261314"
       style="font-variant:normal;font-weight:normal;font-stretch:condensed;font-size:4.45248604px;font-family:'Linear Helv Cond';-inkscape-font-specification:LinearHelvCond;writing-mode:lr-tb;fill:#000000;fill-opacity:1;fill-rule:nonzero;stroke:none;stroke-width:0.63606942"
       id="text15167">
      <tspan
         style="stroke-width:0.63606942"
         x="60.261314"
         y="132.35498"
         id="tspan15165">t</tspan>
    </text>
    <text
       y="133.30907"
       x="61.499107"
       style="font-variant:normal;font-weight:normal;font-stretch:condensed;font-size:3.8164165px;font-family:'Linear Helv Cond';-inkscape-font-specification:LinearHelvCond;writing-mode:lr-tb;fill:#000000;fill-opacity:1;fill-rule:nonzero;stroke:none;stroke-width:0.63606942"
       id="text15171">
      <tspan
         style="stroke-width:0.63606942"
         x="61.499107 63.830933 65.739143 67.43364 69.765472"
         y="133.30907"
         sodipodi:role="line"
         id="tspan15169">REFUP</tspan>
    </text>
    <g
       id="g15201"
       transform="matrix(0.63606944,0,0,-0.63606944,135.39681,177.18633)">
      <path
         d="M 0,0 H -2"
         style="fill:none;stroke:#000000;stroke-width:1.20000005;stroke-linecap:butt;stroke-linejoin:miter;stroke-miterlimit:4;stroke-dasharray:none;stroke-opacity:1"
         id="path15203"
         inkscape:connector-curvature="0" />
    </g>
    <g
       id="g15205"
       transform="matrix(0.63606944,0,0,-0.63606944,107.40352,177.18633)">
      <path
         d="M 0,0 H -4.169"
         style="fill:none;stroke:#000000;stroke-width:1.20000005;stroke-linecap:butt;stroke-linejoin:miter;stroke-miterlimit:4;stroke-dasharray:none;stroke-opacity:1"
         id="path15207"
         inkscape:connector-curvature="0" />
    </g>
    <g
       id="g15213"
       transform="matrix(0.63606944,0,0,-0.63606944,78.033336,177.18633)">
      <path
         d="M 0,0 H -88.067"
         style="fill:none;stroke:#000000;stroke-width:1.20000005;stroke-linecap:butt;stroke-linejoin:miter;stroke-miterlimit:4;stroke-dasharray:none;stroke-opacity:1"
         id="path15215"
         inkscape:connector-curvature="0" />
    </g>
    <g
       id="g14843-8"
       transform="matrix(0.63606944,0,0,-0.63606944,162.11745,161.14734)">
      <path
         d="M 0,0 -6.156,-10.499 H -35.853 L -42.009,0 l 6.156,10.5 h 29.697 z"
         style="fill:#eeffaa;stroke:#000000;stroke-width:1.20000005;stroke-linecap:butt;stroke-linejoin:miter;stroke-miterlimit:4;stroke-dasharray:none;stroke-opacity:1"
         id="path14845-2"
         inkscape:connector-curvature="0" />
    </g>
    <g
       id="g14843-7"
       transform="matrix(0.63606944,0,0,-0.63606944,162.11745,177.18633)"
       style="fill:#eeffaa">
      <path
         d="M 0,0 -6.156,-10.499 H -35.853 L -42.009,0 l 6.156,10.5 h 29.697 z"
         style="fill:#eeffaa;stroke:#000000;stroke-width:1.20000005;stroke-linecap:butt;stroke-linejoin:miter;stroke-miterlimit:4;stroke-dasharray:none;stroke-opacity:1"
         id="path14845-7"
         inkscape:connector-curvature="0" />
    </g>
    <g
       id="g14843-8-1"
       transform="matrix(0.63606944,0,0,-0.63606944,190.11024,161.14734)"
       style="fill:#afdde9">
      <path
         d="M 0,0 -6.156,-10.499 H -35.853 L -42.009,0 l 6.156,10.5 h 29.697 z"
         style="fill:#afdde9;stroke:#000000;stroke-width:1.20000005;stroke-linecap:butt;stroke-linejoin:miter;stroke-miterlimit:4;stroke-dasharray:none;stroke-opacity:1"
         id="path14845-2-0"
         inkscape:connector-curvature="0" />
    </g>
    <g
       id="g14843-7-5"
       transform="matrix(0.63606944,0,0,-0.63606944,190.11024,177.18633)"
       style="fill:#afdde9">
      <path
         d="M 0,0 -6.156,-10.499 H -35.853 L -42.009,0 l 6.156,10.5 h 29.697 z"
         style="fill:#afdde9;stroke:#000000;stroke-width:1.20000005;stroke-linecap:butt;stroke-linejoin:miter;stroke-miterlimit:4;stroke-dasharray:none;stroke-opacity:1"
         id="path14845-7-8"
         inkscape:connector-curvature="0" />
    </g>
    <g
       id="g15201-1"
       transform="matrix(0.63606944,0,0,-0.63606944,163.3896,177.18633)">
      <path
         d="M 0,0 H -2"
         style="fill:none;stroke:#000000;stroke-width:1.20000005;stroke-linecap:butt;stroke-linejoin:miter;stroke-miterlimit:4;stroke-dasharray:none;stroke-opacity:1"
         id="path15203-5"
         inkscape:connector-curvature="0" />
    </g>
    <g
       id="g15201-9"
       transform="matrix(0.63606944,0,0,-0.63606944,163.3896,161.14734)">
      <path
         d="M 0,0 H -2"
         style="fill:none;stroke:#000000;stroke-width:1.20000005;stroke-linecap:butt;stroke-linejoin:miter;stroke-miterlimit:4;stroke-dasharray:none;stroke-opacity:1"
         id="path15203-2"
         inkscape:connector-curvature="0" />
    </g>
    <g
       id="g14797-9"
       transform="matrix(0.63606944,0,0,-0.73450337,162.04646,187.35359)"
       style="fill:#000135;fill-opacity:1">
      <path
         d="M 0,0 V 77.028"
         style="fill:#000135;fill-opacity:1;stroke:#000000;stroke-width:0.30000001;stroke-linecap:butt;stroke-linejoin:miter;stroke-miterlimit:4;stroke-dasharray:none;stroke-opacity:1"
         id="path14799-8"
         inkscape:connector-curvature="0" />
    </g>
    <g
       id="g14797-9-4"
       transform="matrix(0.63606944,0,0,-0.73450337,190.63216,187.35359)"
       style="fill:#000135;fill-opacity:1">
      <path
         d="M 0,0 V 77.028"
         style="fill:#000135;fill-opacity:1;stroke:#000000;stroke-width:0.30000001;stroke-linecap:butt;stroke-linejoin:miter;stroke-miterlimit:4;stroke-dasharray:none;stroke-opacity:1"
         id="path14799-8-6"
         inkscape:connector-curvature="0" />
    </g>
    <text
       xml:space="preserve"
       style="font-style:normal;font-weight:normal;font-size:4.23333311px;line-height:0.25;font-family:sans-serif;letter-spacing:0px;word-spacing:0px;fill:#000000;fill-opacity:1;stroke:none;stroke-width:0.26458332"
       x="91.373367"
       y="176.50673"
       id="text6175"><tspan
         sodipodi:role="line"
         id="tspan6173"
         x="91.373367"
         y="176.50673"
         style="font-size:4.23333311px;line-height:1;text-align:center;text-anchor:middle;stroke-width:0.26458332">MESSUNG</tspan><tspan
         sodipodi:role="line"
         x="91.373367"
         y="180.74007"
         style="font-size:4.23333311px;line-height:1;text-align:center;text-anchor:middle;stroke-width:0.26458332"
         id="tspan6177">C1 - C0</tspan></text>
    <text
       xml:space="preserve"
       style="font-style:normal;font-weight:normal;font-size:4.23333311px;line-height:0.25;font-family:sans-serif;letter-spacing:0px;word-spacing:0px;fill:#000000;fill-opacity:1;stroke:none;stroke-width:0.26458332"
       x="91.437164"
       y="160.50673"
       id="text6175-9"><tspan
         sodipodi:role="line"
         id="tspan6173-7"
         x="91.437164"
         y="160.50673"
         style="font-size:4.23333311px;line-height:1;text-align:center;text-anchor:middle;stroke-width:0.26458332">MESSUNG</tspan><tspan
         sodipodi:role="line"
         x="91.437164"
         y="164.74007"
         style="font-size:4.23333311px;line-height:1;text-align:center;text-anchor:middle;stroke-width:0.26458332"
         id="tspan6177-3">C7 - C6</tspan></text>
    <text
       xml:space="preserve"
       style="font-style:normal;font-weight:normal;font-size:4.23333311px;line-height:0.25;font-family:sans-serif;letter-spacing:0px;word-spacing:0px;fill:#000000;fill-opacity:1;stroke:none;stroke-width:0.26458332"
       x="120.5416"
       y="160.50673"
       id="text6175-3"><tspan
         sodipodi:role="line"
         id="tspan6173-74"
         x="120.5416"
         y="160.50673"
         style="font-size:4.23333311px;line-height:1;text-align:center;text-anchor:middle;stroke-width:0.26458332">MESSUNG</tspan><tspan
         sodipodi:role="line"
         x="120.5416"
         y="164.74007"
         style="font-size:4.23333311px;line-height:1;text-align:center;text-anchor:middle;stroke-width:0.26458332"
         id="tspan6177-0">C8 - C7</tspan></text>
    <text
       xml:space="preserve"
       style="font-style:normal;font-weight:normal;font-size:4.23333311px;line-height:0.25;font-family:sans-serif;letter-spacing:0px;word-spacing:0px;fill:#000000;fill-opacity:1;stroke:none;stroke-width:0.26458332"
       x="120.54144"
       y="176.50673"
       id="text6175-5"><tspan
         sodipodi:role="line"
         id="tspan6173-6"
         x="120.54144"
         y="176.50673"
         style="font-size:4.23333311px;line-height:1;text-align:center;text-anchor:middle;stroke-width:0.26458332">MESSUNG</tspan><tspan
         sodipodi:role="line"
         x="120.54144"
         y="180.74007"
         style="font-size:4.23333311px;line-height:1;text-align:center;text-anchor:middle;stroke-width:0.26458332"
         id="tspan6177-31">C2 - C1</tspan></text>
    <text
       xml:space="preserve"
       style="font-style:normal;font-weight:normal;font-size:4.23333311px;line-height:0.25;font-family:sans-serif;letter-spacing:0px;word-spacing:0px;fill:#000000;fill-opacity:1;stroke:none;stroke-width:0.26458332"
       x="148.62552"
       y="176.50673"
       id="text6175-4"><tspan
         sodipodi:role="line"
         id="tspan6173-1"
         x="148.62552"
         y="176.50673"
         style="font-size:4.23333311px;line-height:1;text-align:center;text-anchor:middle;stroke-width:0.26458332">MESSUNG</tspan><tspan
         sodipodi:role="line"
         x="148.62552"
         y="180.74007"
         style="font-size:4.23333311px;line-height:1;text-align:center;text-anchor:middle;stroke-width:0.26458332"
         id="tspan6177-1">C3 - C2</tspan></text>
    <text
       xml:space="preserve"
       style="font-style:normal;font-weight:normal;font-size:4.23333311px;line-height:0.25;font-family:sans-serif;letter-spacing:0px;word-spacing:0px;fill:#000000;fill-opacity:1;stroke:none;stroke-width:0.26458332"
       x="148.62534"
       y="160.50673"
       id="text6175-7"><tspan
         sodipodi:role="line"
         id="tspan6173-72"
         x="148.62534"
         y="160.50673"
         style="font-size:4.23333311px;line-height:1;text-align:center;text-anchor:middle;stroke-width:0.26458332">MESSUNG</tspan><tspan
         sodipodi:role="line"
         x="148.62534"
         y="164.74007"
         style="font-size:4.23333311px;line-height:1;text-align:center;text-anchor:middle;stroke-width:0.26458332"
         id="tspan6177-5">C9 - C8</tspan></text>
    <text
       xml:space="preserve"
       style="font-style:normal;font-weight:normal;font-size:4.23333311px;line-height:0.25;font-family:sans-serif;letter-spacing:0px;word-spacing:0px;fill:#000000;fill-opacity:1;stroke:none;stroke-width:0.26458332"
       x="176.68451"
       y="160.50673"
       id="text6175-46"><tspan
         sodipodi:role="line"
         id="tspan6173-0"
         x="176.68451"
         y="160.50673"
         style="font-size:4.23333311px;line-height:1;text-align:center;text-anchor:middle;stroke-width:0.26458332">MESSUNG</tspan><tspan
         sodipodi:role="line"
         x="176.68451"
         y="164.74007"
         style="font-size:4.23333311px;line-height:1;text-align:center;text-anchor:middle;stroke-width:0.26458332"
         id="tspan6177-4">C10 - C9</tspan></text>
    <text
       xml:space="preserve"
       style="font-style:normal;font-weight:normal;font-size:4.23333311px;line-height:0.25;font-family:sans-serif;letter-spacing:0px;word-spacing:0px;fill:#000000;fill-opacity:1;stroke:none;stroke-width:0.26458332"
       x="176.68451"
       y="176.50673"
       id="text6175-53"><tspan
         sodipodi:role="line"
         id="tspan6173-13"
         x="176.68451"
         y="176.50673"
         style="font-size:4.23333311px;line-height:1;text-align:center;text-anchor:middle;stroke-width:0.26458332">MESSUNG</tspan><tspan
         sodipodi:role="line"
         x="176.68451"
         y="180.74007"
         style="font-size:4.23333311px;line-height:1;text-align:center;text-anchor:middle;stroke-width:0.26458332"
         id="tspan6177-8">C4 - C3</tspan></text>
    <text
       xml:space="preserve"
       style="font-style:normal;font-weight:normal;font-size:10.58333302px;line-height:1.25;font-family:sans-serif;letter-spacing:0px;word-spacing:0px;fill:#000000;fill-opacity:1;stroke:none;stroke-width:0.26458332"
       x="71.399673"
       y="191.94005"
       id="text6262"><tspan
         sodipodi:role="line"
         id="tspan6260"
         x="71.399673"
         y="191.94005"
         style="font-size:4.23333311px;stroke-width:0.26458332">t<tspan
   style="font-size:64.99999762%;baseline-shift:sub"
   id="tspan6345">0</tspan> = 0μs</tspan><tspan
         sodipodi:role="line"
         x="71.399673"
         y="205.16922"
         style="stroke-width:0.26458332"
         id="tspan6264" /></text>
    <text
       xml:space="preserve"
       style="font-style:normal;font-weight:normal;font-size:10.58333302px;line-height:1.25;font-family:sans-serif;letter-spacing:0px;word-spacing:0px;fill:#000000;fill-opacity:1;stroke:none;stroke-width:0.26458332"
       x="102.37868"
       y="191.94005"
       id="text6262-4"><tspan
         sodipodi:role="line"
         id="tspan6260-0"
         x="102.37868"
         y="191.94005"
         style="font-size:4.23333311px;stroke-width:0.26458332">t<tspan
   style="font-size:64.99999762%;baseline-shift:sub"
   id="tspan6347">1</tspan> = 144μs</tspan><tspan
         sodipodi:role="line"
         x="102.37868"
         y="205.16922"
         style="stroke-width:0.26458332"
         id="tspan6264-0" /></text>
    <text
       xml:space="preserve"
       style="font-style:normal;font-weight:normal;font-size:10.58333302px;line-height:1.25;font-family:sans-serif;letter-spacing:0px;word-spacing:0px;fill:#000000;fill-opacity:1;stroke:none;stroke-width:0.26458332"
       x="132.05017"
       y="191.94005"
       id="text6262-44"><tspan
         sodipodi:role="line"
         id="tspan6260-7"
         x="132.05017"
         y="191.94005"
         style="font-size:4.23333311px;stroke-width:0.26458332">t<tspan
   style="font-size:64.99999762%;baseline-shift:sub"
   id="tspan6349">2</tspan> = 278μs</tspan><tspan
         sodipodi:role="line"
         x="132.05017"
         y="205.16922"
         style="stroke-width:0.26458332"
         id="tspan6264-8" /></text>
    <text
       xml:space="preserve"
       style="font-style:normal;font-weight:normal;font-size:10.58333302px;line-height:1.25;font-family:sans-serif;letter-spacing:0px;word-spacing:0px;fill:#000000;fill-opacity:1;stroke:none;stroke-width:0.26458332"
       x="159.9075"
       y="191.94005"
       id="text6262-6"><tspan
         sodipodi:role="line"
         id="tspan6260-8"
         x="159.9075"
         y="191.94005"
         style="font-size:4.23333311px;stroke-width:0.26458332">t<tspan
   style="font-size:64.99999762%;baseline-shift:sub"
   id="tspan6351">3</tspan> = 412μs</tspan><tspan
         sodipodi:role="line"
         x="159.9075"
         y="205.16922"
         style="stroke-width:0.26458332"
         id="tspan6264-6" /></text>
    <text
       xml:space="preserve"
       style="font-style:normal;font-variant:normal;font-weight:normal;font-stretch:normal;font-size:4.23333311px;line-height:1.25;font-family:sans-serif;-inkscape-font-specification:'sans-serif, Normal';font-variant-ligatures:normal;font-variant-caps:normal;font-variant-numeric:normal;font-feature-settings:normal;text-align:start;letter-spacing:0px;word-spacing:0px;writing-mode:lr-tb;text-anchor:start;fill:#000000;fill-opacity:1;stroke:none;stroke-width:0.26458332"
       x="188.50749"
       y="191.94005"
       id="text6262-3"><tspan
         sodipodi:role="line"
         id="tspan6359"
         x="188.50749"
         y="191.94005">t<tspan
   style="font-size:64.99999762%;baseline-shift:sub"
   id="tspan6363">4</tspan> = 546μs</tspan><tspan
         sodipodi:role="line"
         id="tspan6361"
         x="188.50749"
         y="197.23172"></tspan></text>
    <text
       xml:space="preserve"
       style="font-style:normal;font-weight:normal;font-size:10.58333302px;line-height:1.25;font-family:sans-serif;letter-spacing:0px;word-spacing:0px;fill:#000000;fill-opacity:1;stroke:none;stroke-width:0.26458332"
       x="35.529732"
       y="146.22527"
       id="text6319"><tspan
         sodipodi:role="line"
         id="tspan6317"
         x="35.529732"
         y="146.22527"
         style="font-size:4.23333311px;stroke-width:0.26458332">CMD + PEC</tspan></text>
    <text
       xml:space="preserve"
       style="font-style:normal;font-weight:normal;font-size:10.58333302px;line-height:1.25;font-family:sans-serif;letter-spacing:0px;word-spacing:0px;fill:#000000;fill-opacity:1;stroke:none;stroke-width:0.26458332"
       x="7.9669271"
       y="162.74005"
       id="text6323"><tspan
         sodipodi:role="line"
         id="tspan6321"
         x="7.9669271"
         y="162.74005"
         style="font-size:4.23333311px;stroke-width:0.26458332">ADC 2</tspan></text>
    <text
       xml:space="preserve"
       style="font-style:normal;font-weight:normal;font-size:10.58333302px;line-height:1.25;font-family:sans-serif;letter-spacing:0px;word-spacing:0px;fill:#000000;fill-opacity:1;stroke:none;stroke-width:0.26458332"
       x="7.9669271"
       y="178.74005"
       id="text6323-8"><tspan
         sodipodi:role="line"
         id="tspan6321-6"
         x="7.9669271"
         y="178.74005"
         style="font-size:4.23333311px;stroke-width:0.26458332">ADC 1</tspan><tspan
         sodipodi:role="line"
         x="7.9669271"
         y="191.96922"
         style="font-size:4.23333311px;stroke-width:0.26458332"
         id="tspan6343" /></text>
  </g>
</svg>
