<?xml version="1.0" encoding="UTF-8" standalone="no"?>
<!-- Created with Inkscape (http://www.inkscape.org/) -->

<svg
   xmlns:osb="http://www.openswatchbook.org/uri/2009/osb"
   xmlns:dc="http://purl.org/dc/elements/1.1/"
   xmlns:cc="http://creativecommons.org/ns#"
   xmlns:rdf="http://www.w3.org/1999/02/22-rdf-syntax-ns#"
   xmlns:svg="http://www.w3.org/2000/svg"
   xmlns="http://www.w3.org/2000/svg"
   xmlns:xlink="http://www.w3.org/1999/xlink"
   xmlns:sodipodi="http://sodipodi.sourceforge.net/DTD/sodipodi-0.dtd"
   xmlns:inkscape="http://www.inkscape.org/namespaces/inkscape"
   width="140mm"
   height="70mm"
   viewBox="0 0 140 70"
   version="1.1"
   id="svg8"
   inkscape:version="0.92.4 (5da689c313, 2019-01-14)"
   sodipodi:docname="Centralized.svg">
  <defs
     id="defs2">
    <linearGradient
       id="linearGradient4954"
       osb:paint="solid">
      <stop
         style="stop-color:#000000;stop-opacity:1;"
         offset="0"
         id="stop4952" />
    </linearGradient>
    <linearGradient
       osb:paint="solid"
       id="linearGradient4906">
      <stop
         id="stop4904"
         offset="0"
         style="stop-color:#000000;stop-opacity:1;" />
    </linearGradient>
    <linearGradient
       inkscape:collect="always"
       xlink:href="#linearGradient4954"
       id="linearGradient4956"
       x1="19.905174"
       y1="243.77094"
       x2="47.968472"
       y2="243.77094"
       gradientUnits="userSpaceOnUse"
       gradientTransform="matrix(1.0572448,0,0,0.38091538,-16.774581,175.07819)" />
  </defs>
  <sodipodi:namedview
     id="base"
     pagecolor="#ffffff"
     bordercolor="#666666"
     borderopacity="1.0"
     inkscape:pageopacity="0.0"
     inkscape:pageshadow="2"
     inkscape:zoom="1.4"
     inkscape:cx="-60.392468"
     inkscape:cy="150.18892"
     inkscape:document-units="mm"
     inkscape:current-layer="g4857"
     showgrid="false"
     inkscape:window-width="1440"
     inkscape:window-height="791"
     inkscape:window-x="0"
     inkscape:window-y="31"
     inkscape:window-maximized="1" />
  <metadata
     id="metadata5">
    <rdf:RDF>
      <cc:Work
         rdf:about="">
        <dc:format>image/svg+xml</dc:format>
        <dc:type
           rdf:resource="http://purl.org/dc/dcmitype/StillImage" />
        <dc:title />
      </cc:Work>
    </rdf:RDF>
  </metadata>
  <g
     inkscape:label="Ebene 1"
     inkscape:groupmode="layer"
     id="layer1"
     transform="translate(0,-227)">
    <g
       id="g4857"
       transform="translate(14.572595,12.737728)">
      <g
         id="layer1-6"
         inkscape:label="Ebene 1" />
      <g
         transform="matrix(0,-0.35507636,0.35507636,0,-55.168454,329.13967)"
         inkscape:label="Source"
         id="g4631">
        <g
           inkscape:label="Source"
           id="g4611">
          <path
             inkscape:connector-curvature="0"
             d="m 134.14235,150 h 9.58632"
             style="fill:none;stroke:#000000;stroke-width:1;stroke-linecap:round;stroke-linejoin:round;stroke-miterlimit:4;stroke-dasharray:none"
             inkscape:label="none"
             id="path4589" />
          <path
             inkscape:connector-curvature="0"
             d="m 151.79715,146 h -2"
             style="fill:none;stroke:#000000;stroke-width:0.60000002;stroke-linecap:round;stroke-linejoin:round;stroke-dasharray:none"
             inkscape:label="none"
             id="path4593" />
          <path
             inkscape:connector-curvature="0"
             d="m 150.79715,145 v 2"
             style="fill:none;stroke:#000000;stroke-width:0.60000002;stroke-linecap:round;stroke-linejoin:round;stroke-dasharray:none"
             inkscape:label="none"
             id="path4595" />
          <path
             inkscape:connector-curvature="0"
             d="m 140.79291,145 v 2"
             style="fill:none;stroke:#000000;stroke-width:0.60000002;stroke-linecap:round;stroke-linejoin:round;stroke-dasharray:none"
             inkscape:label="none"
             id="path4597" />
          <path
             inkscape:connector-curvature="0"
             d="m 144,153 v -6"
             style="fill:none;stroke:#000000;stroke-width:1;stroke-linecap:round;stroke-linejoin:round;stroke-dasharray:none"
             inkscape:label="none"
             id="path4603" />
          <path
             inkscape:connector-curvature="0"
             d="M 147,157 V 143"
             style="fill:none;stroke:#000000;stroke-width:1;stroke-linecap:round;stroke-linejoin:round;stroke-dasharray:none"
             inkscape:label="none"
             id="path4605" />
          <path
             inkscape:connector-curvature="0"
             d="m 147.13631,150.00011 h 9.58632"
             style="fill:none;stroke:#000000;stroke-width:1;stroke-linecap:round;stroke-linejoin:round;stroke-miterlimit:4;stroke-dasharray:none"
             inkscape:label="none"
             id="path4589-7" />
        </g>
      </g>
      <g
         transform="matrix(0,-2.8717005,0.96824008,0,-73.136033,584.38205)"
         inkscape:label="Source"
         id="g4879"
         style="stroke-width:0.59970671;stroke-miterlimit:4;stroke-dasharray:none" />
      <g
         transform="matrix(0,-0.35507636,0.35507636,0,-55.168414,321.12194)"
         inkscape:label="Source"
         id="g4631-5">
        <g
           inkscape:label="Source"
           id="g4611-3">
          <path
             inkscape:connector-curvature="0"
             d="m 134.14235,150 h 9.58632"
             style="fill:none;stroke:#000000;stroke-width:1;stroke-linecap:round;stroke-linejoin:round;stroke-miterlimit:4;stroke-dasharray:none"
             inkscape:label="none"
             id="path4589-5" />
          <path
             inkscape:connector-curvature="0"
             d="m 151.79715,146 h -2"
             style="fill:none;stroke:#000000;stroke-width:0.60000002;stroke-linecap:round;stroke-linejoin:round;stroke-dasharray:none"
             inkscape:label="none"
             id="path4593-6" />
          <path
             inkscape:connector-curvature="0"
             d="m 150.79715,145 v 2"
             style="fill:none;stroke:#000000;stroke-width:0.60000002;stroke-linecap:round;stroke-linejoin:round;stroke-dasharray:none"
             inkscape:label="none"
             id="path4595-2" />
          <path
             inkscape:connector-curvature="0"
             d="m 140.79291,145 v 2"
             style="fill:none;stroke:#000000;stroke-width:0.60000002;stroke-linecap:round;stroke-linejoin:round;stroke-dasharray:none"
             inkscape:label="none"
             id="path4597-9" />
          <path
             inkscape:connector-curvature="0"
             d="m 144,153 v -6"
             style="fill:none;stroke:#000000;stroke-width:1;stroke-linecap:round;stroke-linejoin:round;stroke-dasharray:none"
             inkscape:label="none"
             id="path4603-1" />
          <path
             inkscape:connector-curvature="0"
             d="M 147,157 V 143"
             style="fill:none;stroke:#000000;stroke-width:1;stroke-linecap:round;stroke-linejoin:round;stroke-dasharray:none"
             inkscape:label="none"
             id="path4605-2" />
          <path
             inkscape:connector-curvature="0"
             d="m 147.13631,150.00011 h 9.58632"
             style="fill:none;stroke:#000000;stroke-width:1;stroke-linecap:round;stroke-linejoin:round;stroke-miterlimit:4;stroke-dasharray:none"
             inkscape:label="none"
             id="path4589-7-7" />
          <path
             inkscape:connector-curvature="0"
             d="m 156.72263,150.00011 h 9.58632"
             style="fill:none;stroke:#000000;stroke-width:1;stroke-linecap:round;stroke-linejoin:round;stroke-miterlimit:4;stroke-dasharray:1.00000003, 2.00000006;stroke-dashoffset:0.30000001"
             inkscape:label="none"
             id="path4589-7-7-7" />
        </g>
      </g>
      <g
         transform="matrix(0,-0.35507636,0.35507636,0,-55.168372,309.70034)"
         inkscape:label="Source"
         id="g4631-0">
        <g
           inkscape:label="Source"
           id="g4611-9">
          <path
             inkscape:connector-curvature="0"
             d="m 134.14235,150 h 9.58632"
             style="fill:none;stroke:#000000;stroke-width:1;stroke-linecap:round;stroke-linejoin:round;stroke-miterlimit:4;stroke-dasharray:none"
             inkscape:label="none"
             id="path4589-3" />
          <path
             inkscape:connector-curvature="0"
             d="m 151.79715,146 h -2"
             style="fill:none;stroke:#000000;stroke-width:0.60000002;stroke-linecap:round;stroke-linejoin:round;stroke-dasharray:none"
             inkscape:label="none"
             id="path4593-60" />
          <path
             inkscape:connector-curvature="0"
             d="m 150.79715,145 v 2"
             style="fill:none;stroke:#000000;stroke-width:0.60000002;stroke-linecap:round;stroke-linejoin:round;stroke-dasharray:none"
             inkscape:label="none"
             id="path4595-6" />
          <path
             inkscape:connector-curvature="0"
             d="m 140.79291,145 v 2"
             style="fill:none;stroke:#000000;stroke-width:0.60000002;stroke-linecap:round;stroke-linejoin:round;stroke-dasharray:none"
             inkscape:label="none"
             id="path4597-2" />
          <path
             inkscape:connector-curvature="0"
             d="m 144,153 v -6"
             style="fill:none;stroke:#000000;stroke-width:1;stroke-linecap:round;stroke-linejoin:round;stroke-dasharray:none"
             inkscape:label="none"
             id="path4603-6" />
          <path
             inkscape:connector-curvature="0"
             d="M 147,157 V 143"
             style="fill:none;stroke:#000000;stroke-width:1;stroke-linecap:round;stroke-linejoin:round;stroke-dasharray:none"
             inkscape:label="none"
             id="path4605-1" />
          <path
             inkscape:connector-curvature="0"
             d="m 147.13631,150.00011 h 9.58632"
             style="fill:none;stroke:#000000;stroke-width:1;stroke-linecap:round;stroke-linejoin:round;stroke-miterlimit:4;stroke-dasharray:none"
             inkscape:label="none"
             id="path4589-7-8" />
        </g>
      </g>
      <rect
         style="fill:#ffffff;fill-opacity:1;stroke:url(#linearGradient4956);stroke-width:0.33022365;stroke-linecap:round;stroke-linejoin:round;stroke-miterlimit:4;stroke-dasharray:none;stroke-dashoffset:1.13385832"
         id="rect4950"
         width="29.669777"
         height="29.52405"
         x="4.2700605"
         y="253.17224" />
      <path
         style="fill:none;stroke:#000000;stroke-width:0.355;stroke-linecap:butt;stroke-linejoin:miter;stroke-miterlimit:4;stroke-dasharray:none;stroke-opacity:1"
         d="M -1.9068792,254.05184 H 4.0714272"
         id="path4958"
         inkscape:connector-curvature="0" />
      <path
         style="fill:none;stroke:#000000;stroke-width:0.35507634;stroke-linecap:butt;stroke-linejoin:miter;stroke-miterlimit:4;stroke-dasharray:none;stroke-opacity:1"
         d="m -1.9069999,281.50889 h 6.025878"
         id="path4960"
         inkscape:connector-curvature="0" />
      <path
         style="fill:none;stroke:#000000;stroke-width:0.35507634;stroke-linecap:butt;stroke-linejoin:miter;stroke-miterlimit:4;stroke-dasharray:none;stroke-opacity:1"
         d="M -1.9069218,262.06957 H 4.0713849"
         id="path4958-9"
         inkscape:connector-curvature="0" />
      <path
         style="fill:none;stroke:#000000;stroke-width:0.35507634;stroke-linecap:butt;stroke-linejoin:miter;stroke-miterlimit:4;stroke-dasharray:none;stroke-opacity:1"
         d="M -1.9069218,265.47344 H 4.0713845"
         id="path4958-2"
         inkscape:connector-curvature="0" />
      <path
         style="fill:none;stroke:#000000;stroke-width:0.35507634;stroke-linecap:butt;stroke-linejoin:miter;stroke-miterlimit:4;stroke-dasharray:none;stroke-opacity:1"
         d="M -1.9069609,273.49117 H 4.0713457"
         id="path4958-0"
         inkscape:connector-curvature="0" />
      <flowRoot
         xml:space="preserve"
         id="flowRoot4989"
         style="fill:black;fill-opacity:1;stroke:none;font-family:sans-serif;font-style:normal;font-weight:normal;font-size:40px;line-height:1.25;letter-spacing:0px;word-spacing:0px"><flowRegion
           id="flowRegion4991"><rect
             id="rect4993"
             width="299.28571"
             height="252.14285"
             x="-8.5714283"
             y="12.424067" /></flowRegion><flowPara
           id="flowPara4995" /></flowRoot>      <text
         xml:space="preserve"
         style="font-style:normal;font-weight:normal;font-size:4.23333311px;line-height:1.25;font-family:sans-serif;text-align:center;letter-spacing:0px;word-spacing:0px;text-anchor:middle;fill:#000000;fill-opacity:1;stroke:none;stroke-width:0.26458332"
         x="19.245203"
         y="266.83752"
         id="text4999"><tspan
           sodipodi:role="line"
           id="tspan4997"
           x="19.245203"
           y="266.83752"
           style="font-size:4.23333311px;text-align:center;text-anchor:middle;stroke-width:0.26458332">Zentrales</tspan><tspan
           sodipodi:role="line"
           x="19.245203"
           y="272.12918"
           style="font-size:4.23333311px;text-align:center;text-anchor:middle;stroke-width:0.26458332"
           id="tspan12943">BMS</tspan></text>
    </g>
  </g>
</svg>
