<?xml version="1.0" encoding="UTF-8" standalone="no"?>
<!-- Created with Inkscape (http://www.inkscape.org/) -->

<svg
   xmlns:osb="http://www.openswatchbook.org/uri/2009/osb"
   xmlns:dc="http://purl.org/dc/elements/1.1/"
   xmlns:cc="http://creativecommons.org/ns#"
   xmlns:rdf="http://www.w3.org/1999/02/22-rdf-syntax-ns#"
   xmlns:svg="http://www.w3.org/2000/svg"
   xmlns="http://www.w3.org/2000/svg"
   xmlns:xlink="http://www.w3.org/1999/xlink"
   xmlns:sodipodi="http://sodipodi.sourceforge.net/DTD/sodipodi-0.dtd"
   xmlns:inkscape="http://www.inkscape.org/namespaces/inkscape"
   width="140mm"
   height="70mm"
   viewBox="0 0 140 70"
   version="1.1"
   id="svg8"
   inkscape:version="0.92.4 (5da689c313, 2019-01-14)"
   sodipodi:docname="Modular.svg">
  <defs
     id="defs2">
    <linearGradient
       id="linearGradient4954"
       osb:paint="solid">
      <stop
         style="stop-color:#000000;stop-opacity:1;"
         offset="0"
         id="stop4952" />
    </linearGradient>
    <linearGradient
       osb:paint="solid"
       id="linearGradient4906">
      <stop
         id="stop4904"
         offset="0"
         style="stop-color:#000000;stop-opacity:1;" />
    </linearGradient>
    <linearGradient
       inkscape:collect="always"
       xlink:href="#linearGradient4954"
       id="linearGradient4956"
       x1="19.905174"
       y1="243.77094"
       x2="47.968472"
       y2="243.77094"
       gradientUnits="userSpaceOnUse"
       gradientTransform="matrix(1.0572448,0,0,0.38091538,-16.774581,175.07819)" />
    <linearGradient
       inkscape:collect="always"
       xlink:href="#linearGradient4954"
       id="linearGradient4956-2"
       x1="19.905174"
       y1="243.77094"
       x2="47.968472"
       y2="243.77094"
       gradientUnits="userSpaceOnUse"
       gradientTransform="matrix(1.0517719,0,0,0.38092636,-16.710942,137.93339)" />
  </defs>
  <sodipodi:namedview
     id="base"
     pagecolor="#ffffff"
     bordercolor="#666666"
     borderopacity="1.0"
     inkscape:pageopacity="0.0"
     inkscape:pageshadow="2"
     inkscape:zoom="1.4"
     inkscape:cx="-104.7661"
     inkscape:cy="213.75311"
     inkscape:document-units="mm"
     inkscape:current-layer="g4857"
     showgrid="false"
     inkscape:window-width="1920"
     inkscape:window-height="1051"
     inkscape:window-x="1440"
     inkscape:window-y="0"
     inkscape:window-maximized="1" />
  <metadata
     id="metadata5">
    <rdf:RDF>
      <cc:Work
         rdf:about="">
        <dc:format>image/svg+xml</dc:format>
        <dc:type
           rdf:resource="http://purl.org/dc/dcmitype/StillImage" />
        <dc:title></dc:title>
      </cc:Work>
    </rdf:RDF>
  </metadata>
  <g
     inkscape:label="Ebene 1"
     inkscape:groupmode="layer"
     id="layer1"
     transform="translate(0,-227)">
    <g
       id="g4857"
       transform="translate(14.572595,12.737728)">
      <g
         id="layer1-6"
         inkscape:label="Ebene 1" />
      <g
         transform="matrix(0,-0.35507636,0.35507636,0,-55.168454,329.13967)"
         inkscape:label="Source"
         id="g4631">
        <g
           inkscape:label="Source"
           id="g4611">
          <path
             inkscape:connector-curvature="0"
             d="m 134.14235,150 h 9.58632"
             style="fill:none;stroke:#000000;stroke-width:1;stroke-linecap:round;stroke-linejoin:round;stroke-miterlimit:4;stroke-dasharray:none"
             inkscape:label="none"
             id="path4589" />
          <path
             inkscape:connector-curvature="0"
             d="m 151.79715,146 h -2"
             style="fill:none;stroke:#000000;stroke-width:0.60000002;stroke-linecap:round;stroke-linejoin:round;stroke-dasharray:none"
             inkscape:label="none"
             id="path4593" />
          <path
             inkscape:connector-curvature="0"
             d="m 150.79715,145 v 2"
             style="fill:none;stroke:#000000;stroke-width:0.60000002;stroke-linecap:round;stroke-linejoin:round;stroke-dasharray:none"
             inkscape:label="none"
             id="path4595" />
          <path
             inkscape:connector-curvature="0"
             d="m 140.79291,145 v 2"
             style="fill:none;stroke:#000000;stroke-width:0.60000002;stroke-linecap:round;stroke-linejoin:round;stroke-dasharray:none"
             inkscape:label="none"
             id="path4597" />
          <path
             inkscape:connector-curvature="0"
             d="m 144,153 v -6"
             style="fill:none;stroke:#000000;stroke-width:1;stroke-linecap:round;stroke-linejoin:round;stroke-dasharray:none"
             inkscape:label="none"
             id="path4603" />
          <path
             inkscape:connector-curvature="0"
             d="M 147,157 V 143"
             style="fill:none;stroke:#000000;stroke-width:1;stroke-linecap:round;stroke-linejoin:round;stroke-dasharray:none"
             inkscape:label="none"
             id="path4605" />
          <path
             inkscape:connector-curvature="0"
             d="m 147.13631,150.00011 h 9.58632"
             style="fill:none;stroke:#000000;stroke-width:1;stroke-linecap:round;stroke-linejoin:round;stroke-miterlimit:4;stroke-dasharray:none"
             inkscape:label="none"
             id="path4589-7" />
        </g>
      </g>
      <g
         transform="matrix(0,-2.8717005,0.96824008,0,-73.136033,584.38205)"
         inkscape:label="Source"
         id="g4879"
         style="stroke-width:0.59970671;stroke-miterlimit:4;stroke-dasharray:none" />
      <g
         transform="matrix(0,-0.35507636,0.35507636,0,-55.168414,321.12194)"
         inkscape:label="Source"
         id="g4631-5">
        <g
           inkscape:label="Source"
           id="g4611-3">
          <path
             inkscape:connector-curvature="0"
             d="m 134.14235,150 h 9.58632"
             style="fill:none;stroke:#000000;stroke-width:1;stroke-linecap:round;stroke-linejoin:round;stroke-miterlimit:4;stroke-dasharray:none"
             inkscape:label="none"
             id="path4589-5" />
          <path
             inkscape:connector-curvature="0"
             d="m 151.79715,146 h -2"
             style="fill:none;stroke:#000000;stroke-width:0.60000002;stroke-linecap:round;stroke-linejoin:round;stroke-dasharray:none"
             inkscape:label="none"
             id="path4593-6" />
          <path
             inkscape:connector-curvature="0"
             d="m 150.79715,145 v 2"
             style="fill:none;stroke:#000000;stroke-width:0.60000002;stroke-linecap:round;stroke-linejoin:round;stroke-dasharray:none"
             inkscape:label="none"
             id="path4595-2" />
          <path
             inkscape:connector-curvature="0"
             d="m 140.79291,145 v 2"
             style="fill:none;stroke:#000000;stroke-width:0.60000002;stroke-linecap:round;stroke-linejoin:round;stroke-dasharray:none"
             inkscape:label="none"
             id="path4597-9" />
          <path
             inkscape:connector-curvature="0"
             d="m 144,153 v -6"
             style="fill:none;stroke:#000000;stroke-width:1;stroke-linecap:round;stroke-linejoin:round;stroke-dasharray:none"
             inkscape:label="none"
             id="path4603-1" />
          <path
             inkscape:connector-curvature="0"
             d="M 147,157 V 143"
             style="fill:none;stroke:#000000;stroke-width:1;stroke-linecap:round;stroke-linejoin:round;stroke-dasharray:none"
             inkscape:label="none"
             id="path4605-2" />
          <path
             inkscape:connector-curvature="0"
             d="m 147.13631,150.00011 h 9.58632"
             style="fill:none;stroke:#000000;stroke-width:1;stroke-linecap:round;stroke-linejoin:round;stroke-miterlimit:4;stroke-dasharray:none"
             inkscape:label="none"
             id="path4589-7-7" />
          <path
             inkscape:connector-curvature="0"
             d="m 156.72263,150.00011 h 9.58632"
             style="fill:none;stroke:#000000;stroke-width:1;stroke-linecap:round;stroke-linejoin:round;stroke-miterlimit:4;stroke-dasharray:1.00000003, 2.00000006;stroke-dashoffset:0.30000001"
             inkscape:label="none"
             id="path4589-7-7-7" />
        </g>
      </g>
      <g
         transform="matrix(0,-0.35507636,0.35507636,0,-55.168372,309.70034)"
         inkscape:label="Source"
         id="g4631-0">
        <g
           inkscape:label="Source"
           id="g4611-9">
          <path
             inkscape:connector-curvature="0"
             d="m 134.14235,150 h 9.58632"
             style="fill:none;stroke:#000000;stroke-width:1;stroke-linecap:round;stroke-linejoin:round;stroke-miterlimit:4;stroke-dasharray:none"
             inkscape:label="none"
             id="path4589-3" />
          <path
             inkscape:connector-curvature="0"
             d="m 151.79715,146 h -2"
             style="fill:none;stroke:#000000;stroke-width:0.60000002;stroke-linecap:round;stroke-linejoin:round;stroke-dasharray:none"
             inkscape:label="none"
             id="path4593-60" />
          <path
             inkscape:connector-curvature="0"
             d="m 150.79715,145 v 2"
             style="fill:none;stroke:#000000;stroke-width:0.60000002;stroke-linecap:round;stroke-linejoin:round;stroke-dasharray:none"
             inkscape:label="none"
             id="path4595-6" />
          <path
             inkscape:connector-curvature="0"
             d="m 140.79291,145 v 2"
             style="fill:none;stroke:#000000;stroke-width:0.60000002;stroke-linecap:round;stroke-linejoin:round;stroke-dasharray:none"
             inkscape:label="none"
             id="path4597-2" />
          <path
             inkscape:connector-curvature="0"
             d="m 144,153 v -6"
             style="fill:none;stroke:#000000;stroke-width:1;stroke-linecap:round;stroke-linejoin:round;stroke-dasharray:none"
             inkscape:label="none"
             id="path4603-6" />
          <path
             inkscape:connector-curvature="0"
             d="M 147,157 V 143"
             style="fill:none;stroke:#000000;stroke-width:1;stroke-linecap:round;stroke-linejoin:round;stroke-dasharray:none"
             inkscape:label="none"
             id="path4605-1" />
          <path
             inkscape:connector-curvature="0"
             d="m 147.13631,150.00011 h 9.58632"
             style="fill:none;stroke:#000000;stroke-width:1;stroke-linecap:round;stroke-linejoin:round;stroke-miterlimit:4;stroke-dasharray:none"
             inkscape:label="none"
             id="path4589-7-8" />
        </g>
      </g>
      <rect
         style="fill:#ffffff;fill-opacity:1;stroke:url(#linearGradient4956);stroke-width:0.33022365;stroke-linecap:round;stroke-linejoin:round;stroke-miterlimit:4;stroke-dasharray:none;stroke-dashoffset:1.13385832"
         id="rect4950"
         width="29.669777"
         height="29.52405"
         x="4.2700605"
         y="253.17224" />
      <path
         style="fill:none;stroke:#000000;stroke-width:0.355;stroke-linecap:butt;stroke-linejoin:miter;stroke-miterlimit:4;stroke-dasharray:none;stroke-opacity:1"
         d="M -1.9068792,254.05184 H 4.0714272"
         id="path4958"
         inkscape:connector-curvature="0" />
      <path
         style="fill:none;stroke:#000000;stroke-width:0.35507634;stroke-linecap:butt;stroke-linejoin:miter;stroke-miterlimit:4;stroke-dasharray:none;stroke-opacity:1"
         d="m -1.9069999,281.50889 h 6.025878"
         id="path4960"
         inkscape:connector-curvature="0" />
      <path
         style="fill:none;stroke:#000000;stroke-width:0.35507634;stroke-linecap:butt;stroke-linejoin:miter;stroke-miterlimit:4;stroke-dasharray:none;stroke-opacity:1"
         d="M -1.9069218,262.06957 H 4.0713849"
         id="path4958-9"
         inkscape:connector-curvature="0" />
      <path
         style="fill:none;stroke:#000000;stroke-width:0.35507634;stroke-linecap:butt;stroke-linejoin:miter;stroke-miterlimit:4;stroke-dasharray:none;stroke-opacity:1"
         d="M -1.9069218,265.47344 H 4.0713845"
         id="path4958-2"
         inkscape:connector-curvature="0" />
      <path
         style="fill:none;stroke:#000000;stroke-width:0.35507634;stroke-linecap:butt;stroke-linejoin:miter;stroke-miterlimit:4;stroke-dasharray:none;stroke-opacity:1"
         d="M -1.9069609,273.49117 H 4.0713457"
         id="path4958-0"
         inkscape:connector-curvature="0" />
      <flowRoot
         xml:space="preserve"
         id="flowRoot4989"
         style="fill:black;fill-opacity:1;stroke:none;font-family:sans-serif;font-style:normal;font-weight:normal;font-size:40px;line-height:1.25;letter-spacing:0px;word-spacing:0px"><flowRegion
           id="flowRegion4991"><rect
             id="rect4993"
             width="299.28571"
             height="252.14285"
             x="-8.5714283"
             y="12.424067" /></flowRegion><flowPara
           id="flowPara4995"></flowPara></flowRoot>      <g
         transform="matrix(0,-0.3550866,0.35323829,0,-54.906068,291.99931)"
         inkscape:label="Source"
         id="g4631-7">
        <g
           inkscape:label="Source"
           id="g4611-5">
          <path
             inkscape:connector-curvature="0"
             d="m 134.14235,150 h 9.58632"
             style="fill:none;stroke:#000000;stroke-width:1;stroke-linecap:round;stroke-linejoin:round;stroke-miterlimit:4;stroke-dasharray:none"
             inkscape:label="none"
             id="path4589-9" />
          <path
             inkscape:connector-curvature="0"
             d="m 151.79715,146 h -2"
             style="fill:none;stroke:#000000;stroke-width:0.60000002;stroke-linecap:round;stroke-linejoin:round;stroke-dasharray:none"
             inkscape:label="none"
             id="path4593-2" />
          <path
             inkscape:connector-curvature="0"
             d="m 150.79715,145 v 2"
             style="fill:none;stroke:#000000;stroke-width:0.60000002;stroke-linecap:round;stroke-linejoin:round;stroke-dasharray:none"
             inkscape:label="none"
             id="path4595-28" />
          <path
             inkscape:connector-curvature="0"
             d="m 140.79291,145 v 2"
             style="fill:none;stroke:#000000;stroke-width:0.60000002;stroke-linecap:round;stroke-linejoin:round;stroke-dasharray:none"
             inkscape:label="none"
             id="path4597-97" />
          <path
             inkscape:connector-curvature="0"
             d="m 144,153 v -6"
             style="fill:none;stroke:#000000;stroke-width:1;stroke-linecap:round;stroke-linejoin:round;stroke-dasharray:none"
             inkscape:label="none"
             id="path4603-3" />
          <path
             inkscape:connector-curvature="0"
             d="M 147,157 V 143"
             style="fill:none;stroke:#000000;stroke-width:1;stroke-linecap:round;stroke-linejoin:round;stroke-dasharray:none"
             inkscape:label="none"
             id="path4605-6" />
          <path
             inkscape:connector-curvature="0"
             d="m 147.13631,150.00011 h 9.58632"
             style="fill:none;stroke:#000000;stroke-width:1;stroke-linecap:round;stroke-linejoin:round;stroke-miterlimit:4;stroke-dasharray:none"
             inkscape:label="none"
             id="path4589-7-1" />
        </g>
      </g>
      <g
         transform="matrix(0,-0.3550866,0.35323829,0,-54.906029,283.98136)"
         inkscape:label="Source"
         id="g4631-5-2">
        <g
           inkscape:label="Source"
           id="g4611-3-9">
          <path
             inkscape:connector-curvature="0"
             d="m 134.14235,150 h 9.58632"
             style="fill:none;stroke:#000000;stroke-width:1;stroke-linecap:round;stroke-linejoin:round;stroke-miterlimit:4;stroke-dasharray:none"
             inkscape:label="none"
             id="path4589-5-3" />
          <path
             inkscape:connector-curvature="0"
             d="m 151.79715,146 h -2"
             style="fill:none;stroke:#000000;stroke-width:0.60000002;stroke-linecap:round;stroke-linejoin:round;stroke-dasharray:none"
             inkscape:label="none"
             id="path4593-6-1" />
          <path
             inkscape:connector-curvature="0"
             d="m 150.79715,145 v 2"
             style="fill:none;stroke:#000000;stroke-width:0.60000002;stroke-linecap:round;stroke-linejoin:round;stroke-dasharray:none"
             inkscape:label="none"
             id="path4595-2-9" />
          <path
             inkscape:connector-curvature="0"
             d="m 140.79291,145 v 2"
             style="fill:none;stroke:#000000;stroke-width:0.60000002;stroke-linecap:round;stroke-linejoin:round;stroke-dasharray:none"
             inkscape:label="none"
             id="path4597-9-4" />
          <path
             inkscape:connector-curvature="0"
             d="m 144,153 v -6"
             style="fill:none;stroke:#000000;stroke-width:1;stroke-linecap:round;stroke-linejoin:round;stroke-dasharray:none"
             inkscape:label="none"
             id="path4603-1-7" />
          <path
             inkscape:connector-curvature="0"
             d="M 147,157 V 143"
             style="fill:none;stroke:#000000;stroke-width:1;stroke-linecap:round;stroke-linejoin:round;stroke-dasharray:none"
             inkscape:label="none"
             id="path4605-2-8" />
          <path
             inkscape:connector-curvature="0"
             d="m 147.13631,150.00011 h 9.58632"
             style="fill:none;stroke:#000000;stroke-width:1;stroke-linecap:round;stroke-linejoin:round;stroke-miterlimit:4;stroke-dasharray:none"
             inkscape:label="none"
             id="path4589-7-7-4" />
          <path
             inkscape:connector-curvature="0"
             d="m 156.72263,150.00011 h 9.58632"
             style="fill:none;stroke:#000000;stroke-width:1;stroke-linecap:round;stroke-linejoin:round;stroke-miterlimit:4;stroke-dasharray:1.00000003, 2.00000006;stroke-dashoffset:0.30000001"
             inkscape:label="none"
             id="path4589-7-7-7-5" />
        </g>
      </g>
      <g
         transform="matrix(0,-0.3550866,0.35323829,0,-54.905987,272.55942)"
         inkscape:label="Source"
         id="g4631-0-0">
        <g
           inkscape:label="Source"
           id="g4611-9-3">
          <path
             inkscape:connector-curvature="0"
             d="m 134.14235,150 h 9.58632"
             style="fill:none;stroke:#000000;stroke-width:1;stroke-linecap:round;stroke-linejoin:round;stroke-miterlimit:4;stroke-dasharray:none"
             inkscape:label="none"
             id="path4589-3-6" />
          <path
             inkscape:connector-curvature="0"
             d="m 151.79715,146 h -2"
             style="fill:none;stroke:#000000;stroke-width:0.60000002;stroke-linecap:round;stroke-linejoin:round;stroke-dasharray:none"
             inkscape:label="none"
             id="path4593-60-1" />
          <path
             inkscape:connector-curvature="0"
             d="m 150.79715,145 v 2"
             style="fill:none;stroke:#000000;stroke-width:0.60000002;stroke-linecap:round;stroke-linejoin:round;stroke-dasharray:none"
             inkscape:label="none"
             id="path4595-6-0" />
          <path
             inkscape:connector-curvature="0"
             d="m 140.79291,145 v 2"
             style="fill:none;stroke:#000000;stroke-width:0.60000002;stroke-linecap:round;stroke-linejoin:round;stroke-dasharray:none"
             inkscape:label="none"
             id="path4597-2-6" />
          <path
             inkscape:connector-curvature="0"
             d="m 144,153 v -6"
             style="fill:none;stroke:#000000;stroke-width:1;stroke-linecap:round;stroke-linejoin:round;stroke-dasharray:none"
             inkscape:label="none"
             id="path4603-6-3" />
          <path
             inkscape:connector-curvature="0"
             d="M 147,157 V 143"
             style="fill:none;stroke:#000000;stroke-width:1;stroke-linecap:round;stroke-linejoin:round;stroke-dasharray:none"
             inkscape:label="none"
             id="path4605-1-2" />
          <path
             inkscape:connector-curvature="0"
             d="m 147.13631,150.00011 h 9.58632"
             style="fill:none;stroke:#000000;stroke-width:1;stroke-linecap:round;stroke-linejoin:round;stroke-miterlimit:4;stroke-dasharray:none"
             inkscape:label="none"
             id="path4589-7-8-0" />
        </g>
      </g>
      <rect
         style="fill:#ffffff;fill-opacity:1;stroke:url(#linearGradient4956-2);stroke-width:0.32937258;stroke-linecap:round;stroke-linejoin:round;stroke-miterlimit:4;stroke-dasharray:none;stroke-dashoffset:1.13385832"
         id="rect4950-6"
         width="29.516191"
         height="29.5249"
         x="4.2247615"
         y="216.02968" />
      <path
         style="fill:none;stroke:#000000;stroke-width:0.35408506;stroke-linecap:butt;stroke-linejoin:miter;stroke-miterlimit:4;stroke-dasharray:none;stroke-opacity:1"
         d="M -1.9202038,216.90932 H 4.0271557"
         id="path4958-1"
         inkscape:connector-curvature="0" />
      <path
         style="fill:none;stroke:#000000;stroke-width:0.354;stroke-linecap:butt;stroke-linejoin:miter;stroke-miterlimit:4;stroke-dasharray:none;stroke-opacity:1"
         d="M -1.9203242,244.36717 H 4.074361"
         id="path4960-5"
         inkscape:connector-curvature="0" />
      <path
         style="fill:none;stroke:#000000;stroke-width:0.3541612;stroke-linecap:butt;stroke-linejoin:miter;stroke-miterlimit:4;stroke-dasharray:none;stroke-opacity:1"
         d="M -1.9202466,224.92729 H 4.0271137"
         id="path4958-9-5"
         inkscape:connector-curvature="0" />
      <path
         style="fill:none;stroke:#000000;stroke-width:0.3541612;stroke-linecap:butt;stroke-linejoin:miter;stroke-miterlimit:4;stroke-dasharray:none;stroke-opacity:1"
         d="m -1.9202466,228.33124 h 5.94736"
         id="path4958-2-4"
         inkscape:connector-curvature="0" />
      <path
         style="fill:none;stroke:#000000;stroke-width:0.3541612;stroke-linecap:butt;stroke-linejoin:miter;stroke-miterlimit:4;stroke-dasharray:none;stroke-opacity:1"
         d="M -1.9202854,236.34921 H 4.0270747"
         id="path4958-0-7"
         inkscape:connector-curvature="0" />
      <text
         xml:space="preserve"
         style="font-style:normal;font-weight:normal;font-size:4.22242308px;line-height:1.25;font-family:sans-serif;text-align:center;letter-spacing:0px;word-spacing:0px;text-anchor:middle;fill:#000000;fill-opacity:1;stroke:none;stroke-width:0.26390144"
         x="18.976461"
         y="228.56909"
         id="text4999-6"
         transform="scale(0.997394,1.0026128)"><tspan
           sodipodi:role="line"
           id="tspan4997-5"
           x="18.976461"
           y="228.56909"
           style="font-size:4.22242308px;text-align:center;text-anchor:middle;stroke-width:0.26390144">Master</tspan><tspan
           sodipodi:role="line"
           x="18.976461"
           y="233.84712"
           style="font-size:4.22242308px;text-align:center;text-anchor:middle;stroke-width:0.26390144"
           id="tspan5207">Modul</tspan></text>
      <path
         style="fill:none;stroke:#000000;stroke-width:0.354;stroke-linecap:butt;stroke-linejoin:miter;stroke-opacity:1;stroke-miterlimit:4;stroke-dasharray:none"
         d="m -1.9203244,244.36717 v 9.69364"
         id="path5185"
         inkscape:connector-curvature="0" />
      <path
         style="fill:none;stroke:#000000;stroke-width:0.26458332px;stroke-linecap:butt;stroke-linejoin:miter;stroke-opacity:1"
         d="m 19.059697,245.575 v 7.58378"
         id="path5187"
         inkscape:connector-curvature="0" />
      <text
         xml:space="preserve"
         style="font-style:normal;font-weight:normal;font-size:4.22242308px;line-height:1.25;font-family:sans-serif;letter-spacing:0px;word-spacing:0px;fill:#000000;fill-opacity:1;stroke:none;stroke-width:0.26390144"
         x="20.331154"
         y="250.03545"
         id="text4999-6-6"
         transform="scale(0.997394,1.0026128)"><tspan
           sodipodi:role="line"
           id="tspan4997-5-9"
           x="20.331154"
           y="250.03545"
           style="font-size:4.22242308px;stroke-width:0.26390144">Kommunikation</tspan></text>
      <text
         xml:space="preserve"
         style="font-style:normal;font-weight:normal;font-size:4.22242308px;line-height:1.25;font-family:sans-serif;text-align:center;letter-spacing:0px;word-spacing:0px;text-anchor:middle;fill:#000000;fill-opacity:1;stroke:none;stroke-width:0.26390144"
         x="19.200819"
         y="266.18109"
         id="text4999-6-3"
         transform="scale(0.997394,1.0026128)"><tspan
           sodipodi:role="line"
           id="tspan4997-5-7"
           x="19.200819"
           y="266.18109"
           style="font-size:4.22242308px;text-align:center;text-anchor:middle;stroke-width:0.26390144">Slave</tspan><tspan
           sodipodi:role="line"
           x="19.200819"
           y="271.45911"
           style="font-size:4.22242308px;text-align:center;text-anchor:middle;stroke-width:0.26390144"
           id="tspan5207-4">Modul</tspan></text>
    </g>
  </g>
</svg>
