\relax 
\@writefile{toc}{\contentsline {chapter}{\numberline {1}Untersuchung der Balancingwiderst\"ande}{3}}
\@writefile{lof}{\addvspace {10\p@ }}
\@writefile{lot}{\addvspace {10\p@ }}
\@writefile{toc}{\contentsline {section}{\numberline {1.1}Balancing in der Batterie Management System [BMS]}{4}}
\@writefile{toc}{\contentsline {subsection}{\numberline {1.1.1}Hierarchische BMS Modulaufbau Kurzbeschreibung}{4}}
\bibdata{my_literature}
\@writefile{toc}{\contentsline {subsection}{\numberline {1.1.2}Performance der Ausgleichswiderstand}{5}}
\@writefile{toc}{\contentsline {subsubsection}{Aktiver Temperaturmanagement}{5}}
\@writefile{toc}{\contentsline {subsubsection}{Passiver Temperaturmanagement}{5}}
\@writefile{toc}{\contentsline {subsection}{\numberline {1.1.3}Ausgleichssystemaufbau}{5}}
\@writefile{toc}{\contentsline {section}{\numberline {1.2}Feedback}{5}}
\@writefile{toc}{\contentsline {subsection}{\numberline {1.2.1}Ausgleichssystem Fehlern}{5}}
\@writefile{toc}{\contentsline {section}{\numberline {1.3}Selbsttest}{5}}
\@writefile{toc}{\contentsline {section}{\numberline {1.4}Aufforderungen}{5}}
\@writefile{toc}{\contentsline {section}{\numberline {1.5}Balancing Strategie}{5}}
\@writefile{toc}{\contentsline {chapter}{Literatur}{5}}
\bibstyle{alphadin}
