\contentsline {chapter}{\numberline {1}Untersuchung der Balancingwiderst\"ande}{3}
\contentsline {section}{\numberline {1.1}Balancing in der Batterie Management System [BMS]}{4}
\contentsline {subsection}{\numberline {1.1.1}Hierarchische BMS Modulaufbau Kurzbeschreibung}{4}
\contentsline {subsection}{\numberline {1.1.2}Performance der Ausgleichswiderstand}{5}
\contentsline {subsubsection}{Aktiver Temperaturmanagement}{5}
\contentsline {subsubsection}{Passiver Temperaturmanagement}{5}
\contentsline {subsection}{\numberline {1.1.3}Ausgleichssystemaufbau}{5}
\contentsline {section}{\numberline {1.2}Feedback}{5}
\contentsline {subsection}{\numberline {1.2.1}Ausgleichssystem Fehlern}{5}
\contentsline {section}{\numberline {1.3}Selbsttest}{5}
\contentsline {section}{\numberline {1.4}Aufforderungen}{5}
\contentsline {section}{\numberline {1.5}Balancing Strategie}{5}
\contentsline {chapter}{Literatur}{5}
